OpticalTests/.Xil/Vivado-3826-higgs.physics.ucsb.edu/hw_ila_data_1/zip_work/waveform.vcd
$date
        2021-Nov-07 11:53:58
$end
$version
        Vivado v2019.2 (64-bit)
$end
$timescale
        1ps
$end
$scope module dut $end
$var reg 32 " receiver_0 [31:0] $end
$var reg 256 B ila_data [255:0] $end
$var reg 32 ($ userdata_rx_0 [31:0] $end
$var reg 32 H$ receiver_1 [31:0] $end
$var reg 32 h$ userdata_rx_1 [31:0] $end
$var reg 32 *% receiver_2 [31:0] $end
$var reg 32 J% userdata_rx_2 [31:0] $end
$var reg 32 j% receiver_3 [31:0] $end
$var reg 32 ,& userdata_rx_3 [31:0] $end
$var reg 32 L& transmitter_0 [31:0] $end
$var reg 32 l& userdata_tx_0 [31:0] $end
$var reg 32 .' transmitter_1 [31:0] $end
$var reg 32 N' userdata_tx_1 [31:0] $end
$var reg 32 n' transmitter_2 [31:0] $end
$var reg 32 0( userdata_tx_2 [31:0] $end
$var reg 32 P( userdata_tx_3 [31:0] $end
$var reg 32 p( transmitter_3 [31:0] $end
$var reg 1 2) _TRIGGER $end
$var reg 1 3) _WINDOW $end
$var reg 1 4) _GAP $end
$upscope $end
$enddefinitions $end
#0
$dumpvars
b11111010010001000101000000111100 "
b101101101001001000111000110101101010000001111000001110001101011010100000011110000000101101110010101000000111100111110100100011011100101011010101010000010011101011010101010000001010000001111000000010110111011010100000011110011111010010001000101000000111100 B
b11111010010001000101000000111100 ($
b101101110110101000000111100 H$
b101101110110101000000111100 h$
b1101010101000000101000000111100 *%
b1101010101000000101000000111100 J%
b11100101011010101010000010011101 j%
b11100101011010101010000010011101 ,&
b1010000001111001111101001000110 L&
b1010000001111001111101001000110 l&
b1010000001111000000010110111001 .'
b1010000001111000000010110111001 N'
b1010000001111000001110001101011 n'
b1010000001111000001110001101011 0(
b1011011010010010001110001101011 P(
b1011011010010010001110001101011 p(
02)
13)
04)
$end
#1
b11111010010001010101000000111100 "
b111011011011011010010110011100101010000001111000100101100111001010100000011110000000101101110000101000000111100111110100100011101100101011110000001101100100100011110000001101101010000001111000000010110111010010100000011110011111010010001010101000000111100 B
b11111010010001010101000000111100 ($
b101101110100101000000111100 H$
b101101110100101000000111100 h$
b1111000000110110101000000111100 *%
b1111000000110110101000000111100 J%
b1100101011110000001101100100100 j%
b1100101011110000001101100100100 ,&
b1010000001111001111101001000111 L&
b1010000001111001111101001000111 l&
b1010000001111000000010110111000 .'
b1010000001111000000010110111000 N'
b1010000001111000100101100111001 n'
b1010000001111000100101100111001 0(
b1110110110110110100101100111001 P(
b1110110110110110100101100111001 p(
#2
b11111010010001100101000000111100 "
b11111011100101010001011001100101010000001111000100010110011001010100000011110000000101101101110101000000111100111110100100100011111010110001001011101111111110110101001011001101010000001111000000010110111001010100000011110011111010010001100101000000111100 B
b11111010010001100101000000111100 ($
b101101110010101000000111100 H$
b101101110010101000000111100 h$
b11010100101100110101000000111100 *%
b11010100101100110101000000111100 J%
b11111010110001001011101111111110 j%
b11111010110001001011101111111110 ,&
b1010000001111001111101001001000 L&
b1010000001111001111101001001000 l&
b1010000001111000000010110110111 .'
b1010000001111000000010110110111 N'
b1010000001111000100010110011001 n'
b1010000001111000100010110011001 0(
b111110111001010100010110011001 P(
b111110111001010100010110011001 p(
#3
b11111010010001110101000000111100 "
b1110101110001000001001101001010000001111000010000010011010010100000011110000000101101101100101000000111100111110100100100110001101001100111001101000100101001100111001101001010000001111000000010110111000010100000011110011111010010001110101000000111100 B
b11111010010001110101000000111100 ($
b101101110000101000000111100 H$
b101101110000101000000111100 h$
b110011100110100101000000111100 *%
b110011100110100101000000111100 J%
b10001101001100111001101000100101 j%
b10001101001100111001101000100101 ,&
b1010000001111001111101001001001 L&
b1010000001111001111101001001001 l&
b1010000001111000000010110110110 .'
b1010000001111000000010110110110 N'
b1010000001111000010000010011010 n'
b1010000001111000010000010011010 0(
b11101011100010000010011010 P(
b11101011100010000010011010 p(
#4
b11111010010010000101000000111100 "
b11010000101001011010100101000101010000001111000110101001010001010100000011110000000101101101010101000000111100111110100100101011001101110010100000011111101011110010100000011101010000001111000000010110110111010100000011110011111010010010000101000000111100 B
b11111010010010000101000000111100 ($
b101101101110101000000111100 H$
b101101101110101000000111100 h$
b11001010000001110101000000111100 *%
b11001010000001110101000000111100 J%
b11001101110010100000011111101011 j%
b11001101110010100000011111101011 ,&
b1010000001111001111101001001010 L&
b1010000001111001111101001001010 l&
b1010000001111000000010110110101 .'
b1010000001111000000010110110101 N'
b1010000001111000110101001010001 n'
b1010000001111000110101001010001 0(
b110100001010010110101001010001 P(
b110100001010010110101001010001 p(
#5
b11111010010010010101000000111100 "
b100100100110101000100100110100001010000001111000001001001101000010100000011110000000101101101000101000000111100111110100100101110110001101101011111111000011010101101011111111001010000001111000000010110110110010100000011110011111010010010010101000000111100 B
b11111010010010010101000000111100 ($
b101101101100101000000111100 H$
b101101101100101000000111100 h$
b10110101111111100101000000111100 *%
b10110101111111100101000000111100 J%
b10110001101101011111111000011010 j%
b10110001101101011111111000011010 ,&
b1010000001111001111101001001011 L&
b1010000001111001111101001001011 l&
b1010000001111000000010110110100 .'
b1010000001111000000010110110100 N'
b1010000001111000001001001101000 n'
b1010000001111000001001001101000 0(
b1001001001101010001001001101000 P(
b1001001001101010001001001101000 p(
#6
b11111010010010100101000000111100 "
b1000110110001010100010001000101101010000001111001000100010001011010100000011110000000101101100110101000000111100111110100100110001100000011101100011101000101000011101100011101001010000001111000000010110110101010100000011110011111010010010100101000000111100 B
b11111010010010100101000000111100 ($
b101101101010101000000111100 H$
b101101101010101000000111100 h$
b1110110001110100101000000111100 *%
b1110110001110100101000000111100 J%
b1100000011101100011101000101000 j%
b1100000011101100011101000101000 ,&
b1010000001111001111101001001100 L&
b1010000001111001111101001001100 l&
b1010000001111000000010110110011 .'
b1010000001111000000010110110011 N'
b1010000001111001000100010001011 n'
b1010000001111001000100010001011 0(
b10001101100010101000100010001011 P(
b10001101100010101000100010001011 p(
#7
b11111010010010110101000000111100 "
b111000001101011111000110111100101010000001111001110001101111001010100000011110000000101101100100101000000111100111110100100110100101001000001111011001100000001000101111001101101010000001111000000010110110100010100000011110011111010010010110101000000111100 B
b11111010010010110101000000111100 ($
b101101101000101000000111100 H$
b101101101000101000000111100 h$
b10111100110110101000000111100 *%
b10111100110110101000000111100 J%
b101001000001111011001100000001 j%
b101001000001111011001100000001 ,&
b1010000001111001111101001001101 L&
b1010000001111001111101001001101 l&
b1010000001111000000010110110010 .'
b1010000001111000000010110110010 N'
b1010000001111001110001101111001 n'
b1010000001111001110001101111001 0(
b1110000011010111110001101111001 P(
b1110000011010111110001101111001 p(
#8
b11111010010011000101000000111100 "
b1001010110010100000000011110110001010000001111000000000111101100010100000011110000000101101100010101000000111100111110100100111000100011010010110000000110100010010010110000000101010000001111000000010110110011010100000011110011111010010011000101000000111100 B
b11111010010011000101000000111100 ($
b101101100110101000000111100 H$
b101101100110101000000111100 h$
b1001011000000010101000000111100 *%
b1001011000000010101000000111100 J%
b100011010010110000000110100010 j%
b100011010010110000000110100010 ,&
b1010000001111001111101001001110 L&
b1010000001111001111101001001110 l&
b1010000001111000000010110110001 .'
b1010000001111000000010110110001 N'
b1010000001111000000000111101100 n'
b1010000001111000000000111101100 0(
b10010101100101000000000111101100 P(
b10010101100101000000000111101100 p(
#9
b11111010010011010101000000111100 "
b11100101110000011100111101101101010000001111000111001111011011010100000011110000000101101100000101000000111100111110100100111111000111110100011111011110010111110100011111011101010000001111000000010110110010010100000011110011111010010011010101000000111100 B
b11111010010011010101000000111100 ($
b101101100100101000000111100 H$
b101101100100101000000111100 h$
b11010001111101110101000000111100 *%
b11010001111101110101000000111100 J%
b11000111110100011111011110010111 j%
b11000111110100011111011110010111 ,&
b1010000001111001111101001001111 L&
b1010000001111001111101001001111 l&
b1010000001111000000010110110000 .'
b1010000001111000000010110110000 N'
b1010000001111000111001111011011 n'
b1010000001111000111001111011011 0(
b111001011100000111001111011011 P(
b111001011100000111001111011011 p(
#10
b11111010010011100101000000111100 "
b1011100011000100101100100011010001010000001111001011001000110100010100000011110000000101101011110101000000111100111110100101000010111101011010111011110101011000011010111011110101010000001111000000010110110001010100000011110011111010010011100101000000111100 B
b11111010010011100101000000111100 ($
b101101100010101000000111100 H$
b101101100010101000000111100 h$
b1101011101111010101000000111100 *%
b1101011101111010101000000111100 J%
b10111101011010111011110101011000 j%
b10111101011010111011110101011000 ,&
b1010000001111001111101001010000 L&
b1010000001111001111101001010000 l&
b1010000001111000000010110101111 .'
b1010000001111000000010110101111 N'
b1010000001111001011001000110100 n'
b1010000001111001011001000110100 0(
b10111000110001001011001000110100 P(
b10111000110001001011001000110100 p(
#11
b11111010010011110101000000111100 "
b10110100110001101111000000101001010000001111001011110000001010010100000011110000000101101011100101000000111100111110100101000101000101011000011011001111100100011000011011001101010000001111000000010110110000010100000011110011111010010011110101000000111100 B
b11111010010011110101000000111100 ($
b101101100000101000000111100 H$
b101101100000101000000111100 h$
b1100001101100110101000000111100 *%
b1100001101100110101000000111100 J%
b1000101011000011011001111100100 j%
b1000101011000011011001111100100 ,&
b1010000001111001111101001010001 L&
b1010000001111001111101001010001 l&
b1010000001111000000010110101110 .'
b1010000001111000000010110101110 N'
b1010000001111001011110000001010 n'
b1010000001111001011110000001010 0(
b101101001100011011110000001010 P(
b101101001100011011110000001010 p(
#12
b11111010010100000101000000111100 "
b1010101010010101111110011000101010000001111001011111100110001010100000011110000000101101011010101000000111100111110100101001001111111110111101001110110111011110111101000110101010000001111000000010110101111010100000011110011111010010100000101000000111100 B
b11111010010100000101000000111100 ($
b101101011110101000000111100 H$
b101101011110101000000111100 h$
b11011110100011010101000000111100 *%
b11011110100011010101000000111100 J%
b1111111110111101001110110111011 j%
b1111111110111101001110110111011 ,&
b1010000001111001111101001010010 L&
b1010000001111001111101001010010 l&
b1010000001111000000010110101101 .'
b1010000001111000000010110101101 N'
b1010000001111001011111100110001 n'
b1010000001111001011111100110001 0(
b10101010100101011111100110001 P(
b10101010100101011111100110001 p(
#13
b11111010010100010101000000111100 "
b101101011111001110011000001010000001111001110011100110000010100000011110000000101101011000101000000111100111110100101001100010001010010011101000000101111010010011101000001010000001111000000010110101110010100000011110011111010010100010101000000111100 B
b11111010010100010101000000111100 ($
b101101011100101000000111100 H$
b101101011100101000000111100 h$
b1001001110100000101000000111100 *%
b1001001110100000101000000111100 J%
b10001010010011101000000101111 j%
b10001010010011101000000101111 ,&
b1010000001111001111101001010011 L&
b1010000001111001111101001010011 l&
b1010000001111000000010110101100 .'
b1010000001111000000010110101100 N'
b1010000001111001110011100110000 n'
b1010000001111001110011100110000 0(
b1011010111110011100110000 P(
b1011010111110011100110000 p(
#14
b11111010010100100101000000111100 "
b1111111000010110000100100011101010000001111001100001001000111010100000011110000000101101010110101000000111100111110100101010000011010100011001001100101110101100011001001100101010000001111000000010110101101010100000011110011111010010100100101000000111100 B
b11111010010100100101000000111100 ($
b101101011010101000000111100 H$
b101101011010101000000111100 h$
b10001100100110010101000000111100 *%
b10001100100110010101000000111100 J%
b11010100011001001100101110101 j%
b11010100011001001100101110101 ,&
b1010000001111001111101001010100 L&
b1010000001111001111101001010100 l&
b1010000001111000000010110101011 .'
b1010000001111000000010110101011 N'
b1010000001111001100001001000111 n'
b1010000001111001100001001000111 0(
b11111110000101100001001000111 P(
b11111110000101100001001000111 p(
#15
b11111010010100110101000000111100 "
b1111011001110101101001110010101010000001111001011010011100101010100000011110000000101101010100101000000111100111110100101010100011011100101001110101111110001100101001110101101010000001111000000010110101100010100000011110011111010010100110101000000111100 B
b11111010010100110101000000111100 ($
b101101011000101000000111100 H$
b101101011000101000000111100 h$
b10010100111010110101000000111100 *%
b10010100111010110101000000111100 J%
b11011100101001110101111110001 j%
b11011100101001110101111110001 ,&
b1010000001111001111101001010101 L&
b1010000001111001111101001010101 l&
b1010000001111000000010110101010 .'
b1010000001111000000010110101010 N'
b1010000001111001011010011100101 n'
b1010000001111001011010011100101 0(
b11110110011101011010011100101 P(
b11110110011101011010011100101 p(
#16
b11111010010101000101000000111100 "
b11001110101011100110110010001010000001111000111001101100100010100000011110000000101101010010101000000111100111110100101011000000110011100000111001100111110011100000111001101010000001111000000010110101011010100000011110011111010010101000101000000111100 B
b11111010010101000101000000111100 ($
b101101010110101000000111100 H$
b101101010110101000000111100 h$
b1110000011100110101000000111100 *%
b1110000011100110101000000111100 J%
b110011100000111001100111110 j%
b110011100000111001100111110 ,&
b1010000001111001111101001010110 L&
b1010000001111001111101001010110 l&
b1010000001111000000010110101001 .'
b1010000001111000000010110101001 N'
b1010000001111000111001101100100 n'
b1010000001111000111001101100100 0(
b110011101010111001101100100 P(
b110011101010111001101100100 p(
#17
b11111010010101010101000000111100 "
b1111111000011011111111010101110001010000001111001111110101011100010100000011110000000101101010000101000000111100111110100101011100111110100011110010101100010000000011110010101101010000001111000000010110101010010100000011110011111010010101010101000000111100 B
b11111010010101010101000000111100 ($
b101101010100101000000111100 H$
b101101010100101000000111100 h$
b1111001010110101000000111100 *%
b1111001010110101000000111100 J%
b111110100011110010101100010000 j%
b111110100011110010101100010000 ,&
b1010000001111001111101001010111 L&
b1010000001111001111101001010111 l&
b1010000001111000000010110101000 .'
b1010000001111000000010110101000 N'
b1010000001111001111110101011100 n'
b1010000001111001111110101011100 0(
b11111110000110111111110101011100 P(
b11111110000110111111110101011100 p(
#18
b11111010010101100101000000111100 "
b1100100100011110010100011001010101010000001111000101000110010101010100000011110000000101101001110101000000111100111110100101100000110011010111011111101101101011010111011111101101010000001111000000010110101001010100000011110011111010010101100101000000111100 B
b11111010010101100101000000111100 ($
b101101010010101000000111100 H$
b101101010010101000000111100 h$
b1011101111110110101000000111100 *%
b1011101111110110101000000111100 J%
b110011010111011111101101101011 j%
b110011010111011111101101101011 ,&
b1010000001111001111101001011000 L&
b1010000001111001111101001011000 l&
b1010000001111000000010110100111 .'
b1010000001111000000010110100111 N'
b1010000001111000101000110010101 n'
b1010000001111000101000110010101 0(
b11001001000111100101000110010101 P(
b11001001000111100101000110010101 p(
#19
b11111010010101110101000000111100 "
b100000001001101010100011110110001010000001111000101000111101100010100000011110000000101101001100101000000111100111110100101100111100011110010000100100111110111110010000100100101010000001111000000010110101000010100000011110011111010010101110101000000111100 B
b11111010010101110101000000111100 ($
b101101010000101000000111100 H$
b101101010000101000000111100 h$
b11001000010010010101000000111100 *%
b11001000010010010101000000111100 J%
b11100011110010000100100111110111 j%
b11100011110010000100100111110111 ,&
b1010000001111001111101001011001 L&
b1010000001111001111101001011001 l&
b1010000001111000000010110100110 .'
b1010000001111000000010110100110 N'
b1010000001111000101000111101100 n'
b1010000001111000101000111101100 0(
b1000000010011010101000111101100 P(
b1000000010011010101000111101100 p(
#20
b11111010010110000101000000111100 "
b1111001010001101100011101010011001010000001111001000111010100110010100000011110000000101101001010101000000111100111110100101101011011100100100111101001011000000100100111101001001010000001111000000010110100111010100000011110011111010010110000101000000111100 B
b11111010010110000101000000111100 ($
b101101001110101000000111100 H$
b101101001110101000000111100 h$
b10010011110100100101000000111100 *%
b10010011110100100101000000111100 J%
b11011100100100111101001011000000 j%
b11011100100100111101001011000000 ,&
b1010000001111001111101001011010 L&
b1010000001111001111101001011010 l&
b1010000001111000000010110100101 .'
b1010000001111000000010110100101 N'
b1010000001111001000111010100110 n'
b1010000001111001000111010100110 0(
b11110010100011011000111010100110 P(
b11110010100011011000111010100110 p(
#21
b11111010010110010101000000111100 "
b101110110010000101001101010100101010000001111001010011010101001010100000011110000000101101001000101000000111100111110100101101110000011111001010000100101010101111001010000100101010000001111000000010110100110010100000011110011111010010110010101000000111100 B
b11111010010110010101000000111100 ($
b101101001100101000000111100 H$
b101101001100101000000111100 h$
b11100101000010010101000000111100 *%
b11100101000010010101000000111100 J%
b10000011111001010000100101010101 j%
b10000011111001010000100101010101 ,&
b1010000001111001111101001011011 L&
b1010000001111001111101001011011 l&
b1010000001111000000010110100100 .'
b1010000001111000000010110100100 N'
b1010000001111001010011010101001 n'
b1010000001111001010011010101001 0(
b1011101100100001010011010101001 P(
b1011101100100001010011010101001 p(
#22
b11111010010110100101000000111100 "
b1101001011010101011011001011010001010000001111000110110010110100010100000011110000000101101000110101000000111100111110100101110001111110001001111010011100101011101101111000111101010000001111000000010110100101010100000011110011111010010110100101000000111100 B
b11111010010110100101000000111100 ($
b101101001010101000000111100 H$
b101101001010101000000111100 h$
b10110111100011110101000000111100 *%
b10110111100011110101000000111100 J%
b1111110001001111010011100101011 j%
b1111110001001111010011100101011 ,&
b1010000001111001111101001011100 L&
b1010000001111001111101001011100 l&
b1010000001111000000010110100011 .'
b1010000001111000000010110100011 N'
b1010000001111000110110010110100 n'
b1010000001111000110110010110100 0(
b11010010110101010110110010110100 P(
b11010010110101010110110010110100 p(
#23
b11111010010110110101000000111100 "
b1110110110001011010111110101100101010000001111000101111101011001010100000011110000000101101000100101000000111100111110100101110110100011000010001011110100000101000010001011110101010000001111000000010110100100010100000011110011111010010110110101000000111100 B
b11111010010110110101000000111100 ($
b101101001000101000000111100 H$
b101101001000101000000111100 h$
b1000101111010101000000111100 *%
b1000101111010101000000111100 J%
b10100011000010001011110100000101 j%
b10100011000010001011110100000101 ,&
b1010000001111001111101001011101 L&
b1010000001111001111101001011101 l&
b1010000001111000000010110100010 .'
b1010000001111000000010110100010 N'
b1010000001111000101111101011001 n'
b1010000001111000101111101011001 0(
b11101101100010110101111101011001 P(
b11101101100010110101111101011001 p(
#24
b11111010010111000101000000111100 "
b1110001000001001000010011101000101010000001111000000100111010001010100000011110000000101101000010101000000111100111110100101111011100010010000111011010010011101010000111011010001010000001111000000010110100011010100000011110011111010010111000101000000111100 B
b11111010010111000101000000111100 ($
b101101000110101000000111100 H$
b101101000110101000000111100 h$
b1000011101101000101000000111100 *%
b1000011101101000101000000111100 J%
b11100010010000111011010010011101 j%
b11100010010000111011010010011101 ,&
b1010000001111001111101001011110 L&
b1010000001111001111101001011110 l&
b1010000001111000000010110100001 .'
b1010000001111000000010110100001 N'
b1010000001111000000100111010001 n'
b1010000001111000000100111010001 0(
b11100010000010010000100111010001 P(
b11100010000010010000100111010001 p(
#25
b11111010010111010101000000111100 "
b100011100011101111011000001000001010000001111001110110000010000010100000011110000000101101000000101000000111100111110100101111111000110000011101011010110000111000011101011010101010000001111000000010110100010010100000011110011111010010111010101000000111100 B
b11111010010111010101000000111100 ($
b101101000100101000000111100 H$
b101101000100101000000111100 h$
b1110101101010101000000111100 *%
b1110101101010101000000111100 J%
b11000110000011101011010110000111 j%
b11000110000011101011010110000111 ,&
b1010000001111001111101001011111 L&
b1010000001111001111101001011111 l&
b1010000001111000000010110100000 .'
b1010000001111000000010110100000 N'
b1010000001111001110110000010000 n'
b1010000001111001110110000010000 0(
b1000111000111011110110000010000 P(
b1000111000111011110110000010000 p(
#26
b11111010010111100101000000111100 "
b1011100011000101001101100110101010000001111001010011011001101010100000011110000000101100111110101000000111100111110100110000010000100100001110111011100101001100001110111011101010000001111000000010110100001010100000011110011111010010111100101000000111100 B
b11111010010111100101000000111100 ($
b101101000010101000000111100 H$
b101101000010101000000111100 h$
b10000111011101110101000000111100 *%
b10000111011101110101000000111100 J%
b10000100100001110111011100101001 j%
b10000100100001110111011100101001 ,&
b1010000001111001111101001100000 L&
b1010000001111001111101001100000 l&
b1010000001111000000010110011111 .'
b1010000001111000000010110011111 N'
b1010000001111001010011011001101 n'
b1010000001111001010011011001101 0(
b10111000110001010011011001101 P(
b10111000110001010011011001101 p(
#27
b11111010010111110101000000111100 "
b1001110011100000110101000100101001010000001111001101010001001010010100000011110000000101100111100101000000111100111110100110000111001110000011101111101111000111000011101111101001010000001111000000010110100000010100000011110011111010010111110101000000111100 B
b11111010010111110101000000111100 ($
b101101000000101000000111100 H$
b101101000000101000000111100 h$
b1110111110100101000000111100 *%
b1110111110100101000000111100 J%
b11001110000011101111101111000111 j%
b11001110000011101111101111000111 ,&
b1010000001111001111101001100001 L&
b1010000001111001111101001100001 l&
b1010000001111000000010110011110 .'
b1010000001111000000010110011110 N'
b1010000001111001101010001001010 n'
b1010000001111001101010001001010 0(
b10011100111000001101010001001010 P(
b10011100111000001101010001001010 p(
#28
b11111010011000000101000000111100 "
b1000010110100110111011111100111101010000001111001110111111001111010100000011110000000101100111010101000000111100111110100110001001000111001100110110111011011010001100110110111001010000001111000000010110011111010100000011110011111010011000000101000000111100 B
b11111010011000000101000000111100 ($
b101100111110101000000111100 H$
b101100111110101000000111100 h$
b110011011011100101000000111100 *%
b110011011011100101000000111100 J%
b1000111001100110110111011011010 j%
b1000111001100110110111011011010 ,&
b1010000001111001111101001100010 L&
b1010000001111001111101001100010 l&
b1010000001111000000010110011101 .'
b1010000001111000000010110011101 N'
b1010000001111001110111111001111 n'
b1010000001111001110111111001111 0(
b10000101101001101110111111001111 P(
b10000101101001101110111111001111 p(
#29
b11111010011000010101000000111100 "
b1011010110110101100101001000111001010000001111001001010010001110010100000011110000000101100111000101000000111100111110100110001101000111101100110110001110010000101100110110001101010000001111000000010110011110010100000011110011111010011000010101000000111100 B
b11111010011000010101000000111100 ($
b101100111100101000000111100 H$
b101100111100101000000111100 h$
b10110011011000110101000000111100 *%
b10110011011000110101000000111100 J%
b1000111101100110110001110010000 j%
b1000111101100110110001110010000 ,&
b1010000001111001111101001100011 L&
b1010000001111001111101001100011 l&
b1010000001111000000010110011100 .'
b1010000001111000000010110011100 N'
b1010000001111001001010010001110 n'
b1010000001111001001010010001110 0(
b10110101101101011001010010001110 P(
b10110101101101011001010010001110 p(
#30
b11111010011000100101000000111100 "
b1111100011001000101011100010101001010000001111001010111000101010010100000011110000000101100110110101000000111100111110100110010010101111111001100001111010110101111001100001111001010000001111000000010110011101010100000011110011111010011000100101000000111100 B
b11111010011000100101000000111100 ($
b101100111010101000000111100 H$
b101100111010101000000111100 h$
b11100110000111100101000000111100 *%
b11100110000111100101000000111100 J%
b10101111111001100001111010110101 j%
b10101111111001100001111010110101 ,&
b1010000001111001111101001100100 L&
b1010000001111001111101001100100 l&
b1010000001111000000010110011011 .'
b1010000001111000000010110011011 N'
b1010000001111001010111000101010 n'
b1010000001111001010111000101010 0(
b11111000110010001010111000101010 P(
b11111000110010001010111000101010 p(
#31
b11111010011000110101000000111100 "
b1101110010001001010011101101111001010000001111000100111011011110010100000011110000000101100110100101000000111100111110100110010110101000011110001001111011001111011110001001111001010000001111000000010110011100010100000011110011111010011000110101000000111100 B
b11111010011000110101000000111100 ($
b101100111000101000000111100 H$
b101100111000101000000111100 h$
b1111000100111100101000000111100 *%
b1111000100111100101000000111100 J%
b10101000011110001001111011001111 j%
b10101000011110001001111011001111 ,&
b1010000001111001111101001100101 L&
b1010000001111001111101001100101 l&
b1010000001111000000010110011010 .'
b1010000001111000000010110011010 N'
b1010000001111000100111011011110 n'
b1010000001111000100111011011110 0(
b11011100100010010100111011011110 P(
b11011100100010010100111011011110 p(
#32
b11111010011001000101000000111100 "
b1010001010110010110000001100001101010000001111001100000011000011010100000011110000000101100110010101000000111100111110100110011010110000100111111010010001101111100011111010110001010000001111000000010110011011010100000011110011111010011001000101000000111100 B
b11111010011001000101000000111100 ($
b101100110110101000000111100 H$
b101100110110101000000111100 h$
b10001111101011000101000000111100 *%
b10001111101011000101000000111100 J%
b10110000100111111010010001101111 j%
b10110000100111111010010001101111 ,&
b1010000001111001111101001100110 L&
b1010000001111001111101001100110 l&
b1010000001111000000010110011001 .'
b1010000001111000000010110011001 N'
b1010000001111001100000011000011 n'
b1010000001111001100000011000011 0(
b10100010101100101100000011000011 P(
b10100010101100101100000011000011 p(
#33
b11111010011001010101000000111100 "
b1001011100110011000111100101010001010000001111000001111001010100010100000011110000000101100110000101000000111100111110100110011101001010100111000110000101101000100111000110000101010000001111000000010110011010010100000011110011111010011001010101000000111100 B
b11111010011001010101000000111100 ($
b101100110100101000000111100 H$
b101100110100101000000111100 h$
b10011100011000010101000000111100 *%
b10011100011000010101000000111100 J%
b1001010100111000110000101101000 j%
b1001010100111000110000101101000 ,&
b1010000001111001111101001100111 L&
b1010000001111001111101001100111 l&
b1010000001111000000010110011000 .'
b1010000001111000000010110011000 N'
b1010000001111000001111001010100 n'
b1010000001111000001111001010100 0(
b10010111001100110001111001010100 P(
b10010111001100110001111001010100 p(
#34
b11111010011001100101000000111100 "
b110000001010010101111011011111001010000001111001011110110111110010100000011110000000101100101110101000000111100111110100110100011101111011000100111111101101001011000100111111101010000001111000000010110011001010100000011110011111010011001100101000000111100 B
b11111010011001100101000000111100 ($
b101100110010101000000111100 H$
b101100110010101000000111100 h$
b1100010011111110101000000111100 *%
b1100010011111110101000000111100 J%
b11101111011000100111111101101001 j%
b11101111011000100111111101101001 ,&
b1010000001111001111101001101000 L&
b1010000001111001111101001101000 l&
b1010000001111000000010110010111 .'
b1010000001111000000010110010111 N'
b1010000001111001011110110111110 n'
b1010000001111001011110110111110 0(
b1100000010100101011110110111110 P(
b1100000010100101011110110111110 p(
#35
b11111010011001110101000000111100 "
b101011011000011001000011011001010000001111000110010000110110010100000011110000000101100101100101000000111100111110100110100110000110100010101101101001101101100010101101101001010000001111000000010110011000010100000011110011111010011001110101000000111100 B
b11111010011001110101000000111100 ($
b101100110000101000000111100 H$
b101100110000101000000111100 h$
b10001010110110100101000000111100 *%
b10001010110110100101000000111100 J%
b10000110100010101101101001101101 j%
b10000110100010101101101001101101 ,&
b1010000001111001111101001101001 L&
b1010000001111001111101001101001 l&
b1010000001111000000010110010110 .'
b1010000001111000000010110010110 N'
b1010000001111000110010000110110 n'
b1010000001111000110010000110110 0(
b1010110110000110010000110110 P(
b1010110110000110010000110110 p(
#36
b11111010011010000101000000111100 "
b1010101011110000001110111010100101010000001111000011101110101001010100000011110000000101100101010101000000111100111110100110101010011010000100111001010010111000000100111001010001010000001111000000010110010111010100000011110011111010011010000101000000111100 B
b11111010011010000101000000111100 ($
b101100101110101000000111100 H$
b101100101110101000000111100 h$
b10011100101000101000000111100 *%
b10011100101000101000000111100 J%
b10011010000100111001010010111000 j%
b10011010000100111001010010111000 ,&
b1010000001111001111101001101010 L&
b1010000001111001111101001101010 l&
b1010000001111000000010110010101 .'
b1010000001111000000010110010101 N'
b1010000001111000011101110101001 n'
b1010000001111000011101110101001 0(
b10101010111100000011101110101001 P(
b10101010111100000011101110101001 p(
#37
b11111010011010010101000000111100 "
b1110010100100100000001101001010000001111001001000000011010010100000011110000000101100101000101000000111100111110100110101110010000111010110100110100001000011010110110100101010000001111000000010110010110010100000011110011111010011010010101000000111100 B
b11111010011010010101000000111100 ($
b101100101100101000000111100 H$
b101100101100101000000111100 h$
b1101011011010010101000000111100 *%
b1101011011010010101000000111100 J%
b10010000111010110100110100001000 j%
b10010000111010110100110100001000 ,&
b1010000001111001111101001101011 L&
b1010000001111001111101001101011 l&
b1010000001111000000010110010100 .'
b1010000001111000000010110010100 N'
b1010000001111001001000000011010 n'
b1010000001111001001000000011010 0(
b11100101001001000000011010 P(
b11100101001001000000011010 p(
#38
b11111010011010100101000000111100 "
b1010101000000111011110000111101010000001111001110111100001111010100000011110000000101100100110101000000111100111110100110110010101010010000000111110001100011010000000111110001010000001111000000010110010101010100000011110011111010011010100101000000111100 B
b11111010011010100101000000111100 ($
b101100101010101000000111100 H$
b101100101010101000000111100 h$
b1000000011111000101000000111100 *%
b1000000011111000101000000111100 J%
b10101010010000000111110001100011 j%
b10101010010000000111110001100011 ,&
b1010000001111001111101001101100 L&
b1010000001111001111101001101100 l&
b1010000001111000000010110010011 .'
b1010000001111000000010110010011 N'
b1010000001111001110111100001111 n'
b1010000001111001110111100001111 0(
b10101010000001110111100001111 P(
b10101010000001110111100001111 p(
#39
b11111010011010110101000000111100 "
b11010000111110110100000100101101010000001111001101000001001011010100000011110000000101100100100101000000111100111110100110110101010011001111111100001111000111001111111100001101010000001111000000010110010100010100000011110011111010011010110101000000111100 B
b11111010011010110101000000111100 ($
b101100101000101000000111100 H$
b101100101000101000000111100 h$
b111111110000110101000000111100 *%
b111111110000110101000000111100 J%
b1010011001111111100001111000111 j%
b1010011001111111100001111000111 ,&
b1010000001111001111101001101101 L&
b1010000001111001111101001101101 l&
b1010000001111000000010110010010 .'
b1010000001111000000010110010010 N'
b1010000001111001101000001001011 n'
b1010000001111001101000001001011 0(
b110100001111101101000001001011 P(
b110100001111101101000001001011 p(
#40
b11111010011011000101000000111100 "
b111000111001011000110010111010101010000001111000001100101110101010100000011110000000101100100010101000000111100111110100110111000010010010100101011000110111011010100101011000101010000001111000000010110010011010100000011110011111010011011000101000000111100 B
b11111010011011000101000000111100 ($
b101100100110101000000111100 H$
b101100100110101000000111100 h$
b1010010101100010101000000111100 *%
b1010010101100010101000000111100 J%
b10010010100101011000110111011 j%
b10010010100101011000110111011 ,&
b1010000001111001111101001101110 L&
b1010000001111001111101001101110 l&
b1010000001111000000010110010001 .'
b1010000001111000000010110010001 N'
b1010000001111000001100101110101 n'
b1010000001111000001100101110101 0(
b1110001110010110001100101110101 P(
b1110001110010110001100101110101 p(
