OpticalTests/kcu_gtwiz_quad227/4channels_prbs7_CB/.Xil/Vivado-23831-higgs.physics.ucsb.edu/hw_ila_data_1/zip_work/waveform.vcd
$date
        2021-Nov-30 17:18:45
$end
$version
        Vivado v2019.2 (64-bit)
$end
$timescale
        1ps
$end
$scope module dut $end
$var reg 514 " ila_data [513:0] $end
$var reg 32 N& userdata_rx_0 [31:0] $end
$var reg 32 n& receiver_0 [31:0] $end
$var reg 32 0' userdata_rx_1 [31:0] $end
$var reg 32 P' receiver_1 [31:0] $end
$var reg 32 p' userdata_rx_2 [31:0] $end
$var reg 32 2( receiver_2 [31:0] $end
$var reg 32 R( userdata_rx_3 [31:0] $end
$var reg 32 r( receiver_3 [31:0] $end
$var reg 32 4) userdata_tx_0 [31:0] $end
$var reg 32 T) transmitter_0 [31:0] $end
$var reg 32 t) userdata_tx_1 [31:0] $end
$var reg 32 6* transmitter_1 [31:0] $end
$var reg 32 V* userdata_tx_2 [31:0] $end
$var reg 32 v* transmitter_2 [31:0] $end
$var reg 32 8+ userdata_tx_3 [31:0] $end
$var reg 32 X+ transmitter_3 [31:0] $end
$var reg 4 x+ prbs_match_int [3:0] $end
$var reg 1 |+ hb0_gtwiz_userclk_rx_usrclk2_int $end
$var reg 16 }+ ch0_rxctrl0_int [15:0] $end
$var reg 1 /, hb0_gtwiz_userclk_rx_active_int $end
$var reg 1 0, hb_gtwiz_reset_all_int $end
$var reg 1 1, hb0_gtwiz_reset_rx_done_int $end
$var reg 1 2, hb0_gtwiz_userclk_tx_usrclk2_int $end
$var reg 1 3, hb0_gtwiz_userclk_tx_active_int $end
$var reg 1 4, gtwiz_userclk_tx_reset_int $end
$var reg 1 5, gtwiz_userclk_tx_usrclk_int $end
$var reg 1 6, gtwiz_userclk_tx_usrclk2_int $end
$var reg 1 7, gtwiz_userclk_tx_active_int $end
$var reg 1 8, gtwiz_userclk_rx_reset_int $end
$var reg 1 9, gtwiz_userclk_rx_usrclk_int $end
$var reg 1 :, gtwiz_userclk_rx_usrclk2_int $end
$var reg 1 ;, gtwiz_userclk_rx_active_int $end
$var reg 36 <, drpaddr_int [35:0] $end
$var reg 16 `, ch1_rxctrl0_int [15:0] $end
$var reg 16 p, ch2_rxctrl0_int [15:0] $end
$var reg 16 "- ch3_rxctrl0_int [15:0] $end
$var reg 4 2- drpclk_int [3:0] $end
$var reg 4 6- drpdi_int [3:0] $end
$var reg 4 :- drpen_int [3:0] $end
$var reg 4 >- drpwe_int [3:0] $end
$var reg 16 B- ch0_rxctrl1_int [15:0] $end
$var reg 4 R- eyescanreset_int [3:0] $end
$var reg 4 V- rx8b10ben_int [3:0] $end
$var reg 4 Z- rxcommadeten_int [3:0] $end
$var reg 4 ^- rxlpmen_int [3:0] $end
$var reg 16 b- ch1_rxctrl1_int [15:0] $end
$var reg 4 r- rxmcommaalignen_int [3:0] $end
$var reg 4 v- rxpcommaalignen_int [3:0] $end
$var reg 12 z- rxrate_int [11:0] $end
$var reg 16 (. ch2_rxctrl1_int [15:0] $end
$var reg 4 8. tx8b10ben_int [3:0] $end
$var reg 16 <. txdiffctrl_int [15:0] $end
$var reg 16 L. ch3_rxctrl1_int [15:0] $end
$var reg 20 \. txpostcursor_int [19:0] $end
$var reg 8 p. ch0_rxctrl2_int [7:0] $end
$var reg 8 x. ch1_rxctrl2_int [7:0] $end
$var reg 20 "/ txprecursor_int [19:0] $end
$var reg 8 6/ ch2_rxctrl2_int [7:0] $end
$var reg 8 >/ ch3_rxctrl2_int [7:0] $end
$var reg 8 F/ ch0_rxctrl3_int [7:0] $end
$var reg 64 N/ drpdo_int [63:0] $end
$var reg 8 00 ch1_rxctrl3_int [7:0] $end
$var reg 8 80 ch2_rxctrl3_int [7:0] $end
$var reg 8 @0 ch3_rxctrl3_int [7:0] $end
$var reg 16 H0 ch0_txctrl0_int [15:0] $end
$var reg 16 X0 ch1_txctrl0_int [15:0] $end
$var reg 16 h0 ch2_txctrl0_int [15:0] $end
$var reg 4 x0 drprdy_int [3:0] $end
$var reg 4 |0 gtpowergood_int [3:0] $end
$var reg 4 "1 rxbyteisaligned_int [3:0] $end
$var reg 4 &1 rxbyterealign_int [3:0] $end
$var reg 4 *1 rxcommadet_int [3:0] $end
$var reg 4 .1 rxpmaresetdone_int [3:0] $end
$var reg 4 21 txpmaresetdone_int [3:0] $end
$var reg 1 61 _TRIGGER $end
$var reg 1 71 _WINDOW $end
$var reg 1 81 _GAP $end
$upscope $end
$enddefinitions $end
#0
$dumpvars
b1111111100000000111111110000000000000000000000000000000000000000000000000000000000000000000000000000000000000000000000000000000000001100110011001100111100000000000011111111111111111111000000000000000011000000010110000010110000010110000010111110111011101100001011010000011101010100000011110001001011111000100101000000111100110110100000111001010000001111000010010111110001010100000011110000010100100111111011000011000011100110100010111110110000110000111110101101100000101100001100001101100101110100001011000011000011 "
b1100101110100001011000011000011 N&
b1100101110100001011000011000011 n&
b11101011011000001011000011000011 0'
b11101011011000001011000011000011 P'
b10011010001011111011000011000011 p'
b10011010001011111011000011000011 2(
b10100100111111011000011000011 R(
b10100100111111011000011000011 r(
b100101111100010101000000111100 4)
b100101111100010101000000111100 T)
b11011010000011100101000000111100 t)
b11011010000011100101000000111100 6*
b1001011111000100101000000111100 V*
b1001011111000100101000000111100 v*
b10110100000111010101000000111100 8+
b10110100000111010101000000111100 X+
b0 x+
1|+
b1111101110111011 }+
1/,
00,
11,
12,
13,
04,
15,
16,
17,
08,
19,
1:,
1;,
b1011000001011000001011000001011 <,
b10110000010 `,
b1011000001011 p,
b110000 "-
b1100 2-
b0 6-
b0 :-
b0 >-
b1111111111000000 B-
b0 R-
b1111 V-
b1111 Z-
b1111 ^-
b1111111111 b-
b1111 r-
b1111 v-
b0 z-
b11001111000000 (.
b1111 8.
b1100110011001100 <.
b1100110011 L.
b0 \.
b0 p.
b0 x.
b0 "/
b0 6/
b0 >/
b0 F/
b0 N/
b0 00
b0 80
b0 @0
b0 H0
b0 X0
b11111111000000 h0
b0 x0
b1111 |0
b1111 "1
b0 &1
b0 *1
b1111 .1
b1111 21
061
171
081
$end
#1
b1111111100000000111111110000000000000000000000000000000000000000000000000000000000000000000000000000000000000000000000000000000000001100110011001100111100000000000011111111111111111111000000000000000011000000010110000010110000010110000010111110100010101100001011010000011011010100000011110001001011111001000101000000111100110110100000110101010000001111000010010111110010010100000011110000010100100111011011000011000011100110100011000110110000110000111110101101100010101100001100001101100101110011101011000011000011 "
b1100101110011101011000011000011 N&
b1100101110011101011000011000011 n&
b11101011011000101011000011000011 0'
b11101011011000101011000011000011 P'
b10011010001100011011000011000011 p'
b10011010001100011011000011000011 2(
b10100100111011011000011000011 R(
b10100100111011011000011000011 r(
b100101111100100101000000111100 4)
b100101111100100101000000111100 T)
b11011010000011010101000000111100 t)
b11011010000011010101000000111100 6*
b1001011111001000101000000111100 V*
b1001011111001000101000000111100 v*
b10110100000110110101000000111100 8+
b10110100000110110101000000111100 X+
b1111101000101011 }+
02,
05,
06,
#2
b1111111100000000111111110000000000000000000000000000000000000000000000000000000000000000000000000000000000000000000000000000000000001100110011001100111100000000000011111111111111111111000000000000000011000000010110000010110000010110000010111000100010101000001011010000011001010100000011110001001011111001100101000000111100110110100000110001010000001111000010010111110011010100000011110000010100100110111011000011000011100110100011001010110000110000111110101101100100101100001100001101100101110011011011000011000011 "
b1100101110011011011000011000011 N&
b1100101110011011011000011000011 n&
b11101011011001001011000011000011 0'
b11101011011001001011000011000011 P'
b10011010001100101011000011000011 p'
b10011010001100101011000011000011 2(
b10100100110111011000011000011 R(
b10100100110111011000011000011 r(
b100101111100110101000000111100 4)
b100101111100110101000000111100 T)
b11011010000011000101000000111100 t)
b11011010000011000101000000111100 6*
b1001011111001100101000000111100 V*
b1001011111001100101000000111100 v*
b10110100000110010101000000111100 8+
b10110100000110010101000000111100 X+
0|+
b1110001000101010 }+
09,
0:,
#3
b1111111100000000111111110000000000000000000000000000000000000000000000000000000000000000000000000000000000000000000000000000000000001100110011001100111100000000000011111111111111111111000000000000000011000000010110000010110000010110000010111000101010101000001011010000010111010100000011110001001011111010000101000000111100110110100000101101010000001111000010010111110100010100000011110000010100100001101011000011000011100110100011001110110000110000111110101101111001101100001100001101100101110011001011000011000011 "
b1100101110011001011000011000011 N&
b1100101110011001011000011000011 n&
b11101011011110011011000011000011 0'
b11101011011110011011000011000011 P'
b10011010001100111011000011000011 p'
b10011010001100111011000011000011 2(
b10100100001101011000011000011 R(
b10100100001101011000011000011 r(
b100101111101000101000000111100 4)
b100101111101000101000000111100 T)
b11011010000010110101000000111100 t)
b11011010000010110101000000111100 6*
b1001011111010000101000000111100 V*
b1001011111010000101000000111100 v*
b10110100000101110101000000111100 8+
b10110100000101110101000000111100 X+
b1110001010101010 }+
15,
#4
b1111111100000000111111110000000000000000000000000000000000000000000000000000000000000000000000000000000000000000000000000000000000001100110011001100111100000000000011111111111111111111000000000000000011000000010110000010110000010110000010111110111011101000001011010000010101010100000011110001001011111010100101000000111100110110100000101001010000001111000010010111110101010100000011110000010100100101111011000011000011100110100011010010110000110000111110101101101000101100001100001101100101110010111011000011000011 "
b1100101110010111011000011000011 N&
b1100101110010111011000011000011 n&
b11101011011010001011000011000011 0'
b11101011011010001011000011000011 P'
b10011010001101001011000011000011 p'
b10011010001101001011000011000011 2(
b10100100101111011000011000011 R(
b10100100101111011000011000011 r(
b100101111101010101000000111100 4)
b100101111101010101000000111100 T)
b11011010000010100101000000111100 t)
b11011010000010100101000000111100 6*
b1001011111010100101000000111100 V*
b1001011111010100101000000111100 v*
b10110100000101010101000000111100 8+
b10110100000101010101000000111100 X+
b1111101110111010 }+
12,
16,
19,
1:,
#5
b1111111100000000111111110000000000000000000000000000000000000000000000000000000000000000000000000000000000000000000000000000000000001100110011001100111100000000000011111111111111111111000000000000000011000000010110000010110000010110000010111110111011101100001011010000010011010100000011110001001011111011000101000000111100110110100000100101010000001111000010010111110110010100000011110000010100100010101011000011000011100110100011010110110000110000111110101101110101101100001100001101100101110010101011000011000011 "
b1100101110010101011000011000011 N&
b1100101110010101011000011000011 n&
b11101011011101011011000011000011 0'
b11101011011101011011000011000011 P'
b10011010001101011011000011000011 p'
b10011010001101011011000011000011 2(
b10100100010101011000011000011 R(
b10100100010101011000011000011 r(
b100101111101100101000000111100 4)
b100101111101100101000000111100 T)
b11011010000010010101000000111100 t)
b11011010000010010101000000111100 6*
b1001011111011000101000000111100 V*
b1001011111011000101000000111100 v*
b10110100000100110101000000111100 8+
b10110100000100110101000000111100 X+
1|+
b1111101110111011 }+
#6
b1111111100000000111111110000000000000000000000000000000000000000000000000000000000000000000000000000000000000000000000000000000000001100110011001100111100000000000011111111111111111111000000000000000011000000010110000010110000010110000010111110100010101100001011010000010001010100000011110001001011111011100101000000111100110110100000100001010000001111000010010111110111010100000011110000010100100011001011000011000011100110100011011010110000110000111110101101110011101100001100001101100101110010011011000011000011 "
b1100101110010011011000011000011 N&
b1100101110010011011000011000011 n&
b11101011011100111011000011000011 0'
b11101011011100111011000011000011 P'
b10011010001101101011000011000011 p'
b10011010001101101011000011000011 2(
b10100100011001011000011000011 R(
b10100100011001011000011000011 r(
b100101111101110101000000111100 4)
b100101111101110101000000111100 T)
b11011010000010000101000000111100 t)
b11011010000010000101000000111100 6*
b1001011111011100101000000111100 V*
b1001011111011100101000000111100 v*
b10110100000100010101000000111100 8+
b10110100000100010101000000111100 X+
b1111101000101011 }+
02,
05,
06,
#7
b1111111100000000111111110000000000000000000000000000000000000000000000000000000000000000000000000000000000000000000000000000000000001100110011001100111100000000000011111111111111111111000000000000000011000000010110000010110000010110000010111000100010101000001011010000001111010100000011110001001011111100000101000000111100110110100000011101010000001111000010010111111000010100000011110000010100100011101011000011000011100110100010100010110000110000111110101101110001101100001100001101100101110101111011000011000011 "
b1100101110101111011000011000011 N&
b1100101110101111011000011000011 n&
b11101011011100011011000011000011 0'
b11101011011100011011000011000011 P'
b10011010001010001011000011000011 p'
b10011010001010001011000011000011 2(
b10100100011101011000011000011 R(
b10100100011101011000011000011 r(
b100101111110000101000000111100 4)
b100101111110000101000000111100 T)
b11011010000001110101000000111100 t)
b11011010000001110101000000111100 6*
b1001011111100000101000000111100 V*
b1001011111100000101000000111100 v*
b10110100000011110101000000111100 8+
b10110100000011110101000000111100 X+
0|+
b1110001000101010 }+
09,
0:,
#8
b1111111100000000111111110000000000000000000000000000000000000000000000000000000000000000000000000000000000000000000000000000000000001100110011001100111100000000000011111111111111111111000000000000000011000000010110000010110000010110000010111000101010101000001011010000001101010100000011110001001011111100100101000000111100110110100000011001010000001111000010010111111001010100000011110000010100100011111011000011000011100110100010011110110000110000111110101101110000101100001100001101100101110110001011000011000011 "
b1100101110110001011000011000011 N&
b1100101110110001011000011000011 n&
b11101011011100001011000011000011 0'
b11101011011100001011000011000011 P'
b10011010001001111011000011000011 p'
b10011010001001111011000011000011 2(
b10100100011111011000011000011 R(
b10100100011111011000011000011 r(
b100101111110010101000000111100 4)
b100101111110010101000000111100 T)
b11011010000001100101000000111100 t)
b11011010000001100101000000111100 6*
b1001011111100100101000000111100 V*
b1001011111100100101000000111100 v*
b10110100000011010101000000111100 8+
b10110100000011010101000000111100 X+
b1110001010101010 }+
15,
#9
b1111111100000000111111110000000000000000000000000000000000000000000000000000000000000000000000000000000000000000000000000000000000001100110011001100111100000000000011111111111111111111000000000000000011000000010110000010110000010110000010111110111011101000001011010000001011010100000011110001001011111101000101000000111100110110100000010101010000001111000010010111111010010100000011110000010100100100101011000011000011100110100011100110110000110000111110101101101101101100001100001101100101110001101011000011000011 "
b1100101110001101011000011000011 N&
b1100101110001101011000011000011 n&
b11101011011011011011000011000011 0'
b11101011011011011011000011000011 P'
b10011010001110011011000011000011 p'
b10011010001110011011000011000011 2(
b10100100100101011000011000011 R(
b10100100100101011000011000011 r(
b100101111110100101000000111100 4)
b100101111110100101000000111100 T)
b11011010000001010101000000111100 t)
b11011010000001010101000000111100 6*
b1001011111101000101000000111100 V*
b1001011111101000101000000111100 v*
b10110100000010110101000000111100 8+
b10110100000010110101000000111100 X+
b1111101110111010 }+
12,
16,
19,
1:,
#10
b1111111100000000111111110000000000000000000000000000000000000000000000000000000000000000000000000000000000000000000000000000000000001100110011001100111100000000000011111111111111111111000000000000000011000000010110000010110000010110000010111110111011101100001011010000001001010100000011110001001011111101100101000000111100110110100000010001010000001111000010010111111011010100000011110000010100100101001011000011000011100110100011101010110000110000111110101101101011101100001100001101100101110001011011000011000011 "
b1100101110001011011000011000011 N&
b1100101110001011011000011000011 n&
b11101011011010111011000011000011 0'
b11101011011010111011000011000011 P'
b10011010001110101011000011000011 p'
b10011010001110101011000011000011 2(
b10100100101001011000011000011 R(
b10100100101001011000011000011 r(
b100101111110110101000000111100 4)
b100101111110110101000000111100 T)
b11011010000001000101000000111100 t)
b11011010000001000101000000111100 6*
b1001011111101100101000000111100 V*
b1001011111101100101000000111100 v*
b10110100000010010101000000111100 8+
b10110100000010010101000000111100 X+
1|+
b1111101110111011 }+
#11
b1111111100000000111111110000000000000000000000000000000000000000000000000000000000000000000000000000000000000000000000000000000000001100110011001100111100000000000011111111111111111111000000000000000011000000010110000010110000010110000010111110100010101100001011010000000111010100000011110001001011111110000101000000111100110110100000001101010000001111000010010111111100010100000011110000010100100101101011000011000011100110100010010010110000110000111110101101101001101100001100001101100101110110111011000011000011 "
b1100101110110111011000011000011 N&
b1100101110110111011000011000011 n&
b11101011011010011011000011000011 0'
b11101011011010011011000011000011 P'
b10011010001001001011000011000011 p'
b10011010001001001011000011000011 2(
b10100100101101011000011000011 R(
b10100100101101011000011000011 r(
b100101111111000101000000111100 4)
b100101111111000101000000111100 T)
b11011010000000110101000000111100 t)
b11011010000000110101000000111100 6*
b1001011111110000101000000111100 V*
b1001011111110000101000000111100 v*
b10110100000001110101000000111100 8+
b10110100000001110101000000111100 X+
b1111101000101011 }+
02,
05,
06,
#12
b1111111100000000111111110000000000000000000000000000000000000000000000000000000000000000000000000000000000000000000000000000000000001100110011001100111100000000000011111111111111111111000000000000000011000000010110000010110000010110000010111000100010101000001011010000000101010100000011110001001011111110100101000000111100110110100000001001010000001111000010010111111101010100000011110000010100100001111011000011000011100110100011110010110000110000111110101101111000101100001100001101100101110000111011000011000011 "
b1100101110000111011000011000011 N&
b1100101110000111011000011000011 n&
b11101011011110001011000011000011 0'
b11101011011110001011000011000011 P'
b10011010001111001011000011000011 p'
b10011010001111001011000011000011 2(
b10100100001111011000011000011 R(
b10100100001111011000011000011 r(
b100101111111010101000000111100 4)
b100101111111010101000000111100 T)
b11011010000000100101000000111100 t)
b11011010000000100101000000111100 6*
b1001011111110100101000000111100 V*
b1001011111110100101000000111100 v*
b10110100000001010101000000111100 8+
b10110100000001010101000000111100 X+
0|+
b1110001000101010 }+
09,
0:,
#13
b1111111100000000111111110000000000000000000000000000000000000000000000000000000000000000000000000000000000000000000000000000000000001100110011001100111100000000000011111111111111111111000000000000000011000000010110000010110000010110000010111000111010101000001011010000000011010100000011110001001011111111000101000000111100110110100000000101010000001111000010010111111110010100000011110000010100100110101011000011000011100110100010001010110000110000111110101101100101101100001100001101100101110111011011000011000011 "
b1100101110111011011000011000011 N&
b1100101110111011011000011000011 n&
b11101011011001011011000011000011 0'
b11101011011001011011000011000011 P'
b10011010001000101011000011000011 p'
b10011010001000101011000011000011 2(
b10100100110101011000011000011 R(
b10100100110101011000011000011 r(
b100101111111100101000000111100 4)
b100101111111100101000000111100 T)
b11011010000000010101000000111100 t)
b11011010000000010101000000111100 6*
b1001011111111000101000000111100 V*
b1001011111111000101000000111100 v*
b10110100000000110101000000111100 8+
b10110100000000110101000000111100 X+
b1110001110101010 }+
15,
16,
#14
b1111111100000000111111110000000000000000000000000000000000000000000000000000000000000000000000000000000000000000000000000000000000001100110011001100111100000000000011111111111111111111000000000000000011000000010110000010110000010110000010111110111011101000001011010000000001010100000011110001001011111111100101000000111100110110100000000001010000001111000010010111111111010100000011110000010100100111001011000011000011100110100010000110110000110000111110101101100011101100001100001101100101110111101011000011000011 "
b1100101110111101011000011000011 N&
b1100101110111101011000011000011 n&
b11101011011000111011000011000011 0'
b11101011011000111011000011000011 P'
b10011010001000011011000011000011 p'
b10011010001000011011000011000011 2(
b10100100111001011000011000011 R(
b10100100111001011000011000011 r(
b100101111111110101000000111100 4)
b100101111111110101000000111100 T)
b11011010000000000101000000111100 t)
b11011010000000000101000000111100 6*
b1001011111111100101000000111100 V*
b1001011111111100101000000111100 v*
b10110100000000010101000000111100 8+
b10110100000000010101000000111100 X+
b1111101110111010 }+
12,
19,
1:,
#15
b1111111100000000111111110000000000000000000000000000000000000000000000000000000000000000000000000000000000000000000000000000000000001100110011001100111100000000000011111111111111111111000000000000000011000000010110000010110000010110000010111110111011101100001011001111111111010100000011110001001100000000000101000000111100110110011111111101010000001111000010011000000000010100000011110000010100100000011011000011000011100110100010000010110000110000111110101101111110101100001100001101100101110111111011000011000011 "
b1100101110111111011000011000011 N&
b1100101110111111011000011000011 n&
b11101011011111101011000011000011 0'
b11101011011111101011000011000011 P'
b10011010001000001011000011000011 p'
b10011010001000001011000011000011 2(
b10100100000011011000011000011 R(
b10100100000011011000011000011 r(
b100110000000000101000000111100 4)
b100110000000000101000000111100 T)
b11011001111111110101000000111100 t)
b11011001111111110101000000111100 6*
b1001100000000000101000000111100 V*
b1001100000000000101000000111100 v*
b10110011111111110101000000111100 8+
b10110011111111110101000000111100 X+
1|+
b1111101110111011 }+
#16
b1111111100000000111111110000000000000000000000000000000000000000000000000000000000000000000000000000000000000000000000000000000000001100110011001100111100000000000011111111111111111111000000000000000011000000010110000010110000010110000010111110100010101100001011001111111101010100000011110001001100000000100101000000111100110110011111111001010000001111000010011000000001010100000011110000010100011111111011000011000011100110100101111110110000110000111110101110000000101100001100001101100101101000001011000011000011 "
b1100101101000001011000011000011 N&
b1100101101000001011000011000011 n&
b11101011100000001011000011000011 0'
b11101011100000001011000011000011 P'
b10011010010111111011000011000011 p'
b10011010010111111011000011000011 2(
b10100011111111011000011000011 R(
b10100011111111011000011000011 r(
b100110000000010101000000111100 4)
b100110000000010101000000111100 T)
b11011001111111100101000000111100 t)
b11011001111111100101000000111100 6*
b1001100000000100101000000111100 V*
b1001100000000100101000000111100 v*
b10110011111111010101000000111100 8+
b10110011111111010101000000111100 X+
b1111101000101011 }+
02,
05,
06,
#17
b1111111100000000111111110000000000000000000000000000000000000000000000000000000000000000000000000000000000000000000000000000000000001100110011001100111100000000000011111111111111111111000000000000000011000000010110000010110000010110000010111000100010101000001011001111111011010100000011110001001100000001000101000000111100110110011111110101010000001111000010011000000010010100000011110000010100011111011011000011000011100110100101111010110000110000111110101110000010101100001100001101100101101000011011000011000011 "
b1100101101000011011000011000011 N&
b1100101101000011011000011000011 n&
b11101011100000101011000011000011 0'
b11101011100000101011000011000011 P'
b10011010010111101011000011000011 p'
b10011010010111101011000011000011 2(
b10100011111011011000011000011 R(
b10100011111011011000011000011 r(
b100110000000100101000000111100 4)
b100110000000100101000000111100 T)
b11011001111111010101000000111100 t)
b11011001111111010101000000111100 6*
b1001100000001000101000000111100 V*
b1001100000001000101000000111100 v*
b10110011111110110101000000111100 8+
b10110011111110110101000000111100 X+
0|+
b1110001000101010 }+
09,
0:,
#18
b1111111100000000111111110000000000000000000000000000000000000000000000000000000000000000000000000000000000000000000000000000000000001100110011001100111100000000000011111111111111111111000000000000000011000000010110000010110000010110000010111000111010101000001011001111111001010100000011110001001100000001100101000000111100110110011111110001010000001111000010011000000011010100000011110000010100011110111011000011000011100110100101110110110000110000111110101110000100101100001100001101100101101000101011000011000011 "
b1100101101000101011000011000011 N&
b1100101101000101011000011000011 n&
b11101011100001001011000011000011 0'
b11101011100001001011000011000011 P'
b10011010010111011011000011000011 p'
b10011010010111011011000011000011 2(
b10100011110111011000011000011 R(
b10100011110111011000011000011 r(
b100110000000110101000000111100 4)
b100110000000110101000000111100 T)
b11011001111111000101000000111100 t)
b11011001111111000101000000111100 6*
b1001100000001100101000000111100 V*
b1001100000001100101000000111100 v*
b10110011111110010101000000111100 8+
b10110011111110010101000000111100 X+
b1110001110101010 }+
15,
16,
#19
b1111111100000000111111110000000000000000000000000000000000000000000000000000000000000000000000000000000000000000000000000000000000001100110011001100111100000000000011111111111111111111000000000000000011000000010110000010110000010110000010111110111011101000001011001111110111010100000011110001001100000010000101000000111100110110011111101101010000001111000010011000000100010100000011110000010100011001101011000011000011100110100100001110110000110000111110101110011001101100001100001101100101101111001011000011000011 "
b1100101101111001011000011000011 N&
b1100101101111001011000011000011 n&
b11101011100110011011000011000011 0'
b11101011100110011011000011000011 P'
b10011010010000111011000011000011 p'
b10011010010000111011000011000011 2(
b10100011001101011000011000011 R(
b10100011001101011000011000011 r(
b100110000001000101000000111100 4)
b100110000001000101000000111100 T)
b11011001111110110101000000111100 t)
b11011001111110110101000000111100 6*
b1001100000010000101000000111100 V*
b1001100000010000101000000111100 v*
b10110011111101110101000000111100 8+
b10110011111101110101000000111100 X+
b1111101110111010 }+
12,
19,
1:,
#20
b1111111100000000111111110000000000000000000000000000000000000000000000000000000000000000000000000000000000000000000000000000000000001100110011001100111100000000000011111111111111111111000000000000000011000000010110000010110000010110000010111110111011101100001011001111110101010100000011110001001100000010100101000000111100110110011111101001010000001111000010011000000101010100000011110000010100011101111011000011000011100110100101101110110000110000111110101110001000101100001100001101100101101001001011000011000011 "
b1100101101001001011000011000011 N&
b1100101101001001011000011000011 n&
b11101011100010001011000011000011 0'
b11101011100010001011000011000011 P'
b10011010010110111011000011000011 p'
b10011010010110111011000011000011 2(
b10100011101111011000011000011 R(
b10100011101111011000011000011 r(
b100110000001010101000000111100 4)
b100110000001010101000000111100 T)
b11011001111110100101000000111100 t)
b11011001111110100101000000111100 6*
b1001100000010100101000000111100 V*
b1001100000010100101000000111100 v*
b10110011111101010101000000111100 8+
b10110011111101010101000000111100 X+
1|+
b1111101110111011 }+
#21
b1111111100000000111111110000000000000000000000000000000000000000000000000000000000000000000000000000000000000000000000000000000000001100110011001100111100000000000011111111111111111111000000000000000011000000010110000010110000010110000010111110100010101100001011001111110011010100000011110001001100000011000101000000111100110110011111100101010000001111000010011000000110010100000011110000010100011010101011000011000011100110100100010110110000110000111110101110010101101100001100001101100101101110101011000011000011 "
b1100101101110101011000011000011 N&
b1100101101110101011000011000011 n&
b11101011100101011011000011000011 0'
b11101011100101011011000011000011 P'
b10011010010001011011000011000011 p'
b10011010010001011011000011000011 2(
b10100011010101011000011000011 R(
b10100011010101011000011000011 r(
b100110000001100101000000111100 4)
b100110000001100101000000111100 T)
b11011001111110010101000000111100 t)
b11011001111110010101000000111100 6*
b1001100000011000101000000111100 V*
b1001100000011000101000000111100 v*
b10110011111100110101000000111100 8+
b10110011111100110101000000111100 X+
b1111101000101011 }+
02,
05,
06,
#22
b1111111100000000111111110000000000000000000000000000000000000000000000000000000000000000000000000000000000000000000000000000000000001100110011001100111100000000000011111111111111111111000000000000000011000000010110000010110000010110000010111000100010101000001011001111110001010100000011110001001100000011100101000000111100110110011111100001010000001111000010011000000111010100000011110000010100011011001011000011000011100110100100011010110000110000111110101110010011101100001100001101100101101110011011000011000011 "
b1100101101110011011000011000011 N&
b1100101101110011011000011000011 n&
b11101011100100111011000011000011 0'
b11101011100100111011000011000011 P'
b10011010010001101011000011000011 p'
b10011010010001101011000011000011 2(
b10100011011001011000011000011 R(
b10100011011001011000011000011 r(
b100110000001110101000000111100 4)
b100110000001110101000000111100 T)
b11011001111110000101000000111100 t)
b11011001111110000101000000111100 6*
b1001100000011100101000000111100 V*
b1001100000011100101000000111100 v*
b10110011111100010101000000111100 8+
b10110011111100010101000000111100 X+
0|+
b1110001000101010 }+
09,
0:,
#23
b1111111100000000111111110000000000000000000000000000000000000000000000000000000000000000000000000000000000000000000000000000000000001100110011001100111100000000000011111111111111111111000000000000000011000000010110000010110000010110000010111000111010101000001011001111101111010100000011110001001100000100000101000000111100110110011111011101010000001111000010011000001000010100000011110000010100011011101011000011000011100110100101100010110000110000111110101110010001101100001100001101100101101001111011000011000011 "
b1100101101001111011000011000011 N&
b1100101101001111011000011000011 n&
b11101011100100011011000011000011 0'
b11101011100100011011000011000011 P'
b10011010010110001011000011000011 p'
b10011010010110001011000011000011 2(
b10100011011101011000011000011 R(
b10100011011101011000011000011 r(
b100110000010000101000000111100 4)
b100110000010000101000000111100 T)
b11011001111101110101000000111100 t)
b11011001111101110101000000111100 6*
b1001100000100000101000000111100 V*
b1001100000100000101000000111100 v*
b10110011111011110101000000111100 8+
b10110011111011110101000000111100 X+
b1110001110101010 }+
15,
16,
#24
b1111111100000000111111110000000000000000000000000000000000000000000000000000000000000000000000000000000000000000000000000000000000001100110011001100111100000000000011111111111111111111000000000000000011000000010110000010110000010110000010111110111011101000001011001111101101010100000011110001001100000100100101000000111100110110011111011001010000001111000010011000001001010100000011110000010100011011111011000011000011100110100101011110110000110000111110101110010000101100001100001101100101101010001011000011000011 "
b1100101101010001011000011000011 N&
b1100101101010001011000011000011 n&
b11101011100100001011000011000011 0'
b11101011100100001011000011000011 P'
b10011010010101111011000011000011 p'
b10011010010101111011000011000011 2(
b10100011011111011000011000011 R(
b10100011011111011000011000011 r(
b100110000010010101000000111100 4)
b100110000010010101000000111100 T)
b11011001111101100101000000111100 t)
b11011001111101100101000000111100 6*
b1001100000100100101000000111100 V*
b1001100000100100101000000111100 v*
b10110011111011010101000000111100 8+
b10110011111011010101000000111100 X+
b1111101110111010 }+
12,
19,
1:,
#25
b1111111100000000111111110000000000000000000000000000000000000000000000000000000000000000000000000000000000000000000000000000000000001100110011001100111100000000000011111111111111111111000000000000000011000000010110000010110000010110000010111110111011101100001011001111101011010100000011110001001100000101000101000000111100110110011111010101010000001111000010011000001010010100000011110000010100011100101011000011000011100110100100100110110000110000111110101110001101101100001100001101100101101101101011000011000011 "
b1100101101101101011000011000011 N&
b1100101101101101011000011000011 n&
b11101011100011011011000011000011 0'
b11101011100011011011000011000011 P'
b10011010010010011011000011000011 p'
b10011010010010011011000011000011 2(
b10100011100101011000011000011 R(
b10100011100101011000011000011 r(
b100110000010100101000000111100 4)
b100110000010100101000000111100 T)
b11011001111101010101000000111100 t)
b11011001111101010101000000111100 6*
b1001100000101000101000000111100 V*
b1001100000101000101000000111100 v*
b10110011111010110101000000111100 8+
b10110011111010110101000000111100 X+
1|+
b1111101110111011 }+
#26
b1111111100000000111111110000000000000000000000000000000000000000000000000000000000000000000000000000000000000000000000000000000000001100110011001100111100000000000011111111111111111111000000000000000011000000010110000010110000010110000010111110100010101100001011001111101001010100000011110001001100000101100101000000111100110110011111010001010000001111000010011000001011010100000011110000010100011101001011000011000011100110100100101010110000110000111110101110001011101100001100001101100101101101011011000011000011 "
b1100101101101011011000011000011 N&
b1100101101101011011000011000011 n&
b11101011100010111011000011000011 0'
b11101011100010111011000011000011 P'
b10011010010010101011000011000011 p'
b10011010010010101011000011000011 2(
b10100011101001011000011000011 R(
b10100011101001011000011000011 r(
b100110000010110101000000111100 4)
b100110000010110101000000111100 T)
b11011001111101000101000000111100 t)
b11011001111101000101000000111100 6*
b1001100000101100101000000111100 V*
b1001100000101100101000000111100 v*
b10110011111010010101000000111100 8+
b10110011111010010101000000111100 X+
b1111101000101011 }+
02,
05,
06,
