OpticalTests/odmb7_gtwiz_quad227/4channels_prbs7_16bit_CB/.Xil/Vivado-53071-higgs.physics.ucsb.edu/hw_ila_data_1/zip_work/waveform.vcd
$date
        2021-Dec-05 15:46:20
$end
$version
        Vivado v2019.2 (64-bit)
$end
$timescale
        1ps
$end
$scope module dut $end
$var reg 970 " ila_data [969:0] $end
$var reg 32 @+ receiver_0 [31:0] $end
$var reg 32 `+ receiver_1 [31:0] $end
$var reg 32 ", receiver_2 [31:0] $end
$var reg 32 B, receiver_3 [31:0] $end
$var reg 32 b, transmitter_0 [31:0] $end
$var reg 32 $- transmitter_1 [31:0] $end
$var reg 32 D- transmitter_2 [31:0] $end
$var reg 32 d- transmitter_3 [31:0] $end
$var reg 4 &. prbs_match_int [3:0] $end
$var reg 1 *. hb0_gtwiz_userclk_rx_usrclk2_int $end
$var reg 1 +. hb0_gtwiz_userclk_rx_active_int $end
$var reg 1 ,. hb_gtwiz_reset_all_int $end
$var reg 1 -. hb0_gtwiz_reset_rx_done_int $end
$var reg 1 .. hb0_gtwiz_userclk_tx_usrclk2_int $end
$var reg 1 /. hb0_gtwiz_userclk_tx_active_int $end
$var reg 1 0. gtwiz_userclk_tx_reset_int $end
$var reg 1 1. gtwiz_userclk_tx_usrclk_int $end
$var reg 1 2. gtwiz_userclk_tx_usrclk2_int $end
$var reg 1 3. gtwiz_userclk_tx_active_int $end
$var reg 1 4. gtwiz_userclk_rx_reset_int $end
$var reg 1 5. gtwiz_userclk_rx_usrclk_int $end
$var reg 1 6. gtwiz_userclk_rx_usrclk2_int $end
$var reg 1 7. gtwiz_userclk_rx_active_int $end
$var reg 36 8. drpaddr_int [35:0] $end
$var reg 4 \. drpclk_int [3:0] $end
$var reg 4 `. drpdi_int [3:0] $end
$var reg 4 d. drpen_int [3:0] $end
$var reg 4 h. drpwe_int [3:0] $end
$var reg 4 l. eyescanreset_int [3:0] $end
$var reg 4 p. rx8b10ben_int [3:0] $end
$var reg 4 t. rxcommadeten_int [3:0] $end
$var reg 4 x. rxlpmen_int [3:0] $end
$var reg 4 |. rxmcommaalignen_int [3:0] $end
$var reg 4 "/ rxpcommaalignen_int [3:0] $end
$var reg 12 &/ rxrate_int [11:0] $end
$var reg 4 2/ tx8b10ben_int [3:0] $end
$var reg 16 6/ txdiffctrl_int [15:0] $end
$var reg 20 F/ txpostcursor_int [19:0] $end
$var reg 20 Z/ txprecursor_int [19:0] $end
$var reg 64 n/ drpdo_int [63:0] $end
$var reg 4 P0 drprdy_int [3:0] $end
$var reg 4 T0 gtpowergood_int [3:0] $end
$var reg 4 X0 rxbyteisaligned_int [3:0] $end
$var reg 4 \0 rxbyterealign_int [3:0] $end
$var reg 4 `0 rxcommadet_int [3:0] $end
$var reg 4 d0 rxpmaresetdone_int [3:0] $end
$var reg 4 h0 txpmaresetdone_int [3:0] $end
$var reg 16 l0 ch0_rxctrl0_int [15:0] $end
$var reg 16 |0 ch1_rxctrl0_int [15:0] $end
$var reg 16 .1 ch2_rxctrl0_int [15:0] $end
$var reg 16 >1 ch3_rxctrl0_int [15:0] $end
$var reg 16 N1 ch0_rxctrl1_int [15:0] $end
$var reg 16 ^1 ch1_rxctrl1_int [15:0] $end
$var reg 16 n1 ch2_rxctrl1_int [15:0] $end
$var reg 16 ~1 ch3_rxctrl1_int [15:0] $end
$var reg 8 02 ch0_rxctrl2_int [7:0] $end
$var reg 8 82 ch1_rxctrl2_int [7:0] $end
$var reg 8 @2 ch2_rxctrl2_int [7:0] $end
$var reg 8 H2 ch3_rxctrl2_int [7:0] $end
$var reg 8 P2 ch0_rxctrl3_int [7:0] $end
$var reg 8 X2 ch1_rxctrl3_int [7:0] $end
$var reg 8 `2 ch2_rxctrl3_int [7:0] $end
$var reg 8 h2 ch3_rxctrl3_int [7:0] $end
$var reg 16 p2 ch0_txctrl0_int [15:0] $end
$var reg 16 "3 ch1_txctrl0_int [15:0] $end
$var reg 16 23 ch2_txctrl0_int [15:0] $end
$var reg 16 B3 ch3_txctrl0_int [15:0] $end
$var reg 16 R3 ch0_txctrl1_int [15:0] $end
$var reg 16 b3 ch1_txctrl1_int [15:0] $end
$var reg 16 r3 ch2_txctrl1_int [15:0] $end
$var reg 16 $4 ch3_txctrl1_int [15:0] $end
$var reg 8 44 ch0_txctrl2_int [7:0] $end
$var reg 8 <4 ch1_txctrl2_int [7:0] $end
$var reg 8 D4 ch2_txctrl2_int [7:0] $end
$var reg 8 L4 ch3_txctrl2_int [7:0] $end
$var reg 40 T4 hb0_rxdata_nml_ctr [39:0] $end
$var reg 16 |4 ch0_rxdata_err_ctr [15:0] $end
$var reg 16 .5 ch1_rxdata_err_ctr [15:0] $end
$var reg 16 >5 ch2_rxdata_err_ctr [15:0] $end
$var reg 16 N5 ch3_rxdata_err_ctr [15:0] $end
$var reg 1 ^5 _TRIGGER $end
$var reg 1 _5 _WINDOW $end
$var reg 1 `5 _GAP $end
$upscope $end
$enddefinitions $end
#0
$dumpvars
b1001101110000101100111110000010110000011001011101000010001110010001100010110111010111001100001010000000000000000000000000000000000000000000000000000000000000000000000000000000000000000000000000000000000000000000000000000000000000000000000000000000000000000000000001111000011110000111100001111000000000000000000000000000000000000000000000000000000000000000000000000000000000000000000000000000000000000000000000000000000000000000000000000000000000000000000001111111100000000111111110000000000000000000000000000000000000000000000000000000000000000000000000000000000000000000000000000000000001100110011001100111100000000000011111111111111111111000000000000000011000000010110000010110000010110000010111000111011101000000101000000111100111100010100001101010000001111001111000101000011010100000011110011110001010000110101000000111100111100010100001111000011101100001011000011000011001000010001110010110000110000110010000100011100101100001100001111100101010110011011000011000011 "
b11100101010110011011000011000011 @+
b100001000111001011000011000011 `+
b100001000111001011000011000011 ",
b11000011101100001011000011000011 B,
b1010000001111001111000101000011 b,
b1010000001111001111000101000011 $-
b1010000001111001111000101000011 D-
b1010000001111001111000101000011 d-
b0 &.
0*.
1+.
0,.
1-.
1..
1/.
00.
11.
12.
13.
04.
05.
06.
17.
b1011000001011000001011000001011 8.
b1100 \.
b0 `.
b0 d.
b0 h.
b0 l.
b1111 p.
b1111 t.
b1111 x.
b1111 |.
b1111 "/
b0 &/
b1111 2/
b1100110011001100 6/
b0 F/
b0 Z/
b0 n/
b0 P0
b1111 T0
b1111 X0
b0 \0
b0 `0
b1111 d0
b1111 h0
b0 l0
b0 |0
b0 .1
b0 >1
b0 N1
b0 ^1
b0 n1
b0 ~1
b0 02
b0 82
b0 @2
b0 H2
b11110000 P2
b11110000 X2
b11110000 `2
b11110000 h2
b0 p2
b0 "3
b0 23
b0 B3
b0 R3
b0 b3
b0 r3
b0 $4
b0 44
b0 <4
b0 D4
b0 L4
b11000101101110101110011000010100000000 T4
b1000010001110010 |4
b1000001100101110 .5
b1001111100000101 >5
b1001101110000101 N5
0^5
1_5
0`5
$end
#1
b1001101110001101100111110000110110000011001101101000010001111010001100010110111010111001100001010000100000000000000000000000000000000000000000000000000000000000000000000000000000000000000000000000000000000000000000000000000000000000000000000000000000000000000000001111000011110000111100001111000000000000000000000000000000000000000000000000000000000000000000000000000000000000000000000000000000000000000000000000000000000000000000000000000000000000000000001111111100000000111111110000000000000000000000000000000000000000000000000000000000000000000000000000000000000000000000000000000000001100110011001100111100000000000011111111111111111111000000000000000011000000010110000010110000010110000010111000100011101000000101000000111100100000100000011101010000001111001000001000000111010100000011110001001010101001110101000000111100010110101010011110011110110010001011000011000011011000001000000110110000110000110110000010000001101100001100001111111101101011001011000011000011 "
b11111101101011001011000011000011 @+
b1100000100000011011000011000011 `+
b1100000100000011011000011000011 ",
b10011110110010001011000011000011 B,
b1010000001111000101101010100111 b,
b1010000001111000100101010100111 $-
b1010000001111001000001000000111 D-
b1010000001111001000001000000111 d-
01.
02.
b11000101101110101110011000010100001000 T4
b1000010001111010 |4
b1000001100110110 .5
b1001111100001101 >5
b1001101110001101 N5
#2
b1001101110010100100111110001010010000011001111011000010010000001001100010110111010111001100001010001000000000000000000000000000000000000000000000000000000000000000000000000000000000000000000000000000000000000000000000000000000000000000000000000000000000000000000001111000011110000111100001111000000000000000000000000000000000000000000000000000000000000000000000000000000000000000000000000000000000000000000000000000000000000000000000000000000000000000000001111111100000000111111110000000000000000000000000000000000000000000000000000000000000000000000000000000000000000000000000000000000001100110011001100111100000000000011111111111111111111000000000000000011000000010110000010110000010110000010111110100010101100000101000000111100110000010000001101010000001111001100000100000011010100000011110011000001000000110101000000111100110000010000001111000101101010111011000011000011110100001010000010110000110000111101000010100000101100001100001111111110010101101011000011000011 "
b11111110010101101011000011000011 @+
b11010000101000001011000011000011 `+
b11010000101000001011000011000011 ",
b11000101101010111011000011000011 B,
b1010000001111001100000100000011 b,
b1010000001111001100000100000011 $-
b1010000001111001100000100000011 D-
b1010000001111001100000100000011 d-
1*.
0..
15.
16.
b11000101101110101110011000010100010000 T4
b1000010010000001 |4
b1000001100111101 .5
b1001111100010100 >5
b1001101110010100 N5
#3
b1001101110011100100111110001110010000011010001011000010010001001001100010110111010111001100001010001100000000000000000000000000000000000000000000000000000000000000000000000000000000000000000000000000000000000000000000000000000000000000000000000000000000000000000001111000011110000111100001111000000000000000000000000000000000000000000000000000000000000000000000000000000000000000000000000000000000000000000000000000000000000000000000000000000000000000000001111111100000000111111110000000000000000000000000000000000000000000000000000000000000000000000000000000000000000000000000000000000001100110011001100111100000000000011111111111111111111000000000000000011000000010110000010110000010110000010111110110010101100000101000000111100011000001000000101010000001111000110000010000001010100000011110001100000100000010101000000111100011000001000000100011000110000001011000011000011011111111010101110110000110000110111111110101011101100001100001100110001111101101011000011000011 "
b110001111101101011000011000011 @+
b1111111101010111011000011000011 `+
b1111111101010111011000011000011 ",
b11000110000001011000011000011 B,
b1010000001111000110000010000001 b,
b1010000001111000110000010000001 $-
b1010000001111000110000010000001 D-
b1010000001111000110000010000001 d-
12.
b11000101101110101110011000010100011000 T4
b1000010010001001 |4
b1000001101000101 .5
b1001111100011100 >5
b1001101110011100 N5
#4
b1001101110100011100111110010001110000011010011001000010010010000001100010110111010111001100001010001111100000000000000000000000000000000000000000000000000000000000000000000000000000000000000000000000000000000000000000000000000000000000000000000000000000000000000001111000011110000111100001111000000000000000000000000000000000000000000000000000000000000000000000000000000000000000000000000000000000000000000000000000000000000000000000000000000000000000000001111111100000000111111110000000000000000000000000000000000000000000000000000000000000000000000000000000000000000000000000000000000001100110011001100111100000000000011111111111111111111000000000000000011000000010110000010110000010110000010111000111011101100000101000000111100001100000100000001010000001111000011000001000000010100000011110000110000010000000101000000111100001100000100000000010011000100001011000011000011110111110101010110110000110000111101111101010101101100001100001101100111011010111011000011000011 "
b1100111011010111011000011000011 @+
b11011111010101011011000011000011 `+
b11011111010101011011000011000011 ",
b10011000100001011000011000011 B,
b1010000001111000011000001000000 b,
b1010000001111000011000001000000 $-
b1010000001111000011000001000000 D-
b1010000001111000011000001000000 d-
1..
11.
05.
06.
b11000101101110101110011000010100011111 T4
b1000010010010000 |4
b1000001101001100 .5
b1001111100100011 >5
b1001101110100011 N5
#5
b1001101110101011100111110010101110000011010101001000010010011000001100010110111010111001100001010010011100000000000000000000000000000000000000000000000000000000000000000000000000000000000000000000000000000000000000000000000000000000000000000000000000000000000000001111000011110000111100001111000000000000000000000000000000000000000000000000000000000000000000000000000000000000000000000000000000000000000000000000000000000000000000000000000000000000000000001111111100000000111111110000000000000000000000000000000000000000000000000000000000000000000000000000000000000000000000000000000000001100110011001100111100000000000011111111111111111111000000000000000011000000010110000010110000010110000010111000111011101000000101000000111100000110000010000001010000001111000001100000100000010100000011110000011000001000000101000000111100000110000010000010011001000010001011000011000011000111110010101010110000110000110001111100101010101100001100001111001100010001011011000011000011 "
b11001100010001011011000011000011 @+
b11111001010101011000011000011 `+
b11111001010101011000011000011 ",
b10011001000010001011000011000011 B,
b1010000001111000001100000100000 b,
b1010000001111000001100000100000 $-
b1010000001111000001100000100000 D-
b1010000001111000001100000100000 d-
0*.
b11000101101110101110011000010100100111 T4
b1000010010011000 |4
b1000001101010100 .5
b1001111100101011 >5
b1001101110101011 N5
#6
b1001101110110011100111110011001110000011010111001000010010100000001100010110111010111001100001010010111100000000000000000000000000000000000000000000000000000000000000000000000000000000000000000000000000000000000000000000000000000000000000000000000000000000000000001111000011110000111100001111000000000000000000000000000000000000000000000000000000000000000000000000000000000000000000000000000000000000000000000000000000000000000000000000000000000000000000001111111100000000111111110000000000000000000000000000000000000000000000000000000000000000000000000000000000000000000000000000000000001100110011001100111100000000000011111111111111111111000000000000000011000000010110000010110000010110000010111110100011101000000101000000111100001111111010101001010000001111000011111110101010010100000011110000111111101010100101000000111100001111111010101010111100000001001011000011000011000011111111010110110000110000110000111111110101101100001100001110000110001111011011000011000011 "
b10000110001111011011000011000011 @+
b1111111101011011000011000011 `+
b1111111101011011000011000011 ",
b10111100000001001011000011000011 B,
b1010000001111000011111110101010 b,
b1010000001111000011111110101010 $-
b1010000001111000011111110101010 D-
b1010000001111000011111110101010 d-
01.
02.
15.
16.
b11000101101110101110011000010100101111 T4
b1000010010100000 |4
b1000001101011100 .5
b1001111100110011 >5
b1001101110110011 N5
#7
b1001101110111011100111110011101110000011011001001000010010101000001100010110111010111001100001010011011100000000000000000000000000000000000000000000000000000000000000000000000000000000000000000000000000000000000000000000000000000000000000000000000000000000000000001111000011110000111100001111000000000000000000000000000000000000000000000000000000000000000000000000000000000000000000000000000000000000000000000000000000000000000000000000000000000000000000001111111100000000111111110000000000000000000000000000000000000000000000000000000000000000000000000000000000000000000000000000000000001100110011001100111100000000000011111111111111111111000000000000000011000000010110000010110000010110000010111110100010101100000101000000111100000111111101010101010000001111000001111111010101010100000011110000011111110101010101000000111100000111111101010100000111111010101011000011000011001100111110000110110000110000111000011111100010101100001100001110110011111100011011000011000011 "
b10110011111100011011000011000011 @+
b10000111111000101011000011000011 `+
b110011111000011011000011000011 ",
b111111010101011000011000011 B,
b1010000001111000001111111010101 b,
b1010000001111000001111111010101 $-
b1010000001111000001111111010101 D-
b1010000001111000001111111010101 d-
1*.
0..
b11000101101110101110011000010100110111 T4
b1000010010101000 |4
b1000001101100100 .5
b1001111100111011 >5
b1001101110111011 N5
#8
b1001101111000011100111110100001110000011011011001000010010110000001100010110111010111001100001010011111100000000000000000000000000000000000000000000000000000000000000000000000000000000000000000000000000000000000000000000000000000000000000000000000000000000000000001111000011110000111100001111000000000000000000000000000000000000000000000000000000000000000000000000000000000000000000000000000000000000000000000000000000000000000000000000000000000000000000001111111100000000111111110000000000000000000000000000000000000000000000000000000000000000000000000000000000000000000000000000000000001100110011001100111100000000000011111111111111111111000000000000000011000000010110000010110000010110000010111000111010101100000101000000111100000011111110101001010000001111000000111111101010010100000011110000001111111010100101000000111100000011111110101000011100111001011011000011000011010110010111011110110000110000110101100101110111101100001100001110110100000110111011000011000011 "
b10110100000110111011000011000011 @+
b1011001011101111011000011000011 `+
b1011001011101111011000011000011 ",
b11100111001011011000011000011 B,
b1010000001111000000111111101010 b,
b1010000001111000000111111101010 $-
b1010000001111000000111111101010 D-
b1010000001111000000111111101010 d-
11.
12.
05.
06.
b11000101101110101110011000010100111111 T4
b1000010010110000 |4
b1000001101101100 .5
b1001111101000011 >5
b1001101111000011 N5
#9
b1001101111001010100111110100101010000011011100111000010010110111001100010110111010111001100001010100011000000000000000000000000000000000000000000000000000000000000000000000000000000000000000000000000000000000000000000000000000000000000000000000000000000000000000001111000011110000111100001111000000000000000000000000000000000000000000000000000000000000000000000000000000000000000000000000000000000000000000000000000000000000000000000000000000000000000000001111111100000000111111110000000000000000000000000000000000000000000000000000000000000000000000000000000000000000000000000000000000001100110011001100111100000000000011111111111111111111000000000000000011000000010110000010110000010110000010111000111011101000000101000000111100000001111111010101010000001111000000011111110101010100000011110000000111111101010101000000111100000001111111010110000001111111011011000011000011101011001101101110110000110000111010110011011011101100001100001101011010100100101011000011000011 "
b1011010100100101011000011000011 @+
b10101100110110111011000011000011 `+
b10101100110110111011000011000011 ",
b10000001111111011011000011000011 B,
b1010000001111000000011111110101 b,
b1010000001111000000011111110101 $-
b1010000001111000000011111110101 D-
b1010000001111000000011111110101 d-
0*.
1..
b11000101101110101110011000010101000110 T4
b1000010010110111 |4
b1000001101110011 .5
b1001111101001010 >5
b1001101111001010 N5
#10
b1001101111010010100111110101001010000011011110111000010010111111001100010110111010111001100001010100111000000000000000000000000000000000000000000000000000000000000000000000000000000000000000000000000000000000000000000000000000000000000000000000000000000000000000001111000011110000111100001111000000000000000000000000000000000000000000000000000000000000000000000000000000000000000000000000000000000000000000000000000000000000000000000000000000000000000000001111111100000000111111110000000000000000000000000000000000000000000000000000000000000000000000000000000000000000000000000000000000001100110011001100111100000000000011111111111111111111000000000000000011000000010110000010110000010110000010111000100011101000000101000000111100000000111111101001010000001111000010011011111010010100000011110000000011111110100101000000111100000000111111101010100000111111101011000011000011010101101001110110110000110000110101011010011101101100001100001100101101001110011011000011000011 "
b101101001110011011000011000011 @+
b1010110100111011011000011000011 `+
b1010110100111011011000011000011 ",
b10100000111111101011000011000011 B,
b1010000001111000000001111111010 b,
b1010000001111000000001111111010 $-
b1010000001111000010011011111010 D-
b1010000001111000000001111111010 d-
01.
02.
b11000101101110101110011000010101001110 T4
b1000010010111111 |4
b1000001101111011 .5
b1001111101010010 >5
b1001101111010010 N5
#11
b1001101111011010100111110101101010000011100000111000010011000111001100010110111010111001100001010101011000000000000000000000000000000000000000000000000000000000000000000000000000000000000000000000000000000000000000000000000000000000000000000000000000000000000000001111000011110000111100001111000000000000000000000000000000000000000000000000000000000000000000000000000000000000000000000000000000000000000000000000000000000000000000000000000000000000000000001111111100000000111111110000000000000000000000000000000000000000000000000000000000000000000000000000000000000000000000000000000000001100110011001100111100000000000011111111111111111111000000000000000011000000010110000010110000010110000010111110100010101000000101000000111100010100110011101101010000001111000101001100111011010100000011110001010011001110110101000000111100010100110011101111000000011111111011000011000011101010110011000110110000110000111010101100110001101100001100001111110110011111001011000011000011 "
b11110110011111001011000011000011 @+
b10101011001100011011000011000011 `+
b10101011001100011011000011000011 ",
b11000000011111111011000011000011 B,
b1010000001111000101001100111011 b,
b1010000001111000101001100111011 $-
b1010000001111000101001100111011 D-
b1010000001111000101001100111011 d-
0..
15.
16.
b11000101101110101110011000010101010110 T4
b1000010011000111 |4
b1000001110000011 .5
b1001111101011010 >5
b1001101111011010 N5
#12
b1001101111100010100111110110001010000011100010111000010011001111001100010110111010111001100001010101111000000000000000000000000000000000000000000000000000000000000000000000000000000000000000000000000000000000000000000000000000000000000000000000000000000000000000001111000011110000111100001111000000000000000000000000000000000000000000000000000000000000000000000000000000000000000000000000000000000000000000000000000000000000000000000000000000000000000000001111111100000000111111110000000000000000000000000000000000000000000000000000000000000000000000000000000000000000000000000000000000001100110011001100111100000000000011111111111111111111000000000000000011000000010110000010110000010110000010111110100010101100000101000000111100101010011001110101010000001111001010100110011101010100000011110010101001100111010101000000111100101010011001110101010101011001111011000011000011011010110100111010110000110000110110101101001110101100001100001101101001010010101011000011000011 "
b1101001010010101011000011000011 @+
b1101011010011101011000011000011 `+
b1101011010011101011000011000011 ",
b1010101011001111011000011000011 B,
b1010000001111001010100110011101 b,
b1010000001111001010100110011101 $-
b1010000001111001010100110011101 D-
b1010000001111001010100110011101 d-
1*.
b11000101101110101110011000010101011110 T4
b1000010011001111 |4
b1000001110001011 .5
b1001111101100010 >5
b1001101111100010 N5
#13
b1001101111101010100111110110101110000011100100111000010011010111001100010110111010111001100001010110010100000000000000000000000000000000000000000000000000000000000000000000000000000000000000000000000000000000000000000000000000000000000000000000000000000000000000001111000011110000111100001111000000000000000000000000000000000000000000000000000000000000000000000000000000000000000000000000000000000000000000000000000000000000000000000000000000000000000000001111111100000000111111110000000000000000000000000000000000000000000000000000000000000000000000000000000000000000000000000000000000001100110011001100111100000000000011111111111111111111000000000000000011000000010110000010110000010110000010111000111010101100000101000000111100010101001100111001010000001111000101010011001110010100000011110001010100110011100101000000111100010101001100111000101010110011001011000011000011010001011011100010110000110000110100010110111000101100001100001100111110001010011011000011000011 "
b111110001010011011000011000011 @+
b1000101101110001011000011000011 `+
b1000101101110001011000011000011 ",
b101010110011001011000011000011 B,
b1010000001111000101010011001110 b,
b1010000001111000101010011001110 $-
b1010000001111000101010011001110 D-
b1010000001111000101010011001110 d-
11.
12.
05.
06.
b11000101101110101110011000010101100101 T4
b1000010011010111 |4
b1000001110010011 .5
b1001111101101011 >5
b1001101111101010 N5
#14
b1001101111110001100111110111000110000011100110101000010011011110001100010110111010111001100001010110110100000000000000000000000000000000000000000000000000000000000000000000000000000000000000000000000000000000000000000000000000000000000000000000000000000000000000001111000011110000111100001111000000000000000000000000000000000000000000000000000000000000000000000000000000000000000000000000000000000000000000000000000000000000000000000000000000000000000000001111111100000000111111110000000000000000000000000000000000000000000000000000000000000000000000000000000000000000000000000000000000001100110011001100111100000000000011111111111111111111000000000000000011000000010110000010110000010110000010111000111011101000000101000000111100101010100110011101010000001111001010101001100111010100000011110010101010011001110101000000111100101010100110011111110101100001101011000011000011001111011101001110110000110000110011110111010011101100001100001101101111011101001011000011000011 "
b1101111011101001011000011000011 @+
b111101110100111011000011000011 `+
b111101110100111011000011000011 ",
b11110101100001101011000011000011 B,
b1010000001111001010101001100111 b,
b1010000001111001010101001100111 $-
b1010000001111001010101001100111 D-
b1010000001111001010101001100111 d-
0*.
1..
b11000101101110101110011000010101101101 T4
b1000010011011110 |4
b1000001110011010 .5
b1001111101110001 >5
b1001101111110001 N5
#15
b1001101111111001100111110111100110000011101000101000010011100110001100010110111010111001100001010111010100000000000000000000000000000000000000000000000000000000000000000000000000000000000000000000000000000000000000000000000000000000000000000000000000000000000000001111000011110000111100001111000000000000000000000000000000000000000000000000000000000000000000000000000000000000000000000000000000000000000000000000000000000000000000000000000000000000000000001111111100000000111111110000000000000000000000000000000000000000000000000000000000000000000000000000000000000000000000000000000000001100110011001100111100000000000011111111111111111111000000000000000011000000010110000010110000010110000010111110100011101000000101000000111100101110100101100001010000001111001011101001011000010100000011110011110010011110000101000000111100111101100101100011101010101100111011000011000011111100011000100110110000110000111111000110001001101100001100001111010111010010101011000011000011 "
b11010111010010101011000011000011 @+
b11110001100010011011000011000011 `+
b11110001100010011011000011000011 ",
b11101010101100111011000011000011 B,
b1010000001111001111011001011000 b,
b1010000001111001111001001111000 $-
b1010000001111001011101001011000 D-
b1010000001111001011101001011000 d-
01.
02.
15.
16.
b11000101101110101110011000010101110101 T4
b1000010011100110 |4
b1000001110100010 .5
b1001111101111001 >5
b1001101111111001 N5
#16
b1001110000000001100111111000000110000011101010101000010011101110001100010110111010111001100001010111110100000000000000000000000000000000000000000000000000000000000000000000000000000000000000000000000000000000000000000000000000000000000000000000000000000000000000001111000011110000111100001111000000000000000000000000000000000000000000000000000000000000000000000000000000000000000000000000000000000000000000000000000000000000000000000000000000000000000000001111111100000000111111110000000000000000000000000000000000000000000000000000000000000000000000000000000000000000000000000000000000001100110011001100111100000000000011111111111111111111000000000000000011000000010110000010110000010110000010111110100010101100000101000000111100110111010010110001010000001111001101110100101100010100000011110011011101001011000101000000111100110111010010110001110111111101011011000011000011011101111011010010110000110000110111011110110100101100001100001100011011001001011011000011000011 "
b11011001001011011000011000011 @+
b1110111101101001011000011000011 `+
b1110111101101001011000011000011 ",
b1110111111101011011000011000011 B,
b1010000001111001101110100101100 b,
b1010000001111001101110100101100 $-
b1010000001111001101110100101100 D-
b1010000001111001101110100101100 d-
1*.
0..
b11000101101110101110011000010101111101 T4
b1000010011101110 |4
b1000001110101010 .5
b1001111110000001 >5
b1001110000000001 N5
#17
b1001110000001001100111111000100110000011101100101000010011110110001100010110111010111001100001011000010100000000000000000000000000000000000000000000000000000000000000000000000000000000000000000000000000000000000000000000000000000000000000000000000000000000000000001111000011110000111100001111000000000000000000000000000000000000000000000000000000000000000000000000000000000000000000000000000000000000000000000000000000000000000000000000000000000000000000001111111100000000111111110000000000000000000000000000000000000000000000000000000000000000000000000000000000000000000000000000000000001100110011001100111100000000000011111111111111111111000000000000000011000000010110000010110000010110000010111110111010101100000101000000111100111011101001011001010000001111001110111010010110010100000011110011101110100101100101000000111100111011101001011011011011010110101011000011000011100100101111001010110000110000111001001011110010101100001100001101110011100011101011000011000011 "
b1110011100011101011000011000011 @+
b10010010111100101011000011000011 `+
b10010010111100101011000011000011 ",
b11011011010110101011000011000011 B,
b1010000001111001110111010010110 b,
b1010000001111001110111010010110 $-
b1010000001111001110111010010110 D-
b1010000001111001110111010010110 d-
11.
12.
b11000101101110101110011000010110000101 T4
b1000010011110110 |4
b1000001110110010 .5
b1001111110001001 >5
b1001110000001001 N5
#18
b1001110000001111100111111000111110000011101110001000010011111100001100010110111010111001100001011000110000000000000000000000000000000000000000000000000000000000000000000000000000000000000000000000000000000000000000000000000000000000000000000000000000000000000000001111000011110000111100001111000000000000000000000000000000000000000000000000000000000000000000000000000000000000000000000000000000000000000000000000000000000000000000000000000000000000000000001111111100000000111111110000000000000000000000000000000000000000000000000000000000000000000000000000000000000000000000000000000000001100110011001100111100000000000011111111111111111111000000000000000011000000010110000010110000010110000010111000111011101100000101000000111100011101110100101101010000001111000111011101001011010100000011110001110111010010110101000000111100011101110100101110011101001011011011000011000011001110011110100110110000110000110011100111101001101100001100001101001001101010001011000011000011 "
b1001001101010001011000011000011 @+
b111001111010011011000011000011 `+
b111001111010011011000011000011 ",
b10011101001011011011000011000011 B,
b1010000001111000111011101001011 b,
b1010000001111000111011101001011 $-
b1010000001111000111011101001011 D-
b1010000001111000111011101001011 d-
1..
05.
06.
b11000101101110101110011000010110001100 T4
b1000010011111100 |4
b1000001110111000 .5
b1001111110001111 >5
b1001110000001111 N5
#19
b1001110000010111100111111001011110000011110000001000010100000100001100010110111010111001100001011001010000000000000000000000000000000000000000000000000000000000000000000000000000000000000000000000000000000000000000000000000000000000000000000000000000000000000000001111000011110000111100001111000000000000000000000000000000000000000000000000000000000000000000000000000000000000000000000000000000000000000000000000000000000000000000000000000000000000000000001111111100000000111111110000000000000000000000000000000000000000000000000000000000000000000000000000000000000000000000000000000000001100110011001100111100000000000011111111111111111111000000000000000011000000010110000010110000010110000010111000111011101000000101000000111100001110111010010101010000001111000011101110100101010100000011110000111011101001010101000000111100001110111010010100110001111101101011000011000011011111000111101110110000110000110111110001111011101100001100001110111011110001001011000011000011 "
b10111011110001001011000011000011 @+
b1111100011110111011000011000011 `+
b1111100011110111011000011000011 ",
b110001111101101011000011000011 B,
b1010000001111000011101110100101 b,
b1010000001111000011101110100101 $-
b1010000001111000011101110100101 D-
b1010000001111000011101110100101 d-
0*.
b11000101101110101110011000010110010100 T4
b1000010100000100 |4
b1000001111000000 .5
b1001111110010111 >5
b1001110000010111 N5
#20
b1001110000011111100111111001111110000011110010001000010100001100001100010110111010111001100001011001110000000000000000000000000000000000000000000000000000000000000000000000000000000000000000000000000000000000000000000000000000000000000000000000000000000000000000001111000011110000111100001111000000000000000000000000000000000000000000000000000000000000000000000000000000000000000000000000000000000000000000000000000000000000000000000000000000000000000000001111111100000000111111110000000000000000000000000000000000000000000000000000000000000000000000000000000000000000000000000000000000001100110011001100111100000000000011111111111111111111000000000000000011000000010110000010110000010110000010111110100011101000000101000000111100110001101111011001010000001111001100011011110110010100000011110011000110111101100101000000111100110001101111011001100111011010111011000011000011010011100101110110110000110000110100111001011101101100001100001101010010100011011011000011000011 "
b1010010100011011011000011000011 @+
b1001110010111011011000011000011 `+
b1001110010111011011000011000011 ",
b1100111011010111011000011000011 B,
b1010000001111001100011011110110 b,
b1010000001111001100011011110110 $-
b1010000001111001100011011110110 D-
b1010000001111001100011011110110 d-
01.
02.
15.
16.
b11000101101110101110011000010110011100 T4
b1000010100001100 |4
b1000001111001000 .5
b1001111110011111 >5
b1001110000011111 N5
#21
b1001110000100111100111111010011110000011110100001000010100010100001100010110111010111001100001011010010000000000000000000000000000000000000000000000000000000000000000000000000000000000000000000000000000000000000000000000000000000000000000000000000000000000000000001111000011110000111100001111000000000000000000000000000000000000000000000000000000000000000000000000000000000000000000000000000000000000000000000000000000000000000000000000000000000000000000001111111100000000111111110000000000000000000000000000000000000000000000000000000000000000000000000000000000000000000000000000000000001100110011001100111100000000000011111111111111111111000000000000000011000000010110000010110000010110000010111110100010101100000101000000111100011000110111101101010000001111000110001101111011010100000011110001100011011110110101000000111100011000110111101110111000001111101011000011000011101010010011011010110000110000110011100000110110101100001100001100101001001101101011000011000011 "
b101001001101101011000011000011 @+
b111000001101101011000011000011 `+
b10101001001101101011000011000011 ",
b10111000001111101011000011000011 B,
b1010000001111000110001101111011 b,
b1010000001111000110001101111011 $-
b1010000001111000110001101111011 D-
b1010000001111000110001101111011 d-
1*.
0..
b11000101101110101110011000010110100100 T4
b1000010100010100 |4
b1000001111010000 .5
b1001111110100111 >5
b1001110000100111 N5
