OpticalTests/.Xil/Vivado-41796-higgs.physics.ucsb.edu/hw_ila_data_1/zip_work/waveform.vcd
$date
        2021-Nov-11 10:33:19
$end
$version
        Vivado v2019.2 (64-bit)
$end
$timescale
        1ps
$end
$scope module dut $end
$var reg 32 " receiver_0 [31:0] $end
$var reg 618 B ila_data [617:0] $end
$var reg 32 x' receiver_1 [31:0] $end
$var reg 32 :( receiver_2 [31:0] $end
$var reg 32 Z( receiver_3 [31:0] $end
$var reg 32 z( transmitter_0 [31:0] $end
$var reg 32 <) transmitter_1 [31:0] $end
$var reg 32 \) transmitter_2 [31:0] $end
$var reg 32 |) transmitter_3 [31:0] $end
$var reg 4 >* prbs_match_int [3:0] $end
$var reg 16 B* ch0_rxctrl0_int [15:0] $end
$var reg 16 R* ch1_rxctrl0_int [15:0] $end
$var reg 16 b* ch2_rxctrl0_int [15:0] $end
$var reg 16 r* ch3_rxctrl0_int [15:0] $end
$var reg 16 $+ ch0_rxctrl1_int [15:0] $end
$var reg 16 4+ ch1_rxctrl1_int [15:0] $end
$var reg 16 D+ ch2_rxctrl1_int [15:0] $end
$var reg 16 T+ ch3_rxctrl1_int [15:0] $end
$var reg 8 d+ ch0_rxctrl2_int [7:0] $end
$var reg 8 l+ ch1_rxctrl2_int [7:0] $end
$var reg 8 t+ ch2_rxctrl2_int [7:0] $end
$var reg 8 |+ ch3_rxctrl2_int [7:0] $end
$var reg 8 &, ch0_rxctrl3_int [7:0] $end
$var reg 8 ., ch1_rxctrl3_int [7:0] $end
$var reg 8 6, ch2_rxctrl3_int [7:0] $end
$var reg 8 >, ch3_rxctrl3_int [7:0] $end
$var reg 16 F, ch0_txctrl0_int [15:0] $end
$var reg 16 V, ch1_txctrl0_int [15:0] $end
$var reg 16 f, ch2_txctrl0_int [15:0] $end
$var reg 16 v, ch3_txctrl0_int [15:0] $end
$var reg 16 (- ch0_txctrl1_int [15:0] $end
$var reg 16 8- ch1_txctrl1_int [15:0] $end
$var reg 16 H- ch2_txctrl1_int [15:0] $end
$var reg 16 X- ch3_txctrl1_int [15:0] $end
$var reg 8 h- ch0_txctrl2_int [7:0] $end
$var reg 8 p- ch1_txctrl2_int [7:0] $end
$var reg 8 x- ch2_txctrl2_int [7:0] $end
$var reg 8 ". ch3_txctrl2_int [7:0] $end
$var reg 1 *. hb0_gtwiz_userclk_rx_usrclk2_int $end
$var reg 1 +. hb0_gtwiz_userclk_rx_active_int $end
$var reg 1 ,. hb_gtwiz_reset_all_int $end
$var reg 1 -. hb0_gtwiz_reset_rx_done_int $end
$var reg 1 .. hb0_gtwiz_userclk_tx_usrclk2_int $end
$var reg 1 /. hb0_gtwiz_userclk_tx_active_int $end
$var reg 1 0. _TRIGGER $end
$var reg 1 1. _WINDOW $end
$var reg 1 2. _GAP $end
$upscope $end
$enddefinitions $end
#0
$dumpvars
b1111010011010011101010010100001 "
b111011000000000000000000000000000000000000000000000000000000000000000000000000000000000000000000000000000000000000000000000000000000000000000000000000000000000000000011110000111110001111000011110000000000000000000000000000000000000000000000000000000000000000010000000000000001100000000000000000000000000000000000000000000000000000000000000000000000000000000000000100100110110111000111101000001101001001101101110001111010000011010010011011011100011110100000110100100110110111000111101000001101101100100111011010001001101000000110001000011000101011110000000010110100000000001001100001101101111010011010011101010010100001 B
b101101000000000010011000011011 x'
b11000100001100010101111000000 :(
b1101100100111011010001001101000 Z(
b1001001101101110001111010000011 z(
b1001001101101110001111010000011 <)
b1001001101101110001111010000011 \)
b1001001101101110001111010000011 |)
b0 >*
b0 B*
b0 R*
b0 b*
b0 r*
b0 $+
b110 4+
b100 D+
b0 T+
b0 d+
b0 l+
b0 t+
b0 |+
b11110000 &,
b11110000 .,
b11111000 6,
b11110000 >,
b0 F,
b0 V,
b0 f,
b0 v,
b0 (-
b0 8-
b0 H-
b0 X-
b0 h-
b0 p-
b0 x-
b0 ".
1*.
1+.
0,.
1-.
1..
1/.
00.
11.
02.
$end
#1
b10100101001000111001111110000 "
b111011000000000000000000000000000000000000000000000000000000000000000000000000000000000000000000000000000000000000000000000000000000000000000000000000000000000000000011110101111100001111000011110000000000000000000000000000000000000000000000000001000000000000000000000000000010000000000000000000000000000000000100000000000000000000000000000000000000000000000000000101001001101101110001111010000001010010011011011100011110100000010100100110110111000111101000000101001001101101110001111010000011100010010110100111010010001101111111010000111101011000100001111110001011011010111000000111100100010100101001000111001111110000 B
b11100010110110101110000001111001 x'
b11111101000011110101100010000111 :(
b11100010010110100111010010001101 Z(
b1010010011011011100011110100000 z(
b1010010011011011100011110100000 <)
b1010010011011011100011110100000 \)
b1010010011011011100011110100000 |)
b1 r*
b1000 4+
b0 D+
b1 T+
b11110000 6,
b11110101 >,
#2
b10010011000100001100000011000110 "
b111010000000000000000000000000000000000000000000000000000000000000000000000000000000000000000000000000000000000000000000000000000000000000000000000000000000000000000011110001111100001111000011110111000000000000000000000000000000000000000000001100000000000000000000000000000010110000000000000101000000000000000000000000000000000000000000000011000000000000000100001011010110011001011101111110100110110101000110110111011110111001001101000001101101110001011111011011010100011011011100100011100000001001000111111111111111110011001110111000111110100001010010001110001001001101100111001111111010010011000100001100000011000110 B
b11100010010011011001110011111110 x'
b111011100011111010000101001000 :(
b1001000111111111111111110011 Z(
b10110101000110110111001000111000 z(
b110100000110110111000101111101 <)
b10110101000110110111011110111001 \)
b10110101100110010111011111101001 |)
b1 B*
b11 R*
b0 r*
b101 $+
b1011 4+
b1100 T+
b11110111 &,
b11110001 >,
0*.
#3
b111101001001000011000110101000 "
b101010000000000000000000000000000000000000000000000000000000000000000000000000000000000000000000000000000000000000000000000000000000000000000000000000000000000000000011110000111101111111000111110100000000000000000000000000000000000000000000001110000000000000010100000000000010000000000000001100000000000000000000000000000000110000000000000000000000000000010000000000110101000110010111011000011100001101010001100101110110000111000011010100011001011101100001110000110101000110010111011000011101010111111100000001110010110110011001001110111000100100100010101001101100101110000001000110101100111101001001000011000110101000 B
b10011011001011100000010001101011 x'
b1100100111011100010010010001010 :(
b1010111111100000001110010110110 Z(
b1101010001100101110110000111 z(
b1101010001100101110110000111 <)
b1101010001100101110110000111 \)
b1101010001100101110110000111 |)
b100 B*
b0 R*
b11 b*
b1100 $+
b1000 4+
b101 D+
b1110 T+
b11110100 &,
b11110001 .,
b11110111 6,
b11110000 >,
0..
#4
b100100110011101010010100010000 "
b101010000000000000000000000000000000000000000000000000000000000000000000000000000000000000000000000000000000000000000000000000000000000000000000000000000000000000000011110000111100001111000011110000000000000000000000000000000000000000000000000010000000000000010000000000000000010000000000001001000000000000000000000000000000000000000000000000000000000000000000001000001101010001100101110110000110000011010100011001011101100001100000110101000110010111011000011000001101010001100101110110000101100101001000100000100100000010010000001010000001100101001000101111000101101100010101100000111000100100110011101010010100010000 B
b11110001011011000101011000001110 x'
b1000000101000000110010100100010 :(
b1100101001000100000100100000010 Z(
b10000011010100011001011101100001 z(
b10000011010100011001011101100001 <)
b10000011010100011001011101100001 \)
b10000011010100011001011101100001 |)
b0 B*
b0 b*
b1001 $+
b1 4+
b100 D+
b10 T+
b11110000 &,
b11110000 .,
b11110000 6,
#5
b10000101111100101001011000010100 "
b111011000000000000000000000000000000000000000000000000000000000000000000000000000000000000000000000000000000000000000000000000000000000000000000000000000000000000000011110111111101011111010111110010000000000000000000000000000000000000000000000000000000000000000100000000000010000000000000001000000000000000000000000000000010000000000000000000000000000000000000001010000011010100011001011101100010100000110101000110010111011000101000001101010001100101110110001010000011010100011001011101100001100001010000100100111100000001110010000111110011010111101100011010000000000000011001000010010110000101111100101001011000010100 B
b10100000000000000110010000100101 x'
b11001000011111001101011110110001 :(
b1100001010000100100111100000001 Z(
b10100000110101000110010111011000 z(
b10100000110101000110010111011000 <)
b10100000110101000110010111011000 \)
b10100000110101000110010111011000 |)
b1000 b*
b1000 $+
b1000 4+
b1 D+
b0 T+
b11110010 &,
b11110101 .,
b11110101 6,
b11110111 >,
1*.
1..
#6
b100000000111110001111000010000 "
b111011000000000000000000000000000000000000000000000000000000000000000000000000000000000000000000000000000000000000000000000000000000000000000000000000000000000000000011111110111111111111000011110000000000000000000000000000000000000000000000000000000000000000010000000000000000000000000000001111000000000000010000000000000001010000000000000000000000000000000000001110100000110101000110010111011011101000001101010001100101110110111010000011010100011001011101101110100000110101000110010111011010100010111011011001000111000010100001011000110100000000111011010110100110010011000010010000101100100000000111110001111000010000 B
b1101001100100110000100100001011 x'
b10000101100011010000000011101101 :(
b10100010111011011001000111000010 Z(
b11101000001101010001100101110110 z(
b11101000001101010001100101110110 <)
b11101000001101010001100101110110 \)
b11101000001101010001100101110110 |)
b101 b*
b100 r*
b1111 $+
b0 4+
b100 D+
b11110000 &,
b11110000 .,
b11111111 6,
b11111110 >,
#7
b100011010110101101110001100 "
b111010000000000000000000000000000000000000000000000000000000000000000000000000000000000000000000000000000000000000000000000000000000000000000000000000000000000000000011110111111100001111000011110100000000000000000000000000000000000000000000000100000000000000001000000000000000000000000000000001000000000000010000000000000000000000000000000000000000000000000000000000001100011111010001000101110001010011010111010111011101011100111011100000110001101110111110000100001100011101010111011101110101000111111000011000010101110000011111010101000101001111110101001100110111110011110001011110110000000100011010110101101110001100 B
b11001101111100111100010111101100 x'
b1111101010100010100111111010100 :(
b1000111111000011000010101110000 Z(
b1000011000111010101110111011101 z(
b11101110000011000110111011111000 <)
b1010011010111010111011101011100 \)
b11000111110100010001011100 |)
b0 b*
b1 $+
b10 D+
b100 T+
b11110100 &,
b11110000 6,
b11110111 >,
0*.
#8
b10000010010111011000011010001101 "
b101010000000000000000000000000000000000000000000000000000000000000000000000000000000000000000000000000000000000000000000000000000000000000000000000000000000000000000011110001111100011111000011110001000000000000000000000000000000000000000000000000000000000000000000000000000000000000000000001001000000000000000100000000000000010000000000000000000000000000000100000110000111010111100111110111111001100001110101111001111101111110011000011101011110011111011111100110000111010111100111110111111011100100001000010110010011000011100111111010001001101010001101111001001101011011000100010100001110000010010111011000011010001101 B
b10010011010110110001000101000011 x'
b10011111101000100110101000110111 :(
b11100100001000010110010011000011 Z(
b1100001110101111001111101111110 z(
b1100001110101111001111101111110 <)
b1100001110101111001111101111110 \)
b1100001110101111001111101111110 |)
b1 B*
b1 b*
b1 r*
b1001 $+
b0 D+
b0 T+
b11110001 &,
b11110001 6,
b11110001 >,
0..
#9
b10100110001100011000000010110010 "
b101010000000000000000000000000000000000000000000000000000000000000000000000000000000000000000000000000000000000000000000000000000000000000000000000000000000000000000011110110111100011111000111110000000000000000000000000000000000000000000000000010000000000000100000000000000000000000000000000010000000000000001000000000000000000000000000000001000000000000000000001101100001110101111001111101111111011000011101011110011111011111110110000111010111100111110111111101100001110101111001111101111101111011011001010010100010111001000110000010100101111011011001010000111001101000011000010100001010100110001100011000000010110010 B
b1110011010000110000101000010 x'
b11000001010010111101101100101 :(
b1111011011001010010100010111001 Z(
b11011000011101011110011111011111 z(
b11011000011101011110011111011111 <)
b11011000011101011110011111011111 \)
b11011000011101011110011111011111 |)
b0 B*
b1 R*
b0 b*
b10 r*
b10 $+
b1000 D+
b10 T+
b11110000 &,
b11110001 .,
b11110110 >,
#10
b1000000000011110110100101100001 "
b111011000000000000000000000000000000000000000000000000000000000000000000000000000000000000000000000000000000000000000000000000000000000000000000000000000000000000000011110010111110101111011011110111000000000000000000000000000000010000000000000010000000000000010100000000000000010000000000001000000000000000110100000000000000000000000000000000000000000000000100000111011000011101011110011111011101110110000111010111100111110111011101100001110101111001111101110111011000011101011110011111011110100100101011110001111000100101000111010100001010011111010001011001000110010010100001000010110001000000000011110110100101100001 B
b10010001100100101000010000101100 x'
b11101010000101001111101000101 :(
b10100100101011110001111000100101 Z(
b1110110000111010111100111110111 z(
b1110110000111010111100111110111 <)
b1110110000111010111100111110111 \)
b1110110000111010111100111110111 |)
b1 B*
b0 R*
b1101 r*
b1000 $+
b1 4+
b101 D+
b1 d+
b11110111 &,
b11110110 .,
b11111010 6,
b11110010 >,
1*.
1..
#11
b1011010110001000101101110010 "
b111011000000000000000000000000000000000000000000000000000000000000000000000000000000000000000000000000000000000000000000000000000000000000000000000000000000000000000011110000111100011111010011110110000000000000000000000000000000000000000000000101000000000000000000000000000000000000000000000011000000000000000000000000000000000000000000000000000000000000001000000101110110000111010111100111110101011101100001110101111001111101010111011000011101011110011111010101110110000111010111100111110111001110000110000110010010110000100100000010100010000111010110011100101101110001110111101011101000001011010110001000101101110010 B
b11001011011100011101111010111010 x'
b10010000001010001000011101011001 :(
b11001110000110000110010010110000 Z(
b1011101100001110101111001111101 z(
b1011101100001110101111001111101 <)
b1011101100001110101111001111101 \)
b1011101100001110101111001111101 |)
b10 B*
b0 r*
b11 $+
b0 4+
b0 D+
b101 T+
b0 d+
b11110110 &,
b11110100 .,
b11110001 6,
b11110000 >,
#12
b10001010000111111101111110000 "
b111010000000000000000000000000000000000000000000000000000000000000000000000000000000000000000000000000000000000000000000000000000000000000000000000000000000000000000011110001111100001111010011110000000000000000000000000000000000000000000000000000000000000000010000000000000000010000000000000000000000000000000000000000000000000000000000000100000000000000000000001111111101000011110101011001010010111111000000011111011111001110001101110100000011111111100001001011111001100001110011001100110110110000100000111010011100110111001011010111101011100111110001110110010011000011111000000111010100010001010000111111101111110000 B
b1100100110000111110000001110101 x'
b101101011110101110011111000111 :(
b10110000100000111010011100110111 Z(
b10111110011000011100110011001101 z(
b110111010000001111111110000100 <)
b10111111000000011111011111001110 \)
b11111111010000111101010110010100 |)
b0 B*
b100 R*
b0 $+
b1 4+
b100 D+
b0 T+
b11110000 &,
b11110000 6,
b11110001 >,
0*.
#13
b111100010011111101111011100011 "
b101010000000000000000000000000000000000000000000000000000000000000000000000000000000000000000000000000000000000000000000000000000000000000000000000000000000000000000011110011111100101111111111110000000000000000000000000000000010000000000000000001000000000000000000000000000010100000000000000000000000000000001100000000000000000000000000000011000000000000100000001101111110000000101010110011000111011111100000001010101100110001110111111000000010101011001100011101111110000000101010110011000100000011000000000000101000111101110110001000010100101011011101000010000000111011000001001110101100111100010011111101111011100011 B
b100000001110110000010011101011 x'
b11011000100001010010101101110100 :(
b11000000000000101000111101 Z(
b11011111100000001010101100110001 z(
b11011111100000001010101100110001 <)
b11011111100000001010101100110001 \)
b11011111100000001010101100110001 |)
b1000 B*
b11 R*
b11 r*
b1010 4+
b0 D+
b1 T+
b1000 d+
b11111111 .,
b11110010 6,
b11110011 >,
0..
#14
b11011010001000100001101000110111 "
b101010000000000000000000000000000000000000000000000000000000000000000000000000000000000000000000000000000000000000000000000000000000000000000000000000000000000000000011110000111111111111110011111100000000000000000000000000000000000000000000000000000000000000000100000000000010000000000000001010000000000000000000000000000000000000000000000100000000000000110000001111011111100000001010101100110011110111111000000010101011001100111101111110000000101010110011001111011111100000001010101100110000110100010100001111010000101111010100011111011000001000110111100111101100100100101001001011111111011010001000100001101000110111 B
b1111011001001001010010010111111 x'
b1010001111101100000100011011110 :(
b110100010100001111010000101111 Z(
b11110111111000000010101011001100 z(
b11110111111000000010101011001100 <)
b11110111111000000010101011001100 \)
b11110111111000000010101011001100 |)
b1100 B*
b100 R*
b0 r*
b1010 $+
b1000 4+
b1 D+
b0 T+
b0 d+
b11111100 &,
b11111100 .,
b11111111 6,
b11110000 >,
#15
b10101010001110000001110101011100 "
b111011000000000000000000000000000000000000000000000000000000000000000000000000000000000000000000000000000000000000000000000000000000000000000000000000000000000000000011111000111110001111000011110010000000000000000000000000000000000000000000000001000000000000101000000000000001000000000000000000000000000000000000000000000000000000000000000000000000000000000000000111110111111000000010101011001101111101111110000000101010110011011111011111100000001010101100110111110111111000000010101011001111000010011001111001010010010011110011110000001010000110110001100110010000010000101010000100100110101010001110000001110101011100 B
b1100100000100001010100001001001 x'
b11001111000000101000011011000110 :(
b11000010011001111001010010010011 Z(
b1111101111110000000101010110011 z(
b1111101111110000000101010110011 <)
b1111101111110000000101010110011 \)
b1111101111110000000101010110011 |)
b0 B*
b0 R*
b0 $+
b100 4+
b1010 D+
b1 T+
b11110010 &,
b11110000 .,
b11111000 6,
b11111000 >,
1*.
1..
#16
b11101010100000001010010011011011 "
b111011000000000000000000000000000000000000000000000000000000000000000000000000000000000000000000000000000000000000000000000000000000000000000000000000000000000000000011110010111100001111000011110000000000000000000000000000000000000000000000000000000000000000000000000000000010100000000000000010000000000000000000000000000000000000000000000000000000000000000000001001111101111110000000101010110010011111011111100000001010101100100111110111111000000010101011001001111101111110000000101010110001101101011110110101010111011000100000111101111101010001001110101000111110101000011000101101100011101010100000001010010011011011 B
b10001111101010000110001011011000 x'
b10000011110111110101000100111010 :(
b1101101011110110101010111011000 Z(
b10011111011111100000001010101100 z(
b10011111011111100000001010101100 <)
b10011111011111100000001010101100 \)
b10011111011111100000001010101100 |)
b10 $+
b1010 4+
b0 D+
b0 T+
b11110000 &,
b11110000 6,
b11110010 >,
#17
b11101011100011000010010011010001 "
b111010000000000000000000000000000000000000000000000000000000000000000000000000000000000000000000000000000000000000000000000000000000000000000000000000000000000000000011110110111111001111100011111011000000000000000000000000000000000000000000000110000000000000100000000000000010000000000000000011000000000000001000000000000010000000000000000000000000000000101100001011011111011111100011001010000011110111000111111001010010101110011100110101011010001000100001001111010101011111100111001010100110101000100010001101011000111001100000101111010101010110110000100011110111000101001110110010111111101011100011000010010011010001 B
b111101110001010011101100101111 x'
b10000010111101010101011011000010 :(
b10101000100010001101011000111001 Z(
b11110101010111111001110010101001 z(
b1110011010101101000100010000100 <)
b11110111000111111001010010101110 \)
b10110111110111111000110010100000 |)
b1011 B*
b1000 b*
b10 r*
b11 $+
b1000 4+
b1000 D+
b110 T+
b11111011 &,
b11111000 .,
b11111100 6,
b11110110 >,
0*.
#18
b11101000110100001001011011010000 "
b101010000000000000000000000000000000000000000000000000000000000000000000000000000000000000000000000000000000000000000000000000000000000000000000000000000000000000000011111010111100001111001011110101000000000000000000000001000000000000000000000000000000000000100100000000000000110000000000001101000000000000001000000000000000000000000000000011000000000000000000001100110001000101101001110010000111001100010001011010011100100001110011000100010110100111001000011100110001000101101001110010000110000001110011010000111100111010000111110100010111101011100001101100100110110010000010011011110011101000110100001001011011010000 B
b11001001101100100000100110111100 x'
b11111010001011110101110000110 :(
b10000001110011010000111100111010 Z(
b11001100010001011010011100100001 z(
b11001100010001011010011100100001 <)
b11001100010001011010011100100001 \)
b11001100010001011010011100100001 |)
b0 B*
b11 R*
b0 b*
b1101 $+
b11 4+
b1001 D+
b0 T+
b1 l+
b11110101 &,
b11110010 .,
b11110000 6,
b11111010 >,
0..
#19
b1101010101100001000101110110 "
b101010000000000000000000000000000000000000000000000000000000000000000000000000000000000000000000000000000000000000000000000000000000000000000000000000000000000000000011110010111101101111010011110000000000000000000000000000000000000000000000001010000000000000001000000000000001100000000000000000000000000000000000000000000000100000000000000100000000000000000000001011001100010001011010011100100010110011000100010110100111001000101100110001000101101001110010001011001100010001011010011100100010001111111001111100111100000010100001110101100110010101010110111110110011001010000000101101101000001101010101100001000101110110 B
b11101100110010100000001011011010 x'
b10000111010110011001010101011011 :(
b10001111111001111100111100000010 Z(
b10110011000100010110100111001000 z(
b10110011000100010110100111001000 <)
b10110011000100010110100111001000 \)
b10110011000100010110100111001000 |)
b100 R*
b10 b*
b0 r*
b0 $+
b110 4+
b10 D+
b1010 T+
b0 l+
b11110000 &,
b11110100 .,
b11110110 6,
b11110010 >,
#20
b1110100101101011110001001011011 "
b111011000000000000000000000000000000000000000000000000000000000000000000000000000000000000000000000000000000000000000000000000000000000000000000000000000000000000000011110000111100101111000011110001000000000000000000000000000000000000000000000000000000000000010100000000000011010000000000000000000000000000000000000000000000000000000000000010000000000000000100001010110011000100010110100111001010101100110001000101101001110010101011001100010001011010011100101010110011000100010110100111001001010001001110101000011001110011110101101001100111000100000010110000011001010011100100011110111001110100101101011110001001011011 B
b110010100111001000111101110 x'
b11010110100110011100010000001011 :(
b1010001001110101000011001110011 Z(
b10101100110001000101101001110010 z(
b10101100110001000101101001110010 <)
b10101100110001000101101001110010 \)
b10101100110001000101101001110010 |)
b1 B*
b10 R*
b0 b*
b1101 4+
b101 D+
b0 T+
b11110001 &,
b11110000 .,
b11110010 6,
b11110000 >,
1*.
1..
#21
b111010101001001100001001111 "
b111011000000000000000000000000000000000000000000000000000000000000000000000000000000000000000000000000000000000000000000000000000000000000000000000000000000000000000011110000111101101111000011111001000000000000000000000000000000000000000000000000000000000000100000000000000000000000000000000001000000000000000000000000000001000000000000000000000000000000000000001010101100110001000101101001110010101011001100010001011010011100101010110011000100010110100111001010101100110001000101101001110001010110110000101111011110011101011100100011110101011100101110111111011110011101100110010101100100000111010101001001100001001111 B
b11110111100111011001100101011001 x'
b1110010001111010101110010111011 :(
b1010110110000101111011110011101 Z(
b10101011001100010001011010011100 z(
b10101011001100010001011010011100 <)
b10101011001100010001011010011100 \)
b10101011001100010001011010011100 |)
b0 B*
b0 R*
b100 b*
b1 $+
b0 4+
b1000 D+
b11111001 &,
b11110110 6,
#22
b1011111000000011010100101100010 "
b111010000000000000000000000000000000000000000000000000000000000000000000000000000000000000000000000000000000000000000000000000000000000000000000000000000000000000000011110000111111011111000011110000000000000000011000000000000000000000000000000100000000000000011000000000000000100000000000000000000000000000000000000000000010100000000000000000000000000000000000000010001111101100000001111110011100100011001010000111011111100011001010100110100101100101101000110010001101001000010101101110011111101011100001100010110100101101100000000000001110111100101101110010110100101101011110101001111101011111000000011010100101100010 B
b101101001011010111101010011111 x'
b10000000000000111011110010110111 :(
b11101011100001100010110100101101 Z(
b100011010010000101011011100111 z(
b101010011010010110010110100011 <)
b100011001010000111011111100011 \)
b100011111011000000011111100111 |)
b1010 b*
b0 $+
b10 4+
b110 D+
b100 T+
b110 t+
b11110000 &,
b11111101 6,
0*.
#23
b1111101011111000101111100011001 "
b101010000000000000000000000000000000000000000000000000000000000000000000000000000000000000000000000000000000000000000000000000000000000000000000000000000000000000000011111111111100001111000011110000000000000000000000000000000000000000000000001111000000000000000000000000000000000000000000000101000000000000100000000000000000000000000000000000000000000000010000001100100001001010010011011011100011001000010010100100110110111000110010000100101001001101101110001100100001001010010011011011100010010101100001000010000100000001110010010110110101100001111011110111010000001111011101011001010101111101011111000101111100011001 B
b1110100000011110111010110010101 x'
b11001001011011010110000111101111 :(
b10010101100001000010000100000001 Z(
b11001000010010100100110110111000 z(
b11001000010010100100110110111000 <)
b11001000010010100100110110111000 \)
b11001000010010100100110110111000 |)
b100 B*
b0 b*
b1000 r*
b101 $+
b0 4+
b0 D+
b1111 T+
b0 t+
b11110000 6,
b11111111 >,
0..
#24
b1101101011110110101010111011000 "
b101010000000000000000000000000000000000000000000000000000000000000000000000000000000000000000000000000000000000000000000000000000000000000000000000000000000000000000011110000111100101111001011110010000000000000000000000000000000000000000000000001000000000000001100000000000001110000000000000000000000000000000000000000000000100000000000000000000000000000000000000111001000010010100100110110111001110010000100101001001101101110011100100001001010010011011011100111001000010010100100110110111000011101010011001101011010011001101101011111001001011011011010001101011010011001110001000001101101101101011110110101010111011000 B
b11010110100110011100010000011011 x'
b10110101111100100101101101101000 :(
b11101010011001101011010011001 Z(
b1110010000100101001001101101110 z(
b1110010000100101001001101101110 <)
b1110010000100101001001101101110 \)
b1110010000100101001001101101110 |)
b0 B*
b10 b*
b0 r*
b0 $+
b111 4+
b11 D+
b1 T+
b11110010 &,
b11110010 .,
b11110010 6,
b11110000 >,
#25
b101000111111011001101000010110 "
b111011000000000000000000000000000000000000000000000000000000000000000000000000000000000000000000000000000000000000000000000000000000000000000000000000000000000000000011111000111110001111011011110110000000000000000000000000000000000000000000001010000000000000001000000000000000010000000000000010000000000000000100000000000000000000000000000000000000000000011000001001110010000100101001001101101110011100100001001010010011011011100111001000010010100100110110111001110010000100101001001101101101011100101110110111001101111000010101100101010001111000011100000111001101111000011110000110101100101000111111011001101000010110 B
b1110011011110000111100001101011 x'
b1010110010101000111100001110000 :(
b1011100101110110111001101111000 Z(
b10011100100001001010010011011011 z(
b10011100100001001010010011011011 <)
b10011100100001001010010011011011 \)
b10011100100001001010010011011011 |)
b110 B*
b0 b*
b1 r*
b10 $+
b1 4+
b10 D+
b1010 T+
b11110110 &,
b11110110 .,
b11111000 6,
b11111000 >,
1*.
1..
#26
b10011000001101000111010111101011 "
b111011000000000000000000000000000000000000000000000000000000000000000000000000000000000000000000000000000000000000000000000000000000000000000000000000000000000000000011110000111100001111000011111111000000000000000000000000000000000000000000000100000000000000000000000000000000000000000000000001000000000000000000000000000000000000000000000000000000000000000000001010011100100001001010010011011010100111001000010010100100110110101001110010000100101001001101101010011100100001001010010011011011010011100100000101001001011111110001100001011010110110010101111010000110111010010001100110110110011000001101000111010111101011 B
b10100001101110100100011001101101 x'
b11000110000101101011011001010111 :(
b11010011100100000101001001011111 Z(
b10100111001000010010100100110110 z(
b10100111001000010010100100110110 <)
b10100111001000010010100100110110 \)
b10100111001000010010100100110110 |)
b0 B*
b0 r*
b1 $+
b0 4+
b0 D+
b100 T+
b11111111 &,
b11110000 .,
b11110000 6,
b11110000 >,
#27
b10000110110001101110000100000010 "
b111010000000000000000000000000000000000000000000000000000000000000000000000000000000000000000000000000000000000000000000000000000000000000000000000000000000000000000011110000111100001111001011110000000000000000000000000000000000000000000000000000000000000000001000000000000000100000000000001001000000000000000000000000000000000000000000000010000000000000000000000011100011111000010010100100110001101001111111000101101000001100111110011110010001001010110011000111100011011100010110101000110101100001111011111101111110010100000001110101000001000000001100011101111110010100110010101001111010000110110001101110000100000010 B
b11011111100101001100101010011110 x'
b111010100000100000000110001 :(
b1100001111011111101111110010100 Z(
b1111000110111000101101010001101 z(
b11111001111001000100101011001100 <)
b1101001111111000101101000001100 \)
b111000111110000100101001001100 |)
b10 R*
b1001 $+
b10 4+
b10 D+
b0 T+
b11110000 &,
b11110010 .,
0*.
#28
b110011100111001000011101110 "
b101010000000000000000000000000000000000000000000000000000000000000000000000000000000000000000000000000000000000000000000000000000000000000000000000000000000000000000011111000111100101111000011110011000000000000000000000000000000000000000000001101000000000000000000000000000001100000000000001101000000000000100000000000000000000000000000000000000000000000001000000110111000111101000001101010001101101110001111010000011010100011011011100011110100000110101000110110111000111101000001101010001101011011011010000010110011110111011100000001101110000101000100100010110011110111111100001111110000000110011100111001000011101110 B
b101100111101111111000011111100 x'
b1110000000110111000010100010010 :(
b1011011011010000010110011110111 Z(
b1101110001111010000011010100011 z(
b1101110001111010000011010100011 <)
b1101110001111010000011010100011 \)
b1101110001111010000011010100011 |)
b10 B*
b0 R*
b1000 r*
b1101 $+
b110 4+
b0 D+
b1101 T+
b11110011 &,
b11110000 .,
b11110010 6,
b11111000 >,
0..
#29
b11110111100111011001100101011001 "
b101010000000000000000000000000000000000000000000000000000000000000000000000000000000000000000000000000000000000000000000000000000000000000000000000000000000000000000011111010111101001111100011110000000000000000000000000000000000000000000000001000000000000000010000000000000000000000000000000000000000000000000000000000000011000000000000000000000000000000000000001101101110001111010000011010100011011011100011110100000110101000110110111000111101000001101010001101101110001111010000011010100001001111100101110101011001110100111111011000101000000110001001100001111001110100011110000110000011110111100111011001100101011001 B
b11110011101000111100001100000 x'
b11111101100010100000011000100110 :(
b1001111100101110101011001110100 Z(
b11011011100011110100000110101000 z(
b11011011100011110100000110101000 <)
b11011011100011110100000110101000 \)
b11011011100011110100000110101000 |)
b0 B*
b1100 b*
b0 r*
b0 $+
b0 4+
b100 D+
b1000 T+
b11110000 &,
b11111000 .,
b11110100 6,
b11111010 >,
#30
b10001101100110110011011010001010 "
b111011000000000000000000000000000000000000000000000000000000000000000000000000000000000000000000000000000000000000000000000000000000000000000000000000000000000000000011110000111111111111000011110000000000000000000000000000000000000000000000000000000000000000101100000000000000000000000000000000000000000000000000000000000000100000000000000000000000000000000100000011011011100011110100000110101000110110111000111101000001101010001101101110001111010000011010100011011011100011110100000110101010110110010101110001011010011110010100000110100010110111010000110001111010011100101101101001011110001101100110110011011010001010 B
b11110100111001011011010010111 x'
b1010000011010001011011101000011 :(
b10110110010101110001011010011110 Z(
b110110111000111101000001101010 z(
b110110111000111101000001101010 <)
b110110111000111101000001101010 \)
b110110111000111101000001101010 |)
b1 B*
b10 b*
b1011 D+
b0 T+
b11110000 .,
b11111111 6,
b11110000 >,
1*.
1..
#31
b1110011001000011111101001000000 "
b111011000000000000000000000000000000000000000000000000000000000000000000000000000000000000000000000000000000000000000000000000000000000000000000000000000000000000000011110111111101101111000111110111000000000000000000000000000000000000000000000111000000000000001000000000000001010000000000000100000000000000000000000000000001100000000000000101000000000000000000000100110110111000111101000001101001001101101110001111010000011010010011011011100011110100000110100100110110111000111101000001101001011011111100000000011100000110010111100100100011010000000100001000001100011100100001011000110001110011001000011111101001000000 B
b10000011000111001000010110001100 x'
b1011110010010001101000000010000 :(
b1011011111100000000011100000110 Z(
b1001101101110001111010000011010 z(
b1001101101110001111010000011010 <)
b1001101101110001111010000011010 \)
b1001101101110001111010000011010 |)
b0 B*
b101 R*
b110 b*
b100 $+
b101 4+
b10 D+
b111 T+
b11110111 &,
b11110001 .,
b11110110 6,
b11110111 >,
