OpticalTests/.Xil/Vivado-67277-higgs.physics.ucsb.edu/hw_ila_data_1/zip_work/waveform.vcd
$date
        2021-Nov-29 11:30:26
$end
$version
        Vivado v2019.2 (64-bit)
$end
$timescale
        1ps
$end
$scope module dut $end
$var reg 32 " receiver_0 [31:0] $end
$var reg 618 B ila_data [617:0] $end
$var reg 32 x' receiver_1 [31:0] $end
$var reg 32 :( receiver_2 [31:0] $end
$var reg 32 Z( receiver_3 [31:0] $end
$var reg 32 z( transmitter_0 [31:0] $end
$var reg 32 <) transmitter_1 [31:0] $end
$var reg 32 \) transmitter_2 [31:0] $end
$var reg 32 |) transmitter_3 [31:0] $end
$var reg 4 >* prbs_match_int [3:0] $end
$var reg 16 B* ch0_rxctrl0_int [15:0] $end
$var reg 16 R* ch1_rxctrl0_int [15:0] $end
$var reg 16 b* ch2_rxctrl0_int [15:0] $end
$var reg 16 r* ch3_rxctrl0_int [15:0] $end
$var reg 16 $+ ch0_rxctrl1_int [15:0] $end
$var reg 16 4+ ch1_rxctrl1_int [15:0] $end
$var reg 16 D+ ch2_rxctrl1_int [15:0] $end
$var reg 16 T+ ch3_rxctrl1_int [15:0] $end
$var reg 8 d+ ch0_rxctrl2_int [7:0] $end
$var reg 8 l+ ch1_rxctrl2_int [7:0] $end
$var reg 8 t+ ch2_rxctrl2_int [7:0] $end
$var reg 8 |+ ch3_rxctrl2_int [7:0] $end
$var reg 8 &, ch0_rxctrl3_int [7:0] $end
$var reg 8 ., ch1_rxctrl3_int [7:0] $end
$var reg 8 6, ch2_rxctrl3_int [7:0] $end
$var reg 8 >, ch3_rxctrl3_int [7:0] $end
$var reg 16 F, ch0_txctrl0_int [15:0] $end
$var reg 16 V, ch1_txctrl0_int [15:0] $end
$var reg 16 f, ch2_txctrl0_int [15:0] $end
$var reg 16 v, ch3_txctrl0_int [15:0] $end
$var reg 16 (- ch0_txctrl1_int [15:0] $end
$var reg 16 8- ch1_txctrl1_int [15:0] $end
$var reg 16 H- ch2_txctrl1_int [15:0] $end
$var reg 16 X- ch3_txctrl1_int [15:0] $end
$var reg 8 h- ch0_txctrl2_int [7:0] $end
$var reg 8 p- ch1_txctrl2_int [7:0] $end
$var reg 8 x- ch2_txctrl2_int [7:0] $end
$var reg 8 ". ch3_txctrl2_int [7:0] $end
$var reg 1 *. hb0_gtwiz_userclk_rx_usrclk2_int $end
$var reg 1 +. hb0_gtwiz_userclk_rx_active_int $end
$var reg 1 ,. hb_gtwiz_reset_all_int $end
$var reg 1 -. hb0_gtwiz_reset_rx_done_int $end
$var reg 1 .. hb0_gtwiz_userclk_tx_usrclk2_int $end
$var reg 1 /. hb0_gtwiz_userclk_tx_active_int $end
$var reg 1 0. _TRIGGER $end
$var reg 1 1. _WINDOW $end
$var reg 1 2. _GAP $end
$upscope $end
$enddefinitions $end
#0
$dumpvars
b1011011000000010100111110000100 "
b111011000000000000000000000000000000000000000000000000000000000000000000000000000000000000000000000000000000000000000000000000000000000000000000000000000000000000000011111010111100001111000011110000000000000000000000000000000000000000000000000010000000000000000000000000000000000000000000000000000000000000001000000000000000000000000000000000000000000000000000000101100101001011010100001011110010100110101101000101000010111100001011001010010101010000101111001101001101011010010100001011110010100100000000011001001100100000101100000100001101001011110010011011000001000011100101111000101101011011000000010100111110000100 B
b10110000010000111001011110001011 x'
b10110000010000110100101111001001 :(
b10100100000000011001001100100000 Z(
b11010011010110100101000010111100 z(
b101100101001010101000010111100 <)
b10100110101101000101000010111100 \)
b1011001010010110101000010111100 |)
b0 >*
b0 B*
b0 R*
b0 b*
b10 r*
b0 $+
b0 4+
b0 D+
b10 T+
b0 d+
b0 l+
b0 t+
b0 |+
b11110000 &,
b11110000 .,
b11110000 6,
b11111010 >,
b0 F,
b0 V,
b0 f,
b0 v,
b0 (-
b0 8-
b0 H-
b0 X-
b0 h-
b0 p-
b0 x-
b0 ".
1*.
1+.
0,.
1-.
1..
1/.
00.
11.
02.
$end
#1
b10100100000000010100111110001010 "
b111010000000000000000000000000000000000000000000000000000000000000000000000000000000000000000000000000000000000000000000000000000000000000000000000000000000000000000011111010111100001111000011111000000000000000000000000000000000000000000000000010000000000000000000000000000000000000000000000000000000000000001000000000000000000000000000000000000000000000000000000101100101001001010100001011110010100110101101100101000010111100001011001010010001010000101111001101001101011011010100001011110010100100000000011001001100101111101100000100001101001011110010101011000001000011100101111000100110100100000000010100111110001010 B
b10110000010000111001011110001001 x'
b10110000010000110100101111001010 :(
b10100100000000011001001100101111 Z(
b11010011010110110101000010111100 z(
b101100101001000101000010111100 <)
b10100110101101100101000010111100 \)
b1011001010010010101000010111100 |)
b11111000 &,
0*.
#2
b1011011000000010100111110001010 "
b101010000000000000000000000000000000000000000000000000000000000000000000000000000000000000000000000000000000000000000000000000000000000000000000000000000000000000000011110010111100001111000011110000000000000000000000000000000000000000000000000010000000000000000000000000000000000000000000000000000000000000001000000000000000000000000000000000000000000000000000000101100101000111010100001011110010100110101110000101000010111100001011001010001101010000101111001101001101011100010100001011110001011011000000011001001100100011101100000100001101001011110011001011000001000011100101111001100001011011000000010100111110001010 B
b10110000010000111001011110011000 x'
b10110000010000110100101111001100 :(
b1011011000000011001001100100011 Z(
b11010011010111000101000010111100 z(
b101100101000110101000010111100 <)
b10100110101110000101000010111100 \)
b1011001010001110101000010111100 |)
b11110000 &,
b11110010 >,
0..
#3
b10100100000000010100111110000000 "
b101011000000000000000000000000000000000000000000000000000000000000000000000000000000000000000000000000000000000000000000000000000000000000000000000000000000000000000011111010111100001111000011111000000000000000000000000000000000000000000000000010000000000000000000000000000000000000000000000000000000000000001000000000000000000000000000000000000000000000000000000101100101000101010100001011110010100110101110100101000010111100001011001010001001010000101111001101001101011101010100001011110010100100000000011001001100100010101100000100001101001011110011011011000001000011100101111000010110100100000000010100111110000000 B
b10110000010000111001011110000101 x'
b10110000010000110100101111001101 :(
b10100100000000011001001100100010 Z(
b11010011010111010101000010111100 z(
b101100101000100101000010111100 <)
b10100110101110100101000010111100 \)
b1011001010001010101000010111100 |)
b11111000 &,
b11111010 >,
1*.
#4
b10111011101000010100111110000000 "
b111011000000000000000000000000000000000000000000000000000000000000000000000000000000000000000000000000000000000000000000000000000000000000000000000000000000000000000011111010111100001111000011111000000000000000000000000000000000000000000000000010000000000000000000000000000000000000000000001000000000000000001000000000000000000000000000000000000000000000000000000101100101000011010100001011110010100110101111000101000010111100001011001010000101010000101111001101001101011110010100001011110010100100000000011001001100100010101100000100001101001011110011011011000001000011100101111000001110111011101000010100111110000000 B
b10110000010000111001011110000011 x'
b11010011010111100101000010111100 z(
b101100101000010101000010111100 <)
b10100110101111000101000010111100 \)
b1011001010000110101000010111100 |)
b1000 $+
1..
#5
b10111011101000010100111110000111 "
b111011000000000000000000000000000000000000000000000000000000000000000000000000000000000000000000000000000000000000000000000000000000000000000000000000000000000000000011111010111100001111000011111000000000000000000000000000000000000000000000000010000000000000000000000000000000000000000000001001000000000000001000000000000000000000000000000000000000000000000000000101100101000001010100001011110010100110101111100101000010111100001011001010000001010000101111001101001101011111010100001011110010100100000000011001001100100001101100000100001101001011110011101011000001000011100101111001111010111011101000010100111110000111 B
b10110000010000111001011110011110 x'
b10110000010000110100101111001110 :(
b10100100000000011001001100100001 Z(
b11010011010111110101000010111100 z(
b101100101000000101000010111100 <)
b10100110101111100101000010111100 \)
b1011001010000010101000010111100 |)
b1001 $+
#6
b10111011101000010100111100100010 "
b111010000000000000000000000000000000000000000000000000000000000000000000000000000000000000000000000000000000000000000000000000000000000000000000000000000000000000000011110010111100001111000011111001000000000000000000000000000000000000000000000010000000000000000000000000000000000000000000001000000000000000001000000000000000000000000000000000000000000000000100000101100100111111010100001011110010100110110000000101000010111100001011001001111101010000101111001101001101100000010100001011110001011011000000011001001100110111101100000100001101001011110100001011000001000011100101110100000010111011101000010100111100100010 B
b10110000010000111001011101000000 x'
b10110000010000110100101111010000 :(
b1011011000000011001001100110111 Z(
b11010011011000000101000010111100 z(
b101100100111110101000010111100 <)
b10100110110000000101000010111100 \)
b1011001001111110101000010111100 |)
b1 B*
b1000 $+
b11111001 &,
b11110010 >,
0*.
#7
b10100100000000010100111110001000 "
b101010000000000000000000000000000000000000000000000000000000000000000000000000000000000000000000000000000000000000000000000000000000000000000000000000000000000000000011110010111100001111000011111000000000000000000000000000000000000000000000000010000000000000000000000000000000000000000000000000000000000000001000000000000000000000000000000000000000000000000000000101100100111101010100001011110010100110110000100101000010111100001011001001111001010000101111001101001101100001010100001011110001011011000000011001001101010001101100000100001101001011110100011011000001000011100101110100001010100100000000010100111110001000 B
b10110000010000111001011101000010 x'
b10110000010000110100101111010001 :(
b1011011000000011001001101010001 Z(
b11010011011000010101000010111100 z(
b101100100111100101000010111100 <)
b10100110110000100101000010111100 \)
b1011001001111010101000010111100 |)
b0 B*
b0 $+
b11111000 &,
0..
#8
b1011011000000010100111110000110 "
b101011000000000000000000000000000000000000000000000000000000000000000000000000000000000000000000000000000000000000000000000000000000000000000000000000000000000000000011110010111100001111000011110000000000000000000000000000000000000000000000000010000000000000000000000000000000000000000000000000000000000000001000000000000000000000000000000000000000000000000000000101100100111011010100001011110010100110110001000101000010111100001011001001110101010000101111001101001101100010010100001011110001011011000000011001001101010010101100000100001101001011110100101011000001000011100101110100010001011011000000010100111110000110 B
b10110000010000111001011101000100 x'
b10110000010000110100101111010010 :(
b1011011000000011001001101010010 Z(
b11010011011000100101000010111100 z(
b101100100111010101000010111100 <)
b10100110110001000101000010111100 \)
b1011001001110110101000010111100 |)
b11110000 &,
1*.
#9
b10111011101000010100111110000110 "
b111011000000000000000000000000000000000000000000000000000000000000000000000000000000000000000000000000000000000000000000000000000000000000000000000000000000000000000011111000111100001111000011111000000000000000000000000000000000000000000000000100000000000000000000000000000000000000000000000001000000000000000000000000000000000000000000000000000000000000000000000101100100111001010100001011110010100110110001100101000010111100001011001001110001010000101111001101001101100011010100001011110010111011101000010010110000000010101100000100001101001011110100101011000001000011100101110101100110111011101000010100111110000110 B
b10110000010000111001011101011001 x'
b10111011101000010010110000000010 Z(
b11010011011000110101000010111100 z(
b101100100111000101000010111100 <)
b10100110110001100101000010111100 \)
b1011001001110010101000010111100 |)
b0 r*
b1 $+
b100 T+
b11111000 &,
b11111000 >,
1..
#10
b10111011101000010100111110010000 "
b111011000000000000000000000000000000000000000000000000000000000000000000000000000000000000000000000000000000000000000000000000000000000000000000000000000000000000000011111000111100001111000011111000000000000000000000000000000000000000000000000100000000000000000000000000000000000000000000001000000000000000000000000000000000000000000000000000000000000000000000000101100100110111010100001011110010100110110010000101000010111100001011001001101101010000101111001101001101100100010100001011110010111011101000010010110000011000101100000100001101001011110100111011000001000011100101110100100010111011101000010100111110010000 B
b10110000010000111001011101001000 x'
b10110000010000110100101111010011 :(
b10111011101000010010110000011000 Z(
b11010011011001000101000010111100 z(
b101100100110110101000010111100 <)
b10100110110010000101000010111100 \)
b1011001001101110101000010111100 |)
b1000 $+
#11
b10111011101000010100111110000101 "
b111010000000000000000000000000000000000000000000000000000000000000000000000000000000000000000000000000000000000000000000000000000000000000000000000000000000000000000011111000111100001111000011111000000000000000000000000000000000000000000000000100000000000000000000000000000000000000000000000001000000000000000000000000000000000000000000000000000000000000000000000101100100110101010100001011110010100110110010100101000010111100001011001001101001010000101111001101001101100101010100001011110010111011101000010010110000000100101100000100001101001011110101001011000001000011100101110101010110111011101000010100111110000101 B
b10110000010000111001011101010101 x'
b10110000010000110100101111010100 :(
b10111011101000010010110000000100 Z(
b11010011011001010101000010111100 z(
b101100100110100101000010111100 <)
b10100110110010100101000010111100 \)
b1011001001101010101000010111100 |)
b1 $+
0*.
#12
b10111011101000010100111110010100 "
b101010000000000000000000000000000000000000000000000000000000000000000000000000000000000000000000000000000000000000000000000000000000000000000000000000000000000000000011111000111100001111000011111000000000000000000000000000000000000000000000000100000000000000000000000000000000000000000000001001000000000000000000000000000000000000000000000000000000000000000000000101100100110011010100001011110010100110110011000101000010111100001011001001100101010000101111001101001101100110010100001011110010111011101000010010110000010000101100000100001101001011110101101011000001000011100101110101001110111011101000010100111110010100 B
b10110000010000111001011101010011 x'
b10110000010000110100101111010110 :(
b10111011101000010010110000010000 Z(
b11010011011001100101000010111100 z(
b101100100110010101000010111100 <)
b10100110110011000101000010111100 \)
b1011001001100110101000010111100 |)
b1001 $+
0..
#13
b1011011000000010100111110000100 "
b101011000000000000000000000000000000000000000000000000000000000000000000000000000000000000000000000000000000000000000000000000000000000000000000000000000000000000000011111000111100001111000011110000000000000000000000000000000000000000000000000100000000000000000000000000000000000000000000000000000000000000000000000000000000000000000000000000000000000000000000000101100100110001010100001011110010100110110011100101000010111100001011001001100001010000101111001101001101100111010100001011110010111011101000010010110000001000101100000100001101001011110010001011000001000011100101110101000101011011000000010100111110000100 B
b10110000010000111001011101010001 x'
b10110000010000110100101111001000 :(
b10111011101000010010110000001000 Z(
b11010011011001110101000010111100 z(
b101100100110000101000010111100 <)
b10100110110011100101000010111100 \)
b1011001001100010101000010111100 |)
b0 $+
b11110000 &,
1*.
#14
b111011000000000000000000000000000000000000000000000000000000000000000000000000000000000000000000000000000000000000000000000000000000000000000000000000000000000000000011111000111100001111000011110000000000000000000000000000000000000000000000001100000000000000000000000000000000000000000000000000000000000000000000000000000000000000000000000000000000000000000000000101100100101111010100001011110010100110110100000101000010111100001011001001011101010000101111001101001101101000010100001011110010111011101000010010110000001000101100000100001101001011110010001011000001000011100101110101000001011011000000010100111110000100 B
b10110000010000111001011101010000 x'
b11010011011010000101000010111100 z(
b101100100101110101000010111100 <)
b10100110110100000101000010111100 \)
b1011001001011110101000010111100 |)
b1100 T+
1..
#15
b10100100000000010100111110000000 "
b111011000000000000000000000000000000000000000000000000000000000000000000000000000000000000000000000000000000000000000000000000000000000000000000000000000000000000000011111001111100001111000011111000000000000000000000000000000000000000000000000100000000000000000000000000000000000000000000000000000000000000000000000000000000000000000000000000000000000000000000000101100100101101010100001011110010100110110100100101000010111100001011001001011001010000101111001101001101101001010100001011110010111011101000010010110010111101101100000100001101001011110001111011000001000011100101110100110110100100000000010100111110000000 B
b10110000010000111001011101001101 x'
b10110000010000110100101111000111 :(
b10111011101000010010110010111101 Z(
b11010011011010010101000010111100 z(
b101100100101100101000010111100 <)
b10100110110100100101000010111100 \)
b1011001001011010101000010111100 |)
b100 T+
b11111000 &,
b11111001 >,
#16
b10111011101000010100111110000110 "
b111010000000000000000000000000000000000000000000000000000000000000000000000000000000000000000000000000000000000000000000000000000000000000000000000000000000000000000011111000111100001111000011111000000000000000000000000000000000000000000000000100000000000000000000000000000000000000000000001001000000000000000000000000000000000000000000000000000000000000000000000101100100101011010100001011110010100110110101000101000010111100001011001001010101010000101111001101001101101010010100001011110010111011101000010010110000001111101100000100001101001011110110101011000001000011100101110100101110111011101000010100111110000110 B
b10110000010000111001011101001011 x'
b10110000010000110100101111011010 :(
b10111011101000010010110000001111 Z(
b11010011011010100101000010111100 z(
b101100100101010101000010111100 <)
b10100110110101000101000010111100 \)
b1011001001010110101000010111100 |)
b1001 $+
b11111000 >,
0*.
#17
b1011011000000010100111110000010 "
b101010000000000000000000000000000000000000000000000000000000000000000000000000000000000000000000000000000000000000000000000000000000000000000000000000000000000000000011111000111100001111000011110000000000000000000000000000000000000000000000000100000000000000000000000000000000000000000000000000000000000000000000000000000000000000000000000000000000000000000000000101100100101001010100001011110010100110110101100101000010111100001011001001010001010000101111001101001101101011010100001011110010111011101000010010110000000100101100000100001101001011110001001011000001000011100101110100100101011011000000010100111110000010 B
b10110000010000111001011101001001 x'
b10110000010000110100101111000100 :(
b10111011101000010010110000000100 Z(
b11010011011010110101000010111100 z(
b101100100101000101000010111100 <)
b10100110110101100101000010111100 \)
b1011001001010010101000010111100 |)
b0 $+
b11110000 &,
0..
#18
b10111011101000010100111110010001 "
b101011000000000000000000000000000000000000000000000000000000000000000000000000000000000000000000000000000000000000000000000000000000000000000000000000000000000000000011111000111100001111000011111000000000000000000000000000000000000000000000000100000000000000000000000000000000000000000000001001000000000000000100000000000000000000000000000000000000000000000000000101100100100111010100001011110010100110110110000101000010111100001011001001001101010000101111001101001101101100010100001011110010111011101000010010110000011100101100000100001101001011110111001011000001000011100101110101100010111011101000010100111110010001 B
b10110000010000111001011101011000 x'
b10110000010000110100101111011100 :(
b10111011101000010010110000011100 Z(
b11010011011011000101000010111100 z(
b101100100100110101000010111100 <)
b10100110110110000101000010111100 \)
b1011001001001110101000010111100 |)
b1 r*
b1001 $+
b11111000 &,
1*.
#19
b1011011000000010100111110010001 "
b111011000000000000000000000000000000000000000000000000000000000000000000000000000000000000000000000000000000000000000000000000000000000000000000000000000000000000000011111000111100001111000011110000000000000000000000000000000000000000000000000100000000000000000000000000000000000000000000000000000000000000000100000000000000000000000000000000000000000000000000000101100100100101010100001011110010100110110110100101000010111100001011001001001001010000101111001101001101101101010100001011110010111011101000010010110000011100101100000100001101001011110111001011000001000011100101110100010101011011000000010100111110010001 B
b10110000010000111001011101000101 x'
b11010011011011010101000010111100 z(
b101100100100100101000010111100 <)
b10100110110110100101000010111100 \)
b1011001001001010101000010111100 |)
b0 $+
b11110000 &,
1..
#20
b10100100000000010100111110000001 "
b111011000000000000000000000000000000000000000000000000000000000000000000000000000000000000000000000000000000000000000000000000000000000000000000000000000000000000000011111000111100001111000011111000000000000000000000000000000000000000000000000100000000000000000000000000000000000000000000000000000000000000000000000000000000000000000000000000000000000000000000000101100100100011010100001011110010100110110111000101000010111100001011001001000101010000101111001101001101101110010100001011110010111011101000010010110000000010101100000100001101001011110000101011000001000011100101110100001110100100000000010100111110000001 B
b10110000010000111001011101000011 x'
b10110000010000110100101111000010 :(
b10111011101000010010110000000010 Z(
b11010011011011100101000010111100 z(
b101100100100010101000010111100 <)
b10100110110111000101000010111100 \)
b1011001001000110101000010111100 |)
b0 r*
b11111000 &,
#21
b1011011000000010100111110001111 "
b111010000000000000000000000000000000000000000000000000000000000000000000000000000000000000000000000000000000000000000000000000000000000000000000000000000000000000000011111010111100001111000011110000000000000000000000000000000000000000000000000010000000000000000000000000000000000000000000000000000000000000001000000000000000000000000000000000000000000000000000000101100100100001010100001011110010100110110111100101000010111100001011001001000001010000101111001101001101101111010100001011110010100100000000011001001101010111101100000100001101001011110000001011000001000011100101110101111001011011000000010100111110001111 B
b10110000010000111001011101011110 x'
b10110000010000110100101111000000 :(
b10100100000000011001001101010111 Z(
b11010011011011110101000010111100 z(
b101100100100000101000010111100 <)
b10100110110111100101000010111100 \)
b1011001001000010101000010111100 |)
b10 r*
b10 T+
b11110000 &,
b11111010 >,
0*.
#22
b10111011101000010100111110011100 "
b101010000000000000000000000000000000000000000000000000000000000000000000000000000000000000000000000000000000000000000000000000000000000000000000000000000000000000000011110010111100001111000011111000000000000000000000000000000000000000000000000011000000000000000000000000000000000000000000000001000000000000001000000000000000000000000000000000000000000000000000000101100100011111010100001011110010100110111000000101000010111100001011001000111101010000101111001101001101110000010100001011110001011011000000011001001110001111101100000100001101001011000111111011000001000011100101110010000010111011101000010100111110011100 B
b10110000010000111001011100100000 x'
b10110000010000110100101100011111 :(
b1011011000000011001001110001111 Z(
b11010011011100000101000010111100 z(
b101100100011110101000010111100 <)
b10100110111000000101000010111100 \)
b1011001000111110101000010111100 |)
b1 $+
b11 T+
b11111000 &,
b11110010 >,
0..
#23
b10111011101000010100111110010111 "
b101011000000000000000000000000000000000000000000000000000000000000000000000000000000000000000000000000000000000000000000000000000000000000000000000000000000000000000011110010111100001111000011111000000000000000000000000000000000000000000000000011000000000000000000000000000000000000000000001000000000000000001000000000000000000000000000000000000000000000000000000101100100011101010100001011110010100110111000100101000010111100001011001000111001010000101111001101001101110001010100001011110001011011000000011001001110000001101100000100001101001011000111101011000001000011100101110010001010111011101000010100111110010111 B
b10110000010000111001011100100010 x'
b10110000010000110100101100011110 :(
b1011011000000011001001110000001 Z(
b11010011011100010101000010111100 z(
b101100100011100101000010111100 <)
b10100110111000100101000010111100 \)
b1011001000111010101000010111100 |)
b1000 $+
1*.
#24
b1011011000000010100111101110111 "
b111011000000000000000000000000000000000000000000000000000000000000000000000000000000000000000000000000000000000000000000000000000000000000000000000000000000000000000011111000111100001111000011110000000000000000000000000000000000000000000000000100000000000000000000000000000000000000000000000000000000000000000000000000000000000000000000000000000000000000000000000101100100011011010100001011110010100110111001000101000010111100001011001000110101010000101111001101001101110010010100001011110010111011101000010010110001101110101100000100001101001011000111101011000001000011100101110010010001011011000000010100111101110111 B
b10110000010000111001011100100100 x'
b10111011101000010010110001101110 Z(
b11010011011100100101000010111100 z(
b101100100011010101000010111100 <)
b10100110111001000101000010111100 \)
b1011001000110110101000010111100 |)
b0 r*
b0 $+
b100 T+
b11110000 &,
b11111000 >,
1..
#25
b10100100000000010100111101101001 "
b111011000000000000000000000000000000000000000000000000000000000000000000000000000000000000000000000000000000000000000000000000000000000000000000000000000000000000000011111000111100001111000011111000000000000000000000000000000000000000000000000100000000000000000000000000000000000000000000000000000000000000000000000000000000000000000000000000000000000000000000000101100100011001010100001011110010100110111001100101000010111100001011001000110001010000101111001101001101110011010100001011110010111011101000010010110001101101101100000100001101001011000000111011000001000011100101110011100110100100000000010100111101101001 B
b10110000010000111001011100111001 x'
b10110000010000110100101100000011 :(
b10111011101000010010110001101101 Z(
b11010011011100110101000010111100 z(
b101100100011000101000010111100 <)
b10100110111001100101000010111100 \)
b1011001000110010101000010111100 |)
b11111000 &,
#26
b10111011101000010100111110010101 "
b111010000000000000000000000000000000000000000000000000000000000000000000000000000000000000000000000000000000000000000000000000000000000000000000000000000000000000000011110010111100001111000011111000000000000000000000000000000000000000000000000011000000000000000000000000000000000000000000000001000000000000001000000000000000000000000000000000000000000000000000000101100100010111010100001011110010100110111010000101000010111100001011001000101101010000101111001101001101110100010100001011110001011011000000011001001110000100101100000100001101001011000110111011000001000011100101110010100010111011101000010100111110010101 B
b10110000010000111001011100101000 x'
b10110000010000110100101100011011 :(
b1011011000000011001001110000100 Z(
b11010011011101000101000010111100 z(
b101100100010110101000010111100 <)
b10100110111010000101000010111100 \)
b1011001000101110101000010111100 |)
b10 r*
b1 $+
b11 T+
b11110010 >,
0*.
#27
b10100100000000010100111111101101 "
b101010000000000000000000000000000000000000000000000000000000000000000000000000000000000000000000000000000000000000000000000000000000000000000000000000000000000000000011111000111100001111000011111001000000000000000000000000000000000000000000000100000000000000000000000000000000000000000000000000000000000000000000000000000000000000000000000000000000000000000000000101100100010101010100001011110010100110111010100101000010111100001011001000101001010000101111001101001101110101010100001011110010111011101000010010110001110101101100000100001101001011000001011011000001000011100101110011010110100100000000010100111111101101 B
b10110000010000111001011100110101 x'
b10110000010000110100101100000101 :(
b10111011101000010010110001110101 Z(
b11010011011101010101000010111100 z(
b101100100010100101000010111100 <)
b10100110111010100101000010111100 \)
b1011001000101010101000010111100 |)
b0 r*
b0 $+
b100 T+
b11111001 &,
b11111000 >,
0..
#28
b1011011000000010100111101101100 "
b101011000000000000000000000000000000000000000000000000000000000000000000000000000000000000000000000000000000000000000000000000000000000000000000000000000000000000000011111000111100001111000011110000000000000000000000000000000000000000000000000100000000000000000000000000000000000000000000000000000000000000000000000000000000000000000000000000000000000000000000000101100100010011010100001011110010100110111011000101000010111100001011001000100101010000101111001101001101110110010100001011110010111011101000010010110001110110101100000100001101001011000001101011000001000011100101110011001101011011000000010100111101101100 B
b10110000010000111001011100110011 x'
b10110000010000110100101100000110 :(
b10111011101000010010110001110110 Z(
b11010011011101100101000010111100 z(
b101100100010010101000010111100 <)
b10100110111011000101000010111100 \)
b1011001000100110101000010111100 |)
b11110000 &,
1*.
#29
b111011000000000000000000000000000000000000000000000000000000000000000000000000000000000000000000000000000000000000000000000000000000000000000000000000000000000000000011111000111100001111000011110000000000000000000000000000000000000000000000000100000000000000000000000000000000000000000000000000000000000000000000000000000000000000000000000000000000000000000000000101100100010001010100001011110010100110111011100101000010111100001011001000100001010000101111001101001101110111010100001011110010111011101000010010110001110110101100000100001101001011000001101011000001000011100101110011000101011011000000010100111101101100 B
b10110000010000111001011100110001 x'
b11010011011101110101000010111100 z(
b101100100010000101000010111100 <)
b10100110111011100101000010111100 \)
b1011001000100010101000010111100 |)
1..
#30
b10111011101000010100111110010011 "
b111011000000000000000000000000000000000000000000000000000000000000000000000000000000000000000000000000000000000000000000000000000000000000000000000000000000000000000011111011111100001111000011111000000000000000000000000000000000000000000000000011000000000000000000000000000000000000000000000001000000000000001000000000000000000000000000000000000000000000000000000101100100001111010100001011110010100110111100000101000010111100001011001000011101010000101111001101001101111000010100001011110010100100000000011001001111000010101100000100001101001011000101111011000001000011100101110011000010111011101000010100111110010011 B
b10110000010000111001011100110000 x'
b10110000010000110100101100010111 :(
b10100100000000011001001111000010 Z(
b11010011011110000101000010111100 z(
b101100100001110101000010111100 <)
b10100110111100000101000010111100 \)
b1011001000011110101000010111100 |)
b10 r*
b1 $+
b11 T+
b11111000 &,
b11111011 >,
#31
b10100100000000010100111111101011 "
b111010000000000000000000000000000000000000000000000000000000000000000000000000000000000000000000000000000000000000000000000000000000000000000000000000000000000000000011111000111100001111000011111001000000000000000000000000000000000000000000000100000000000000000000000000000000000000000000000000000000000000000000000000000000000000000000000000000000000000000000000101100100001101010100001011110010100110111100100101000010111100001011001000011001010000101111001101001101111001010100001011110010111011101000010010110001111001101100000100001101001011000010011011000001000011100101110010110110100100000000010100111111101011 B
b10110000010000111001011100101101 x'
b10110000010000110100101100001001 :(
b10111011101000010010110001111001 Z(
b11010011011110010101000010111100 z(
b101100100001100101000010111100 <)
b10100110111100100101000010111100 \)
b1011001000011010101000010111100 |)
b0 r*
b0 $+
b100 T+
b11111001 &,
b11111000 >,
0*.
#32
b1011011000000010100111101101010 "
b101010000000000000000000000000000000000000000000000000000000000000000000000000000000000000000000000000000000000000000000000000000000000000000000000000000000000000000011111000111100001111000011110000000000000000000000000000000000000000000000000100000000000000000000000000000000000000000000000000000000000000000000000000000000000000000000000000000000000000000000000101100100001011010100001011110010100110111101000101000010111100001011001000010101010000101111001101001101111010010100001011110010111011101000010010110001111010101100000100001101001011000010101011000001000011100101110010101101011011000000010100111101101010 B
b10110000010000111001011100101011 x'
b10110000010000110100101100001010 :(
b10111011101000010010110001111010 Z(
b11010011011110100101000010111100 z(
b101100100001010101000010111100 <)
b10100110111101000101000010111100 \)
b1011001000010110101000010111100 |)
b11110000 &,
0..
#33
b10100100000000010100111111111010 "
b101011000000000000000000000000000000000000000000000000000000000000000000000000000000000000000000000000000000000000000000000000000000000000000000000000000000000000000011111000111100001111000011111000000000000000000000000000000000000000000000000100000000000000000000000000000000000000000000000010000000000000000000000000000000000000000000000000000000000000000000000101100100001001010100001011110010100110111101100101000010111100001011001000010001010000101111001101001101111011010100001011110010111011101000010010110001101011101100000100001101001011000010111011000001000011100101110010100110100100000000010100111111111010 B
b10110000010000111001011100101001 x'
b10110000010000110100101100001011 :(
b10111011101000010010110001101011 Z(
b11010011011110110101000010111100 z(
b101100100001000101000010111100 <)
b10100110111101100101000010111100 \)
b1011001000010010101000010111100 |)
b10 $+
b11111000 &,
1*.
#34
b1011011000000010100111111111010 "
b111011000000000000000000000000000000000000000000000000000000000000000000000000000000000000000000000000000000000000000000000000000000000000000000000000000000000000000011111000111100001111000011110000000000000000000000000000000000000000000000000100000000000000000000000000000000000000000000000010000000000000000000000000000000000000000000000000000000000000000000000101100100000111010100001011110010100110111110000101000010111100001011001000001101010000101111001101001101111100010100001011110010111011101000010010110001101011101100000100001101001011000010111011000001000011100101110011100001011011000000010100111111111010 B
b10110000010000111001011100111000 x'
b11010011011111000101000010111100 z(
b101100100000110101000010111100 <)
b10100110111110000101000010111100 \)
b1011001000001110101000010111100 |)
b11110000 &,
1..
#35
b10100100000000010100111111111001 "
b111011000000000000000000000000000000000000000000000000000000000000000000000000000000000000000000000000000000000000000000000000000000000000000000000000000000000000000011111000111100001111000011111000000000000000000000000000000000000000000000000100000000000000000000000000000000000000000000000010000000000000000000000000000000000000000000000000000000000000000000000101100100000101010100001011110010100110111110100101000010111100001011001000001001010000101111001101001101111101010100001011110010111011101000010010110001101101101100000100001101001011000011011011000001000011100101110010010110100100000000010100111111111001 B
b10110000010000111001011100100101 x'
b10110000010000110100101100001101 :(
b10111011101000010010110001101101 Z(
b11010011011111010101000010111100 z(
b101100100000100101000010111100 <)
b10100110111110100101000010111100 \)
b1011001000001010101000010111100 |)
b11111000 &,
#36
b1011011000000010100111111101000 "
b111010000000000000000000000000000000000000000000000000000000000000000000000000000000000000000000000000000000000000000000000000000000000000000000000000000000000000000011111000111100001111000011110000000000000000000000000000000000000000000000000100000000000000000000000000000000000000000000000011000000000000000000000000000000000000000000000000000000000000000000000101100100000011010100001011110010100110111111000101000010111100001011001000000101010000101111001101001101111110010100001011110010111011101000010010110001101110101100000100001101001011000011101011000001000011100101110010001101011011000000010100111111101000 B
b10110000010000111001011100100011 x'
b10110000010000110100101100001110 :(
b10111011101000010010110001101110 Z(
b11010011011111100101000010111100 z(
b101100100000010101000010111100 <)
b10100110111111000101000010111100 \)
b1011001000000110101000010111100 |)
b11 $+
b11110000 &,
0*.
