OpticalTests/.Xil/Vivado-71636-higgs.physics.ucsb.edu/hw_ila_data_1/zip_work/waveform.vcd
$date
        2022-Jan-13 22:14:47
$end
$version
        Vivado v2019.2 (64-bit)
$end
$timescale
        1ps
$end
$scope module dut $end
$var reg 718 " ila_data [717:0] $end
$var reg 32 ^( receiver_0 [31:0] $end
$var reg 32 ~( receiver_1 [31:0] $end
$var reg 32 @) receiver_2 [31:0] $end
$var reg 32 `) receiver_3 [31:0] $end
$var reg 32 "* transmitter_0 [31:0] $end
$var reg 32 B* transmitter_1 [31:0] $end
$var reg 32 b* transmitter_2 [31:0] $end
$var reg 32 $+ transmitter_3 [31:0] $end
$var reg 4 D+ prbs_match_int [3:0] $end
$var reg 1 H+ hb0_gtwiz_userclk_rx_usrclk2_int $end
$var reg 1 I+ hb0_gtwiz_userclk_rx_active_int $end
$var reg 1 J+ hb_gtwiz_reset_all_int $end
$var reg 1 K+ hb0_gtwiz_reset_rx_done_int $end
$var reg 1 L+ hb0_gtwiz_userclk_tx_usrclk2_int $end
$var reg 1 M+ hb0_gtwiz_userclk_tx_active_int $end
$var reg 4 N+ rx8b10ben_int [3:0] $end
$var reg 4 R+ rxcommadeten_int [3:0] $end
$var reg 4 V+ rxlpmen_int [3:0] $end
$var reg 4 Z+ rxmcommaalignen_int [3:0] $end
$var reg 4 ^+ rxpcommaalignen_int [3:0] $end
$var reg 4 b+ tx8b10ben_int [3:0] $end
$var reg 4 f+ gtpowergood_int [3:0] $end
$var reg 4 j+ rxbyteisaligned_int [3:0] $end
$var reg 4 n+ rxbyterealign_int [3:0] $end
$var reg 4 r+ rxcommadet_int [3:0] $end
$var reg 4 v+ rxpmaresetdone_int [3:0] $end
$var reg 4 z+ txpmaresetdone_int [3:0] $end
$var reg 16 ~+ ch0_rxctrl0_int [15:0] $end
$var reg 16 0, ch1_rxctrl0_int [15:0] $end
$var reg 16 @, ch2_rxctrl0_int [15:0] $end
$var reg 16 P, ch3_rxctrl0_int [15:0] $end
$var reg 16 `, ch0_rxctrl1_int [15:0] $end
$var reg 16 p, ch1_rxctrl1_int [15:0] $end
$var reg 16 "- ch2_rxctrl1_int [15:0] $end
$var reg 16 2- ch3_rxctrl1_int [15:0] $end
$var reg 8 B- ch0_rxctrl2_int [7:0] $end
$var reg 8 J- ch1_rxctrl2_int [7:0] $end
$var reg 8 R- ch2_rxctrl2_int [7:0] $end
$var reg 8 Z- ch3_rxctrl2_int [7:0] $end
$var reg 8 b- ch0_rxctrl3_int [7:0] $end
$var reg 8 j- ch1_rxctrl3_int [7:0] $end
$var reg 8 r- ch2_rxctrl3_int [7:0] $end
$var reg 8 z- ch3_rxctrl3_int [7:0] $end
$var reg 16 $. ch0_txctrl0_int [15:0] $end
$var reg 16 4. ch1_txctrl0_int [15:0] $end
$var reg 16 D. ch2_txctrl0_int [15:0] $end
$var reg 16 T. ch3_txctrl0_int [15:0] $end
$var reg 16 d. ch0_txctrl1_int [15:0] $end
$var reg 16 t. ch1_txctrl1_int [15:0] $end
$var reg 16 &/ ch2_txctrl1_int [15:0] $end
$var reg 16 6/ ch3_txctrl1_int [15:0] $end
$var reg 8 F/ ch0_txctrl2_int [7:0] $end
$var reg 8 N/ ch1_txctrl2_int [7:0] $end
$var reg 8 V/ ch2_txctrl2_int [7:0] $end
$var reg 8 ^/ ch3_txctrl2_int [7:0] $end
$var reg 4 f/ rxchanisaligned_int [3:0] $end
$var reg 4 j/ rxchanrealign_int [3:0] $end
$var reg 4 n/ rxchanbondseq_int [3:0] $end
$var reg 20 r/ rxchbondi_int [19:0] $end
$var reg 20 (0 rxchbondo_int [19:0] $end
$var reg 1 <0 _TRIGGER $end
$var reg 1 =0 _WINDOW $end
$var reg 1 >0 _GAP $end
$upscope $end
$enddefinitions $end
#0
$dumpvars
b10000000000000000000000000000000000000000000000000000000000000000000000000000000000000000000000000000000000000000000000000000000000000000000000000000000000000000011110000111100001111000011110000000000000000000000000000000000000000000000000000000000000000000000000000000000000000000000000000000000000000000000000000000000000000000000000000000000000000000011111111000000001111111111111111111111111111111111101000000000111100010010000111010101101100001111000100100001110101011011000011110001001000011101010110110000111100010010000111010101101100010010000111010101100000001111000100100001110101011000000011110001001000011101010110000000111100010010000111010101100000001111 "
b10010000111010101100000001111 ^(
b10010000111010101100000001111 ~(
b10010000111010101100000001111 @)
b10010000111010101100000001111 `)
b1111000100100001110101011011 "*
b1111000100100001110101011011 B*
b1111000100100001110101011011 b*
b1111000100100001110101011011 $+
b0 D+
0H+
1I+
0J+
1K+
1L+
1M+
b1111 N+
b1111 R+
b1111 V+
b1111 Z+
b1111 ^+
b1111 b+
b1111 f+
b1111 j+
b0 n+
b0 r+
b1111 v+
b1111 z+
b0 ~+
b0 0,
b0 @,
b0 P,
b0 `,
b0 p,
b0 "-
b0 2-
b0 B-
b0 J-
b0 R-
b0 Z-
b11110000 b-
b11110000 j-
b11110000 r-
b11110000 z-
b0 $.
b0 4.
b0 D.
b0 T.
b0 d.
b0 t.
b0 &/
b0 6/
b0 F/
b0 N/
b0 V/
b0 ^/
b10 f/
b0 j/
b0 n/
b0 r/
b0 (0
0<0
1=0
0>0
$end
#1
b10000000000000000000000000000000000000000000000000000000000000000000000000000000000000000000000000000000000000000000000000000000000000000000000000000000000000000011110000111100001111000011110000000000000000000000000000000000000000000000000000000000000000000000000000000000000000000000000000000000000000000000000000000000000000000000000000000000000000000011111111000000001111111111111111111111111111111111101000000000111100010010000111010101110000001111000100100001110101011100000011110001001000011101010111000000111100010010000111010101110000010010000111010101100100001111000100100001110101011001000011110001001000011101010110010000111100010010000111010101100100001111 "
b10010000111010101100100001111 ^(
b10010000111010101100100001111 ~(
b10010000111010101100100001111 @)
b10010000111010101100100001111 `)
b1111000100100001110101011100 "*
b1111000100100001110101011100 B*
b1111000100100001110101011100 b*
b1111000100100001110101011100 $+
#2
b10000000000000000000000000000000000000000000000000000000000000000000000000000000000000000000000000000000000000000000000000000000000000000000000000000000000000000011110000111100001111000011110000000000000000000000000000000000000000000000000000000000000000000000000000000000000000000000000000000000000000000000000000000000000000000000000000000000000000000011111111000000001111111111111111111111111111111110101100000000111100010010000111010101110100001111000100100001110101011101000011110001001000011101010111010000111100010010000111010101110100010010000111010101101000001111000100100001110101011010000011110001001000011101010110100000111100010010000111010101101000001111 "
b10010000111010101101000001111 ^(
b10010000111010101101000001111 ~(
b10010000111010101101000001111 @)
b10010000111010101101000001111 `)
b1111000100100001110101011101 "*
b1111000100100001110101011101 B*
b1111000100100001110101011101 b*
b1111000100100001110101011101 $+
1H+
0L+
#3
b10000000000000000000000000000000000000000000000000000000000000000000000000000000000000000000000000000000000000000000000000000000000000000000000000000000000000000011110000111100001111000011110000000000000000000000000000000000000000000000000000000000000000000000000000000000000000000000000000000000000000000000000000000000000000000000000000000000000000000011111111000000001111111111111111111111111111111110101100000000111100010010000111010101111000001111000100100001110101011110000011110001001000011101010111100000111100010010000111010101111000010010000111010101101100001111000100100001110101011011000011110001001000011101010110110000111100010010000111010101101100001111 "
b10010000111010101101100001111 ^(
b10010000111010101101100001111 ~(
b10010000111010101101100001111 @)
b10010000111010101101100001111 `)
b1111000100100001110101011110 "*
b1111000100100001110101011110 B*
b1111000100100001110101011110 b*
b1111000100100001110101011110 $+
#4
b10000000000000000000000000000000000000000000000000000000000000000000000000000000000000000000000000000000000000000000000000000000000000000000000000000000000000000011110000111100001111000011110000000000000000000000000000000000000000000000000000000000000000000000000000000000000000000000000000000000000000000000000000000000000000000000000000000000000000000011111111000000001111111111111111111111111111111110101100000000111100010010000111010101111100001111000100100001110101011111000011110001001000011101010111110000111100010010000111010101111100010010000111010101110000001111000100100001110101011100000011110001001000011101010111000000111100010010000111010101110000001111 "
b10010000111010101110000001111 ^(
b10010000111010101110000001111 ~(
b10010000111010101110000001111 @)
b10010000111010101110000001111 `)
b1111000100100001110101011111 "*
b1111000100100001110101011111 B*
b1111000100100001110101011111 b*
b1111000100100001110101011111 $+
#5
b10000000000000000000000000000000000000000000000000000000000000000000000000000000000000000000000000000000000000000000000000000000000000000000000000000000000000000011110000111100001111000011110000000000000000000000000000000000000000000000000000000000000000000000000000000000000000000000000000000000000000000000000000000000000000000000000000000000000000000011111111000000001111111111111111111111111111111111101000000000111100010010000111010110000000001111000100100001110101100000000011110001001000011101011000000000111100010010000111010110000000010010000111010101110100001111000100100001110101011101000011110001001000011101010111010000111100010010000111010101110100001111 "
b10010000111010101110100001111 ^(
b10010000111010101110100001111 ~(
b10010000111010101110100001111 @)
b10010000111010101110100001111 `)
b1111000100100001110101100000 "*
b1111000100100001110101100000 B*
b1111000100100001110101100000 b*
b1111000100100001110101100000 $+
0H+
1L+
#6
b10000000000000000000000000000000000000000000000000000000000000000000000000000000000000000000000000000000000000000000000000000000000000000000000000000000000000000011110000111100001111000011110000000000000000000000000000000000000000000000000000000000000000000000000000000000000000000000000000000000000000000000000000000000000000000000000000000000000000000011111111000000001111111111111111111111111111111111101000000000111100010010000111010110000100001111000100100001110101100001000011110001001000011101011000010000111100010010000111010110000100010010000111010101111000001111000100100001110101011110000011110001001000011101010111100000111100010010000111010101111000001111 "
b10010000111010101111000001111 ^(
b10010000111010101111000001111 ~(
b10010000111010101111000001111 @)
b10010000111010101111000001111 `)
b1111000100100001110101100001 "*
b1111000100100001110101100001 B*
b1111000100100001110101100001 b*
b1111000100100001110101100001 $+
#7
b10000000000000000000000000000000000000000000000000000000000000000000000000000000000000000000000000000000000000000000000000000000000000000000000000000000000000000011110000111100001111000011110000000000000000000000000000000000000000000000000000000000000000000000000000000000000000000000000000000000000000000000000000000000000000000000000000000000000000000011111111000000001111111111111111111111111111111110101100000000111100010010000111010110001000001111000100100001110101100010000011110001001000011101011000100000111100010010000111010110001000010010000111010101111100001111000100100001110101011111000011110001001000011101010111110000111100010010000111010101111100001111 "
b10010000111010101111100001111 ^(
b10010000111010101111100001111 ~(
b10010000111010101111100001111 @)
b10010000111010101111100001111 `)
b1111000100100001110101100010 "*
b1111000100100001110101100010 B*
b1111000100100001110101100010 b*
b1111000100100001110101100010 $+
1H+
0L+
#8
b10000000000000000000000000000000000000000000000000000000000000000000000000000000000000000000000000000000000000000000000000000000000000000000000000000000000000000011110000111100001111000011110000000000000000000000000000000000000000000000000000000000000000000000000000000000000000000000000000000000000000000000000000000000000000000000000000000000000000000011111111000000001111111111111111111111111111111110101100000000111100010010000111010110001100001111000100100001110101100011000011110001001000011101011000110000111100010010000111010110001100010010000111010110000000001111000100100001110101100000000011110001001000011101011000000000111100010010000111010110000000001111 "
b10010000111010110000000001111 ^(
b10010000111010110000000001111 ~(
b10010000111010110000000001111 @)
b10010000111010110000000001111 `)
b1111000100100001110101100011 "*
b1111000100100001110101100011 B*
b1111000100100001110101100011 b*
b1111000100100001110101100011 $+
#9
b10000000000000000000000000000000000000000000000000000000000000000000000000000000000000000000000000000000000000000000000000000000000000000000000000000000000000000011110000111100001111000011110000000000000000000000000000000000000000000000000000000000000000000000000000000000000000000000000000000000000000000000000000000000000000000000000000000000000000000011111111000000001111111111111111111111111111111110101100000000111100010010000111010110010000001111000100100001110101100100000011110001001000011101011001000000111100010010000111010110010000010010000111010110000100001111000100100001110101100001000011110001001000011101011000010000111100010010000111010110000100001111 "
b10010000111010110000100001111 ^(
b10010000111010110000100001111 ~(
b10010000111010110000100001111 @)
b10010000111010110000100001111 `)
b1111000100100001110101100100 "*
b1111000100100001110101100100 B*
b1111000100100001110101100100 b*
b1111000100100001110101100100 $+
#10
b10000000000000000000000000000000000000000000000000000000000000000000000000000000000000000000000000000000000000000000000000000000000000000000000000000000000000000011110000111100001111000011110000000000000000000000000000000000000000000000000000000000000000000000000000000000000000000000000000000000000000000000000000000000000000000000000000000000000000000011111111000000001111111111111111111111111111111111101000000000111100010010000111010110010100001111000100100001110101100101000011110001001000011101011001010000111100010010000111010110010100010010000111010110001000001111000100100001110101100010000011110001001000011101011000100000111100010010000111010110001000001111 "
b10010000111010110001000001111 ^(
b10010000111010110001000001111 ~(
b10010000111010110001000001111 @)
b10010000111010110001000001111 `)
b1111000100100001110101100101 "*
b1111000100100001110101100101 B*
b1111000100100001110101100101 b*
b1111000100100001110101100101 $+
0H+
1L+
#11
b10000000000000000000000000000000000000000000000000000000000000000000000000000000000000000000000000000000000000000000000000000000000000000000000000000000000000000011110000111100001111000011110000000000000000000000000000000000000000000000000000000000000000000000000000000000000000000000000000000000000000000000000000000000000000000000000000000000000000000011111111000000001111111111111111111111111111111111101000000000111100010010000111010110011000001111000100100001110101100110000011110001001000011101011001100000111100010010000111010110011000010010000111010110001100001111000100100001110101100011000011110001001000011101011000110000111100010010000111010110001100001111 "
b10010000111010110001100001111 ^(
b10010000111010110001100001111 ~(
b10010000111010110001100001111 @)
b10010000111010110001100001111 `)
b1111000100100001110101100110 "*
b1111000100100001110101100110 B*
b1111000100100001110101100110 b*
b1111000100100001110101100110 $+
#12
b10000000000000000000000000000000000000000000000000000000000000000000000000000000000000000000000000000000000000000000000000000000000000000000000000000000000000000011110000111100001111000011110000000000000000000000000000000000000000000000000000000000000000000000000000000000000000000000000000000000000000000000000000000000000000000000000000000000000000000011111111000000001111111111111111111111111111111110101100000000111100010010000111010110011100001111000100100001110101100111000011110001001000011101011001110000111100010010000111010110011100010010000111010110010000001111000100100001110101100100000011110001001000011101011001000000111100010010000111010110010000001111 "
b10010000111010110010000001111 ^(
b10010000111010110010000001111 ~(
b10010000111010110010000001111 @)
b10010000111010110010000001111 `)
b1111000100100001110101100111 "*
b1111000100100001110101100111 B*
b1111000100100001110101100111 b*
b1111000100100001110101100111 $+
1H+
0L+
#13
b10000000000000000000000000000000000000000000000000000000000000000000000000000000000000000000000000000000000000000000000000000000000000000000000000000000000000000011110000111100001111000011110000000000000000000000000000000000000000000000000000000000000000000000000000000000000000000000000000000000000000000000000000000000000000000000000000000000000000000011111111000000001111111111111111111111111111111110101100000000111100010010000111010110100000001111000100100001110101101000000011110001001000011101011010000000111100010010000111010110100000010010000111010110010100001111000100100001110101100101000011110001001000011101011001010000111100010010000111010110010100001111 "
b10010000111010110010100001111 ^(
b10010000111010110010100001111 ~(
b10010000111010110010100001111 @)
b10010000111010110010100001111 `)
b1111000100100001110101101000 "*
b1111000100100001110101101000 B*
b1111000100100001110101101000 b*
b1111000100100001110101101000 $+
#14
b10000000000000000000000000000000000000000000000000000000000000000000000000000000000000000000000000000000000000000000000000000000000000000000000000000000000000000011110000111100001111000011110000000000000000000000000000000000000000000000000000000000000000000000000000000000000000000000000000000000000000000000000000000000000000000000000000000000000000000011111111000000001111111111111111111111111111111110101100000000111100010010000111010110100100001111000100100001110101101001000011110001001000011101011010010000111100010010000111010110100100010010000111010110011000001111000100100001110101100110000011110001001000011101011001100000111100010010000111010110011000001111 "
b10010000111010110011000001111 ^(
b10010000111010110011000001111 ~(
b10010000111010110011000001111 @)
b10010000111010110011000001111 `)
b1111000100100001110101101001 "*
b1111000100100001110101101001 B*
b1111000100100001110101101001 b*
b1111000100100001110101101001 $+
#15
b10000000000000000000000000000000000000000000000000000000000000000000000000000000000000000000000000000000000000000000000000000000000000000000000000000000000000000011110000111100001111000011110000000000000000000000000000000000000000000000000000000000000000000000000000000000000000000000000000000000000000000000000000000000000000000000000000000000000000000011111111000000001111111111111111111111111111111111101000000000111100010010000111010110101000001111000100100001110101101010000011110001001000011101011010100000111100010010000111010110101000010010000111010110011100001111000100100001110101100111000011110001001000011101011001110000111100010010000111010110011100001111 "
b10010000111010110011100001111 ^(
b10010000111010110011100001111 ~(
b10010000111010110011100001111 @)
b10010000111010110011100001111 `)
b1111000100100001110101101010 "*
b1111000100100001110101101010 B*
b1111000100100001110101101010 b*
b1111000100100001110101101010 $+
0H+
1L+
#16
b10000000000000000000000000000000000000000000000000000000000000000000000000000000000000000000000000000000000000000000000000000000000000000000000000000000000000000011110000111100001111000011110000000000000000000000000000000000000000000000000000000000000000000000000000000000000000000000000000000000000000000000000000000000000000000000000000000000000000000011111111000000001111111111111111111111111111111111101000000000111100010010000111010110101100001111000100100001110101101011000011110001001000011101011010110000111100010010000111010110101100010010000111010110100000001111000100100001110101101000000011110001001000011101011010000000111100010010000111010110100000001111 "
b10010000111010110100000001111 ^(
b10010000111010110100000001111 ~(
b10010000111010110100000001111 @)
b10010000111010110100000001111 `)
b1111000100100001110101101011 "*
b1111000100100001110101101011 B*
b1111000100100001110101101011 b*
b1111000100100001110101101011 $+
#17
b10000000000000000000000000000000000000000000000000000000000000000000000000000000000000000000000000000000000000000000000000000000000000000000000000000000000000000011110000111100001111000011110000000000000000000000000000000000000000000000000000000000000000000000000000000000000000000000000000000000000000000000000000000000000000000000000000000000000000000011111111000000001111111111111111111111111111111110101100000000111100010010000111010110110000001111000100100001110101101100000011110001001000011101011011000000111100010010000111010110110000010010000111010110100100001111000100100001110101101001000011110001001000011101011010010000111100010010000111010110100100001111 "
b10010000111010110100100001111 ^(
b10010000111010110100100001111 ~(
b10010000111010110100100001111 @)
b10010000111010110100100001111 `)
b1111000100100001110101101100 "*
b1111000100100001110101101100 B*
b1111000100100001110101101100 b*
b1111000100100001110101101100 $+
1H+
0L+
#18
b10000000000000000000000000000000000000000000000000000000000000000000000000000000000000000000000000000000000000000000000000000000000000000000000000000000000000000011110000111100001111000011110000000000000000000000000000000000000000000000000000000000000000000000000000000000000000000000000000000000000000000000000000000000000000000000000000000000000000000011111111000000001111111111111111111111111111111110101100000000111100010010000111010110110100001111000100100001110101101101000011110001001000011101011011010000111100010010000111010110110100010010000111010110101000001111000100100001110101101010000011110001001000011101011010100000111100010010000111010110101000001111 "
b10010000111010110101000001111 ^(
b10010000111010110101000001111 ~(
b10010000111010110101000001111 @)
b10010000111010110101000001111 `)
b1111000100100001110101101101 "*
b1111000100100001110101101101 B*
b1111000100100001110101101101 b*
b1111000100100001110101101101 $+
#19
b10000000000000000000000000000000000000000000000000000000000000000000000000000000000000000000000000000000000000000000000000000000000000000000000000000000000000000011110000111100001111000011110000000000000000000000000000000000000000000000000000000000000000000000000000000000000000000000000000000000000000000000000000000000000000000000000000000000000000000011111111000000001111111111111111111111111111111110101100000000111100010010000111010110111000001111000100100001110101101110000011110001001000011101011011100000111100010010000111010110111000010010000111010110101100001111000100100001110101101011000011110001001000011101011010110000111100010010000111010110101100001111 "
b10010000111010110101100001111 ^(
b10010000111010110101100001111 ~(
b10010000111010110101100001111 @)
b10010000111010110101100001111 `)
b1111000100100001110101101110 "*
b1111000100100001110101101110 B*
b1111000100100001110101101110 b*
b1111000100100001110101101110 $+
#20
b10000000000000000000000000000000000000000000000000000000000000000000000000000000000000000000000000000000000000000000000000000000000000000000000000000000000000000011110000111100001111000011110000000000000000000000000000000000000000000000000000000000000000000000000000000000000000000000000000000000000000000000000000000000000000000000000000000000000000000011111111000000001111111111111111111111111111111111101000000000111100010010000111010110111100001111000100100001110101101111000011110001001000011101011011110000111100010010000111010110111100010010000111010110110000001111000100100001110101101100000011110001001000011101011011000000111100010010000111010110110000001111 "
b10010000111010110110000001111 ^(
b10010000111010110110000001111 ~(
b10010000111010110110000001111 @)
b10010000111010110110000001111 `)
b1111000100100001110101101111 "*
b1111000100100001110101101111 B*
b1111000100100001110101101111 b*
b1111000100100001110101101111 $+
0H+
1L+
#21
b10000000000000000000000000000000000000000000000000000000000000000000000000000000000000000000000000000000000000000000000000000000000000000000000000000000000000000011110000111100001111000011110000000000000000000000000000000000000000000000000000000000000000000000000000000000000000000000000000000000000000000000000000000000000000000000000000000000000000000011111111000000001111111111111111111111111111111111101000000000111100010010000111010111000000001111000100100001110101110000000011110001001000011101011100000000111100010010000111010111000000010010000111010110110100001111000100100001110101101101000011110001001000011101011011010000111100010010000111010110110100001111 "
b10010000111010110110100001111 ^(
b10010000111010110110100001111 ~(
b10010000111010110110100001111 @)
b10010000111010110110100001111 `)
b1111000100100001110101110000 "*
b1111000100100001110101110000 B*
b1111000100100001110101110000 b*
b1111000100100001110101110000 $+
#22
b10000000000000000000000000000000000000000000000000000000000000000000000000000000000000000000000000000000000000000000000000000000000000000000000000000000000000000011110000111100001111000011110000000000000000000000000000000000000000000000000000000000000000000000000000000000000000000000000000000000000000000000000000000000000000000000000000000000000000000011111111000000001111111111111111111111111111111110101100000000111100010010000111010111000100001111000100100001110101110001000011110001001000011101011100010000111100010010000111010111000100010010000111010110111000001111000100100001110101101110000011110001001000011101011011100000111100010010000111010110111000001111 "
b10010000111010110111000001111 ^(
b10010000111010110111000001111 ~(
b10010000111010110111000001111 @)
b10010000111010110111000001111 `)
b1111000100100001110101110001 "*
b1111000100100001110101110001 B*
b1111000100100001110101110001 b*
b1111000100100001110101110001 $+
1H+
0L+
#23
b10000000000000000000000000000000000000000000000000000000000000000000000000000000000000000000000000000000000000000000000000000000000000000000000000000000000000000011110000111100001111000011110000000000000000000000000000000000000000000000000000000000000000000000000000000000000000000000000000000000000000000000000000000000000000000000000000000000000000000011111111000000001111111111111111111111111111111110101100000000111100010010000111010111001000001111000100100001110101110010000011110001001000011101011100100000111100010010000111010111001000010010000111010110111100001111000100100001110101101111000011110001001000011101011011110000111100010010000111010110111100001111 "
b10010000111010110111100001111 ^(
b10010000111010110111100001111 ~(
b10010000111010110111100001111 @)
b10010000111010110111100001111 `)
b1111000100100001110101110010 "*
b1111000100100001110101110010 B*
b1111000100100001110101110010 b*
b1111000100100001110101110010 $+
#24
b10000000000000000000000000000000000000000000000000000000000000000000000000000000000000000000000000000000000000000000000000000000000000000000000000000000000000000011110000111100001111000011110000000000000000000000000000000000000000000000000000000000000000000000000000000000000000000000000000000000000000000000000000000000000000000000000000000000000000000011111111000000001111111111111111111111111111111110101100000000111100010010000111010111001100001111000100100001110101110011000011110001001000011101011100110000111100010010000111010111001100010010000111010111000000001111000100100001110101110000000011110001001000011101011100000000111100010010000111010111000000001111 "
b10010000111010111000000001111 ^(
b10010000111010111000000001111 ~(
b10010000111010111000000001111 @)
b10010000111010111000000001111 `)
b1111000100100001110101110011 "*
b1111000100100001110101110011 B*
b1111000100100001110101110011 b*
b1111000100100001110101110011 $+
#25
b10000000000000000000000000000000000000000000000000000000000000000000000000000000000000000000000000000000000000000000000000000000000000000000000000000000000000000011110000111100001111000011110000000000000000000000000000000000000000000000000000000000000000000000000000000000000000000000000000000000000000000000000000000000000000000000000000000000000000000011111111000000001111111111111111111111111111111111101000000000111100010010000111010111010000001111000100100001110101110100000011110001001000011101011101000000111100010010000111010111010000010010000111010111000100001111000100100001110101110001000011110001001000011101011100010000111100010010000111010111000100001111 "
b10010000111010111000100001111 ^(
b10010000111010111000100001111 ~(
b10010000111010111000100001111 @)
b10010000111010111000100001111 `)
b1111000100100001110101110100 "*
b1111000100100001110101110100 B*
b1111000100100001110101110100 b*
b1111000100100001110101110100 $+
0H+
1L+
#26
b10000000000000000000000000000000000000000000000000000000000000000000000000000000000000000000000000000000000000000000000000000000000000000000000000000000000000000011110000111100001111000011110000000000000000000000000000000000000000000000000000000000000000000000000000000000000000000000000000000000000000000000000000000000000000000000000000000000000000000011111111000000001111111111111111111111111111111111101000000000111100010010000111010111010100001111000100100001110101110101000011110001001000011101011101010000111100010010000111010111010100010010000111010111001000001111000100100001110101110010000011110001001000011101011100100000111100010010000111010111001000001111 "
b10010000111010111001000001111 ^(
b10010000111010111001000001111 ~(
b10010000111010111001000001111 @)
b10010000111010111001000001111 `)
b1111000100100001110101110101 "*
b1111000100100001110101110101 B*
b1111000100100001110101110101 b*
b1111000100100001110101110101 $+
#27
b10000000000000000000000000000000000000000000000000000000000000000000000000000000000000000000000000000000000000000000000000000000000000000000000000000000000000000011110000111100001111000011110000000000000000000000000000000000000000000000000000000000000000000000000000000000000000000000000000000000000000000000000000000000000000000000000000000000000000000011111111000000001111111111111111111111111111111110101100000000111100010010000111010111011000001111000100100001110101110110000011110001001000011101011101100000111100010010000111010111011000010010000111010111001100001111000100100001110101110011000011110001001000011101011100110000111100010010000111010111001100001111 "
b10010000111010111001100001111 ^(
b10010000111010111001100001111 ~(
b10010000111010111001100001111 @)
b10010000111010111001100001111 `)
b1111000100100001110101110110 "*
b1111000100100001110101110110 B*
b1111000100100001110101110110 b*
b1111000100100001110101110110 $+
1H+
0L+
#28
b10000000000000000000000000000000000000000000000000000000000000000000000000000000000000000000000000000000000000000000000000000000000000000000000000000000000000000011110000111100001111000011110000000000000000000000000000000000000000000000000000000000000000000000000000000000000000000000000000000000000000000000000000000000000000000000000000000000000000000011111111000000001111111111111111111111111111111110101100000000111100010010000111010111011100001111000100100001110101110111000011110001001000011101011101110000111100010010000111010111011100010010000111010111010000001111000100100001110101110100000011110001001000011101011101000000111100010010000111010111010000001111 "
b10010000111010111010000001111 ^(
b10010000111010111010000001111 ~(
b10010000111010111010000001111 @)
b10010000111010111010000001111 `)
b1111000100100001110101110111 "*
b1111000100100001110101110111 B*
b1111000100100001110101110111 b*
b1111000100100001110101110111 $+
#29
b10000000000000000000000000000000000000000000000000000000000000000000000000000000000000000000000000000000000000000000000000000000000000000000000000000000000000000011110000111100001111000011110000000000000000000000000000000000000000000000000000000000000000000000000000000000000000000000000000000000000000000000000000000000000000000000000000000000000000000011111111000000001111111111111111111111111111111110101100000000111100010010000111010111100000001111000100100001110101111000000011110001001000011101011110000000111100010010000111010111100000010010000111010111010100001111000100100001110101110101000011110001001000011101011101010000111100010010000111010111010100001111 "
b10010000111010111010100001111 ^(
b10010000111010111010100001111 ~(
b10010000111010111010100001111 @)
b10010000111010111010100001111 `)
b1111000100100001110101111000 "*
b1111000100100001110101111000 B*
b1111000100100001110101111000 b*
b1111000100100001110101111000 $+
#30
b10000000000000000000000000000000000000000000000000000000000000000000000000000000000000000000000000000000000000000000000000000000000000000000000000000000000000000011110000111100001111000011110000000000000000000000000000000000000000000000000000000000000000000000000000000000000000000000000000000000000000000000000000000000000000000000000000000000000000000011111111000000001111111111111111111111111111111111101000000000111100010010000111010111100100001111000100100001110101111001000011110001001000011101011110010000111100010010000111010111100100010010000111010111011000001111000100100001110101110110000011110001001000011101011101100000111100010010000111010111011000001111 "
b10010000111010111011000001111 ^(
b10010000111010111011000001111 ~(
b10010000111010111011000001111 @)
b10010000111010111011000001111 `)
b1111000100100001110101111001 "*
b1111000100100001110101111001 B*
b1111000100100001110101111001 b*
b1111000100100001110101111001 $+
0H+
1L+
#31
b10000000000000000000000000000000000000000000000000000000000000000000000000000000000000000000000000000000000000000000000000000000000000000000000000000000000000000011110000111100001111000011110000000000000000000000000000000000000000000000000000000000000000000000000000000000000000000000000000000000000000000000000000000000000000000000000000000000000000000011111111000000001111111111111111111111111111111111101000000000111100010010000111010111101000001111000100100001110101111010000011110001001000011101011110100000111100010010000111010111101000010010000111010111011100001111000100100001110101110111000011110001001000011101011101110000111100010010000111010111011100001111 "
b10010000111010111011100001111 ^(
b10010000111010111011100001111 ~(
b10010000111010111011100001111 @)
b10010000111010111011100001111 `)
b1111000100100001110101111010 "*
b1111000100100001110101111010 B*
b1111000100100001110101111010 b*
b1111000100100001110101111010 $+
#32
b10000000000000000000000000000000000000000000000000000000000000000000000000000000000000000000000000000000000000000000000000000000000000000000000000000000000000000011110000111100001111000011110000000000000000000000000000000000000000000000000000000000000000000000000000000000000000000000000000000000000000000000000000000000000000000000000000000000000000000011111111000000001111111111111111111111111111111110101100000000111100010010000111010111101100001111000100100001110101111011000011110001001000011101011110110000111100010010000111010111101100010010000111010111100000001111000100100001110101111000000011110001001000011101011110000000111100010010000111010111100000001111 "
b10010000111010111100000001111 ^(
b10010000111010111100000001111 ~(
b10010000111010111100000001111 @)
b10010000111010111100000001111 `)
b1111000100100001110101111011 "*
b1111000100100001110101111011 B*
b1111000100100001110101111011 b*
b1111000100100001110101111011 $+
1H+
0L+
#33
b10000000000000000000000000000000000000000000000000000000000000000000000000000000000000000000000000000000000000000000000000000000000000000000000000000000000000000011110000111100001111000011110000000000000000000000000000000000000000000000000000000000000000000000000000000000000000000000000000000000000000000000000000000000000000000000000000000000000000000011111111000000001111111111111111111111111111111110101100000000111100010010000111010111110000001111000100100001110101111100000011110001001000011101011111000000111100010010000111010111110000010010000111010111100100001111000100100001110101111001000011110001001000011101011110010000111100010010000111010111100100001111 "
b10010000111010111100100001111 ^(
b10010000111010111100100001111 ~(
b10010000111010111100100001111 @)
b10010000111010111100100001111 `)
b1111000100100001110101111100 "*
b1111000100100001110101111100 B*
b1111000100100001110101111100 b*
b1111000100100001110101111100 $+
#34
b10000000000000000000000000000000000000000000000000000000000000000000000000000000000000000000000000000000000000000000000000000000000000000000000000000000000000000011110000111100001111000011110000000000000000000000000000000000000000000000000000000000000000000000000000000000000000000000000000000000000000000000000000000000000000000000000000000000000000000011111111000000001111111111111111111111111111111110101100000000111100010010000111010111110100001111000100100001110101111101000011110001001000011101011111010000111100010010000111010111110100010010000111010111101000001111000100100001110101111010000011110001001000011101011110100000111100010010000111010111101000001111 "
b10010000111010111101000001111 ^(
b10010000111010111101000001111 ~(
b10010000111010111101000001111 @)
b10010000111010111101000001111 `)
b1111000100100001110101111101 "*
b1111000100100001110101111101 B*
b1111000100100001110101111101 b*
b1111000100100001110101111101 $+
