OpticalTests/.Xil/Vivado-3488-higgs.physics.ucsb.edu/hw_ila_data_3/zip_work/waveform.vcd
$date
        2021-Oct-31 17:06:08
$end
$version
        Vivado v2019.2 (64-bit)
$end
$timescale
        1ps
$end
$scope module dut $end
$var reg 192 " mgt_sfp_inst/ila_data_rx [191:0] $end
$var reg 1 &# _TRIGGER $end
$var reg 1 '# _WINDOW $end
$var reg 1 (# _GAP $end
$upscope $end
$enddefinitions $end
#0
$dumpvars
b110000000000000000000000000000000000000000111111111001101111110101000100011000000010011011111101010001000110000000 "
0&#
1'#
0(#
$end
#1
b110000000000000000000000000000000000000000111111110100101110111010001001100010011101001011101110100010011000100111 "
#2
b110000000000000000000000000000000000000000111111110011111010011001010011101000111000111110100110010100111010001110 "
#3
b110000000000000000000000000000000000000000111111111110001101011010110011000101000011100011010110101100110001010000 "
#4
b110000000000000000000000000000000000000000111111111010000001100111001101010001001010100000011001110011010100010010 "
#5
b110000000000000000000000000000000000000000111111110101010111001010000101100010011101010101110010100001011000100111 "
#6
b110000000000000000000000000000000000000000111111110011000001000110010101011000111000110000010001100101010110001110 "
#7
b110000000000000000000000000000000000000000111111111110010011011000101100000110000011100100110110001011000001100000 "
#8
b110000000000000000000000000000000000000000111111111001001111011110001011001100100110010011110111100010110011001001 "
#9
b110000000000000000000000000000000000000000111111110100111100101101000010110101011101001111001011010000101101010111 "
#10
b110000000000000000000000000000000000000000111111110100110010011011101010101110000101001100100110111010101011100001 "
#11
b110000000000000000000000000000000000000000111111110100110101111011100100000010000101001101011110111001000000100001 "
#12
b110000000000000000000000000000000000000000111111111000110110010101100011101110110110001101100101011000111011101101 "
#13
b110000000000000000000000000000000000000000111111110100000111101100011000000110011101000001111011000110000001100111 "
#14
b110000000000000000000000000000000000000000111111110111101100010111000010011100101001111011000101110000100111001010 "
#15
b110000000000000000000000000000000000000000111111111010010111000101000010111000011010100101110001010000101110000110 "
#16
b110000000000000000000000000000000000000000111111111110011101000001001010101000010011100111010000010010101010000100 "
#17
b110000000000000000000000000000000000000000111111110101001000101011011110000001010101010010001010110111100000010101 "
#18
b110000000000000000000000000000000000000000111111111001001111001000111101000111010010010011110010001111010001110100 "
#19
b110000000000000000000000000000000000000000111111111001111100100111000010101000001010011111001001110000101010000010 "
#20
b110000000000000000000000000000000000000000111111111101100110011110000010100001011011011001100111100000101000010110 "
#21
b110000000000000000000000000000000000000000111111110100111010101001000110100101010101001110101010010001101001010101 "
#22
b110000000000000000000000000000000000000000111111111101110001000001111000110111000011011100010000011110001101110000 "
#23
b110000000000000000000000000000000000000000111111111001110000011011000100000111000010011100000110110001000001110000 "
#24
b110000000000000000000000000000000000000000111111111011100000110011110001101100000010111000001100111100011011000000 "
#25
b110000000000000000000000000000000000000000111111110001100001100101001000001111001100011000011001010010000011110011 "
#26
b110000000000000000000000000000000000000000111111111110001001001011001111011000100111100010010010110011110110001001 "
#27
b110000000000000000000000000000000000000000111111110011000011111110110100101110001100110000111111101101001011100011 "
#28
b110000000000000000000000000000000000000000111111111110010010001111011110111010000011100100100011110111101110100000 "
#29
b110000000000000000000000000000000000000000111111110101001111110000101101011001010101010011111100001011010110010101 "
#30
b110000000000000000000000000000000000000000111111110001001100111000101011100110110000010011001110001010111001101100 "
#31
b110000000000000000000000000000000000000000111111111000011101010000001000100010111110000111010100000010001000101111 "
#32
b110000000000000000000000000000000000000000111111110001010000100010111011001100101000010100001000101110110011001010 "
#33
b110000000000000000000000000000000000000000111111111001010010101100101001110101011010010100101011001010011101010110 "
#34
b110000000000000000000000000000000000000000111111110010110011100011011001100010000100101100111000110110011000100001 "
#35
b110000000000000000000000000000000000000000111111111011101101000000011110101000110110111011010000000111101010001101 "
#36
b110000000000000000000000000000000000000000111111110011100111101011110001010001000100111001111010111100010100010001 "
#37
b110000000000000000000000000000000000000000111111111000000010010100101000010010011010000000100101001010000100100110 "
#38
b110000000000000000000000000000000000000000111111110101011110111100111001010111111001010111101111001110010101111110 "
#39
b110000000000000000000000000000000000000000111111110010000101011010010000110001011100100001010110100100001100010111 "
#40
b110000000000000000000000000000000000000000111111110011110101000111011110100100010100111101010001110111101001000101 "
#41
b110000000000000000000000000000000000000000111111111111001010001000001101010111100111110010100010000011010101111001 "
#42
b110000000000000000000000000000000000000000111111111100100110010011011001100001010011001001100100110110011000010100 "
#43
b110000000000000000000000000000000000000000111111111101011110101111011110101001010011010111101011110111101010010100 "
#44
b110000000000000000000000000000000000000000111111110101100101010010101101010001110001011001010100101011010100011100 "
#45
b110000000000000000000000000000000000000000111111111101011011000011100011100010000011010110110000111000111000100000 "
#46
b110000000000000000000000000000000000000000111111111100100111110010000000000000110111001001111100100000000000001101 "
#47
b110000000000000000000000000000000000000000111111111000011110011001110111111111100110000111100110011101111111111001 "
#48
b110000000000000000000000000000000000000000111111110111010001001010100011011111110001110100010010101000110111111100 "
#49
b110000000000000000000000000000000000000000111111110010001010011110000100011101111000100010100111100001000111011110 "
#50
b110000000000000000000000000000000000000000111111111011110010011001000101100000110110111100100110010001011000001101 "
#51
b110000000000000000000000000000000000000000111111111011101001111010111001011001100110111010011110101110010110011001 "
#52
b110000000000000000000000000000000000000000111111110000100101100101001000110110101000001001011001010010001101101010 "
#53
b110000000000000000000000000000000000000000111111110011101111011011001111000111110000111011110110110011110001111100 "
#54
b110000000000000000000000000000000000000000111111111000000110101111110100100000011010000001101011111101001000000110 "
#55
b110000000000000000000000000000000000000000111111110111011100110010111010111101110001110111001100101110101111011100 "
#56
b110000000000000000000000000000000000000000111111110000001100010101101001001010110000000011000101011010010010101100 "
#57
b110000000000000000000000000000000000000000111111110100111001000100011101111110001101001110010001000111011111100011 "
#58
b110000000000000000000000000000000000000000111111111101110000111001100000110111000011011100001110011000001101110000 "
#59
b110000000000000000000000000000000000000000111111111001110000100000101001100111000010011100001000001010011001110000 "
#60
b110000000000000000000000000000000000000000111111111011100000101101101001101010000010111000001011011010011010100000 "
#61
b110000000000000000000000000000000000000000111111110111100001101011111101101100010101111000011010111111011011000101 "
#62
b110000000000000000000000000000000000000000111111110101010001001100101110111111000101010100010011001011101111110001 "
#63
b110000000000000000000000000000000000000000111111110101000010011101011010011011100001010000100111010110100110111000 "
#64
b110000000000000000000000000000000000000000111111110101001010111000100111011011100001010010101110001001110110111000 "
#65
b110000000000000000000000000000000000000000111111110101001110001000001110001111100001010011100010000011100011111000 "
#66
b110000000000000000000000000000000000000000111111110001001100000011011000000000110000010011000000110110000000001100 "
#67
b110000000000000000000000000000000000000000111111111110011101001110011110011111100111100111010011100111100111111001 "
#68
b110000000000000000000000000000000000000000111111110100001000101100001001001001110001000010001011000010010010011100 "
#69
b110000000000000000000000000000000000000000111111110101101011001011001011111111100001011010110010110010111111111000 "
#70
b110000000000000000000000000000000000000000111111110001011100110110110110101111110000010111001101101101101011111100 "
#71
b110000000000000000000000000000000000000000111111110001010100010111111111110010111000010101000101111111111100101110 "
#72
b110000000000000000000000000000000000000000111111110101010000100101011111111001101001010100001001010111111110011010 "
#73
b110000000000000000000000000000000000000000111111111110000010101111000101111100101111100000101011110001011111001011 "
#74
b110000000000000000000000000000000000000000111111111110000110100010100001010110011011100001101000101000010101100110 "
#75
b110000000000000000000000000000000000000000111111110010000100110100100101010001101000100001001101001001010100011010 "
#76
b110000000000000000000000000000000000000000111111110101110101110110111111000010001101011101011101101111110000100011 "
#77
b110000000000000000000000000000000000000000111111110001010010010011111011100010110000010100100100111110111000101100 "
#78
b110000000000000000000000000000000000000000111111111100010011111111001101100000101111000100111111110011011000001011 "
#79
b110000000000000000000000000000000000000000111111110011000111001111100101111001101000110001110011111001011110011010 "
#80
b110000000000000000000000000000000000000000111111111101010000000100110011010100101111010100000001001100110101001011 "
#81
b110000000000000000000000000000000000000000111111110111100010111101110101011000111001111000101111011101010110001110 "
#82
b110000000000000000000000000000000000000000111111111100010000101010110010000110000011000100001010101100100001100000 "
#83
b110000000000000000000000000000000000000000111111111000000110101000001101110100100110000001101010000011011101001001 "
#84
b110000000000000000000000000000000000000000111111111100011100110001011001110010111111000111001100010110011100101111 "
#85
b110000000000000000000000000000000000000000111111110011000000010100010110100001101000110000000101000101101000011010 "
#86
b110000000000000000000000000000000000000000111111110101010011110100100101110101001101010100111101001001011101010011 "
#87
b110000000000000000000000000000000000000000111111110110000011001010111111010010001101100000110010101111110100100011 "
#88
b110000000000000000000000000000000000000000111111110000100110010110001011101011110000001001100101100010111010111100 "
#89
b110000000000000000000000000000000000000000111111110101101110101101100010100100101001011011101011011000101001001010 "
#90
b110000000000000000000000000000000000000000111111110011011110010011111000100111111000110111100100111110001001111110 "
#91
b110000000000000000000000000000000000000000111111110001011101001111001100001110011100010111010011110011000011100111 "
#92
b110000000000000000000000000000000000000000111111111101010100101100100101001000001011010101001011001001010010000010 "
#93
b110000000000000000000000000000000000000000111111111111100000111011011111001111011011111000001110110111110011110110 "
#94
b110000000000000000000000000000000000000000111111111011110001100001111101100100101110111100011000011111011001001011 "
#95
b110000000000000000000000000000000000000000111111110100101000001001000110111011111001001010000010010001101110111110 "
#96
b110000000000000000000000000000000000000000111111111110111001011011111000111001101111101110010110111110001110011011 "
#97
b110000000000000000000000000000000000000000111111111011011000110111101100000000101110110110001101111011000000001011 "
#98
b110000000000000000000000000000000000000000111111110000111110000111010111001111101000001111100001110101110011111010 "
#99
b110000000000000000000000000000000000000000111111111010100011000100001001000100110110101000110001000010010001001101 "
#100
b110000000000000000000000000000000000000000111111111111000100010001101011111001110111110001000100011010111110011101 "
#101
b110000000000000000000000000000000000000000111111110000100001100110001100101100100000001000011001100011001011001000 "
#102
b110000000000000000000000000000000000000000111111110000101101001010100001011011011100001011010010101000010110110111 "
#103
b110000000000000000000000000000000000000000111111111000101011101110000101010111111110001010111011100001010101111111 "
#104
b110000000000000000000000000000000000000000111111110100001000100110000101000001011101000010001001100001010000010111 "
#105
b110000000000000000000000000000000000000000111111110000101011001110100101001011010100001010110011101001010010110101 "
#106
b110000000000000000000000000000000000000000111111110001101000110100010111001110111000011010001101000101110011101110 "
#107
b110000000000000000000000000000000000000000111111111001001101000110100101000100011010010011010001101001010001000110 "
#108
b110000000000000000000000000000000000000000111111110011111101101000110111001001100000111111011010001101110010011000 "
#109
b110000000000000000000000000000000000000000111111110100001110111101000111000111101001000011101111010001110001111010 "
#110
b110000000000000000000000000000000000000000111111110000101000011010101000000000010100001010000110101010000000000101 "
#111
b110000000000000000000000000000000000000000111111111010101001010011000001011111110110101010010100110000010111111101 "
#112
b110000000000000000000000000000000000000000111111110100000001110011010011010101111001000000011100110100110101011110 "
#113
b110000000000000000000000000000000000000000111111110000101111000001011011011000010100001011110000010110110110000101 "
#114
b110000000000000000000000000000000000000000111111110010101010100011010111111110010100101010101000110101111111100101 "
#115
b110000000000000000000000000000000000000000111111110101100000000100011001011111001101011000000001000110010111110011 "
#116
b110000000000000000000000000000000000000000111111111100011001111101100010110101100111000110011111011000101101011001 "
#117
b110000000000000000000000000000000000000000111111111111000010100110111000101110011011110000101001101110001011100110 "
#118
b110000000000000000000000000000000000000000111111111010100010100110111000001010001010101000101001101110000010100010 "
#119
b110000000000000000000000000000000000000000111111111110000100100110111000011010010011100001001001101110000110100100 "
#120
b110000000000000000000000000000000000000000111111110111000101111110111000010011011101110001011111101110000100110111 "
#121
b110000000000000000000000000000000000000000111111110011000001010111011000010111011100110000010101110110000101110111 "
#122
b110000000000000000000000000000000000000000111111110101010011010001001110010101001101010100110100010011100101010011 "
#123
b110000000000000000000000000000000000000000111111110110000011011010011100001100001101100000110110100111000011000011 "
#124
b110000000000000000000000000000000000000000111111111110100110011111011000001001001011101001100111110110000010010010 "
#125
b110000000000000000000000000000000000000000111111111111010110101001101110011011111111110101101010011011100110111111 "
#126
b110000000000000000000000000000000000000000111111111011101001110001101110001011101110111010011100011011100010111011 "
#127
b110000000000000000000000000000000000000000111111111011100101100000001110000010100110111001011000000011100000101001 "
#128
b110000000000000000000000000000000000000000111111111011100011011001111000000110100110111000110110011110000001101001 "
#129
b110000000000000000000000000000000000000000111111111111100000011110100100011100110111111000000111101001000111001101 "
#130
b110000000000000000000000000000000000000000111111110101110001110001010111100000010101011100011100010101111000000101 "
#131
b110000000000000000000000000000000000000000111111111000010000000000010001010001110110000100000000000100010100011101 "
#132
b110000000000000000000000000000000000000000111111111011010110111111110110010010000010110101101111111101100100100000 "
#133
b110000000000000000000000000000000000000000111111111111111001111011111011101111110111111110011110111110111011111101 "
#134
b110000000000000000000000000000000000000000111111110110111100100101101101100110111001101111001001011011011001101110 "
#135
b110000000000000000000000000000000000000000111111110010111010011111011111111010111000101110100111110111111110101110 "
#136
b110000000000000000000000000000000000000000111111111100101001011001101101111101001011001010010110011011011111010010 "
#137
b110000000000000000000000000000000000000000111111111010011001110110101111110110101110100110011101101011111101101011 "
#138
b110000000000000000000000000000000000000000111111110110011010100011110010111011110001100110101000111100101110111100 "
#139
b110000000000000000000000000000000000000000111111110110101011000100001001101001101001101010110001000010011010011010 "
#140
b110000000000000000000000000000000000000000111111111111110000110001101011101101101111111100001100011010111011011011 "
#141
b110000000000000000000000000000000000000000111111111111111000100100001100100111111111111110001001000011001001111111 "
#142
b110000000000000000000000000000000000000000111111110111111100001111101001011110011101111111000011111010010111100111 "
#143
b110000000000000000000000000000000000000000111111111110011110001000110101110101001011100111100010001101011101010010 "
#144
b110000000000000000000000000000000000000000111111110011001001000011000110010010001100110010010000110001100100100011 "
#145
b110000000000000000000000000000000000000000111111110010010111111010010000101111110000100101111110100100001011111100 "
#146
b110000000000000000000000000000000000000000111111110000111101011101011110101010111000001111010111010111101010101110 "
#147
b110000000000000000000000000000000000000000111111111101100010100100100101010000001011011000101001001001010100000010 "
#148
b110000000000000000000000000000000000000000111111110111111000100111111111000010111001111110001001111111110000101110 "
#149
b110000000000000000000000000000000000000000111111110110011100001110011111100010101001100111000011100111111000101010 "
#150
b110000000000000000000000000000000000000000111111110100101000001000001001110000100001001010000010000010011100001000 "
#151
b110000000000000000000000000000000000000000111111111110111001011011011011100000101111101110010110110110111000001011 "
#152
b110000000000000000000000000000000000000000111111110010011000110111111111100001101000100110001101111111111000011010 "
#153
b110000000000000000000000000000000000000000111111110101111010000111011111110001001101011110100001110111111100010011 "
#154
b110000000000000000000000000000000000000000111111110010010101010100001101111000011100100101010101000011011110000111 "
#155
b110000000000000000000000000000000000000000111111111010111100000000101001110100010010101111000000001010011101000100 "
#156
b110000000000000000000000000000000000000000111111111011001010001111101001100010100110110010100011111010011000101001 "
#157
b110000000000000000000000000000000000000000111111111011110110010000110101101000100110111101100100001101011010001001 "
#158
b110000000000000000000000000000000000000000111111110001101011101110100110011101001100011010111011101001100111010011 "
#159
b110000000000000000000000000000000000000000111111111100001100100110010110101000101111000011001001100101101010001011 "
#160
b110000000000000000000000000000000000000000111111111011001001011110101101110001001010110010010111101011011100010010 "
#161
b110000000000000000000000000000000000000000111111110101110111110101010011110000011101011101111101010100111100000111 "
#162
b110000000000000000000000000000000000000000111111110001010011011010000011001000110000010100110110100000110010001100 "
#163
b110000000000000000000000000000000000000000111111110110010011011111010110010111000101100100110111110101100101110001 "
#164
b110000000000000000000000000000000000000000111111111100101111011101101001101101000011001011110111011010011011010000 "
#165
b110000000000000000000000000000000000000000111111110011011010101100111101101111101000110110101011001111011011111010 "
#166
b110000000000000000000000000000000000000000111111111011011111000011010010111110110110110111110000110100101111101101 "
#167
b110000000000000000000000000000000000000000111111110101111101100010011011101011011101011111011000100110111010110111 "
#168
b110000000000000000000000000000000000000000111111111010010110111000111011100100111110100101101110001110111001001111 "
#169
b110000000000000000000000000000000000000000111111110110011101111000000001100011110001100111011110000000011000111100 "
#170
b110000000000000000000000000000000000000000111111111110101000110100011111001000001011101010001101000111110010000010 "
#171
b110000000000000000000000000000000000000000111111111110010001000110100001100111011011100100010001101000011001110110 "
#172
b110000000000000000000000000000000000000000111111110011001110011000110101001010001100110011100110001101010010100011 "
#173
b110000000000000000000000000000000000000000111111111010010100001010000110001110010010100101000010100001100011100100 "
#174
b110000000000000000000000000000000000000000111111110001011100101010010100100000001100010111001010100101001000000011 "
#175
b110000000000000000000000000000000000000000111111110001010100011000011100111101111000010101000110000111001111011110 "
#176
b110000000000000000000000000000000000000000111111111010010000100010010000010010110110100100001000100100000100101101 "
#177
b110000000000000000000000000000000000000000111111111001011110101100111110110111101110010111101011001111101101111011 "
#178
b110000000000000000000000000000000000000000111111110110110101010011010011011111010101101101010100110100110111110101 "
#179
b110000000000000000000000000000000000000000111111110110111110000011011011011101101001101111100000110110110111011010 "
#180
b110000000000000000000000000000000000000000111111111011111011000110011111111100111110111110110001100111111111001111 "
#181
b110000000000000000000000000000000000000000111111111110101101110000101001111110010011101011011100001010011111100100 "
#182
b110000000000000000000000000000000000000000111111110011010011110000101001100111001100110100111100001010011001110011 "
#183
b110000000000000000000000000000000000000000111111110111011011001000101001101010000101110110110010001010011010100001 "
#184
b110000000000000000000000000000000000000000111111110001001111110111001001101100010100010011111101110010011011000101 "
#185
b110000000000000000000000000000000000000000111111110110011100111011000111101111000101100111001110110001111011110001 "
#186
b110000000000000000000000000000000000000000111111110100101000010001110000010110100001001010000100011100000101101000 "
#187
b110000000000000000000000000000000000000000111111111000111001010110000000110101110110001110010101100000001101011101 "
#188
b110000000000000000000000000000000000000000111111111111000000110001100111100110010011110000001100011001111001100100 "
#189
b110000000000000000000000000000000000000000111111111011100011100100001010010010101110111000111001000010100100101011 "
#190
b110000000000000000000000000000000000000000111111110010100000000011101010011111100000101000000000111010100111111000 "
#191
b110000000000000000000000000000000000000000111111110010100101111110000100011001110000101001011111100001000110011100 "
#192
b110000000000000000000000000000000000000000111111110110100111010111000101100010100001101001110101110001011000101000 "
#193
b110000000000000000000000000000000000000000111111111101110110001001000001011000100111011101100010010000010110001001 "
#194
b110000000000000000000000000000000000000000111111110010110011100011111011010110001100101100111000111110110101100011 "
#195
b110000000000000000000000000000000000000000111111110110101101000000001101111001100001101011010000000011011110011000 "
#196
b110000000000000000000000000000000000000000111111110110110011101011111001110100101001101100111010111110011101001010 "
#197
b110000000000000000000000000000000000000000111111110010111101000100101100100010111000101111010001001011001000101110 "
#198
b110000000000000000000000000000000000000000111111110100101010101001111011011100101001001010101010011110110111001010 "
#199
b110000000000000000000000000000000000000000111111111011111000000001100101111100011010111110000000011001011111000110 "
#200
b110000000000000000000000000000000000000000111111111010101100011111001011010110000010101011000111110010110101100000 "
#201
b110000000000000000000000000000000000000000111111111011000011000001100110111001100110110000110000011001101110011001 "
#202
b110000000000000000000000000000000000000000111111110000110010010011001010111000101000001100100100110010101110001010 "
#203
b110000000000000000000000000000000000000000111111111101100101111111010110001000001011011001011111110101100010000010 "
#204
b110000000000000000000000000000000000000000111111111111111011010111101001100011011011111110110101111010011000110110 "
#205
b110000000000000000000000000000000000000000111111110111111101111001010101101000011101111111011110010101011010000111 "
#206
b110000000000000000000000000000000000000000111111111000011110110100110000011101010010000111101101001100000111010100 "
#207
b110000000000000000000000000000000000000000111111110011010001011110110100110000100000110100010111101101001100001000 "
#208
b110000000000000000000000000000000000000000111111111101011010010101011110110100101111010110100101010111101101001011 "
#209
b110000000000000000000000000000000000000000111111110111100111011100000101011110111001111001110111000001010111101110 "
#210
b110000000000000000000000000000000000000000111111111010010010001100001101000101011010100100100011000011010001010110 "
#211
b110000000000000000000000000000000000000000111111110011011111110001001001101001000100110111111100010010011010010001 "
#212
b110000000000000000000000000000000000000000111111110000011101111000011111101101111000000111011110000111111011011110 "
#213
b110000000000000000000000000000000000000000111111111010110000110100010001110111110110101100001101000100011101111101 "
#214
b110000000000000000000000000000000000000000111111111100001100100110100110000011011011000011001001101001100000110110 "
#215
b110000000000000000000000000000000000000000111111110110001001011110110110100110011101100010010111101101101001100111 "
#216
b110000000000000000000000000000000000000000111111110110100011110101011111110110101001101000111101010111111101101010 "
#217
b110000000000000000000000000000000000000000111111110000110100001010000101111011110000001101000010100001011110111100 "
#218
b110000000000000000000000000000000000000000111111110101100110101010010101010101101001011001101010100101010101011010 "
#219
b110000000000000000000000000000000000000000111111110010011010110000011100000000011100100110101100000111000000000111 "
#220
b110000000000000000000000000000000000000000111111110010111011001100110000001111110000101110110011001100000011111100 "
#221
b110000000000000000000000000000000000000000111111110000101001110101010100111000111000001010011101010101001110001110 "
#222
b110000000000000000000000000000000000000000111111111111101001100010000000110000000011111010011000100000001100000000 "
#223
b110000000000000000000000000000000000000000111111111111110101101000110111100100111111111101011010001101111001001111 "
#224
b110000000000000000000000000000000000000000111111110100111010011101000111010011110001001110100111010001110100111100 "
#225
b110000000000000000000000000000000000000000111111111111110001011000101000001011001011111100010110001010000010110010 "
#226
b110000000000000000000000000000000000000000111111111101111000010110001001011010110111011110000101100010010110101101 "
#227
b110000000000000000000000000000000000000000111111110010110100010101100011110111001100101101000101011000111101110011 "
#228
b110000000000000000000000000000000000000000111111110111101110100100011000001011000101111011101001000110000010110001 "
#229
b110000000000000000000000000000000000000000111111110000010110010111100010011010110000000101100101111000100110101100 "
#230
b110000000000000000000000000000000000000000111111110100110101101101010000111011001101001101011011010100001110110011 "
#231
b110000000000000000000000000000000000000000111111111000110110011111100010100001110110001101100111111000101000011101 "
#232
b110000000000000000000000000000000000000000111111111011000111101001110000100101000010110001111010011100001001010000 "
#233
b110000000000000000000000000000000000000000111111111000110000010101100000101111001010001100000101011000001011110010 "
#234
b110000000000000000000000000000000000000000111111111010000100110100011001101010100110100001001101000110011010101001 "
#235
b110000000000000000000000000000000000000000111111110011010101110110100010101100000100110101011101101000101011000001 "
#236
b110000000000000000000000000000000000000000111111110101011000010011110100100011001101010110000100111101001000110011 "
#237
b110000000000000000000000000000000000000000111111110000000110010111001010111100010100000001100101110010101111000101 "
#238
b110000000000000000000000000000000000000000111111110110111100101101000110001010000101101111001011010001100010100001 "
#239
b110000000000000000000000000000000000000000111111110001111010011011101000100010010100011110100110111010001000100101 "
#240
b110000000000000000000000000000000000000000111111111000000101011011100101001100111110000001010110111001010011001111 "
#241
b110000000000000000000000000000000000000000111111111111011101000111100011001101010011110111010001111000110011010100 "
#242
b110000000000000000000000000000000000000000111111110000101100101000010000010101100000001011001010000100000101011000 "
#243
b110000000000000000000000000000000000000000111111111001101011011001010110110100011010011010110110010101101101000110 "
#244
b110000000000000000000000000000000000000000111111110011101100111110110001111110100000111011001111101100011111101000 "
#245
b110000000000000000000000000000000000000000111111110011000111010011011100000111010100110001110100110111000001110101 "
#246
b110000000000000000000000000000000000000000111111111100010000001011011100001100001011000100000010110111000011000010 "
#247
b110000000000000000000000000000000000000000111111111011000110111010111100001001001010110001101110101111000010010010 "
#248
b110000000000000000000000000000000000000000111111111101110000111001001010001011111111011100001110010010100010111111 "
#249
b110000000000000000000000000000000000000000111111111010110000100000111110010010101110101100001000001111100100101011 "
#250
b110000000000000000000000000000000000000000111111110010001100101101100011001111100000100011001011011000110011111000 "
#251
b110000000000000000000000000000000000000000111111110010110001011011111000010100110000101100010110111110000101001100 "
#252
b110000000000000000000000000000000000000000111111111011101100010111101100010100110110111011000101111011000101001101 "
#253
b110000000000000000000000000000000000000000111111111111100111000101010111000100110111111001110001010101110001001101 "
#254
b110000000000000000000000000000000000000000111111111101110010000001000001000001110111011100100000010000010000011101 "
#255
b110000000000000000000000000000000000000000111111111001110001110111011011011011000010011100011101110110110110110000 "
#256
b110000000000000000000000000000000000000000111111110111100000000011001111111111110001111000000000110011111111111100 "
#257
b110000000000000000000000000000000000000000111111110010010001111110010100111111111000100100011111100101001111111110 "
#258
b110000000000000000000000000000000000000000111111111001111110000111001100110011111110011111100001110011001100111111 "
#259
b110000000000000000000000000000000000000000111111110000100111000100000101010101001100001001110001000001010101010011 "
#260
b110000000000000000000000000000000000000000111111110100101110000001101101000000001101001011100000011011010000000011 "
#261
b110000000000000000000000000000000000000000111111110011111010000111001111101011111000111110100001110011111010111110 "
#262
b110000000000000000000000000000000000000000111111111101001101010100000100110100101111010011010101000001001101001011 "
#263
b110000000000000000000000000000000000000000111111110111101101100000101101110110111001111011011000001011011101101110 "
#264
b110000000000000000000000000000000000000000111111110010010111111001101011110011111000100101111110011010111100111110 "
#265
b110000000000000000000000000000000000000000111111110101111101011100101100101001001101011111010111001011001010010011 "
#266
b110000000000000000000000000000000000000000111111111010010110100100011011011001111110100101101001000110110110011111 "
#267
b110000000000000000000000000000000000000000111111111011011101110111100011111110100110110111011101111000111111101001 "
#268
b110000000000000000000000000000000000000000111111110111111100110011010000001111010101111111001100110100000011110101 "
#269
b110000000000000000000000000000000000000000111111110110011110010101011010111000101001100111100101010110101110001010 "
#270
b110000000000000000000000000000000000000000111111111110101001001100000111001000001011101010010011000001110010000010 "
#271
b110000000000000000000000000000000000000000111111111110010001111101001100000111011011100100011111010011000001110110 "
#272
b110000000000000000000000000000000000000000111111110011001110000110101101001100001100110011100001101011010011000011 "
#273
b110000000000000000000000000000000000000000111111111100010100000100110011101101001011000101000001001100111011010010 "
#274
b110000000000000000000000000000000000000000111111111010000100101101110101000111101110100001001011011101010001111011 "
#275
b110000000000000000000000000000000000000000111111110111010101111011110010001000010101110101011110111100100010000101 "
#276
b110000000000000000000000000000000000000000111111110001001000010101101001110011010100010010000101011010011100110101 "
#277
b110000000000000000000000000000000000000000111111111001011111010100011101100001011010010111110101000111011000010110 "
#278
b110000000000000000000000000000000000000000111111110110110101101000100000111001010101101101011010001000001110010101 "
#279
b110000000000000000000000000000000000000000111111110000111110011101001101100000110000001111100111010011011000001100 "
#280
b110000000000000000000000000000000000000000111111111110100011001000101101111001100111101000110010001011011110011001 "
#281
b110000000000000000000000000000000000000000111111110010010100010111001011110100101000100101000101110010111101001010 "
#282
b110000000000000000000000000000000000000000111111110000111100100101000110101010111000001111001001010001101010101110 "
#283
b110000000000000000000000000000000000000000111111111101100010011111001000110000001011011000100111110010001100000010 "
#284
b110000000000000000000000000000000000000000111111110111111000111001100111000100111001111110001110011001110001001110 "
#285
b110000000000000000000000000000000000000000111111110000011100000000101010000001110000000111000000001010100000011100 "
#286
b110000000000000000000000000000000000000000111111111111110000001111101000010111000011111100000011111010000101110000 "
#287
b110000000000000000000000000000000000000000111111111000111000111000110101010101000010001110001110001101010101010000 "
#288
b110000000000000000000000000000000000000000111111111001000000000000000110000000001010010000000000000001100000000010 "
#289
b110000000000000000000000000000000000000000111111110101111011111111111100100111111001011110111111111111001001111110 "
#290
b110000000000000000000000000000000000000000111111110010010101101111111110011110011100100101011011111111100111100111 "
#291
b110000000000000000000000000000000000000000111111111100111100011110111111001001001011001111000111101111110010010010 "
#292
b110000000000000000000000000000000000000000111111111110010010000001011011100111111111100100100000010110111001111111 "
#293
b110000000000000000000000000000000000000000111111110111001111110111010111100010011101110011111101110101111000100111 "
#294
b110000000000000000000000000000000000000000111111110010000100111011001001010000111000100001001110110010010100001110 "
#295
b110000000000000000000000000000000000000000111111110110110101110001110111110010100001101101011100011101111100101000 "
#296
b110000000000000000000000000000000000000000111111111101111110010000000011011001100111011111100100000000110110011001 "
#297
b110000000000000000000000000000000000000000111111110011110111001110111110011110101000111101110011101111100111101010 "
#298
b110000000000000000000000000000000000000000111111111010001011000100011011001001010010100010110001000110110010010100 "
#299
b110000000000000000000000000000000000000000111111110110010010110001100011110111110001100100101100011000111101111100 "
#300
b110000000000000000000000000000000000000000111111111010101111101100001000001011011010101011111011000010000010110110 "
#301
b110000000000000000000000000000000000000000111111111101000010110111001011011010111111010000101101110010110110101111 "
#302
b110000000000000000000000000000000000000000111111111011101010101111000110111111001010111010101011110001101111110010 "
#303
b110000000000000000000000000000000000000000111111111011100100000010100000111011100110111001000000101000001110111001 "
#304
b110000000000000000000000000000000000000000111111110010100011101110100101100001100000101000111011101001011000011000 "
#305
b110000000000000000000000000000000000000000111111111100100100000110010111011001001011001001000001100101110110010010 "
#306
b110000000000000000000000000000000000000000111111111110011111101100101101001110111111100111111011001011010011101111 "
#307
b110000000000000000000000000000000000000000111111111110001001110111011011101100011011100010011101110110111011000110 "
#308
b110000000000000000000000000000000000000000111111111000000011100011001111100111000010000000111000110011111001110000 "
#309
b110000000000000000000000000000000000000000111111111011011110000000010100110010000010110111100000000101001100100000 "
#310
b110000000000000000000000000000000000000000111111111111111101000111110100110101110111111111010001111101001101011101 "
#311
b110000000000000000000000000000000000000000111111111100111110101000011010110110010011001111101010000110101101100100 "
#312
b110000000000000000000000000000000000000000111111111010010011010001010011001111101110100100110100010100110011111011 "
#313
b110000000000000000000000000000000000000000111111111111011111011010010011010100110111110111110110100100110101001101 "
#314
b110000000000000000000000000000000000000000111111111101101101101111011111011000110111011011011011110111110110001101 "
#315
b110000000000000000000000000000000000000000111111110000111111111110101101101110000100001111111111101011011011100001 "
#316
b110000000000000000000000000000000000000000111111110110100011111111010011111110000101101000111111110100111111100001 "
#317
b110000000000000000000000000000000000000000111111110101110100001111101011001111000101011101000011111010110011110001 "
#318
b110000000000000000000000000000000000000000111111110101010010101000110100110100100001010100101010001101001101001000 "
#319
b110000000000000000000000000000000000000000111111111010000011100001000110110110111110100000111000010001101101101111 "
#320
b110000000000000000000000000000000000000000111111110100010110000001011000111111111001000101100000010110001111111110 "
#321
b110000000000000000000000000000000000000000111111111010100101100111010110000011111110101001011001110101100000111111 "
#322
b110000000000000000000000000000000000000000111111110001000111011010001001100110001100010001110110100010011001100011 "
#323
b110000000000000000000000000000000000000000111111110111011000001111010011101010100001110110000011110100111010101000 "
#324
b110000000000000000000000000000000000000000111111110101001110011000101011000100000101010011100110001010110001000001 "
#325
b110000000000000000000000000000000000000000111111111110001100001010001000110001101111100011000010100010001100011011 "
#326
b110000000000000000000000000000000000000000111111110011000001001010010011000100001100110000010010100100110001000011 "
