OpticalTests/.Xil/Vivado-6163-higgs.physics.ucsb.edu/hw_ila_data_1/zip_work/waveform.vcd
$date
        2022-Jan-09 05:42:57
$end
$version
        Vivado v2019.2 (64-bit)
$end
$timescale
        1ps
$end
$scope module dut $end
$var reg 970 " ila_data [969:0] $end
$var reg 32 @+ receiver_0 [31:0] $end
$var reg 32 `+ receiver_1 [31:0] $end
$var reg 32 ", receiver_2 [31:0] $end
$var reg 32 B, receiver_3 [31:0] $end
$var reg 32 b, transmitter_0 [31:0] $end
$var reg 32 $- transmitter_1 [31:0] $end
$var reg 32 D- transmitter_2 [31:0] $end
$var reg 32 d- transmitter_3 [31:0] $end
$var reg 4 &. prbs_match_int [3:0] $end
$var reg 1 *. hb0_gtwiz_userclk_rx_usrclk2_int $end
$var reg 1 +. hb0_gtwiz_userclk_rx_active_int $end
$var reg 1 ,. hb_gtwiz_reset_all_int $end
$var reg 1 -. hb0_gtwiz_reset_rx_done_int $end
$var reg 1 .. hb0_gtwiz_userclk_tx_usrclk2_int $end
$var reg 1 /. hb0_gtwiz_userclk_tx_active_int $end
$var reg 1 0. gtwiz_userclk_tx_reset_int $end
$var reg 1 1. gtwiz_userclk_tx_usrclk_int $end
$var reg 1 2. gtwiz_userclk_tx_usrclk2_int $end
$var reg 1 3. gtwiz_userclk_tx_active_int $end
$var reg 1 4. gtwiz_userclk_rx_reset_int $end
$var reg 1 5. gtwiz_userclk_rx_usrclk_int $end
$var reg 1 6. gtwiz_userclk_rx_usrclk2_int $end
$var reg 1 7. gtwiz_userclk_rx_active_int $end
$var reg 36 8. drpaddr_int [35:0] $end
$var reg 4 \. drpclk_int [3:0] $end
$var reg 4 `. drpdi_int [3:0] $end
$var reg 4 d. drpen_int [3:0] $end
$var reg 4 h. drpwe_int [3:0] $end
$var reg 4 l. eyescanreset_int [3:0] $end
$var reg 4 p. rx8b10ben_int [3:0] $end
$var reg 4 t. rxcommadeten_int [3:0] $end
$var reg 4 x. rxlpmen_int [3:0] $end
$var reg 4 |. rxmcommaalignen_int [3:0] $end
$var reg 4 "/ rxpcommaalignen_int [3:0] $end
$var reg 12 &/ rxrate_int [11:0] $end
$var reg 4 2/ tx8b10ben_int [3:0] $end
$var reg 16 6/ txdiffctrl_int [15:0] $end
$var reg 20 F/ txpostcursor_int [19:0] $end
$var reg 20 Z/ txprecursor_int [19:0] $end
$var reg 64 n/ drpdo_int [63:0] $end
$var reg 4 P0 drprdy_int [3:0] $end
$var reg 4 T0 gtpowergood_int [3:0] $end
$var reg 4 X0 rxbyteisaligned_int [3:0] $end
$var reg 4 \0 rxbyterealign_int [3:0] $end
$var reg 4 `0 rxcommadet_int [3:0] $end
$var reg 4 d0 rxpmaresetdone_int [3:0] $end
$var reg 4 h0 txpmaresetdone_int [3:0] $end
$var reg 16 l0 ch0_rxctrl0_int [15:0] $end
$var reg 16 |0 ch1_rxctrl0_int [15:0] $end
$var reg 16 .1 ch2_rxctrl0_int [15:0] $end
$var reg 16 >1 ch3_rxctrl0_int [15:0] $end
$var reg 16 N1 ch0_rxctrl1_int [15:0] $end
$var reg 16 ^1 ch1_rxctrl1_int [15:0] $end
$var reg 16 n1 ch2_rxctrl1_int [15:0] $end
$var reg 16 ~1 ch3_rxctrl1_int [15:0] $end
$var reg 8 02 ch0_rxctrl2_int [7:0] $end
$var reg 8 82 ch1_rxctrl2_int [7:0] $end
$var reg 8 @2 ch2_rxctrl2_int [7:0] $end
$var reg 8 H2 ch3_rxctrl2_int [7:0] $end
$var reg 8 P2 ch0_rxctrl3_int [7:0] $end
$var reg 8 X2 ch1_rxctrl3_int [7:0] $end
$var reg 8 `2 ch2_rxctrl3_int [7:0] $end
$var reg 8 h2 ch3_rxctrl3_int [7:0] $end
$var reg 16 p2 ch0_txctrl0_int [15:0] $end
$var reg 16 "3 ch1_txctrl0_int [15:0] $end
$var reg 16 23 ch2_txctrl0_int [15:0] $end
$var reg 16 B3 ch3_txctrl0_int [15:0] $end
$var reg 16 R3 ch0_txctrl1_int [15:0] $end
$var reg 16 b3 ch1_txctrl1_int [15:0] $end
$var reg 16 r3 ch2_txctrl1_int [15:0] $end
$var reg 16 $4 ch3_txctrl1_int [15:0] $end
$var reg 8 44 ch0_txctrl2_int [7:0] $end
$var reg 8 <4 ch1_txctrl2_int [7:0] $end
$var reg 8 D4 ch2_txctrl2_int [7:0] $end
$var reg 8 L4 ch3_txctrl2_int [7:0] $end
$var reg 40 T4 hb0_rxdata_nml_ctr [39:0] $end
$var reg 16 |4 ch0_rxdata_err_ctr [15:0] $end
$var reg 16 .5 ch1_rxdata_err_ctr [15:0] $end
$var reg 16 >5 ch2_rxdata_err_ctr [15:0] $end
$var reg 16 N5 ch3_rxdata_err_ctr [15:0] $end
$var reg 1 ^5 _TRIGGER $end
$var reg 1 _5 _WINDOW $end
$var reg 1 `5 _GAP $end
$upscope $end
$enddefinitions $end
#0
$dumpvars
b10001100000101101101110010101111111011010001100010001001111000000001100001111110001111111000011111100000000000000000000000000000000000000000000000000000000000000000000000000000000000000000000000000000000000000000000000000000000000000000000000000000000000000000001111010011110000111100001111001000000000000000000000000000000000000000000000110000000000000000000000000000001000000000000000101000000000000001000000000000000010000000000000000000000000000000001111111100000000010011110000000000000000000000000000000000000000000000000000000000000000000000000000000000000000000000000000000000001100110011001100111100000000000011111111111111111111000000000000000011100000010110000010110000010110000010111100110010101000001010100110011101110100101100011010101001100111011101001011000110101010011001110111010010110001101010100110011101110100101100011010010000110010101001001010010110010101011100011010011100001001010110100101111111000110010001010001110111010110111110110101011011 "
b1110111010110111110110101011011 @+
b1101001011111110001100100010100 `+
b1010101110001101001110000100101 ",
b10010000110010101001001010010110 B,
b10101001100111011101001011000110 b,
b10101001100111011101001011000110 $-
b10101001100111011101001011000110 D-
b10101001100111011101001011000110 d-
b0 &.
0*.
1+.
0,.
1-.
0..
1/.
00.
01.
12.
13.
04.
05.
16.
17.
b1011000001011000001011000001011 8.
b1110 \.
b0 `.
b0 d.
b0 h.
b0 l.
b1111 p.
b1111 t.
b1111 x.
b1111 |.
b1111 "/
b0 &/
b1111 2/
b1100110011001100 6/
b0 F/
b0 Z/
b0 n/
b0 P0
b1111 T0
b100 X0
b0 \0
b0 `0
b1111 d0
b1111 h0
b0 l0
b0 |0
b10 .1
b100 >1
b1010 N1
b1000 ^1
b0 n1
b1100 ~1
b0 02
b0 82
b0 @2
b0 H2
b11110010 P2
b11110000 X2
b11110000 `2
b11110100 h2
b0 p2
b0 "3
b0 23
b0 B3
b0 R3
b0 b3
b0 r3
b0 $4
b0 44
b0 <4
b0 D4
b0 L4
b11000011111100011111110000111111000 T4
b10001001111000 |4
b1111101101000110 .5
b1011011100101011 >5
b10001100000101 N5
0^5
1_5
0`5
$end
#1
b10001100001101101101110011001111111011010011100010001010000000000001100001111110001111111000100000000000000000000000000000000000000000000000000000000000000000000000000000000000000000000000000000000000000000000000000000000000000000000000000000000000000000000000001111101011110000111101001111100000000000000000000000000000000000000000000000000000000000000010000000000000000000000000000000100000000000000000000000000000000000000000000000000000000000000010001111111100000000010011110000000000000000000000000000000000000000000000000000000000000000000000000000000000000000000000000000000000001100110011001100111100000000000011111111111111111111000000000000000011100000010110000010110000010110000010111110111011101100001010101001100111011101001011000110101010011001110111010010110001101010100110011101110100101100011010101001100111011101001011000100101111000010100011100111011110011101100101001111001100110001010101010011101101010000000100100010001001111110100101110111000001 "
b10001001111110100101110111000001 @+
b1010100111011010100000001001000 `+
b1110110010100111100110011000101 ",
b101111000010100011100111011110 B,
b10101010011001110111010010110001 b,
b10101010011001110111010010110001 $-
b10101010011001110111010010110001 D-
b10101010011001110111010010110001 d-
1*.
1..
11.
15.
b1000 l0
b0 .1
b0 >1
b1000 N1
b0 ^1
b1000 n1
b0 ~1
b11111000 P2
b11110100 X2
b11111010 h2
b11000011111100011111110001000000000 T4
b10001010000000 |4
b1111101101001110 .5
b1011011100110011 >5
b10001100001101 N5
#2
b10001100010101101101110011101111111011010101100010001010001000000001100001111110001111111000100000100000000000000000000000000000000000000000000000000000000000000000000000000000000000000000000000000000000000000000000000000000000000000000000000000000000000000000001111000011111010111100001111001000000000000000000000000000000000000000000000000000000000000010010000000000000000000000000000000000000000000000000000000000001000000000000000000000000000000000001111111100000000010011110000000000000000000000000000000000000000000000000000000000000000000000000000000000000000000000000000000000001100110011001100111100000000000011111111111111111111000000000000000011100000010110000010110000010110000010111110111011101100001110101010011001110111010010110011101010100110011101110100101100111010101001100111011101001011001110101010011001110111010010110001110000101001011101010001110001000010100001011011100111000010111101010110010011011011111001101100011000011101010110110100010100 "
b11000011101010110110100010100 @+
b11010101100100110110111110011011 `+
b1010000101101110011100001011 ",
b1110000101001011101010001110001 B,
b11101010100110011101110100101100 b,
b11101010100110011101110100101100 $-
b11101010100110011101110100101100 D-
b11101010100110011101110100101100 d-
b0 l0
b1000 .1
b0 N1
b1001 n1
b11110010 P2
b11110000 X2
b11111010 `2
b11110000 h2
b11000011111100011111110001000001000 T4
b10001010001000 |4
b1111101101010110 .5
b1011011100111011 >5
b10001100010101 N5
#3
b10001100011100101101110100001011111011010111010010001010001111000001100001111110001111111000100000111100000000000000000000000000000000000000000000000000000000000000000000000000000000000000000000000000000000000000000000000000000000000000000000000000000000000000001111110111110000111100001111010000000000000000000000000000000000000000000000000000000000000000000000000000001000000000000000000000000000000001000000000000000000000000000000000000000000000000001111111100000000010011110000000000000000000000000000000000000000000000000000000000000000000000000000000000000000000000000000000000001100110011001100111100000000000011111111111111111111000000000000000011100000010110000010110000010110000010111000101011101000000001101111011010110110010010001100011011110110101101100100100011000110111101101011011001001000110001101111011010110110010010001101110001001110110001110101111010100100011011000001100010010100100110110000110100111010011101100011100001011001101111100011000010 "
b11100001011001101111100011000010 @+
b1101100001101001110100111011000 `+
b10010001101100000110001001010010 ",
b1110001001110110001110101111010 B,
b11011110110101101100100100011 b,
b11011110110101101100100100011 $-
b11011110110101101100100100011 D-
b11011110110101101100100100011 d-
0*.
02.
05.
06.
b0 .1
b100 >1
b1000 ^1
b0 n1
b11110100 P2
b11110000 `2
b11111101 h2
b11000011111100011111110001000001111 T4
b10001010001111 |4
b1111101101011101 .5
b1011011101000010 >5
b10001100011100 N5
#4
b10001100100100101101110100101011111011011001010010001010010111000001100001111110001111111000100001011100000000000000000000000000000000000000000000000000000000000000000000000000000000000000000000000000000000000000000000000000000000000000000000000000000000000000001111001011110000111100101111000000000000000000000000000000000000000000000000000000000000000000010000000000000010000000000000000000000000000000000000000000000000000000000000001000000000000000001111111100000000010011110000000000000000000000000000000000000000000000000000000000000000000000000000000000000000000000000000000000001100110011001100111100000000000011111111111111111111000000000000000011100000010110000010110000010110000010111000100010101000001100011011110110101101100100100011000110111101101011011001001000110001101111011010110110010010001100011011110110101101100100100010010110100000100110101011111101001001011011101001100111011101000001010011001001100010110101110101011011111000100101010001101000 "
b1011011111000100101010001101000 @+
b10100110010011000101101011101 `+
b100101101110100110011101110100 ",
b10010110100000100110101011111101 B,
b11000110111101101011011001001000 b,
b11000110111101101011011001001000 $-
b11000110111101101011011001001000 D-
b11000110111101101011011001001000 d-
0..
01.
b10 |0
b0 >1
b10 ^1
b1 n1
b11110000 P2
b11110010 X2
b11110010 h2
b11000011111100011111110001000010111 T4
b10001010010111 |4
b1111101101100101 .5
b1011011101001010 >5
b10001100100100 N5
#5
b10001100101100101101110101001011111011011011010010001010011111000001100001111110001111111000100001111100000000000000000000000000000000000000000000000000000000000000000000000000000000000000000000000000000000000000000000000000000000000000000000000000000000000000001111001011110000111100001111000000000000000000000000000000000000000000000000001000000000000000010000000000000000000000000000000000000000000000100000000000000000000000000000000000000000000000001111111100000000010011110000000000000000000000000000000000000000000000000000000000000000000000000000000000000000000000000000000000001100110011001100111100000000000011111111111111111111000000000000000011100000010110000010110000010110000010111100110010101000001011000110111101101011011001001010110001101111011010110110010010101100011011110110101101100100101011000110111101101011011001001011011110010010011001100100000101110001010111111101101001010000100100100000111011010101111000010011000001001111010000001011011111 "
b11000001001111010000001011011111 @+
b1001000001110110101011110000100 `+
b11000101011111110110100101000010 ",
b11011110010010011001100100000101 B,
b10110001101111011010110110010010 b,
b10110001101111011010110110010010 $-
b10110001101111011010110110010010 D-
b10110001101111011010110110010010 d-
12.
16.
b0 |0
b10 >1
b0 ^1
b10 ~1
b11110000 X2
b11000011111100011111110001000011111 T4
b10001010011111 |4
b1111101101101101 .5
b1011011101010010 >5
b10001100101100 N5
#6
b10001100110100101101110101101011111011011101010010001010100111000001100001111110001111111000100010011100000000000000000000000000000000000000000000000000000000000000000000000000000000000000000000000000000000000000000000000000000000000000000000000000000000000000001111100011110101111100001111000100000000000000000000000000000000000000000000100000000000000001000000000000000000000000000000000000000000000010000000000000000100000000000000000000000000000000001111111100000000010011110000000000000000000000000000000000000000000000000000000000000000000000000000000000000000000000000000000000001100110011001100111100000000000011111111111111111111000000000000000011100000010110000010110000010110000010111110111011101100000010110001101111011010110110010000101100011011110110101101100100001011000110111101101011011001000010110001101111011010110110010010010110011100001010010111010100110000110000101000010110111001110110010111010101100100110110111100110101000110000111010101101101 "
b110101000110000111010101101101 @+
b1100101110101011001001101101111 `+
b11000011000010100001011011100111 ",
b10010110011100001010010111010100 B,
b101100011011110110101101100100 b,
b101100011011110110101101100100 $-
b101100011011110110101101100100 D-
b101100011011110110101101100100 d-
1*.
1..
11.
15.
b100 .1
b1000 >1
b100 n1
b1000 ~1
b11110001 P2
b11110101 `2
b11111000 h2
b11000011111100011111110001000100111 T4
b10001010100111 |4
b1111101101110101 .5
b1011011101011010 >5
b10001100110100 N5
#7
b10001100111100101101110110001011111011011111010010001010101111000001100001111110001111111000100010111100000000000000000000000000000000000000000000000000000000000000000000000000000000000000000000000000000000000000000000000000000000000000000000000000000000000000001111100011110000111101001111000000000000000000000000000000000000000000000000000000000000000000100000000000000100000000000000001100000000000000000000000000000000000000000000010000000000000001001111111100000000010011110000000000000000000000000000000000000000000000000000000000000000000000000000000000000000000000000000000000001100110011001100111100000000000011111111111111111111000000000000000011100000010110000010110000010110000010111110111011101100000100101100011011110110101101100101001011000110111101101011011001010010110001101111011010110110010100101100011011110110101101100101111010101000110110010100001111010100100100000010000110001100001101100010010100100101111111101011000010111111100000100101100101 "
b11000010111111100000100101100101 @+
b11011000100101001001011111111010 `+
b1010010010000001000011000110000 ",
b1111010101000110110010100001111 B,
b1001011000110111101101011011001 b,
b1001011000110111101101011011001 $-
b1001011000110111101101011011001 D-
b1001011000110111101101011011001 d-
b100 l0
b100 |0
b0 .1
b0 >1
b11 N1
b100 ^1
b10 n1
b0 ~1
b11110000 P2
b11110100 X2
b11110000 `2
b11000011111100011111110001000101111 T4
b10001010101111 |4
b1111101101111101 .5
b1011011101100010 >5
b10001100111100 N5
#8
b10001101000011101101110110100111111011100001000010001010110110000001100001111110001111111000100011011000000000000000000000000000000000000000000000000000000000000000000000000000000000000000000000000000000000000000000000000000000000000000000000000000000000000000001111000011110000111100101111000100000000000000000000000000000000000000000000000000000000000010000000000000000001000000000000000000000000000001000000000000000000000000000000000000000000000000011111111100000000010011110000000000000000000000000000000000000000000000000000000000000000000000000000000000000000000000000000000000001100110011001100111100000000000011111111111111111111000000000000000011100000010110000010110000010110000010111000101011101000000100100011100001011111001010111001001000111000010111110010101110010010001110000101111100101011100100100011100001011111001010111011111101111101111000111010011011011101000011000100110010101011010101110101100000011011000001101001101000001110000100010000011000 "
b1101000001110000100010000011000 @+
b1011101011000000110110000011010 `+
b1110100001100010011001010101101 ",
b11111101111101111000111010011011 B,
b1001000111000010111110010101110 b,
b1001000111000010111110010101110 $-
b1001000111000010111110010101110 D-
b1001000111000010111110010101110 d-
0*.
02.
05.
06.
b1 l0
b0 |0
b100 >1
b0 N1
b1 ^1
b1000 n1
b11110001 P2
b11110010 X2
b11110000 h2
b11000011111100011111110001000110110 T4
b10001010110110 |4
b1111101110000100 .5
b1011011101101001 >5
b10001101000011 N5
#9
b10001101001011101101110111000111111011100011000010001010111110000001100001111110001111111000100011111000000000000000000000000000000000000000000000000000000000000000000000000000000000000000000000000000000000000000000000000000000000000000000000000000000000000000001111001011110010111100001111000000000000000000000000000000000000000000000000001000000000000010100000000000000000000000000000010000000000000000100000000000000000000000000000000000000000000000001111111100000000010011110000000000000000000000000000000000000000000000000000000000000000000000000000000000000000000000000000000000001100110011001100111100000000000011111111111111111111000000000000000011100000010110000010110000010110000010111000100010101000001001001000111000010111110010101110010010001110000101111100101011100100100011100001011111001010111001001000111000010111110010101100000101000111111001100001011100010000101011100111010000100010111000010000111101001100100001011011011111111101000101100110100101 "
b11011111111101000101100110100101 @+
b10000100001111010011001000010110 `+
b1000010101110011101000010001011 ",
b101000111111001100001011100 B,
b10010010001110000101111100101011 b,
b10010010001110000101111100101011 $-
b10010010001110000101111100101011 D-
b10010010001110000101111100101011 d-
0..
01.
b0 l0
b10 >1
b100 N1
b0 ^1
b1010 n1
b10 ~1
b11110000 P2
b11110000 X2
b11110010 `2
b11110010 h2
b11000011111100011111110001000111110 T4
b10001010111110 |4
b1111101110001100 .5
b1011011101110001 >5
b10001101001011 N5
#10
b10001101010011101101110111100111111011100101000010001011000110000001100001111110001111111000100100011000000000000000000000000000000000000000000000000000000000000000000000000000000000000000000000000000000000000000000000000000000000000000000000000000000000000000001111000011111000111100011111100000000000000000000000000000000000000000000000000000000000000001100000000000000001000000000000000000000000000000000000000000000000000000000000000100000000000000001111111100000000010011110000000000000000000000000000000000000000000000000000000000000000000000000000000000000000000000000000000000001100110011001100111100000000000011111111111111111111000000000000000011100000010110000010110000010110000010111100110010101000000110010010001110000101111100101001100100100011100001011111001010011001001000111000010111110010100110010010001110000101111100101011010100011100011100000000010100111001110000101110000100010010100110111110011011100000101000011101101101000101001111111010101010 "
b1101101000101001111111010101010 @+
b1101111100110111000001010000111 `+
b11100111000010111000010001001010 ",
b11010100011100011100000000010100 B,
b1100100100011100001011111001010 b,
b1100100100011100001011111001010 $-
b1100100100011100001011111001010 D-
b1100100100011100001011111001010 d-
12.
16.
b1 |0
b0 >1
b0 N1
b1 ^1
b110 n1
b0 ~1
b11111000 P2
b11110001 X2
b11111000 `2
b11110000 h2
b11000011111100011111110001001000110 T4
b10001011000110 |4
b1111101110010100 .5
b1011011101111001 >5
b10001101010011 N5
#11
b10001101011011101101111000000111111011100111000010001011001110000001100001111110001111111000100100111000000000000000000000000000000000000000000000000000000000000000000000000000000000000000000000000000000000000000000000000000000000000000000000000000000000000000001111010011110000111100101111000000000000000000000000000000000000000000000000000000000000000000010000000000000010000000000000000100000000000000000000000000000000000000000000001000000000000000101111111100000000010011110000000000000000000000000000000000000000000000000000000000000000000000000000000000000000000000000000000000001100110011001100111100000000000011111111111111111111000000000000000011100000010110000010110000010110000010111110111011101100001101100100100011100001011111001011011001001000111000010111110010110110010010001110000101111100101101100100100011100001011111001000011101011100101010001101100101011000100101001001000100100001101110100111010000100101101001011111111000110000101111111000001001 "
b11111000110000101111111000001001 @+
b11101001110100001001011010010111 `+
b1100010010100100100010010000110 ",
b11101011100101010001101100101 B,
b11011001001000111000010111110010 b,
b11011001001000111000010111110010 $-
b11011001001000111000010111110010 D-
b11011001001000111000010111110010 d-
1*.
1..
11.
15.
b10 l0
b10 |0
b1 N1
b10 ^1
b1 n1
b11110000 P2
b11110010 X2
b11110000 `2
b11110100 h2
b11000011111100011111110001001001110 T4
b10001011001110 |4
b1111101110011100 .5
b1011011110000001 >5
b10001101011011 N5
#12
b10001101100011101101111000100111111011101001000010001011010110000001100001111110001111111000100101011000000000000000000000000000000000000000000000000000000000000000000000000000000000000000000000000000000000000000000000000000000000000000000000000000000000000000001111000011110001111100001111110000000000000000000000000000000000000000000000011000000000000000000000000000001110000000000000010000000000000000000000000000000000000000000000000000000000000011001111111100000000010011110000000000000000000000000000000000000000000000000000000000000000000000000000000000000000000000000000000000001100110011001100111100000000000011111111111111111111000000000000000011100000010110000010110000010110000010111110111011101100001011011001001000111000010111110010110110010010001110000101111100101101100100100011100001011111001011011001001000111000010111110010011011011101101000000111101111101011010110101011011011101100000001101000000000011101110101110000011000100111100010111001101110 "
b11000100111100010111001101110 @+
b11010000000000111011101011100 `+
b10101101011010101101101110110000 ",
b10011011011101101000000111101111 B,
b10110110010010001110000101111100 b,
b10110110010010001110000101111100 $-
b10110110010010001110000101111100 D-
b10110110010010001110000101111100 d-
b1100 l0
b0 |0
b100 N1
b1110 ^1
b0 n1
b110 ~1
b11111100 P2
b11110000 X2
b11110001 `2
b11110000 h2
b11000011111100011111110001001010110 T4
b10001011010110 |4
b1111101110100100 .5
b1011011110001001 >5
b10001101100011 N5
#13
b10001101101010101101111001000011111011101010110010001011011101000001100001111110001111111000100101110100000000000000000000000000000000000000000000000000000000000000000000000000000000000000000000000000000000000000000000000000000000000000000000000000000000000000001111000011110011111100001111000000000000000000000000000000000000000000000000000000000000000000100000000000000000000000000000010000000000000000000000000000000011000000000000000000000000000000001111111100000000010011110000000000000000000000000000000000000000000000000000000000000000000000000000000000000000000000000000000000001100110011001100111100000000000011111111111111111111000000000000000011100000010110000010110000010110000010111000101011101000000010101110011010001001111000101000101011100110100010011110001010001010111001101000100111100010100010101110011010001001111000101001011100100101010011011010101101100010110110010010101110001000100001011010111001100111111100101010100101011101010100010001111010 "
b10100101011101010100010001111010 @+
b10110101110011001111111001010 `+
b10001011011001001010111000100010 ",
b1011100100101010011011010101101 B,
b101011100110100010011110001010 b,
b101011100110100010011110001010 $-
b101011100110100010011110001010 D-
b101011100110100010011110001010 d-
0*.
02.
05.
06.
b0 l0
b11 .1
b0 ^1
b10 n1
b0 ~1
b11110000 P2
b11110011 `2
b11000011111100011111110001001011101 T4
b10001011011101 |4
b1111101110101011 .5
b1011011110010000 >5
b10001101101010 N5
#14
b10001101110010101101111001100011111011101100110010001011100101000001100001111110001111111000100110010100000000000000000000000000000000000000000000000000000000000000000000000000000000000000000000000000000000000000000000000000000000000000000000000000000000000000001111000111110000111110111111001000000000000000000000000000000000000000000000000100000000000000100000000000001010000000000000001000000000000000000000000000000010000000000000100000000000000000101111111100000000010011110000000000000000000000000000000000000000000000000000000000000000000000000000000000000000000000000000000000001100110011001100111100000000000011111111111111111111000000000000000011100000010110000010110000010110000010111000100010101000001100101011100110100010011110001011001010111001101000100111100010110010101110011010001001111000101100101011100110100010011110001000010100100111100001011010110000010010100100000001011100001011111000011110111010110000011110101110101010011111001001000111000101 "
b10101010011111001001000111000101 @+
b10000111101110101100000111101011 `+
b1001010010000000101110000101111 ",
b10100100111100001011010110000 B,
b11001010111001101000100111100010 b,
b11001010111001101000100111100010 $-
b11001010111001101000100111100010 D-
b11001010111001101000100111100010 d-
0..
01.
b10 l0
b1000 |0
b10 .1
b10 N1
b1010 ^1
b1 ~1
b11110010 P2
b11111011 X2
b11110000 `2
b11110001 h2
b11000011111100011111110001001100101 T4
b10001011100101 |4
b1111101110110011 .5
b1011011110011000 >5
b10001101110010 N5
#15
b10001101111010101101111010000011111011101110110010001011101101000001100001111110001111111000100110110100000000000000000000000000000000000000000000000000000000000000000000000000000000000000000000000000000000000000000000000000000000000000000000000000000000000000001111001011110010111100001111000100000000000000000000000000000000000000000000000000000000000010010000000000000000000000000000110000000000000000000000000000000000000000000000000000000000000000011111111100000000010011110000000000000000000000000000000000000000000000000000000000000000000000000000000000000000000000000000000000001100110011001100111100000000000011111111111111111111000000000000000011100000010110000010110000010110000010111100110010101000001111001010111001101000100111100011110010101110011010001001111000111100101011100110100010011110001111001010111001101000100111100001100101000011110111011000101110100001100011000010011000100101101001011111111010100000000010111100001001011001011001011001010000 "
b1001011001011001011001010000 @+
b10010111111110101000000000101111 `+
b10000110001100001001100010010110 ",
b1100101000011110111011000101110 B,
b11110010101110011010001001111000 b,
b11110010101110011010001001111000 $-
b11110010101110011010001001111000 D-
b11110010101110011010001001111000 d-
12.
16.
b1 l0
b0 |0
b0 .1
b1100 N1
b0 ^1
b1001 n1
b0 ~1
b11110001 P2
b11110000 X2
b11110010 `2
b11110010 h2
b11000011111100011111110001001101101 T4
b10001011101101 |4
b1111101110111011 .5
b1011011110100000 >5
b10001101111010 N5
#16
b10001110000010101101111010100011111011110000110010001011110101000001100001111110001111111000100111010100000000000000000000000000000000000000000000000000000000000000000000000000000000000000000000000000000000000000000000000000000000000000000000000000000000000000001111000011110000111110001111011000000000000000000000000000000000000000000000001100000000000000000000000000000111000000000000001000000000000000000000000000000000000000000000000000000000000001101111111100000000010011110000000000000000000000000000000000000000000000000000000000000000000000000000000000000000000000000000000000001100110011001100111100000000000011111111111111111111000000000000000011100000010110000010110000010110000010111110111011101100000111110010101110011010001001111001111100101011100110100010011110011111001010111001101000100111100111110010101110011010001001111010001110100110110111011010000001001100101010110101101010110110110110110000011010000000100111011101000110000110001001111000101110 "
b1000110000110001001111000101110 @+
b1101100000110100000001001110111 `+
b110010101011010110101011011011 ",
b10001110100110110111011010000001 B,
b1111100101011100110100010011110 b,
b1111100101011100110100010011110 $-
b1111100101011100110100010011110 D-
b1111100101011100110100010011110 d-
1*.
1..
11.
15.
b110 l0
b10 N1
b111 ^1
b0 n1
b11 ~1
b11110110 P2
b11111000 X2
b11110000 `2
b11110000 h2
b11000011111100011111110001001110101 T4
b10001011110101 |4
b1111101111000011 .5
b1011011110101000 >5
b10001110000010 N5
#17
b10001110001010101101111011000011111011110010110010001011111101000001100001111110001111111000100111110100000000000000000000000000000000000000000000000000000000000000000000000000000000000000000000000000000000000000000000000000000000000000000000000000000000000000001111000011111000111100001111010000000000000000000000000000000000000000000000000000000000000001100000000000000000000000000000000100000000000000000000000000001000000000000000000000000000000000001111111100000000010011110000000000000000000000000000000000000000000000000000000000000000000000000000000000000000000000000000000000001100110011001100111100000000000011111111111111111111000000000000000011100000010110000010110000010110000010111110111011101100000101111100101011100110100010011101011111001010111001101000100111010111110010101110011010001001110101111100101011100110100010011110101101101010101111000100100000001000100000101010000000001100001100101001100000111001101010011001111010010110011101101000111111 "
b1111010010110011101101000111111 @+
b11001010011000001110011010100110 `+
b100010000010101000000000110000 ",
b10101101101010101111000100100000 B,
b1011111001010111001101000100111 b,
b1011111001010111001101000100111 $-
b1011111001010111001101000100111 D-
b1011111001010111001101000100111 d-
b0 l0
b1000 .1
b1 N1
b0 ^1
b110 n1
b0 ~1
b11110100 P2
b11110000 X2
b11111000 `2
b11000011111100011111110001001111101 T4
b10001011111101 |4
b1111101111001011 .5
b1011011110110000 >5
b10001110001010 N5
#18
b10001110010001101101111011011111111011110100100010001100000100000001100001111110001111111000101000010000000000000000000000000000000000000000000000000000000000000000000000000000000000000000000000000000000000000000000000000000000000000000000000000000000000000000001111100011110000111110001111000100000000000000000000000000000000000000000000110000000000000001000000000000000000000000000000010000000000000000000000000000000000000000000000000000000000000000001111111100000000010011110000000000000000000000000000000000000000000000000000000000000000000000000000000000000000000000000000000000001100110011001100111100000000000011111111111111111111000000000000000011100000010110000010110000010110000010111000101011101000001110001010000110000010000001111111100010100001100000100000011111111000101000011000001000000111111110001010000110000010000001111110110000100011110001101011011110001011111001001000101001000111111110101110101001010011111011010111000101111101011011011110101000 "
b11000101111101011011011110101000 @+
b11101011101010010100111110110101 `+
b101111100100100010100100011111 ",
b10110000100011110001101011011110 B,
b11100010100001100000100000011111 b,
b11100010100001100000100000011111 $-
b11100010100001100000100000011111 D-
b11100010100001100000100000011111 d-
0*.
02.
05.
06.
b0 .1
b100 N1
b100 n1
b1100 ~1
b11110001 P2
b11111000 X2
b11110000 `2
b11111000 h2
b11000011111100011111110001010000100 T4
b10001100000100 |4
b1111101111010010 .5
b1011011110110111 >5
b10001110010001 N5
#19
b10001110011001101101111011111111111011110110100010001100001100000001100001111110001111111000101000110000000000000000000000000000000000000000000000000000000000000000000000000000000000000000000000000000000000000000000000000000000000000000000000000000000000000000001111000011110100111100001111100000000000000000000000000000000000000000000000000100000000000011000000000000000011000000000000011100000000000000000000000000000100000000000000000000000000000010001111111100000000010011110000000000000000000000000000000000000000000000000000000000000000000000000000000000000000000000000000000000001100110011001100111100000000000011111111111111111111000000000000000011100000010110000010110000010110000010111000100010101000000111100010100001100000100000011101111000101000011000001000000111011110001010000110000010000001110111100010100001100000100000011100101110110000011101011001110100100101100000110000001110011010000010111100111011011000010111110001010000000111000000111001110011 "
b1010000000111000000111001110011 @+
b101111001110110110000101111100 `+
b10010110000011000000111001101000 ",
b101110110000011101011001110100 B,
b1111000101000011000001000000111 b,
b1111000101000011000001000000111 $-
b1111000101000011000001000000111 D-
b1111000101000011000001000000111 d-
0..
01.
b1000 l0
b100 .1
b111 N1
b11 ^1
b1100 n1
b1 ~1
b11111000 P2
b11110000 X2
b11110100 `2
b11110000 h2
b11000011111100011111110001010001100 T4
b10001100001100 |4
b1111101111011010 .5
b1011011110111111 >5
b10001110011001 N5
