OpticalTests/.Xil/Vivado-37559-higgs.physics.ucsb.edu/hw_ila_data_1/zip_work/waveform.vcd
$date
        2021-Nov-26 15:10:53
$end
$version
        Vivado v2019.2 (64-bit)
$end
$timescale
        1ps
$end
$scope module dut $end
$var reg 32 " receiver_0 [31:0] $end
$var reg 618 B ila_data [617:0] $end
$var reg 32 x' receiver_1 [31:0] $end
$var reg 32 :( receiver_2 [31:0] $end
$var reg 32 Z( receiver_3 [31:0] $end
$var reg 32 z( transmitter_0 [31:0] $end
$var reg 32 <) transmitter_1 [31:0] $end
$var reg 32 \) transmitter_2 [31:0] $end
$var reg 32 |) transmitter_3 [31:0] $end
$var reg 4 >* prbs_match_int [3:0] $end
$var reg 16 B* ch0_rxctrl0_int [15:0] $end
$var reg 16 R* ch1_rxctrl0_int [15:0] $end
$var reg 16 b* ch2_rxctrl0_int [15:0] $end
$var reg 16 r* ch3_rxctrl0_int [15:0] $end
$var reg 16 $+ ch0_rxctrl1_int [15:0] $end
$var reg 16 4+ ch1_rxctrl1_int [15:0] $end
$var reg 16 D+ ch2_rxctrl1_int [15:0] $end
$var reg 16 T+ ch3_rxctrl1_int [15:0] $end
$var reg 8 d+ ch0_rxctrl2_int [7:0] $end
$var reg 8 l+ ch1_rxctrl2_int [7:0] $end
$var reg 8 t+ ch2_rxctrl2_int [7:0] $end
$var reg 8 |+ ch3_rxctrl2_int [7:0] $end
$var reg 8 &, ch0_rxctrl3_int [7:0] $end
$var reg 8 ., ch1_rxctrl3_int [7:0] $end
$var reg 8 6, ch2_rxctrl3_int [7:0] $end
$var reg 8 >, ch3_rxctrl3_int [7:0] $end
$var reg 16 F, ch0_txctrl0_int [15:0] $end
$var reg 16 V, ch1_txctrl0_int [15:0] $end
$var reg 16 f, ch2_txctrl0_int [15:0] $end
$var reg 16 v, ch3_txctrl0_int [15:0] $end
$var reg 16 (- ch0_txctrl1_int [15:0] $end
$var reg 16 8- ch1_txctrl1_int [15:0] $end
$var reg 16 H- ch2_txctrl1_int [15:0] $end
$var reg 16 X- ch3_txctrl1_int [15:0] $end
$var reg 8 h- ch0_txctrl2_int [7:0] $end
$var reg 8 p- ch1_txctrl2_int [7:0] $end
$var reg 8 x- ch2_txctrl2_int [7:0] $end
$var reg 8 ". ch3_txctrl2_int [7:0] $end
$var reg 1 *. hb0_gtwiz_userclk_rx_usrclk2_int $end
$var reg 1 +. hb0_gtwiz_userclk_rx_active_int $end
$var reg 1 ,. hb_gtwiz_reset_all_int $end
$var reg 1 -. hb0_gtwiz_reset_rx_done_int $end
$var reg 1 .. hb0_gtwiz_userclk_tx_usrclk2_int $end
$var reg 1 /. hb0_gtwiz_userclk_tx_active_int $end
$var reg 1 0. _TRIGGER $end
$var reg 1 1. _WINDOW $end
$var reg 1 2. _GAP $end
$upscope $end
$enddefinitions $end
#0
$dumpvars
b11100001011110101000000111100 "
b101010000000000000000000000000000000000000000000000000000000000000000000000000000000000000000000000000000000000000000000000000000000000000000000000000000000000000000011110000111100001111000011110000000000000000000000000000000000000000000000000000000000000000000000000000000000000000000000000000000000000000000000000000000000000000000000000000000000000000000011110101000000111100010010110001101101010000001111000100101100011011010100000011110001001011000110110101000000111100010010110001101100011100001011110101000000111100000111000010111101010000001111000001110000101111010100000011110000011100001011110101000000111100 B
b11100001011110101000000111100 x'
b11100001011110101000000111100 :(
b11100001011110101000000111100 Z(
b1010000001111000100101100011011 z(
b1010000001111000100101100011011 <)
b1010000001111000100101100011011 \)
b1010000001111000100101100011011 |)
b1111 >*
b0 B*
b0 R*
b0 b*
b0 r*
b0 $+
b0 4+
b0 D+
b0 T+
b0 d+
b0 l+
b0 t+
b0 |+
b11110000 &,
b11110000 .,
b11110000 6,
b11110000 >,
b0 F,
b0 V,
b0 f,
b0 v,
b0 (-
b0 8-
b0 H-
b0 X-
b0 h-
b0 p-
b0 x-
b0 ".
0*.
1+.
0,.
1-.
0..
1/.
00.
11.
02.
$end
#1
b10001110000101110101000000111100 "
b111011000000000000000000000000000000000000000000000000000000000000000000000000000000000000000000000000000000000000000000000000000000000000000000000000000000000000000011110000111100001111000011110000000000000000000000000000000000000000000000000000000000000000000000000000000000000000000000000000000000000000000000000000000000000000000000000000000000000000000011110101000000111100101001011100110101010000001111001010010100001101010100000011110010100101100011010101000000111100101001011000110110001110000101110101000000111100100011100111011101010000001111001000111000010111010100000011110010001110000101110101000000111100 B
b10001110000101110101000000111100 x'
b10001110011101110101000000111100 :(
b10001110000101110101000000111100 Z(
b1010000001111001010010110001101 z(
b1010000001111001010010110001101 <)
b1010000001111001010010100001101 \)
b1010000001111001010010111001101 |)
1*.
1..
#2
b11100101011100110101000000111100 "
b111011000000000000000000000000000000000000000000000000000000000000000000000000000000000000000000000000000000000000000000000000000000000000000000000000000000000000000011110000111100001111000011110000000000000000000000000000000000000000000000000000000000000000000000000000000000000000000000000000000000000000000000000000000000000000000000000000000000000000000011110101000000111100111101101011011001010000001111001111011010110110010100000011110011110010110101100101000000111100110100101100011011100101011100110101000000111100111001010111001101010000001111001110010101110011010100000011110011100101011100110101000000111100 B
b11100101011100110101000000111100 x'
b11100101011100110101000000111100 :(
b11100101011100110101000000111100 Z(
b1010000001111001101001011000110 z(
b1010000001111001111001011010110 <)
b1010000001111001111011010110110 \)
b1010000001111001111011010110110 |)
#3
b11110010101110010101000000111100 "
b101010000000000000000000000000000000000000000000000000000000000000000000000000000000000000000000000000000000000000000000000000000000000000000000000000000000000000000011110000111100001111000011110000000000000000000000000000000000000000000000000000000000000000000000000000000000000000000000000000000000000000000000000000000000000000000000000000000000000000000011110101000000111100011110110101101101010000001111000111101101011011010100000011110001111011010110110101000000111100011110110101101111110010101110010101000000111100111100101011100101010000001111001111001010111001010100000011110011110010101110010101000000111100 B
b11110010101110010101000000111100 x'
b11110010101110010101000000111100 :(
b11110010101110010101000000111100 Z(
b1010000001111000111101101011011 z(
b1010000001111000111101101011011 <)
b1010000001111000111101101011011 \)
b1010000001111000111101101011011 |)
0*.
0..
#4
b11111001010111000101000000111100 "
b101010000000000000000000000000000000000000000000000000000000000000000000000000000000000000000000000000000000000000000000000000000000000000000000000000000000000000000011110000111100001111000011110000000000000000000000000000000000000000000000000000000000000000000000000000000000000000000000000000000000000000000000000000000000000000000000000000000000000000000011110101000000111100101111011010110101010000001111001011110110101101010100000011110010111101101011010101000000111100101111011010110111111001010111000101000000111100111110010101110001010000001111001111100101011100010100000011110011111001010111000101000000111100 B
b11111001010111000101000000111100 x'
b11111001010111000101000000111100 :(
b11111001010111000101000000111100 Z(
b1010000001111001011110110101101 z(
b1010000001111001011110110101101 <)
b1010000001111001011110110101101 \)
b1010000001111001011110110101101 |)
#5
b1111100101011100101000000111100 "
b101010000000000000000000000000000000000000000000000000000000000000000000000000000000000000000000000000000000000000000000000000000000000000000000000000000000000000000011110000111100001111000011110000000000000000000000000000000000000000000000000000000000000000000000000000000000000000000000000000000000000000000000000000000000000000000000000000000000000000000011110101000000111100110111101101011001010000001111001101111011010110010100000011110011011110110101100101000000111100110111101101011001111100101011100101000000111100011111001010111001010000001111000111110010101110010100000011110001111100101011100101000000111100 B
b1111100101011100101000000111100 x'
b1111100101011100101000000111100 :(
b1111100101011100101000000111100 Z(
b1010000001111001101111011010110 z(
b1010000001111001101111011010110 <)
b1010000001111001101111011010110 \)
b1010000001111001101111011010110 |)
#6
b10111110010101110101000000111100 "
b111011000000000000000000000000000000000000000000000000000000000000000000000000000000000000000000000000000000000000000000000000000000000000000000000000000000000000000011110000111100001111000011110000000000000000000000000000000000000000000000000000000000000000000000000000000000000000000000000000000000000000000000000000000000000000000000000000000000000000000011110101000000111100011011110010111101010000001111000110111111101011010100000011110001101111011010110101000000111100011011110110101110111100010111110101000000111100101111100101011101010000001111001011111001010111010100000011110010111110010101110101000000111100 B
b10111110010101110101000000111100 x'
b10111110010101110101000000111100 :(
b10111100010111110101000000111100 Z(
b1010000001111000110111101101011 z(
b1010000001111000110111101101011 <)
b1010000001111000110111111101011 \)
b1010000001111000110111100101111 |)
1*.
1..
#7
b10011010001001110101000000111100 "
b111011000000000000000000000000000000000000000000000000000000000000000000000000000000000000000000000000000000000000000000000000000000000000000000000000000000000000000011110000111100001111000011110000000000000000000000000000000000000000000000000000000000000000000000000000000000000000000000000000000000000000000000000000000000000000000000000000000000000000000011110101000000111100101100100100011101010000001111001011001001000111010100000011110000110111101001010101000000111100001101111011010110011010001001110101000000111100100110100010011101010000001111001001101000100111010100000011110010011010001001110101000000111100 B
b10011010001001110101000000111100 x'
b10011010001001110101000000111100 :(
b10011010001001110101000000111100 Z(
b1010000001111000011011110110101 z(
b1010000001111000011011110100101 <)
b1010000001111001011001001000111 \)
b1010000001111001011001001000111 |)
#8
b11001101000100110101000000111100 "
b101010000000000000000000000000000000000000000000000000000000000000000000000000000000000000000000000000000000000000000000000000000000000000000000000000000000000000000011110000111100001111000011110000000000000000000000000000000000000000000000000000000000000000000000000000000000000000000000000000000000000000000000000000000000000000000000000000000000000000000011110101000000111100110110010010001101010000001111001101100100100011010100000011110011011001001000110101000000111100110110010010001111001101000100110101000000111100110011010001001101010000001111001100110100010011010100000011110011001101000100110101000000111100 B
b11001101000100110101000000111100 x'
b11001101000100110101000000111100 :(
b11001101000100110101000000111100 Z(
b1010000001111001101100100100011 z(
b1010000001111001101100100100011 <)
b1010000001111001101100100100011 \)
b1010000001111001101100100100011 |)
0*.
0..
#9
b11100110100010010101000000111100 "
b101010000000000000000000000000000000000000000000000000000000000000000000000000000000000000000000000000000000000000000000000000000000000000000000000000000000000000000011110000111100001111000011110000000000000000000000000000000000000000000000000000000000000000000000000000000000000000000000000000000000000000000000000000000000000000000000000000000000000000000011110101000000111100011011001001000101010000001111000110110010010001010100000011110001101100100100010101000000111100011011001001000111100110100010010101000000111100111001101000100101010000001111001110011010001001010100000011110011100110100010010101000000111100 B
b11100110100010010101000000111100 x'
b11100110100010010101000000111100 :(
b11100110100010010101000000111100 Z(
b1010000001111000110110010010001 z(
b1010000001111000110110010010001 <)
b1010000001111000110110010010001 \)
b1010000001111000110110010010001 |)
#10
b1110011010001000101000000111100 "
b101010000000000000000000000000000000000000000000000000000000000000000000000000000000000000000000000000000000000000000000000000000000000000000000000000000000000000000011110000111100001111000011110000000000000000000000000000000000000000000000000000000000000000000000000000000000000000000000000000000000000000000000000000000000000000000000000000000000000000000011110101000000111100101101100100100001010000001111001011011001001000010100000011110010110110010010000101000000111100101101100100100001110011010001000101000000111100011100110100010001010000001111000111001101000100010100000011110001110011010001000101000000111100 B
b1110011010001000101000000111100 x'
b1110011010001000101000000111100 :(
b1110011010001000101000000111100 Z(
b1010000001111001011011001001000 z(
b1010000001111001011011001001000 <)
b1010000001111001011011001001000 \)
b1010000001111001011011001001000 |)
#11
b10111001101000100101000000111100 "
b111011000000000000000000000000000000000000000000000000000000000000000000000000000000000000000000000000000000000000000000000000000000000000000000000000000000000000000011110000111100001111000011110000000000000000000000000000000000000000000000000000000000000000000000000000000000000000000000000000000000000000000000000000000000000000000000000000000000000000000011110101000000111100010110110010010001010000001111000101101100100100010100000011110001011011001001000101000000111100010110110010010010111001101000100101000000111100101110011010001001010000001111001011100110100010010100000011110010111001101000100101000000111100 B
b10111001101000100101000000111100 x'
b10111001101000100101000000111100 :(
b10111001101000100101000000111100 Z(
b1010000001111000101101100100100 z(
b1010000001111000101101100100100 <)
b1010000001111000101101100100100 \)
b1010000001111000101101100100100 |)
1*.
1..
#12
b111100010100000101000000111100 "
b111011000000000000000000000000000000000000000000000000000000000000000000000000000000000000000000000000000000000000000000000000000000000000000000000000000000000000000011110000111100001111000011110000000000000000000000000000000000000000000000000000000000000000000000000000000000000000000000000000000000000000000000000000000000000000000000000000000000000000000011110101000000111100001110000101111101010000001111000011100001011111010100000011110010101101100100100101000000111100101011011001001000111100010100000101000000111100001111000101000001010000001111000011110001010000010100000011110000111100010100000101000000111100 B
b111100010100000101000000111100 x'
b111100010100000101000000111100 :(
b111100010100000101000000111100 Z(
b1010000001111001010110110010010 z(
b1010000001111001010110110010010 <)
b1010000001111000011100001011111 \)
b1010000001111000011100001011111 |)
#13
b10011110001010000101000000111100 "
b101010000000000000000000000000000000000000000000000000000000000000000000000000000000000000000000000000000000000000000000000000000000000000000000000000000000000000000011110000111100001111000011110000000000000000000000000000000000000000000000000000000000000000000000000000000000000000000000000000000000000000000000000000000000000000000000000000000000000000000011110101000000111100000111000010111101010000001111000001110000101111010100000011110000011100001011110101000000111100000111000010111110011110001010000101000000111100100111100010100001010000001111001001111000101000010100000011110010011110001010000101000000111100 B
b10011110001010000101000000111100 x'
b10011110001010000101000000111100 :(
b10011110001010000101000000111100 Z(
b1010000001111000001110000101111 z(
b1010000001111000001110000101111 <)
b1010000001111000001110000101111 \)
b1010000001111000001110000101111 |)
0*.
0..
#14
b1001111000101000101000000111100 "
b101010000000000000000000000000000000000000000000000000000000000000000000000000000000000000000000000000000000000000000000000000000000000000000000000000000000000000000011110000111100001111000011110000000000000000000000000000000000000000000000000000000000000000000000000000000000000000000000000000000000000000000000000000000000000000000000000000000000000000000011110101000000111100100011100001011101010000001111001000111000010111010100000011110010001110000101110101000000111100100011100001011101001111000101000101000000111100010011110001010001010000001111000100111100010100010100000011110001001111000101000101000000111100 B
b1001111000101000101000000111100 x'
b1001111000101000101000000111100 :(
b1001111000101000101000000111100 Z(
b1010000001111001000111000010111 z(
b1010000001111001000111000010111 <)
b1010000001111001000111000010111 \)
b1010000001111001000111000010111 |)
#15
b100111100010100101000000111100 "
b101010000000000000000000000000000000000000000000000000000000000000000000000000000000000000000000000000000000000000000000000000000000000000000000000000000000000000000011110000111100001111000011110000000000000000000000000000000000000000000000000000000000000000000000000000000000000000000000000000000000000000000000000000000000000000000000000000000000000000000011110101000000111100010001110000101101010000001111000100011100001011010100000011110001000111000010110101000000111100010001110000101100100111100010100101000000111100001001111000101001010000001111000010011110001010010100000011110000100111100010100101000000111100 B
b100111100010100101000000111100 x'
b100111100010100101000000111100 :(
b100111100010100101000000111100 Z(
b1010000001111000100011100001011 z(
b1010000001111000100011100001011 <)
b1010000001111000100011100001011 \)
b1010000001111000100011100001011 |)
#16
b10011110001010101000000111100 "
b111011000000000000000000000000000000000000000000000000000000000000000000000000000000000000000000000000000000000000000000000000000000000000000000000000000000000000000011110000111100001111000011110000000000000000000000000000000000000000000000000000000000000000000000000000000000000000000000000000000000000000000000000000000000000000000000000000000000000000000011110101000000111100001000111000000101010000001111000010001110010101010100000011110000100011100001010101000000111100001000111000010100010000110001010101000000111100000100111000010101010000001111000001001111000101010100000011110000010011110001010101000000111100 B
b10011110001010101000000111100 x'
b10011100001010101000000111100 :(
b10000110001010101000000111100 Z(
b1010000001111000010001110000101 z(
b1010000001111000010001110000101 <)
b1010000001111000010001110010101 \)
b1010000001111000010001110000001 |)
1*.
1..
#17
b10000110000010000101000000111100 "
b111011000000000000000000000000000000000000000000000000000000000000000000000000000000000000000000000000000000000000000000000000000000000000000000000000000000000000000011110000111100001111000011110000000000000000000000000000000000000000000000000000000000000000000000000000000000000000000000000000000000000000000000000000000000000000000000000000000000000000000011110101000000111100111110010101110001010000001111001111100101011100010100000011110010110001110100100101000000111100100100011100001010000110000010000101000000111100100001100000100001010000001111001000011000001000010100000011110010000110000010000101000000111100 B
b10000110000010000101000000111100 x'
b10000110000010000101000000111100 :(
b10000110000010000101000000111100 Z(
b1010000001111001001000111000010 z(
b1010000001111001011000111010010 <)
b1010000001111001111100101011100 \)
b1010000001111001111100101011100 |)
#18
b1000011000001000101000000111100 "
b101010000000000000000000000000000000000000000000000000000000000000000000000000000000000000000000000000000000000000000000000000000000000000000000000000000000000000000011110000111100001111000011110000000000000000000000000000000000000000000000000000000000000000000000000000000000000000000000000000000000000000000000000000000000000000000000000000000000000000000011110101000000111100011111001010111001010000001111000111110010101110010100000011110001111100101011100101000000111100011111001010111001000011000001000101000000111100010000110000010001010000001111000100001100000100010100000011110001000011000001000101000000111100 B
b1000011000001000101000000111100 x'
b1000011000001000101000000111100 :(
b1000011000001000101000000111100 Z(
b1010000001111000111110010101110 z(
b1010000001111000111110010101110 <)
b1010000001111000111110010101110 \)
b1010000001111000111110010101110 |)
0*.
0..
#19
b10100001100000100101000000111100 "
b101010000000000000000000000000000000000000000000000000000000000000000000000000000000000000000000000000000000000000000000000000000000000000000000000000000000000000000011110000111100001111000011110000000000000000000000000000000000000000000000000000000000000000000000000000000000000000000000000000000000000000000000000000000000000000000000000000000000000000000011110101000000111100101111100101011101010000001111001011111001010111010100000011110010111110010101110101000000111100101111100101011110100001100000100101000000111100101000011000001001010000001111001010000110000010010100000011110010100001100000100101000000111100 B
b10100001100000100101000000111100 x'
b10100001100000100101000000111100 :(
b10100001100000100101000000111100 Z(
b1010000001111001011111001010111 z(
b1010000001111001011111001010111 <)
b1010000001111001011111001010111 \)
b1010000001111001011111001010111 |)
#20
b1010000110000010101000000111100 "
b101010000000000000000000000000000000000000000000000000000000000000000000000000000000000000000000000000000000000000000000000000000000000000000000000000000000000000000011110000111100001111000011110000000000000000000000000000000000000000000000000000000000000000000000000000000000000000000000000000000000000000000000000000000000000000000000000000000000000000000011110101000000111100010111110010101101010000001111000101111100101011010100000011110001011111001010110101000000111100010111110010101101010000110000010101000000111100010100001100000101010000001111000101000011000001010100000011110001010000110000010101000000111100 B
b1010000110000010101000000111100 x'
b1010000110000010101000000111100 :(
b1010000110000010101000000111100 Z(
b1010000001111000101111100101011 z(
b1010000001111000101111100101011 <)
b1010000001111000101111100101011 \)
b1010000001111000101111100101011 |)
#21
b101000011000000101000000111100 "
b111011000000000000000000000000000000000000000000000000000000000000000000000000000000000000000000000000000000000000000000000000000000000000000000000000000000000000000011110000111100001111000011110000000000000000000000000000000000000000000000000000000000000000000000000000000000000000000000000000000000000000000000000000000000000000000000000000000000000000000011110101000000111100001011111001000101010000001111000010111110010101010100000011110000101111100101010101000000111100001011111001010100101001011010000101000000111100001010000110000001010000001111000010100001100000010100000011110000101000011000000101000000111100 B
b101000011000000101000000111100 x'
b101000011000000101000000111100 :(
b101001011010000101000000111100 Z(
b1010000001111000010111110010101 z(
b1010000001111000010111110010101 <)
b1010000001111000010111110010101 \)
b1010000001111000010111110010001 |)
1*.
1..
#22
b1000000111111100101000000111100 "
b111011000000000000000000000000000000000000000000000000000000000000000000000000000000000000000000000000000000000000000000000000000000000000000000000000000000000000000011110000111100001111000011110000000000000000000000000000000000000000000000000000000000000000000000000000000000000000000000000000000000000000000000000000000000000000000000000000000000000000000011110101000000111100111001101000100101010000001111001110011010001001010100000011110000110111110010100101000000111100000101111100101001000000111111100101000000111100010000001111111001010000001111000100000011111110010100000011110001000000111111100101000000111100 B
b1000000111111100101000000111100 x'
b1000000111111100101000000111100 :(
b1000000111111100101000000111100 Z(
b1010000001111000001011111001010 z(
b1010000001111000011011111001010 <)
b1010000001111001110011010001001 \)
b1010000001111001110011010001001 |)
#23
b100000011111110101000000111100 "
b101010000000000000000000000000000000000000000000000000000000000000000000000000000000000000000000000000000000000000000000000000000000000000000000000000000000000000000011110000111100001111000011110000000000000000000000000000000000000000000000000000000000000000000000000000000000000000000000000000000000000000000000000000000000000000000000000000000000000000000011110101000000111100011100110100010001010000001111000111001101000100010100000011110001110011010001000101000000111100011100110100010000100000011111110101000000111100001000000111111101010000001111000010000001111111010100000011110000100000011111110101000000111100 B
b100000011111110101000000111100 x'
b100000011111110101000000111100 :(
b100000011111110101000000111100 Z(
b1010000001111000111001101000100 z(
b1010000001111000111001101000100 <)
b1010000001111000111001101000100 \)
b1010000001111000111001101000100 |)
0*.
0..
#24
b10000001111110101000000111100 "
b101010000000000000000000000000000000000000000000000000000000000000000000000000000000000000000000000000000000000000000000000000000000000000000000000000000000000000000011110000111100001111000011110000000000000000000000000000000000000000000000000000000000000000000000000000000000000000000000000000000000000000000000000000000000000000000000000000000000000000000011110101000000111100101110011010001001010000001111001011100110100010010100000011110010111001101000100101000000111100101110011010001000010000001111110101000000111100000100000011111101010000001111000001000000111111010100000011110000010000001111110101000000111100 B
b10000001111110101000000111100 x'
b10000001111110101000000111100 :(
b10000001111110101000000111100 Z(
b1010000001111001011100110100010 z(
b1010000001111001011100110100010 <)
b1010000001111001011100110100010 \)
b1010000001111001011100110100010 |)
#25
b1000000111110101000000111100 "
b101010000000000000000000000000000000000000000000000000000000000000000000000000000000000000000000000000000000000000000000000000000000000000000000000000000000000000000011110000111100001111000011110000000000000000000000000000000000000000000000000000000000000000000000000000000000000000000000000000000000000000000000000000000000000000000000000000000000000000000011110101000000111100010111001101000101010000001111000101110011010001010100000011110001011100110100010101000000111100010111001101000100001000000111110101000000111100000010000001111101010000001111000000100000011111010100000011110000001000000111110101000000111100 B
b1000000111110101000000111100 x'
b1000000111110101000000111100 :(
b1000000111110101000000111100 Z(
b1010000001111000101110011010001 z(
b1010000001111000101110011010001 <)
b1010000001111000101110011010001 \)
b1010000001111000101110011010001 |)
#26
b100000011110101000000111100 "
b111011000000000000000000000000000000000000000000000000000000000000000000000000000000000000000000000000000000000000000000000000000000000000000000000000000000000000000011110000111100001111000011110000000000000000000000000000000000000000000000000000000000000000000000000000000000000000000000000000000000000000000000000000000000000000000000000000000000000000000011110101000000111100101111100010100001010000001111001010111001101000010100000011110010101110011010000101000000111100101011100110100000000110000011110101000000111100001001000001111101010000001111000000010000001111010100000011110000000100000011110101000000111100 B
b100000011110101000000111100 x'
b100100000111110101000000111100 :(
b110000011110101000000111100 Z(
b1010000001111001010111001101000 z(
b1010000001111001010111001101000 <)
b1010000001111001010111001101000 \)
b1010000001111001011111000101000 |)
1*.
1..
#27
b11110101010011000101000000111100 "
b111011000000000000000000000000000000000000000000000000000000000000000000000000000000000000000000000000000000000000000000000000000000000000000000000000000000000000000011110000111100001111000011110000000000000000000000000000000000000000000000000000000000000000000000000000000000000000000000000000000000000000000000000000000000000000000000000000000000000000000011110101000000111100010011110001010001010000001111000100111100010100010100000011110001010111001101000101000000111100010101110011010011110101010011000101000000111100111101010100110001010000001111001111010101001100010100000011110011110101010011000101000000111100 B
b11110101010011000101000000111100 x'
b11110101010011000101000000111100 :(
b11110101010011000101000000111100 Z(
b1010000001111000101011100110100 z(
b1010000001111000101011100110100 <)
b1010000001111000100111100010100 \)
b1010000001111000100111100010100 |)
#28
b11111010101001100101000000111100 "
b101010000000000000000000000000000000000000000000000000000000000000000000000000000000000000000000000000000000000000000000000000000000000000000000000000000000000000000011110000111100001111000011110000000000000000000000000000000000000000000000000000000000000000000000000000000000000000000000000000000000000000000000000000000000000000000000000000000000000000000011110101000000111100001001111000101001010000001111000010011110001010010100000011110000100111100010100101000000111100001001111000101011111010101001100101000000111100111110101010011001010000001111001111101010100110010100000011110011111010101001100101000000111100 B
b11111010101001100101000000111100 x'
b11111010101001100101000000111100 :(
b11111010101001100101000000111100 Z(
b1010000001111000010011110001010 z(
b1010000001111000010011110001010 <)
b1010000001111000010011110001010 \)
b1010000001111000010011110001010 |)
0*.
0..
#29
b11111101010100110101000000111100 "
b101010000000000000000000000000000000000000000000000000000000000000000000000000000000000000000000000000000000000000000000000000000000000000000000000000000000000000000011110000111100001111000011110000000000000000000000000000000000000000000000000000000000000000000000000000000000000000000000000000000000000000000000000000000000000000000000000000000000000000000011110101000000111100000100111100010101010000001111000001001111000101010100000011110000010011110001010101000000111100000100111100010111111101010100110101000000111100111111010101001101010000001111001111110101010011010100000011110011111101010100110101000000111100 B
b11111101010100110101000000111100 x'
b11111101010100110101000000111100 :(
b11111101010100110101000000111100 Z(
b1010000001111000001001111000101 z(
b1010000001111000001001111000101 <)
b1010000001111000001001111000101 \)
b1010000001111000001001111000101 |)
#30
b11111110101010010101000000111100 "
b101010000000000000000000000000000000000000000000000000000000000000000000000000000000000000000000000000000000000000000000000000000000000000000000000000000000000000000011110000111100001111000011110000000000000000000000000000000000000000000000000000000000000000000000000000000000000000000000000000000000000000000000000000000000000000000000000000000000000000000011110101000000111100100010011110001001010000001111001000100111100010010100000011110010001001111000100101000000111100100010011110001011111110101010010101000000111100111111101010100101010000001111001111111010101001010100000011110011111110101010010101000000111100 B
b11111110101010010101000000111100 x'
b11111110101010010101000000111100 :(
b11111110101010010101000000111100 Z(
b1010000001111001000100111100010 z(
b1010000001111001000100111100010 <)
b1010000001111001000100111100010 \)
b1010000001111001000100111100010 |)
#31
b1111111010101000101000000111100 "
b111011000000000000000000000000000000000000000000000000000000000000000000000000000000000000000000000000000000000000000000000000000000000000000000000000000000000000000011110000111100001111000011110000000000000000000000000000000000000000000000000000000000000000000000000000000000000000000000000000000000000000000000000000000000000000000000000000000000000000000011110101000000111100010000001011010101010000001111000100010001100001010100000011110001000100111100010101000000111100010001001111000101111110010111000101000000111100011111110111010001010000001111000111111101010100010100000011110001111111010101000101000000111100 B
b1111111010101000101000000111100 x'
b1111111011101000101000000111100 :(
b1111110010111000101000000111100 Z(
b1010000001111000100010011110001 z(
b1010000001111000100010011110001 <)
b1010000001111000100010001100001 \)
b1010000001111000100000010110101 |)
1*.
1..
#32
b1100111011101000101000000111100 "
b111011000000000000000000000000000000000000000000000000000000000000000000000000000000000000000000000000000000000000000000000000000000000000000000000000000000000000000011110000111100001111000011110000000000000000000000000000000000000000000000000000000000000000000000000000000000000000000000000000000000000000000000000000000000000000000000000000000000000000000011110101000000111100101000111000001001010000001111001010000110000010010100000011110010100010011010000101000000111100101000100111100001100111011101000101000000111100011001110111010001010000001111000110011101110100010100000011110001100111011101000101000000111100 B
b1100111011101000101000000111100 x'
b1100111011101000101000000111100 :(
b1100111011101000101000000111100 Z(
b1010000001111001010001001111000 z(
b1010000001111001010001001101000 <)
b1010000001111001010000110000010 \)
b1010000001111001010001110000010 |)
#33
b110011101110100101000000111100 "
b101010000000000000000000000000000000000000000000000000000000000000000000000000000000000000000000000000000000000000000000000000000000000000000000000000000000000000000011110000111100001111000011110000000000000000000000000000000000000000000000000000000000000000000000000000000000000000000000000000000000000000000000000000000000000000000000000000000000000000000011110101000000111100010100001100000101010000001111000101000011000001010100000011110001010000110000010101000000111100010100001100000100110011101110100101000000111100001100111011101001010000001111000011001110111010010100000011110000110011101110100101000000111100 B
b110011101110100101000000111100 x'
b110011101110100101000000111100 :(
b110011101110100101000000111100 Z(
b1010000001111000101000011000001 z(
b1010000001111000101000011000001 <)
b1010000001111000101000011000001 \)
b1010000001111000101000011000001 |)
0*.
0..
#34
b10011001110111010101000000111100 "
b101010000000000000000000000000000000000000000000000000000000000000000000000000000000000000000000000000000000000000000000000000000000000000000000000000000000000000000011110000111100001111000011110000000000000000000000000000000000000000000000000000000000000000000000000000000000000000000000000000000000000000000000000000000000000000000000000000000000000000000011110101000000111100001010000110000001010000001111000010100001100000010100000011110000101000011000000101000000111100001010000110000010011001110111010101000000111100100110011101110101010000001111001001100111011101010100000011110010011001110111010101000000111100 B
b10011001110111010101000000111100 x'
b10011001110111010101000000111100 :(
b10011001110111010101000000111100 Z(
b1010000001111000010100001100000 z(
b1010000001111000010100001100000 <)
b1010000001111000010100001100000 \)
b1010000001111000010100001100000 |)
#35
b1001100111011100101000000111100 "
b101010000000000000000000000000000000000000000000000000000000000000000000000000000000000000000000000000000000000000000000000000000000000000000000000000000000000000000011110000111100001111000011110000000000000000000000000000000000000000000000000000000000000000000000000000000000000000000000000000000000000000000000000000000000000000000000000000000000000000000011110101000000111100000101000011000001010000001111000001010000110000010100000011110000010100001100000101000000111100000101000011000001001100111011100101000000111100010011001110111001010000001111000100110011101110010100000011110001001100111011100101000000111100 B
b1001100111011100101000000111100 x'
b1001100111011100101000000111100 :(
b1001100111011100101000000111100 Z(
b1010000001111000001010000110000 z(
b1010000001111000001010000110000 <)
b1010000001111000001010000110000 \)
b1010000001111000001010000110000 |)
#36
b10100110011101110101000000111100 "
b111011000000000000000000000000000000000000000000000000000000000000000000000000000000000000000000000000000000000000000000000000000000000000000000000000000000000000000011110000111100001111000011110000000000000000000000000000000000000000000000000000000000000000000000000000000000000000000000000000000000000000000000000000000000000000000000000000000000000000000011110101000000111100100010100101110001010000001111001000101000011000010100000011110010001010000110000101000000111100100010100001100010100111011111110101000000111100101001100001011101010000001111001010011001110111010100000011110010100110011101110101000000111100 B
b10100110011101110101000000111100 x'
b10100110000101110101000000111100 :(
b10100111011111110101000000111100 Z(
b1010000001111001000101000011000 z(
b1010000001111001000101000011000 <)
b1010000001111001000101000011000 \)
b1010000001111001000101001011100 |)
1*.
1..
#37
b10100101100011010101000000111100 "
b111011000000000000000000000000000000000000000000000000000000000000000000000000000000000000000000000000000000000000000000000000000000000000000000000000000000000000000011110000111100001111000011110000000000000000000000000000000000000000000000000000000000000000000000000000000000000000000000000000000000000000000000000000000000000000000000000000000000000000000011110101000000111100000100000011111101010000001111000001000000111111010100000011110011000101000111000101000000111100110001010000110010100101100011010101000000111100101001011000110101010000001111001010010110001101010100000011110010100101100011010101000000111100 B
b10100101100011010101000000111100 x'
b10100101100011010101000000111100 :(
b10100101100011010101000000111100 Z(
b1010000001111001100010100001100 z(
b1010000001111001100010100011100 <)
b1010000001111000001000000111111 \)
b1010000001111000001000000111111 |)
