OpticalTests/.Xil/Vivado-3488-higgs.physics.ucsb.edu/hw_ila_data_1/zip_work/waveform.vcd
$date
        2021-Oct-31 16:21:47
$end
$version
        Vivado v2019.2 (64-bit)
$end
$timescale
        1ps
$end
$scope module dut $end
$var reg 192 " ila_data_rx [191:0] $end
$var reg 32 &# userdata_rx_0 [31:0] $end
$var reg 32 F# userdata_rx_1 [31:0] $end
$var reg 16 f# rxdata_ctr_0 [15:0] $end
$var reg 16 v# rxdata_ctr_1 [15:0] $end
$var reg 8 ($ ch0_rxctrl2 [7:0] $end
$var reg 8 0$ ch1_rxctrl2 [7:0] $end
$var reg 2 8$ rxbyteisaligned_i [1:0] $end
$var reg 2 :$ rxbyterealign_i [1:0] $end
$var reg 2 <$ rxcommadet_i [1:0] $end
$var reg 2 >$ prbs_match_i [1:0] $end
$var reg 16 @$ rxdata_errctr_0 [15:0] $end
$var reg 16 P$ rxdata_errctr_1 [15:0] $end
$var reg 40 `$ rxdata_nmlctr_i [39:0] $end
$var reg 1 *% _TRIGGER $end
$var reg 1 +% _WINDOW $end
$var reg 1 ,% _GAP $end
$upscope $end
$enddefinitions $end
#0
$dumpvars
b1110010110000101011110111111010100100000000000011000000000000001100110000000000000001100011000000000000000000000000000000000000100100010100001010111111011100001001000101000010101111110111 "
b1001000101000010101111110111 &#
b1001000101000010101111110111 F#
b0 f#
b0 v#
b1100011 ($
b0 0$
b0 8$
b0 :$
b0 <$
b11 >$
b1100 @$
b1100 P$
b11100101100001010111101111110101001 `$
0*%
1+%
0,%
$end
#1
b1110010110000101011110111111010101000000000000011000000000000001100110000000000000001100011000000000000000000000000000000001100101111100100101010001011101111001011111001001010100010111011 "
b11001011111001001010100010111011 &#
b11001011111001001010100010111011 F#
b11100101100001010111101111110101010 `$
#2
b1110010110000101011110111111010101100000000000011000000000000001100110000000000000001100011000000000000000000000000000000001000011010110011111000010010100110000110101100111110000100101001 "
b10000110101100111110000100101001 &#
b10000110101100111110000100101001 F#
b11100101100001010111101111110101011 `$
#3
b1110010110000101011110111111010110000000000000011000000000000001100110000000000000001100011000000000000000000000000000000001010010011001101001100010111100110100100110011010011000101111001 "
b10100100110011010011000101111001 &#
b10100100110011010011000101111001 F#
b11100101100001010111101111110101100 `$
#4
b1110010110000101011110111111010110100000000000011000000000000001100110000000000000001100011000000000000000000000000000000001110011111010101101101000101010011100111110101011011010001010100 "
b11100111110101011011010001010100 &#
b11100111110101011011010001010100 F#
b11100101100001010111101111110101101 `$
#5
b1110010110000101011110111111010111000000000000011000000000000001100110000000000000001100011000000000000000000000000000000001000001001101000011111101001000010000010011010000111111010010000 "
b10000010011010000111111010010000 &#
b10000010011010000111111010010000 F#
b11100101100001010111101111110101110 `$
#6
b1110010110000101011110111111010111100000000000011000000000000001100110000000000000001100011000000000000000000000000000000000101011011101101010001110101111001010110111011010100011101011110 "
b1010110111011010100011101011110 &#
b1010110111011010100011101011110 F#
b11100101100001010111101111110101111 `$
#7
b1110010110000101011110111111011000000000000000011000000000000001100110000000000000001100011000000000000000000000000000000000000000111100111100010000010010100000001111001111000100000100101 "
b1111001111000100000100101 &#
b1111001111000100000100101 F#
b11100101100001010111101111110110000 `$
#8
b1110010110000101011110111111011000100000000000011000000000000001100110000000000000001100011000000000000000000000000000000001000111100010010010000110110111110001111000100100100001101101111 "
b10001111000100100100001101101111 &#
b10001111000100100100001101101111 F#
b11100101100001010111101111110110001 `$
#9
b1110010110000101011110111111011001000000000000011000000000000001100110000000000000001100011000000000000000000000000000000000101000010000111111110100111111001010000100001111111101001111110 "
b1010000100001111111101001111110 &#
b1010000100001111111101001111110 F#
b11100101100001010111101111110110010 `$
#10
b1110010110000101011110111111011001100000000000011000000000000001100110000000000000001100011000000000000000000000000000000000010001010110100011111010110011100100010101101000111110101100111 "
b100010101101000111110101100111 &#
b100010101101000111110101100111 F#
b11100101100001010111101111110110011 `$
#11
b1110010110000101011110111111011010000000000000011000000000000001100110000000000000001100011000000000000000000000000000000000100110010001110100001101001101001001100100011101000011010011010 "
b1001100100011101000011010011010 &#
b1001100100011101000011010011010 F#
b11100101100001010111101111110110100 `$
#12
b1110010110000101011110111111011010100000000000011000000000000001100110000000000000001100011000000000000000000000000000000001110110101110000010101001101101111101101011100000101010011011011 "
b11101101011100000101010011011011 &#
b11101101011100000101010011011011 F#
b11100101100001010111101111110110101 `$
#13
b1110010110000101011110111111011011000000000000011000000000000001100110000000000000001100011000000000000000000000000000000001111011110010000110100001101111111110111100100001101000011011111 "
b11110111100100001101000011011111 &#
b11110111100100001101000011011111 F#
b11100101100001010111101111110110110 `$
#14
b1110010110000101011110111111011011100000000000011000000000000001100110000000000000001100011000000000000000000000000000000001101101101001110100110101001110111011011010011101001101010011101 "
b11011011010011101001101010011101 &#
b11011011010011101001101010011101 F#
b11100101100001010111101111110110111 `$
#15
b1110010110000101011110111111011100000000000000011000000000000001100110000000000000001100011000000000000000000000000000000000001111111101100010110110001100000011111111011000101101100011000 "
b11111111011000101101100011000 &#
b11111111011000101101100011000 F#
b11100101100001010111101111110111000 `$
#16
b1110010110000101011110111111011100100000000000011000000000000001100110000000000000001100011000000000000000000000000000000001101000111110111000101111100001011010001111101110001011111000010 "
b11010001111101110001011111000010 &#
b11010001111101110001011111000010 F#
b11100101100001010111101111110111001 `$
#17
b1110010110000101011110111111011101000000000000011000000000000001100110000000000000001100011000000000000000000000000000000001011101000011011000001010110001010111010000110110000010101100010 "
b10111010000110110000010101100010 &#
b10111010000110110000010101100010 F#
b11100101100001010111101111110111010 `$
#18
b1110010110000101011110111111011101100000000000011000000000000001100110000000000000001100011000000000000000000000000000000000010100101010011110011010001100000101001010100111100110100011000 "
b101001010100111100110100011000 &#
b101001010100111100110100011000 F#
b11100101100001010111101111110111011 `$
#19
b1110010110000101011110111111011110000000000000011000000000000001100110000000000000001100011000000000000000000000000000000001100100111000011001001011010001011001001110000110010010110100010 "
b11001001110000110010010110100010 &#
b11001001110000110010010110100010 F#
b11100101100001010111101111110111100 `$
#20
b1110010110000101011110111111011110100000000000011000000000000001100110000000000000001100011000000000000000000000000000000001101011110000010010111110111010011010111100000100101111101110100 "
b11010111100000100101111101110100 &#
b11010111100000100101111101110100 F#
b11100101100001010111101111110111101 `$
#21
b1110010110000101011110111111011111000000000000011000000000000001100110000000000000001100011000000000000000000000000000000001011100101000110111101011011001010111001010001101111010110110010 "
b10111001010001101111010110110010 &#
b10111001010001101111010110110010 F#
b11100101100001010111101111110111110 `$
#22
b1110010110000101011110111111011111100000000000011000000000000001100110000000000000001100011000000000000000000000000000000001111100011001000111010100111110111111000110010001110101001111101 "
b11111000110010001110101001111101 &#
b11111000110010001110101001111101 F#
b11100101100001010111101111110111111 `$
#23
b1110010110000101011110111111100000000000000000011000000000000001100110000000000000001100011000000000000000000000000000000001110110000010111000001000110011011101100000101110000010001100110 "
b11101100000101110000010001100110 &#
b11101100000101110000010001100110 F#
b11100101100001010111101111111000000 `$
#24
b1110010110000101011110111111100000100000000000011000000000000001100110000000000000001100011000000000000000000000000000000000010011100110101000011011000101000100111001101010000110110001010 "
b100111001101010000110110001010 &#
b100111001101010000110110001010 F#
b11100101100001010111101111111000001 `$
#25
b1110010110000101011110111111100001000000000000011000000000000001100110000000000000001100011000000000000000000000000000000001100111000010110001010011110001011001110000101100010100111100010 "
b11001110000101100010100111100010 &#
b11001110000101100010100111100010 F#
b11100101100001010111101111111000010 `$
#26
b1110010110000101011110111111100001100000000000011000000000000001100110000000000000001100011000000000000000000000000000000001001010000010101100010011001000010010100000101011000100110010000 "
b10010100000101011000100110010000 &#
b10010100000101011000100110010000 F#
b11100101100001010111101111111000011 `$
#27
b1110010110000101011110111111100010000000000000011000000000000001100110000000000000001100011000000000000000000000000000000000101110010110100011000111010111001011100101101000110001110101110 "
b1011100101101000110001110101110 &#
b1011100101101000110001110101110 F#
b11100101100001010111101111111000100 `$
#28
b1110010110000101011110111111100010100000000000011000000000000001100110000000000000001100011000000000000000000000000000000001111010001101110100010000001001011110100011011101000100000010010 "
b11110100011011101000100000010010 &#
b11110100011011101000100000010010 F#
b11100101100001010111101111111000101 `$
#29
b1110010110000101011110111111100011000000000000011000000000000001100110000000000000001100011000000000000000000000000000000000111101010001110010100110111011101111010100011100101001101110111 "
b1111010100011100101001101110111 &#
b1111010100011100101001101110111 F#
b11100101100001010111101111111000110 `$
#30
b1110010110000101011110111111100011100000000000011000000000000001100110000000000000001100011000000000000000000000000000000000111010100010000001100110111001101110101000100000011001101110011 "
b1110101000100000011001101110011 &#
b1110101000100000011001101110011 F#
b11100101100001010111101111111000111 `$
#31
b1110010110000101011110111111100100000000000000011000000000000001100110000000000000001100011000000000000000000000000000000000101001000100110111001010111000101010010001001101110010101110001 "
b1010010001001101110010101110001 &#
b1010010001001101110010101110001 F#
b11100101100001010111101111111001000 `$
#32
b1110010110000101011110111111100100100000000000011000000000000001100110000000000000001100011000000000000000000000000000000001101001111001110111000110001000011010011110011101110001100010000 "
b11010011110011101110001100010000 &#
b11010011110011101110001100010000 F#
b11100101100001010111101111111001001 `$
#33
b1110010110000101011110111111100101000000000000011000000000000001100110000000000000001100011000000000000000000000000000000001111101100100100011000000100011011111011001001000110000001000110 "
b11111011001001000110000001000110 &#
b11111011001001000110000001000110 F#
b11100101100001010111101111111001010 `$
#34
b1110010110000101011110111111100101100000000000011000000000000001100110000000000000001100011000000000000000000000000000000000000110111011111100010011101100000001101110111111000100111011000 "
b1101110111111000100111011000 &#
b1101110111111000100111011000 F#
b11100101100001010111101111111001011 `$
#35
b1110010110000101011110111111100110000000000000011000000000000001100110000000000000001100011000000000000000000000000000000000001100111001101110000111000111000011001110011011100001110001110 "
b11001110011011100001110001110 &#
b11001110011011100001110001110 F#
b11100101100001010111101111111001100 `$
#36
b1110010110000101011110111111100110100000000000011000000000000001100110000000000000001100011000000000000000000000000000000001111001010000101110000100000000011110010100001011100001000000000 "
b11110010100001011100001000000000 &#
b11110010100001011100001000000000 F#
b11100101100001010111101111111001101 `$
#37
b1110010110000101011110111111100111000000000000011000000000000001100110000000000000001100011000000000000000000000000000000001111100110010101010000101101111111111001100101010100001011011111 "
b11111001100101010100001011011111 &#
b11111001100101010100001011011111 F#
b11100101100001010111101111111001110 `$
#38
b1110010110000101011110111111100111100000000000011000000000000001100110000000000000001100011000000000000000000000000000000001101110010101100000010101011110111011100101011000000101010111101 "
b11011100101011000000101010111101 &#
b11011100101011000000101010111101 F#
b11100101100001010111101111111001111 `$
#39
b1110010110000101011110111111101000000000000000011000000000000001100110000000000000001100011000000000000000000000000000000000011110001100011001110100000101000111100011000110011101000001010 "
b111100011000110011101000001010 &#
b111100011000110011101000001010 F#
b11100101100001010111101111111010000 `$
#40
b1110010110000101011110111111101000100000000000011000000000000001100110000000000000001100011000000000000000000000000000000000100001000001000010100010101101001000010000010000101000101011010 "
b1000010000010000101000101011010 &#
b1000010000010000101000101011010 F#
b11100101100001010111101111111010001 `$
#41
b1110010110000101011110111111101001000000000000011000000000000001100110000000000000001100011000000000000000000000000000000000010101011011011010100100100011100101010110110110101001001000111 "
b101010110110110101001001000111 &#
b101010110110110101001001000111 F#
b11100101100001010111101111111010010 `$
#42
b1110010110000101011110111111101001100000000000011000000000000001100110000000000000001100011000000000000000000000000000000000110100000111111111000111111100001101000001111111110001111111000 "
b1101000001111111110001111111000 &#
b1101000001111111110001111111000 F#
b11100101100001010111101111111010011 `$
#43
b1110010110000101011110111111101010000000000000011000000000000001100110000000000000001100011000000000000000000000000000000000000110101100011111100000011110000001101011000111111000000111100 "
b1101011000111111000000111100 &#
b1101011000111111000000111100 F#
b11100101100001010111101111111010100 `$
#44
b1110010110000101011110111111101010100000000000011000000000000001100110000000000000001100011000000000000000000000000000000001101100110011000001110001110001011011001100110000011100011100010 "
b11011001100110000011100011100010 &#
b11011001100110000011100011100010 F#
b11100101100001010111101111111010101 `$
#45
b1110010110000101011110111111101011000000000000011000000000000001100110000000000000001100011000000000000000000000000000000001001111010101010011000000000000010011110101010100110000000000000 "
b10011110101010100110000000000000 &#
b10011110101010100110000000000000 F#
b11100101100001010111101111111010110 `$
#46
b1110010110000101011110111111101011100000000000011000000000000001100110000000000000001100011000000000000000000000000000000001100100101000000011010011111111111001001010000000110100111111111 "
b11001001010000000110100111111111 &#
b11001001010000000110100111111111 F#
b11100101100001010111101111111010111 `$
#47
b1110010110000101011110111111101100000000000000011000000000000001100110000000000000001100011000000000000000000000000000000001110011111001011110011011001111111100111110010111100110110011111 "
b11100111110010111100110110011111 &#
b11100111110010111100110110011111 F#
b11100101100001010111101111111011000 `$
#48
b1110010110000101011110111111101100100000000000011000000000000001100110000000000000001100011000000000000000000000000000000001001001001100110101001011110100110010010011001101010010111101001 "
b10010010011001101010010111101001 &#
b10010010011001101010010111101001 F#
b11100101100001010111101111111011001 `$
#49
b1110010110000101011110111111101101000000000000011000000000000001100110000000000000001100011000000000000000000000000000000000110111111101010110001110101010101101111111010101100011101010101 "
b1101111111010101100011101010101 &#
b1101111111010101100011101010101 F#
b11100101100001010111101111111011010 `$
#50
b1110010110000101011110111111101101100000000000011000000000000001100110000000000000001100011000000000000000000000000000000001100111011110100001100000010000011001110111101000011000000100000 "
b11001110111101000011000000100000 &#
b11001110111101000011000000100000 F#
b11100101100001010111101111111011011 `$
#51
b1110010110000101011110111111101110000000000000011000000000000001100110000000000000001100011000000000000000000000000000000001100010001101010101001001110110111000100011010101010010011101101 "
b11000100011010101010010011101101 &#
b11000100011010101010010011101101 F#
b11100101100001010111101111111011100 `$
#52
b1110010110000101011110111111101110100000000000011000000000000001100110000000000000001100011000000000000000000000000000000000110000110001100000001111100011101100001100011000000011111000111 "
b1100001100011000000011111000111 &#
b1100001100011000000011111000111 F#
b11100101100001010111101111111011101 `$
#53
b1110010110000101011110111111101111000000000000011000000000000001100110000000000000001100011000000000000000000000000000000001100100100100001001111000110000011001001001000010011110001100000 "
b11001001001000010011110001100000 &#
b11001001001000010011110001100000 F#
b11100101100001010111101111111011110 `$
#54
b1110010110000101011110111111101111100000000000011000000000000001100110000000000000001100011000000000000000000000000000000001000011111111101011100100000100110000111111111010111001000001001 "
b10000111111111010111001000001001 &#
b10000111111111010111001000001001 F#
b11100101100001010111101111111011111 `$
#55
b1110010110000101011110111111110000000000000000011000000000000001100110000000000000001100011000000000000000000000000000000001000010001111110100100011101101110000100011111101001000111011011 "
b10000100011111101001000111011011 &#
b10000100011111101001000111011011 F#
b11100101100001010111101111111100000 `$
#56
b1110010110000101011110111111110000100000000000011000000000000001100110000000000000001100011000000000000000000000000000000001100010110000111010111100000111111000101100001110101111000001111 "
b11000101100001110101111000001111 &#
b11000101100001110101111000001111 F#
b11100101100001010111101111111100001 `$
#57
b1110010110000101011110111111110001000000000000011000000000000001100110000000000000001100011000000000000000000000000000000000001000101100100001001010001100000010001011001000010010100011000 "
b10001011001000010010100011000 &#
b10001011001000010010100011000 F#
b11100101100001010111101111111100010 `$
#58
b1110010110000101011110111111110001100000000000011000000000000001100110000000000000001100011000000000000000000000000000000001101011001011011101011110010001011010110010110111010111100100010 "
b11010110010110111010111100100010 &#
b11010110010110111010111100100010 F#
b11100101100001010111101111111100011 `$
#59
b1110010110000101011110111111110010000000000000011000000000000001100110000000000000001100011000000000000000000000000000000000101100110110111100100101001110001011001101101111001001010011100 "
b1011001101101111001001010011100 &#
b1011001101101111001001010011100 F#
b11100101100001010111101111111100100 `$
#60
b1110010110000101011110111111110010100000000000011000000000000001100110000000000000001100011000000000000000000000000000000000101011010111111010011111001100001010110101111110100111110011000 "
b1010110101111110100111110011000 &#
b1010110101111110100111110011000 F#
b11100101100001010111101111111100101 `$
#61
b1110010110000101011110111111110011000000000000011000000000000001100110000000000000001100011000000000000000000000000000000000111000111001011101011001100101001110001110010111010110011001010 "
b1110001110010111010110011001010 &#
b1110001110010111010110011001010 F#
b11100101100001010111101111111100110 `$
#62
b1110010110000101011110111111110011100000000000011000000000000001100110000000000000001100011000000000000000000000000000000001010000000000110100100110101011010100000000001101001001101010110 "
b10100000000001101001001101010110 &#
b10100000000001101001001101010110 F#
b11100101100001010111101111111100111 `$
#63
b1110010110000101011110111111110100000000000000011000000000000001100110000000000000001100011000000000000000000000000000000000011010111111100110111110110000100110101111111001101111101100001 "
b110101111111001101111101100001 &#
b110101111111001101111101100001 F#
b11100101100001010111101111111101000 `$
#64
b1110010110000101011110111111110100100000000000011000000000000001100110000000000000001100011000000000000000000000000000000001111011001011110010111011011100111110110010111100101110110111001 "
b11110110010111100101110110111001 &#
b11110110010111100101110110111001 F#
b11100101100001010111101111111101001 `$
#65
b1110010110000101011110111111110101000000000000011000000000000001100110000000000000001100011000000000000000000000000000000000000101110110101001101001111100000001011101101010011010011111000 "
b1011101101010011010011111000 &#
b1011101101010011010011111000 F#
b11100101100001010111101111111101010 `$
#66
b1110010110000101011110111111110101100000000000011000000000000001100110000000000000001100011000000000000000000000000000000000011101010011110001101101100110000111010100111100011011011001100 "
b111010100111100011011011001100 &#
b111010100111100011011011001100 F#
b11100101100001010111101111111101011 `$
#67
b1110010110000101011110111111110110000000000000011000000000000001100110000000000000001100011000000000000000000000000000000000011000100011001000001111111010100110001000110010000011111110101 "
b110001000110010000011111110101 &#
b110001000110010000011111110101 F#
b11100101100001010111101111111101100 `$
#68
b1110010110000101011110111111110110100000000000011000000000000001100110000000000000001100011000000000000000000000000000000000100010001100010111011000111101001000100011000101110110001111010 "
b1000100011000101110110001111010 &#
b1000100011000101110110001111010 F#
b11100101100001010111101111111101101 `$
#69
b1110010110000101011110111111110111000000000000011000000000000001100110000000000000001100011000000000000000000000000000000000000100110001000101001110000010100001001100010001010011100000101 "
b1001100010001010011100000101 &#
b1001100010001010011100000101 F#
b11100101100001010111101111111101110 `$
#70
b1110010110000101011110111111110111100000000000011000000000000001100110000000000000001100011000000000000000000000000000000001010101110100011001001100000110110101011101000110010011000001101 "
b10101011101000110010011000001101 &#
b10101011101000110010011000001101 F#
b11100101100001010111101111111101111 `$
#71
b1110010110000101011110111111111000000000000000011000000000000001100110000000000000001100011000000000000000000000000000000001011000010010100010111101001100110110000100101000101111010011001 "
b10110000100101000101111010011001 &#
b10110000100101000101111010011001 F#
b11100101100001010111101111111110000 `$
#72
b1110010110000101011110111111111000100000000000011000000000000001100110000000000000001100011000000000000000000000000000000000000110010111100100101010101101000001100101111001001010101011010 "
b1100101111001001010101011010 &#
b1100101111001001010101011010 F#
b11100101100001010111101111111110001 `$
#73
b1110010110000101011110111111111001000000000000011000000000000001100110000000000000001100011000000000000000000000000000000000000100101101010011111000000011100001001011010100111110000000111 "
b1001011010100111110000000111 &#
b1001011010100111110000000111 F#
b11100101100001010111101111111110010 `$
#74
b1110010110000101011110111111111001100000000000011000000000000001100110000000000000001100011000000000000000000000000000000000011101111011100011001100011110000111011110111000110011000111100 "
b111011110111000110011000111100 &#
b111011110111000110011000111100 F#
b11100101100001010111101111111110011 `$
#75
b1110010110000101011110111111111010000000000000011000000000000001100110000000000000001100011000000000000000000000000000000001100000110101100000010101000001011000001101011000000101010000010 "
b11000001101011000000101010000010 &#
b11000001101011000000101010000010 F#
b11100101100001010111101111111110100 `$
#76
b1110010110000101011110111111111010100000000000011000000000000001100110000000000000001100011000000000000000000000000000000001111001100110011001110100001011011110011001100110011101000010110 "
b11110011001100110011101000010110 &#
b11110011001100110011101000010110 F#
b11100101100001010111101111111110101 `$
#77
b1110010110000101011110111111111011000000000000011000000000000001100110000000000000001100011000000000000000000000000000000000101100101010101010100010101010101011001010101010101000101010101 "
b1011001010101010101000101010101 &#
b1011001010101010101000101010101 F#
b11100101100001010111101111111110110 `$
#78
b1110010110000101011110111111111011100000000000011000000000000001100110000000000000001100011000000000000000000000000000000001101011011000000000000100100000011010110110000000000001001000000 "
b11010110110000000000001001000000 &#
b11010110110000000000001001000000 F#
b11100101100001010111101111111110111 `$
#79
b1110010110000101011110111111111100000000000000011000000000000001100110000000000000001100011000000000000000000000000000000001010100111110011111111101111101110101001111100111111111011111011 "
b10101001111100111111111011111011 &#
b10101001111100111111111011111011 F#
b11100101100001010111101111111111000 `$
#80
b1110010110000101011110111111111100100000000000011000000000000001100110000000000000001100011000000000000000000000000000000001111000110011001001111110110110111110001100110010011111101101101 "
b11110001100110010011111101101101 &#
b11110001100110010011111101101101 F#
b11100101100001010111101111111111001 `$
#81
b1110010110000101011110111111111101000000000000011000000000000001100110000000000000001100011000000000000000000000000000000001111100000101010111100111011111111111000001010101111001110111111 "
b11111000001010101111001110111111 &#
b11111000001010101111001110111111 F#
b11100101100001010111101111111111010 `$
#82
b1110010110000101011110111111111101100000000000011000000000000001100110000000000000001100011000000000000000000000000000000001011110001101000001010010001101110111100011010000010100100011011 "
b10111100011010000010100100011011 &#
b10111100011010000010100100011011 F#
b11100101100001010111101111111111011 `$
#83
b1110010110000101011110111111111110000000000000011000000000000001100110000000000000001100011000000000000000000000000000000000001101000001101011010011110001100011010000011010110100111100011 "
b11010000011010110100111100011 &#
b11010000011010110100111100011 F#
b11100101100001010111101111111111100 `$
#84
b1110010110000101011110111111111110100000000000011000000000000001100110000000000000001100011000000000000000000000000000000001111001101011001100111011001000011110011010110011001110110010000 "
b11110011010110011001110110010000 &#
b11110011010110011001110110010000 F#
b11100101100001010111101111111111101 `$
#85
b1110010110000101011110111111111111000000000000011000000000000001100110000000000000001100011000000000000000000000000000000000110100101100110101010001110111001101001011001101010100011101110 "
b1101001011001101010100011101110 &#
b1101001011001101010100011101110 F#
b11100101100001010111101111111111110 `$
#86
b1110010110000101011110111111111111100000000000011000000000000001100110000000000000001100011000000000000000000000000000000001010110111011010110000010000011010101101110110101100000100000110 "
b10101101110110101100000100000110 &#
b10101101110110101100000100000110 F#
b11100101100001010111101111111111111 `$
#87
b1110010110000101011111000000000000000000000000011000000000000001100110000000000000001100011000000000000000000000000000000000110001111001111001100110110110001100011110011110011001101101100 "
b1100011110011110011001101101100 &#
b1100011110011110011001101101100 F#
b11100101100001010111110000000000000 `$
#88
b1110010110000101011111000000000000100000000000011000000000000001100110000000000000001100011000000000000000000000000000000001011100000100100100101010111111110111000001001001001010101111111 "
b10111000001001001001010101111111 &#
b10111000001001001001010101111111 F#
b11100101100001010111110000000000001 `$
#89
b1110010110000101011111000000000001000000000000011000000000000001100110000000000000001100011000000000000000000000000000000000101100001101111111111000001011101011000011011111111110000010111 "
b1011000011011111111110000010111 &#
b1011000011011111111110000010111 F#
b11100101100001010111110000000000010 `$
#90
b1110010110000101011111000000000001100000000000011000000000000001100110000000000000001100011000000000000000000000000000000000000011001001110111111100011010100000110010011101111111000110101 "
b110010011101111111000110101 &#
b110010011101111111000110101 F#
b11100101100001010111110000000000011 `$
#91
b1110010110000101011111000000000010000000000000011000000000000001100110000000000000001100011000000000000000000000000000000001001110010111100011011110000011010011100101111000110111100000110 "
b10011100101111000110111100000110 &#
b10011100101111000110111100000110 F#
b11100101100001010111110000000000100 `$
#92
b1110010110000101011111000000000010100000000000011000000000000001100110000000000000001100011000000000000000000000000000000000111100001101010000011101000110001111000011010100000111010001100 "
b1111000011010100000111010001100 &#
b1111000011010100000111010001100 F#
b11100101100001010111110000000000101 `$
#93
b1110010110000101011111000000000011000000000000011000000000000001100110000000000000001100011000000000000000000000000000000000101010001001100010110000101000101010100010011000101100001010001 "
b1010100010011000101100001010001 &#
b1010100010011000101100001010001 F#
b11100101100001010111110000000000110 `$
#94
b1110010110000101011111000000000011100000000000011000000000000001100110000000000000001100011000000000000000000000000000000001111000010011101000101100101001011110000100111010001011001010010 "
b11110000100111010001011001010010 &#
b11110000100111010001011001010010 F#
b11100101100001010111110000000000111 `$
#95
b1110010110000101011111000000000100000000000000011000000000000001100110000000000000001100011000000000000000000000000000000000011100010111000101001011011001100111000101110001010010110110011 "
b111000101110001010010110110011 &#
b111000101110001010010110110011 F#
b11100101100001010111110000000001000 `$
#96
b1110010110000101011111000000000100100000000000011000000000000001100110000000000000001100011000000000000000000000000000000001011000000101000001001110111110110110000001010000010011101111101 "
b10110000001010000010011101111101 &#
b10110000001010000010011101111101 F#
b11100101100001010111110000000001001 `$
#97
b1110010110000101011111000000000101000000000000011000000000000001100110000000000000001100011000000000000000000000000000000001100110011101001011011100011011011001100111010010110111000110110 "
b11001100111010010110111000110110 &#
b11001100111010010110111000110110 F#
b11100101100001010111110000000001010 `$
#98
b1110010110000101011111000000000101100000000000011000000000000001100110000000000000001100011000000000000000000000000000000000110010101000101110111100000011101100101010001011101111000000111 "
b1100101010001011101111000000111 &#
b1100101010001011101111000000111 F#
b11100101100001010111110000000001011 `$
#99
b1110010110000101011111000000000110000000000000011000000000000001100110000000000000001100011000000000000000000000000000000000000101100001001010011010001110000001011000010010100110100011100 "
b1011000010010100110100011100 &#
b1011000010010100110100011100 F#
b11100101100001010111110000000001100 `$
#100
b1110010110000101011111000000000110100000000000011000000000000001100110000000000000001100011000000000000000000000000000000001111101011001011110011011010000011111010110010111100110110100000 "
b11111010110010111100110110100000 &#
b11111010110010111100110110100000 F#
b11100101100001010111110000000001101 `$
#101
b1110010110000101011111000000000111000000000000011000000000000001100110000000000000001100011000000000000000000000000000000000101110100110110101001011111010101011101001101101010010111110101 "
b1011101001101101010010111110101 &#
b1011101001101101010010111110101 F#
b11100101100001010111110000000001110 `$
#102
b1110010110000101011111000000000111100000000000011000000000000001100110000000000000001100011000000000000000000000000000000000111010010110111110001110101101001110100101101111100011101011010 "
b1110100101101111100011101011010 &#
b1110100101101111100011101011010 F#
b11100101100001010111110000000001111 `$
#103
b1110010110000101011111000000001000000000000000011000000000000001100110000000000000001100011000000000000000000000000000000000011001011101111011000000010011100110010111011110110000000100111 "
b110010111011110110000000100111 &#
b110010111011110110000000100111 F#
b11100101100001010111110000000010000 `$
#104
b1110010110000101011111000000001000100000000000011000000000000001100110000000000000001100011000000000000000000000000000000000000010110100110101110011110111000000101101001101011100111101110 "
b101101001101011100111101110 &#
b101101001101011100111101110 F#
b11100101100001010111110000000010001 `$
#105
b1110010110000101011111000000001001000000000000011000000000000001100110000000000000001100011000000000000000000000000000000001001110101110110110010001001011010011101011101101100100010010110 "
b10011101011101101100100010010110 &#
b10011101011101101100100010010110 F#
b11100101100001010111110000000010010 `$
#106
b1110010110000101011111000000001001100000000000011000000000000001100110000000000000001100011000000000000000000000000000000001110100010010011111101110011110111101000100100111111011100111101 "
b11101000100100111111011100111101 &#
b11101000100100111111011100111101 F#
b11100101100001010111110000000010011 `$
#107
b1110010110000101011111000000001010000000000000011000000000000001100110000000000000001100011000000000000000000000000000000001010010100111111001110110001001010100101001111110011101100010010 "
b10100101001111110011101100010010 &#
b10100101001111110011101100010010 F#
b11100101100001010111110000000010100 `$
#108
b1110010110000101011111000000001010100000000000011000000000000001100110000000000000001100011000000000000000000000000000000000101011100110011100100011100011101010111001100111001000111000111 "
b1010111001100111001000111000111 &#
b1010111001100111001000111000111 F#
b11100101100001010111110000000010101 `$
#109
b1110010110000101011111000000001011000000000000011000000000000001100110000000000000001100011000000000000000000000000000000001101000100010101000011100000000011010001000101010000111000000000 "
b11010001000101010000111000000000 &#
b11010001000101010000111000000000 F#
b11100101100001010111110000000010110 `$
#110
b1110010110000101011111000000001011100000000000011000000000000001100110000000000000001100011000000000000000000000000000000001110101001100100001010000001111111101010011001000010100000011111 "
b11101010011001000010100000011111 &#
b11101010011001000010100000011111 F#
b11100101100001010111110000000010111 `$
#111
b1110010110000101011111000000001100000000000000011000000000000001100110000000000000001100011000000000000000000000000000000000001010001101011101010010111000100010100011010111010100101110001 "
b10100011010111010100101110001 &#
b10100011010111010100101110001 F#
b11100101100001010111110000000011000 `$
#112
b1110010110000101011111000000001100100000000000011000000000000001100110000000000000001100011000000000000000000000000000000001111010010001100100100011101000011110100100011001001000111010000 "
b11110100100011001001000111010000 &#
b11110100100011001001000111010000 F#
b11100101100001010111110000000011001 `$
#113
b1110010110000101011111000000001101000000000000011000000000000001100110000000000000001100011000000000000000000000000000000000010101011110001011111100000101000101010111100010111111000001010 "
b101010111100010111111000001010 &#
b101010111100010111111000001010 F#
b11100101100001010111110000000011010 `$
#114
b1110010110000101011111000000001101100000000000011000000000000001100110000000000000001100011000000000000000000000000000000000100100000101000010101110001101001001000001010000101011100011010 "
b1001000001010000101011100011010 &#
b1001000001010000101011100011010 F#
b11100101100001010111110000000011011 `$
#115
b1110010110000101011111000000001110000000000000011000000000000001100110000000000000001100011000000000000000000000000000000000110111101101001010100010000001101101111011010010101000100000011 "
b1101111011010010101000100000011 &#
b1101111011010010101000100000011 F#
b11100101100001010111110000000011100 `$
#116
b1110010110000101011111000000001110100000000000011000000000000001100110000000000000001100011000000000000000000000000000000000010111010111101110000100110111000101110101111011100001001101110 "
b101110101111011100001001101110 &#
b101110101111011100001001101110 F#
b11100101100001010111110000000011101 `$
#117
b1110010110000101011111000000001111000000000000011000000000000001100110000000000000001100011000000000000000000000000000000000000101001001010110000101110111000001010010010101100001011101110 "
b1010010010101100001011101110 &#
b1010010010101100001011101110 F#
b11100101100001010111110000000011110 `$
#118
b1110010110000101011111000000001111100000000000011000000000000001100110000000000000001100011000000000000000000000000000000001001101001111110001100101010011010011010011111100011001010100110 "
b10011010011111100011001010100110 &#
b10011010011111100011001010100110 F#
b11100101100001010111110000000011111 `$
#119
b1110010110000101011111000000010000000000000000011000000000000001100110000000000000001100011000000000000000000000000000000001101101101100111000001011000011011011011011001110000010110000110 "
b11011011011001110000010110000110 &#
b11011011011001110000010110000110 F#
b11100101100001010111110000000100000 `$
#120
b1110010110000101011111000000010000100000000000011000000000000001100110000000000000001100011000000000000000000000000000000001101111111111010000011010110010011011111111110100000110101100100 "
b11011111111110100000110101100100 &#
b11011111111110100000110101100100 F#
b11100101100001010111110000000100001 `$
