OpticalTests/.Xil/Vivado-68326-higgs.physics.ucsb.edu/hw_ila_data_1/zip_work/waveform.vcd
$date
        2022-Jan-19 03:28:44
$end
$version
        Vivado v2019.2 (64-bit)
$end
$timescale
        1ps
$end
$scope module dut $end
$var reg 822 " ila_data [821:0] $end
$var reg 32 h) receiver_0 [31:0] $end
$var reg 32 ** receiver_1 [31:0] $end
$var reg 32 J* receiver_2 [31:0] $end
$var reg 32 j* receiver_3 [31:0] $end
$var reg 32 ,+ transmitter_0 [31:0] $end
$var reg 32 L+ transmitter_1 [31:0] $end
$var reg 32 l+ transmitter_2 [31:0] $end
$var reg 32 ., transmitter_3 [31:0] $end
$var reg 4 N, prbs_match_int [3:0] $end
$var reg 1 R, hb0_gtwiz_userclk_rx_usrclk2_int $end
$var reg 1 S, hb0_gtwiz_userclk_rx_active_int $end
$var reg 1 T, hb_gtwiz_reset_all_int $end
$var reg 1 U, hb0_gtwiz_reset_rx_done_int $end
$var reg 1 V, hb0_gtwiz_userclk_tx_usrclk2_int $end
$var reg 1 W, hb0_gtwiz_userclk_tx_active_int $end
$var reg 4 X, rx8b10ben_int [3:0] $end
$var reg 4 \, rxcommadeten_int [3:0] $end
$var reg 4 `, rxlpmen_int [3:0] $end
$var reg 4 d, rxmcommaalignen_int [3:0] $end
$var reg 4 h, rxpcommaalignen_int [3:0] $end
$var reg 4 l, tx8b10ben_int [3:0] $end
$var reg 4 p, gtpowergood_int [3:0] $end
$var reg 4 t, rxbyteisaligned_int [3:0] $end
$var reg 4 x, rxbyterealign_int [3:0] $end
$var reg 4 |, rxcommadet_int [3:0] $end
$var reg 4 "- rxpmaresetdone_int [3:0] $end
$var reg 4 &- txpmaresetdone_int [3:0] $end
$var reg 16 *- ch0_rxctrl0_int [15:0] $end
$var reg 16 :- ch1_rxctrl0_int [15:0] $end
$var reg 16 J- ch2_rxctrl0_int [15:0] $end
$var reg 16 Z- ch3_rxctrl0_int [15:0] $end
$var reg 16 j- ch0_rxctrl1_int [15:0] $end
$var reg 16 z- ch1_rxctrl1_int [15:0] $end
$var reg 16 ,. ch2_rxctrl1_int [15:0] $end
$var reg 16 <. ch3_rxctrl1_int [15:0] $end
$var reg 8 L. ch0_rxctrl2_int [7:0] $end
$var reg 8 T. ch1_rxctrl2_int [7:0] $end
$var reg 8 \. ch2_rxctrl2_int [7:0] $end
$var reg 8 d. ch3_rxctrl2_int [7:0] $end
$var reg 8 l. ch0_rxctrl3_int [7:0] $end
$var reg 8 t. ch1_rxctrl3_int [7:0] $end
$var reg 8 |. ch2_rxctrl3_int [7:0] $end
$var reg 8 &/ ch3_rxctrl3_int [7:0] $end
$var reg 16 ./ ch0_txctrl0_int [15:0] $end
$var reg 16 >/ ch1_txctrl0_int [15:0] $end
$var reg 16 N/ ch2_txctrl0_int [15:0] $end
$var reg 16 ^/ ch3_txctrl0_int [15:0] $end
$var reg 16 n/ ch0_txctrl1_int [15:0] $end
$var reg 16 ~/ ch1_txctrl1_int [15:0] $end
$var reg 16 00 ch2_txctrl1_int [15:0] $end
$var reg 16 @0 ch3_txctrl1_int [15:0] $end
$var reg 8 P0 ch0_txctrl2_int [7:0] $end
$var reg 8 X0 ch1_txctrl2_int [7:0] $end
$var reg 8 `0 ch2_txctrl2_int [7:0] $end
$var reg 8 h0 ch3_txctrl2_int [7:0] $end
$var reg 40 p0 hb0_rxdata_nml_ctr [39:0] $end
$var reg 16 :1 ch0_rxdata_err_ctr [15:0] $end
$var reg 16 J1 ch1_rxdata_err_ctr [15:0] $end
$var reg 16 Z1 ch2_rxdata_err_ctr [15:0] $end
$var reg 16 j1 ch3_rxdata_err_ctr [15:0] $end
$var reg 4 z1 rxchanisaligned_int [3:0] $end
$var reg 4 ~1 rxchanrealign_int [3:0] $end
$var reg 4 $2 rxchanbondseq_int [3:0] $end
$var reg 20 (2 rxchbondi_int [19:0] $end
$var reg 20 <2 rxchbondo_int [19:0] $end
$var reg 1 P2 _TRIGGER $end
$var reg 1 Q2 _WINDOW $end
$var reg 1 R2 _GAP $end
$upscope $end
$enddefinitions $end
#0
$dumpvars
b111100110101101111110011010111011010001101011011111100110101110100110001010000101111010001111001010100101000000000000000000000000000000000000000000000000000000000000000000000000000000000000000000000000000000000000000000000000000000000000000000000000000000000000000000011110000111100001111000011110000000000000000000000000000000000000000000000000000000000000000000000000000000000000000000000000000000000000000000000000000000000000000000000000000000000000000000011111111000000001111111111111111111111111111111110101111110101001100111011101001011000110101010011001110111010010110001101010100110011101110100101100011010101001100111011101001011000110100110100010011110001010000110000001101000100111100010100001100000011010001001111000101000011000000110100010011110001010000110000 "
b110100010011110001010000110000 h)
b110100010011110001010000110000 **
b110100010011110001010000110000 J*
b110100010011110001010000110000 j*
b1010011001110111010010110001101 ,+
b1010011001110111010010110001101 L+
b1010011001110111010010110001101 l+
b1010011001110111010010110001101 .,
b1111 N,
1R,
1S,
0T,
1U,
0V,
1W,
b1111 X,
b1111 \,
b1111 `,
b1111 d,
b1111 h,
b1111 l,
b1111 p,
b1111 t,
b0 x,
b0 |,
b1111 "-
b1111 &-
b0 *-
b0 :-
b0 J-
b0 Z-
b0 j-
b0 z-
b0 ,.
b0 <.
b0 L.
b0 T.
b0 \.
b0 d.
b11110000 l.
b11110000 t.
b11110000 |.
b11110000 &/
b0 ./
b0 >/
b0 N/
b0 ^/
b0 n/
b0 ~/
b0 00
b0 @0
b0 P0
b0 X0
b0 `0
b0 h0
b1010000101111010001111001010100101000 p0
b11010111010011 :1
b11010110111111 J1
b11010111011010 Z1
b11010110111111 j1
b1111 z1
b0 ~1
b0 $2
b0 (2
b0 <2
0P2
1Q2
0R2
$end
#1
b111100110101101111110011010111011010001101011011111100110101110100110001010000101111010001111001010100101001000000000000000000000000000000000000000000000000000000000000000000000000000000000000000000000000000000000000000000000000000000000000000000000000000000000000000011110000111100001111000011110000000000000000000000000000000000000000000000000000000000000000000000000000000000000000000000000000000000000000000000000000000000000000000000000000000000000000000011111111000000001111111111111111111111111111111110101111110010100001100000100000011111110100101000011000001000000111111101001010000110000010000001111111010010100001100000100000011111110100100100011100001011111001010111001001000111000010111110010101110010010001110000101111100101011100100100011100001011111001010111 "
b100100011100001011111001010111 h)
b100100011100001011111001010111 **
b100100011100001011111001010111 J*
b100100011100001011111001010111 j*
b101000011000001000000111111101 ,+
b101000011000001000000111111101 L+
b101000011000001000000111111101 l+
b101000011000001000000111111101 .,
b1010000101111010001111001010100101001 p0
#2
b111100110101101111110011010111011010001101011011111100110101110100110001010000101111010001111001010100101010000000000000000000000000000000000000000000000000000000000000000000000000000000000000000000000000000000000000000000000000000000000000000000000000000000000000000011110000111100001111000011110000000000000000000000000000000000000000000000000000000000000000000000000000000000000000000000000000000000000000000000000000000000000000000000000000000000000000000011111111000000001111111111111111111111111111111110101111110111110010101110011010001001111001111100101011100110100010011110011111001010111001101000100111100111110010101110011010001001111011101001011000110111101101011011111010010110001101111011010110111110100101100011011110110101101111101001011000110111101101011011 "
b11101001011000110111101101011011 h)
b11101001011000110111101101011011 **
b11101001011000110111101101011011 J*
b11101001011000110111101101011011 j*
b1111100101011100110100010011110 ,+
b1111100101011100110100010011110 L+
b1111100101011100110100010011110 l+
b1111100101011100110100010011110 .,
b1010000101111010001111001010100101010 p0
#3
b111100110101101111110011010111011010001101011011111100110101110100110001010000101111010001111001010100101011000000000000000000000000000000000000000000000000000000000000000000000000000000000000000000000000000000000000000000000000000000000000000000000000000000000000000011110000111100001111000011110000000000000000000000000000000000000000000000000000000000000000000000000000000000000000000000000000000000000000000000000000000000000000000000000000000000000000000011111111000000001111111111111111111111111111111110101111111111011010110110010010001110000111110110101101100100100011100001111101101011011001001000111000011111011010110110010010001110000100100000011111110101010011001110001000000111111101010100110011100010000001111111010101001100111000100000011111110101010011001110 "
b100000011111110101010011001110 h)
b100000011111110101010011001110 **
b100000011111110101010011001110 J*
b100000011111110101010011001110 j*
b11110110101101100100100011100001 ,+
b11110110101101100100100011100001 L+
b11110110101101100100100011100001 l+
b11110110101101100100100011100001 .,
b1010000101111010001111001010100101011 p0
#4
b111100110101101111110011010111011010001101011011111100110101110100110001010000101111010001111001010100101100000000000000000000000000000000000000000000000000000000000000000000000000000000000000000000000000000000000000000000000000000000000000000000000000000000000000000011110000111100001111000011110000000000000000000000000000000000000000000000000000000000000000000000000000000000000000000000000000000000000000000000000000000000000000000000000000000000000000000011111111000000001111111111111111111111111111111110101111111010100110011101110100101100011010101001100111011101001011000110101010011001110111010010110001101010100110011101110100101100011010011010001001111000101000011000100110100010011110001010000110001001101000100111100010100001100010011010001001111000101000011000 "
b10011010001001111000101000011000 h)
b10011010001001111000101000011000 **
b10011010001001111000101000011000 J*
b10011010001001111000101000011000 j*
b10101001100111011101001011000110 ,+
b10101001100111011101001011000110 L+
b10101001100111011101001011000110 l+
b10101001100111011101001011000110 .,
b1010000101111010001111001010100101100 p0
#5
b111100110101101111110011010111011010001101011011111100110101110100110001010000101111010001111001010100101101000000000000000000000000000000000000000000000000000000000000000000000000000000000000000000000000000000000000000000000000000000000000000000000000000000000000000011110000111100001111000011110000000000000000000000000000000000000000000000000000000000000000000000000000000000000000000000000000000000000000000000000000000000000000000000000000000000000000000011111111000000001111111111111111111111111111111110101111110001010000110000010000001111111000010100001100000100000011111110000101000011000001000000111111100001010000110000010000001111111010010010001110000101111100101011100100100011100001011111001010111001001000111000010111110010101110010010001110000101111100101011 "
b10010010001110000101111100101011 h)
b10010010001110000101111100101011 **
b10010010001110000101111100101011 J*
b10010010001110000101111100101011 j*
b10100001100000100000011111110 ,+
b10100001100000100000011111110 L+
b10100001100000100000011111110 l+
b10100001100000100000011111110 .,
b1010000101111010001111001010100101101 p0
#6
b111100110101101111110011010111011010001101011011111100110101110100110001010000101111010001111001010100101110000000000000000000000000000000000000000000000000000000000000000000000000000000000000000000000000000000000000000000000000000000000000000000000000000000000000000011110000111100001111000011110000000000000000000000000000000000000000000000000000000000000000000000000000000000000000000000000000000000000000000000000000000000000000000000000000000000000000000011111111000000001111111111111111111111111111111110101111111011111001010111001101000100111110111110010101110011010001001111101111100101011100110100010011111011111001010111001101000100111101110100101100011011110110101101011101001011000110111101101011010111010010110001101111011010110101110100101100011011110110101101 "
b1110100101100011011110110101101 h)
b1110100101100011011110110101101 **
b1110100101100011011110110101101 J*
b1110100101100011011110110101101 j*
b10111110010101110011010001001111 ,+
b10111110010101110011010001001111 L+
b10111110010101110011010001001111 l+
b10111110010101110011010001001111 .,
b1010000101111010001111001010100101110 p0
#7
b111100110101101111110011010111011010001101011011111100110101110100110001010000101111010001111001010100101111000000000000000000000000000000000000000000000000000000000000000000000000000000000000000000000000000000000000000000000000000000000000000000000000000000000000000011110000111100001111000011110000000000000000000000000000000000000000000000000000000000000000000000000000000000000000000000000000000000000000000000000000000000000000000000000000000000000000000011111111000000001111111111111111111111111111111110101111110111101101011011001001000111000001111011010110110010010001110000011110110101101100100100011100000111101101011011001001000111000000010000001111111010101001100111000100000011111110101010011001110001000000111111101010100110011100010000001111111010101001100111 "
b10000001111111010101001100111 h)
b10000001111111010101001100111 **
b10000001111111010101001100111 J*
b10000001111111010101001100111 j*
b1111011010110110010010001110000 ,+
b1111011010110110010010001110000 L+
b1111011010110110010010001110000 l+
b1111011010110110010010001110000 .,
b1010000101111010001111001010100101111 p0
#8
b111100110101101111110011010111011010001101011011111100110101110100110001010000101111010001111001010100110000000000000000000000000000000000000000000000000000000000000000000000000000000000000000000000000000000000000000000000000000000000000000000000000000000000000000000011110000111100001111000011110000000000000000000000000000000000000000000000000000000000000000000000000000000000000000000000000000000000000000000000000000000000000000000000000000000000000000000011111111000000001111111111111111111111111111111110101111110101010011001110111010010110001101010100110011101110100101100011010101001100111011101001011000110101010011001110111010010110001111001101000100111100010100001100110011010001001111000101000011001100110100010011110001010000110011001101000100111100010100001100 "
b11001101000100111100010100001100 h)
b11001101000100111100010100001100 **
b11001101000100111100010100001100 J*
b11001101000100111100010100001100 j*
b1010100110011101110100101100011 ,+
b1010100110011101110100101100011 L+
b1010100110011101110100101100011 l+
b1010100110011101110100101100011 .,
b1010000101111010001111001010100110000 p0
#9
b111100110101101111110011010111011010001101011011111100110101110100110001010000101111010001111001010100110001000000000000000000000000000000000000000000000000000000000000000000000000000000000000000000000000000000000000000000000000000000000000000000000000000000000000000011110000111100001111000011110000000000000000000000000000000000000000000000000000000000000000000000000000000000000000000000000000000000000000000000000000000000000000000000000000000000000000000011111111000000001111111111111111111111111111111110101111111000101000011000001000000111111110001010000110000010000001111111100010100001100000100000011111111000101000011000001000000111111111001001000111000010111110010101110010010001110000101111100101011100100100011100001011111001010111001001000111000010111110010101 "
b11001001000111000010111110010101 h)
b11001001000111000010111110010101 **
b11001001000111000010111110010101 J*
b11001001000111000010111110010101 j*
b10001010000110000010000001111111 ,+
b10001010000110000010000001111111 L+
b10001010000110000010000001111111 l+
b10001010000110000010000001111111 .,
b1010000101111010001111001010100110001 p0
#10
b111100110101101111110011010111011010001101011011111100110101110100110001010000101111010001111001010100110010000000000000000000000000000000000000000000000000000000000000000000000000000000000000000000000000000000000000000000000000000000000000000000000000000000000000000011110000111100001111000011110000000000000000000000000000000000000000000000000000000000000000000000000000000000000000000000000000000000000000000000000000000000000000000000000000000000000000000011111111000000001111111111111111111111111111111110101111110101111100101011100110100010011101011111001010111001101000100111010111110010101110011010001001110101111100101011100110100010011110111010010110001101111011010110101110100101100011011110110101101011101001011000110111101101011010111010010110001101111011010110 "
b10111010010110001101111011010110 h)
b10111010010110001101111011010110 **
b10111010010110001101111011010110 J*
b10111010010110001101111011010110 j*
b1011111001010111001101000100111 ,+
b1011111001010111001101000100111 L+
b1011111001010111001101000100111 l+
b1011111001010111001101000100111 .,
b1010000101111010001111001010100110010 p0
#11
b111100110101101111110011010111011010001101011011111100110101110100110001010000101111010001111001010100110011000000000000000000000000000000000000000000000000000000000000000000000000000000000000000000000000000000000000000000000000000000000000000000000000000000000000000011110000111100001111000011110000000000000000000000000000000000000000000000000000000000000000000000000000000000000000000000000000000000000000000000000000000000000000000000000000000000000000000011111111000000001111111111111111111111111111111110101111111011110110101101100100100011100010111101101011011001001000111000101111011010110110010010001110001011110110101101100100100011100000001000000111111101010100110011000010000001111111010101001100110000100000011111110101010011001100001000000111111101010100110011 "
b1000000111111101010100110011 h)
b1000000111111101010100110011 **
b1000000111111101010100110011 J*
b1000000111111101010100110011 j*
b10111101101011011001001000111000 ,+
b10111101101011011001001000111000 L+
b10111101101011011001001000111000 l+
b10111101101011011001001000111000 .,
b1010000101111010001111001010100110011 p0
#12
b111100110101101111110011010111011010001101011011111100110101110100110001010000101111010001111001010100110100000000000000000000000000000000000000000000000000000000000000000000000000000000000000000000000000000000000000000000000000000000000000000000000000000000000000000011110000111100001111000011110000000000000000000000000000000000000000000000000000000000000000000000000000000000000000000000000000000000000000000000000000000000000000000000000000000000000000000011111111000000001111111111111111111111111111111110101111111010101001100111011101001011000110101010011001110111010010110001101010100110011101110100101100011010101001100111011101001011000111100110100010011110001010000110111001101000100111100010100001101110011010001001111000101000011011100110100010011110001010000110 "
b11100110100010011110001010000110 h)
b11100110100010011110001010000110 **
b11100110100010011110001010000110 J*
b11100110100010011110001010000110 j*
b10101010011001110111010010110001 ,+
b10101010011001110111010010110001 L+
b10101010011001110111010010110001 l+
b10101010011001110111010010110001 .,
b1010000101111010001111001010100110100 p0
#13
b111100110101101111110011010111011010001101011011111100110101110100110001010000101111010001111001010100110101000000000000000000000000000000000000000000000000000000000000000000000000000000000000000000000000000000000000000000000000000000000000000000000000000000000000000011110000111100001111000011110000000000000000000000000000000000000000000000000000000000000000000000000000000000000000000000000000000000000000000000000000000000000000000000000000000000000000000011111111000000001111111111111111111111111111111110101111111100010100001100000100000011111111000101000011000001000000111111110001010000110000010000001111111100010100001100000100000011111101100100100011100001011111001010011001001000111000010111110010100110010010001110000101111100101001100100100011100001011111001010 "
b1100100100011100001011111001010 h)
b1100100100011100001011111001010 **
b1100100100011100001011111001010 J*
b1100100100011100001011111001010 j*
b11000101000011000001000000111111 ,+
b11000101000011000001000000111111 L+
b11000101000011000001000000111111 l+
b11000101000011000001000000111111 .,
b1010000101111010001111001010100110101 p0
#14
b111100110101101111110011010111011010001101011011111100110101110100110001010000101111010001111001010100110110000000000000000000000000000000000000000000000000000000000000000000000000000000000000000000000000000000000000000000000000000000000000000000000000000000000000000011110000111100001111000011110000000000000000000000000000000000000000000000000000000000000000000000000000000000000000000000000000000000000000000000000000000000000000000000000000000000000000000011111111000000001111111111111111111111111111111110101111110010111110010101110011010001001100101111100101011100110100010011001011111001010111001101000100110010111110010101110011010001001111011101001011000110111101101011110111010010110001101111011010111101110100101100011011110110101111011101001011000110111101101011 "
b11011101001011000110111101101011 h)
b11011101001011000110111101101011 **
b11011101001011000110111101101011 J*
b11011101001011000110111101101011 j*
b101111100101011100110100010011 ,+
b101111100101011100110100010011 L+
b101111100101011100110100010011 l+
b101111100101011100110100010011 .,
b1010000101111010001111001010100110110 p0
#15
b111100110101101111110011010111011010001101011011111100110101110100110001010000101111010001111001010100110111000000000000000000000000000000000000000000000000000000000000000000000000000000000000000000000000000000000000000000000000000000000000000000000000000000000000000011110000111100001111000011110000000000000000000000000000000000000000000000000000000000000000000000000000000000000000000000000000000000000000000000000000000000000000000000000000000000000000000011111111000000001111111111111111111111111111111110101111111101111011010110110010010001110011011110110101101100100100011100110111101101011011001001000111001101111011010110110010010001110000000100000011111110101010011001000001000000111111101010100110010000010000001111111010101001100100000100000011111110101010011001 "
b100000011111110101010011001 h)
b100000011111110101010011001 **
b100000011111110101010011001 J*
b100000011111110101010011001 j*
b11011110110101101100100100011100 ,+
b11011110110101101100100100011100 L+
b11011110110101101100100100011100 l+
b11011110110101101100100100011100 .,
b1010000101111010001111001010100110111 p0
#16
b111100110101101111110011010111011010001101011011111100110101110100110001010000101111010001111001010100111000000000000000000000000000000000000000000000000000000000000000000000000000000000000000000000000000000000000000000000000000000000000000000000000000000000000000000011110000111100001111000011110000000000000000000000000000000000000000000000000000000000000000000000000000000000000000000000000000000000000000000000000000000000000000000000000000000000000000000011111111000000001111111111111111111111111111111110101111111101010100110011101110100101100011010101001100111011101001011000110101010011001110111010010110001101010100110011101110100101100001110011010001001111000101000011011100110100010011110001010000110111001101000100111100010100001101110011010001001111000101000011 "
b1110011010001001111000101000011 h)
b1110011010001001111000101000011 **
b1110011010001001111000101000011 J*
b1110011010001001111000101000011 j*
b11010101001100111011101001011000 ,+
b11010101001100111011101001011000 L+
b11010101001100111011101001011000 l+
b11010101001100111011101001011000 .,
b1010000101111010001111001010100111000 p0
#17
b111100110101101111110011010111011010001101011011111100110101110100110001010000101111010001111001010100111001000000000000000000000000000000000000000000000000000000000000000000000000000000000000000000000000000000000000000000000000000000000000000000000000000000000000000011110000111100001111000011110000000000000000000000000000000000000000000000000000000000000000000000000000000000000000000000000000000000000000000000000000000000000000000000000000000000000000000011111111000000001111111111111111111111111111111110101111111110001010000110000010000001111111100010100001100000100000011111111000101000011000001000000111111110001010000110000010000001111110110010010001110000101111100101101100100100011100001011111001011011001001000111000010111110010110110010010001110000101111100101 "
b10110010010001110000101111100101 h)
b10110010010001110000101111100101 **
b10110010010001110000101111100101 J*
b10110010010001110000101111100101 j*
b11100010100001100000100000011111 ,+
b11100010100001100000100000011111 L+
b11100010100001100000100000011111 l+
b11100010100001100000100000011111 .,
b1010000101111010001111001010100111001 p0
#18
b111100110101101111110011010111011010001101011011111100110101110100110001010000101111010001111001010100111010000000000000000000000000000000000000000000000000000000000000000000000000000000000000000000000000000000000000000000000000000000000000000000000000000000000000000011110000111100001111000011110000000000000000000000000000000000000000000000000000000000000000000000000000000000000000000000000000000000000000000000000000000000000000000000000000000000000000000011111111000000001111111111111111111111111111111110101111110001011111001010111001101000100100010111110010101110011010001001000101111100101011100110100010010001011111001010111001101000100111101110100101100011011110110101111011101001011000110111101101011110111010010110001101111011010111101110100101100011011110110101 "
b11101110100101100011011110110101 h)
b11101110100101100011011110110101 **
b11101110100101100011011110110101 J*
b11101110100101100011011110110101 j*
b10111110010101110011010001001 ,+
b10111110010101110011010001001 L+
b10111110010101110011010001001 l+
b10111110010101110011010001001 .,
b1010000101111010001111001010100111010 p0
#19
b111100110101101111110011010111011010001101011011111100110101110100110001010000101111010001111001010100111011000000000000000000000000000000000000000000000000000000000000000000000000000000000000000000000000000000000000000000000000000000000000000000000000000000000000000011110000111100001111000011110000000000000000000000000000000000000000000000000000000000000000000000000000000000000000000000000000000000000000000000000000000000000000000000000000000000000000000011111111000000001111111111111111111111111111111110101111110110111101101011011001001000111001101111011010110110010010001110011011110110101101100100100011100110111101101011011001001000111010000010000001111111010101001100100000100000011111110101010011001000001000000111111101010100110010000010000001111111010101001100 "
b10000010000001111111010101001100 h)
b10000010000001111111010101001100 **
b10000010000001111111010101001100 J*
b10000010000001111111010101001100 j*
b1101111011010110110010010001110 ,+
b1101111011010110110010010001110 L+
b1101111011010110110010010001110 l+
b1101111011010110110010010001110 .,
b1010000101111010001111001010100111011 p0
#20
b111100110101101111110011010111011010001101011011111100110101110100110001010000101111010001111001010100111100000000000000000000000000000000000000000000000000000000000000000000000000000000000000000000000000000000000000000000000000000000000000000000000000000000000000000011110000111100001111000011110000000000000000000000000000000000000000000000000000000000000000000000000000000000000000000000000000000000000000000000000000000000000000000000000000000000000000000011111111000000001111111111111111111111111111111110101111111110101010011001110111010010110011101010100110011101110100101100111010101001100111011101001011001110101010011001110111010010110010111001101000100111100010100001101110011010001001111000101000011011100110100010011110001010000110111001101000100111100010100001 "
b10111001101000100111100010100001 h)
b10111001101000100111100010100001 **
b10111001101000100111100010100001 J*
b10111001101000100111100010100001 j*
b11101010100110011101110100101100 ,+
b11101010100110011101110100101100 L+
b11101010100110011101110100101100 l+
b11101010100110011101110100101100 .,
b1010000101111010001111001010100111100 p0
#21
b111100110101101111110011010111011010001101011011111100110101110100110001010000101111010001111001010100111101000000000000000000000000000000000000000000000000000000000000000000000000000000000000000000000000000000000000000000000000000000000000000000000000000000000000000011110000111100001111000011110000000000000000000000000000000000000000000000000000000000000000000000000000000000000000000000000000000000000000000000000000000000000000000000000000000000000000000011111111000000001111111111111111111111111111111110101111111111000101000011000001000000111111110001010000110000010000001111111100010100001100000100000011111111000101000011000001000000111111011001001000111000010111110010110110010010001110000101111100101101100100100011100001011111001011011001001000111000010111110010 "
b11011001001000111000010111110010 h)
b11011001001000111000010111110010 **
b11011001001000111000010111110010 J*
b11011001001000111000010111110010 j*
b11110001010000110000010000001111 ,+
b11110001010000110000010000001111 L+
b11110001010000110000010000001111 l+
b11110001010000110000010000001111 .,
b1010000101111010001111001010100111101 p0
#22
b111100110101101111110011010111011010001101011011111100110101110100110001010000101111010001111001010100111110000000000000000000000000000000000000000000000000000000000000000000000000000000000000000000000000000000000000000000000000000000000000000000000000000000000000000011110000111100001111000011110000000000000000000000000000000000000000000000000000000000000000000000000000000000000000000000000000000000000000000000000000000000000000000000000000000000000000000011111111000000001111111111111111111111111111111110101111110000101111100101011100110100010000001011111001010111001101000100000010111110010101110011010001000000101111100101011100110100010001110111010010110001101111011010011101110100101100011011110110100111011101001011000110111101101001110111010010110001101111011010 "
b1110111010010110001101111011010 h)
b1110111010010110001101111011010 **
b1110111010010110001101111011010 J*
b1110111010010110001101111011010 j*
b1011111001010111001101000100 ,+
b1011111001010111001101000100 L+
b1011111001010111001101000100 l+
b1011111001010111001101000100 .,
b1010000101111010001111001010100111110 p0
#23
b111100110101101111110011010111011010001101011011111100110101110100110001010000101111010001111001010100111111000000000000000000000000000000000000000000000000000000000000000000000000000000000000000000000000000000000000000000000000000000000000000000000000000000000000000011110000111100001111000011110000000000000000000000000000000000000000000000000000000000000000000000000000000000000000000000000000000000000000000000000000000000000000000000000000000000000000000011111111000000001111111111111111111111111111111110101111110011011110110101101100100100011100110111101101011011001001000111001101111011010110110010010001110011011110110101101100100100011111000001000000111111101010100110110000010000001111111010101001101100000100000011111110101010011011000001000000111111101010100110 "
b11000001000000111111101010100110 h)
b11000001000000111111101010100110 **
b11000001000000111111101010100110 J*
b11000001000000111111101010100110 j*
b110111101101011011001001000111 ,+
b110111101101011011001001000111 L+
b110111101101011011001001000111 l+
b110111101101011011001001000111 .,
b1010000101111010001111001010100111111 p0
#24
b111100110101101111110011010111011010001101011011111100110101110100110001010000101111010001111001010101000000000000000000000000000000000000000000000000000000000000000000000000000000000000000000000000000000000000000000000000000000000000000000000000000000000000000000000011110000111100001111000011110000000000000000000000000000000000000000000000000000000000000000000000000000000000000000000000000000000000000000000000000000000000000000000000000000000000000000000011111111000000001111111111111111111111111111111110101111111111010101001100111011101001011011110101010011001110111010010110111101010100110011101110100101101111010101001100111011101001011001011100110100010011110001010000010111001101000100111100010100000101110011010001001111000101000001011100110100010011110001010000 "
b1011100110100010011110001010000 h)
b1011100110100010011110001010000 **
b1011100110100010011110001010000 J*
b1011100110100010011110001010000 j*
b11110101010011001110111010010110 ,+
b11110101010011001110111010010110 L+
b11110101010011001110111010010110 l+
b11110101010011001110111010010110 .,
b1010000101111010001111001010101000000 p0
#25
b111100110101101111110011010111011010001101011011111100110101110100110001010000101111010001111001010101000001000000000000000000000000000000000000000000000000000000000000000000000000000000000000000000000000000000000000000000000000000000000000000000000000000000000000000011110000111100001111000011110000000000000000000000000000000000000000000000000000000000000000000000000000000000000000000000000000000000000000000000000000000000000000000000000000000000000000000011111111000000001111111111111111111111111111111110101111110111100010100001100000100000011101111000101000011000001000000111011110001010000110000010000001110111100010100001100000100000011101101100100100011100001011111001011011001001000111000010111110010110110010010001110000101111100101101100100100011100001011111001 "
b1101100100100011100001011111001 h)
b1101100100100011100001011111001 **
b1101100100100011100001011111001 J*
b1101100100100011100001011111001 j*
b1111000101000011000001000000111 ,+
b1111000101000011000001000000111 L+
b1111000101000011000001000000111 l+
b1111000101000011000001000000111 .,
b1010000101111010001111001010101000001 p0
#26
b111100110101101111110011010111011010001101011011111100110101110100110001010000101111010001111001010101000010000000000000000000000000000000000000000000000000000000000000000000000000000000000000000000000000000000000000000000000000000000000000000000000000000000000000000011110000111100001111000011110000000000000000000000000000000000000000000000000000000000000000000000000000000000000000000000000000000000000000000000000000000000000000000000000000000000000000000011111111000000001111111111111111111111111111111110101111111000010111110010101110011010001010000101111100101011100110100010100001011111001010111001101000101000010111110010101110011010001000111011101001011000110111101101001110111010010110001101111011010011101110100101100011011110110100111011101001011000110111101101 "
b111011101001011000110111101101 h)
b111011101001011000110111101101 **
b111011101001011000110111101101 J*
b111011101001011000110111101101 j*
b10000101111100101011100110100010 ,+
b10000101111100101011100110100010 L+
b10000101111100101011100110100010 l+
b10000101111100101011100110100010 .,
b1010000101111010001111001010101000010 p0
#27
b111100110101101111110011010111011010001101011011111100110101110100110001010000101111010001111001010101000011000000000000000000000000000000000000000000000000000000000000000000000000000000000000000000000000000000000000000000000000000000000000000000000000000000000000000011110000111100001111000011110000000000000000000000000000000000000000000000000000000000000000000000000000000000000000000000000000000000000000000000000000000000000000000000000000000000000000000011111111000000001111111111111111111111111111111110101111110001101111011010110110010010001100011011110110101101100100100011000110111101101011011001001000110001101111011010110110010010001101100000100000011111110101010011011000001000000111111101010100110110000010000001111111010101001101100000100000011111110101010011 "
b1100000100000011111110101010011 h)
b1100000100000011111110101010011 **
b1100000100000011111110101010011 J*
b1100000100000011111110101010011 j*
b11011110110101101100100100011 ,+
b11011110110101101100100100011 L+
b11011110110101101100100100011 l+
b11011110110101101100100100011 .,
b1010000101111010001111001010101000011 p0
#28
b111100110101101111110011010111011010001101011011111100110101110100110001010000101111010001111001010101000100000000000000000000000000000000000000000000000000000000000000000000000000000000000000000000000000000000000000000000000000000000000000000000000000000000000000000011110000111100001111000011110000000000000000000000000000000000000000000000000000000000000000000000000000000000000000000000000000000000000000000000000000000000000000000000000000000000000000000011111111000000001111111111111111111111111111111110101111111111101010100110011101110100101111111010101001100111011101001011111110101010011001110111010010111111101010100110011101110100101110101110011010001001111000101000101011100110100010011110001010001010111001101000100111100010100010101110011010001001111000101000 "
b10101110011010001001111000101000 h)
b10101110011010001001111000101000 **
b10101110011010001001111000101000 J*
b10101110011010001001111000101000 j*
b11111010101001100111011101001011 ,+
b11111010101001100111011101001011 L+
b11111010101001100111011101001011 l+
b11111010101001100111011101001011 .,
b1010000101111010001111001010101000100 p0
#29
b111100110101101111110011010111011010001101011011111100110101110100110001010000101111010001111001010101000101000000000000000000000000000000000000000000000000000000000000000000000000000000000000000000000000000000000000000000000000000000000000000000000000000000000000000011110000111100001111000011110000000000000000000000000000000000000000000000000000000000000000000000000000000000000000000000000000000000000000000000000000000000000000000000000000000000000000000011111111000000001111111111111111111111111111111110101111110011110001010000110000010000001100111100010100001100000100000011001111000101000011000001000000110011110001010000110000010000001110110110010010001110000101111100101101100100100011100001011111001011011001001000111000010111110010110110010010001110000101111100 "
b10110110010010001110000101111100 h)
b10110110010010001110000101111100 **
b10110110010010001110000101111100 J*
b10110110010010001110000101111100 j*
b111100010100001100000100000011 ,+
b111100010100001100000100000011 L+
b111100010100001100000100000011 l+
b111100010100001100000100000011 .,
b1010000101111010001111001010101000101 p0
