OpticalTests/.Xil/Vivado-55516-higgs.physics.ucsb.edu/hw_ila_data_1/zip_work/waveform.vcd
$date
        2021-Nov-07 17:41:13
$end
$version
        Vivado v2019.2 (64-bit)
$end
$timescale
        1ps
$end
$scope module dut $end
$var reg 32 " receiver_0 [31:0] $end
$var reg 618 B ila_data [617:0] $end
$var reg 32 x' userdata_rx_0 [31:0] $end
$var reg 32 :( receiver_1 [31:0] $end
$var reg 32 Z( userdata_rx_1 [31:0] $end
$var reg 32 z( receiver_2 [31:0] $end
$var reg 32 <) userdata_rx_2 [31:0] $end
$var reg 32 \) receiver_3 [31:0] $end
$var reg 32 |) userdata_rx_3 [31:0] $end
$var reg 32 >* transmitter_0 [31:0] $end
$var reg 32 ^* userdata_tx_0 [31:0] $end
$var reg 32 ~* transmitter_1 [31:0] $end
$var reg 32 @+ userdata_tx_1 [31:0] $end
$var reg 32 `+ transmitter_2 [31:0] $end
$var reg 32 ", userdata_tx_2 [31:0] $end
$var reg 32 B, userdata_tx_3 [31:0] $end
$var reg 32 b, transmitter_3 [31:0] $end
$var reg 1 $- _TRIGGER $end
$var reg 1 %- _WINDOW $end
$var reg 1 &- _GAP $end
$upscope $end
$enddefinitions $end
#0
$dumpvars
b10010110001011000101000000111100 "
b111011000000000000000000000000000000000000000000000000000000000000000000000000000000000000000000000000000000000000000000000000000000000000000000000000000000000000000011110000111100001111000011110000000000000000000000000000000000000000000000000000000000000000000000000000000000000000000000000000000000000000000000000000000000000000000000000000000000000000000010001110110001100110100010010000010101010000001111001000100100000101010100000011110001101001110100010101000000111100100101100010111010111011101111011100001111011110101001111011101001010000001111000110100111010011010100000011110010010110001011000101000000111100 B
b10010110001011000101000000111100 x'
b1101001110100110101000000111100 :(
b1101001110100110101000000111100 Z(
b10100111101110100101000000111100 z(
b10100111101110100101000000111100 <)
b10111011101111011100001111011110 \)
b10111011101111011100001111011110 |)
b1010000001111001001011000101110 >*
b1010000001111001001011000101110 ^*
b1010000001111000110100111010001 ~*
b1010000001111000110100111010001 @+
b1010000001111001000100100000101 `+
b1010000001111001000100100000101 ",
b11101100011001101000100100000101 B,
b11101100011001101000100100000101 b,
0$-
1%-
0&-
$end
#1
b10010110001011010101000000111100 "
b101011000000000000000000000000000000000000000000000000000000000000000000000000000000000000000000000000000000000000000000000000000000000000000000000000000000000000000011110000111100001111000011110000000000000000000000000000000000000000000000000000000000000000000000000000000000000000000000000000000000000000000000000000000000000000000000000000000000000000000010000111101001001110110101010111111101010000001111001101010101111111010100000011110001101001110100000101000000111100100101100010111110001101000001101100011001010011011000011110100101010000001111000110100111010010010100000011110010010110001011010101000000111100 B
b10010110001011010101000000111100 x'
b1101001110100100101000000111100 :(
b1101001110100100101000000111100 Z(
b1100001111010010101000000111100 z(
b1100001111010010101000000111100 <)
b10001101000001101100011001010011 \)
b10001101000001101100011001010011 |)
b1010000001111001001011000101111 >*
b1010000001111001001011000101111 ^*
b1010000001111000110100111010000 ~*
b1010000001111000110100111010000 @+
b1010000001111001101010101111111 `+
b1010000001111001101010101111111 ",
b1111010010011101101010101111111 B,
b1111010010011101101010101111111 b,
#2
b10010110001011100101000000111100 "
b101011000000000000000000000000000000000000000000000000000000000000000000000000000000000000000000000000000000000000000000000000000000000000000000000000000000000000000011110000111100001111000011110000000000000000000000000000000000000000000000000000000000000000000000000000000000000000000000000000000000000000000000000000000000000000000000000000000000000000000010001000001101001000010110111101111101010000001111000101101111011111010100000011110001101001110011110101000000111100100101100011000001101101100011101111010001101000111100101010111001010000001111000110100111010001010100000011110010010110001011100101000000111100 B
b10010110001011100101000000111100 x'
b1101001110100010101000000111100 :(
b1101001110100010101000000111100 Z(
b11110010101011100101000000111100 z(
b11110010101011100101000000111100 <)
b1101101100011101111010001101000 \)
b1101101100011101111010001101000 |)
b1010000001111001001011000110000 >*
b1010000001111001001011000110000 ^*
b1010000001111000110100111001111 ~*
b1010000001111000110100111001111 @+
b1010000001111000101101111011111 `+
b1010000001111000101101111011111 ",
b10000011010010000101101111011111 B,
b10000011010010000101101111011111 b,
#3
b10010110001011110101000000111100 "
b101010000000000000000000000000000000000000000000000000000000000000000000000000000000000000000000000000000000000000000000000000000000000000000000000000000000000000000011110000111100001111000011110000000000000000000000000000000000000000000000000000000000000000000000000000000000000000000000000000000000000000000000000000000000000000000000000000000000000000000010001000101000110100011001101111100101010000001111000110011011111001010100000011110001101001110011100101000000111100100101100011000100111110111111111000100101110001000001111000010101010000001111000110100111010000010100000011110010010110001011110101000000111100 B
b10010110001011110101000000111100 x'
b1101001110100000101000000111100 :(
b1101001110100000101000000111100 Z(
b111100001010101000000111100 z(
b111100001010101000000111100 <)
b111110111111111000100101110001 \)
b111110111111111000100101110001 |)
b1010000001111001001011000110001 >*
b1010000001111001001011000110001 ^*
b1010000001111000110100111001110 ~*
b1010000001111000110100111001110 @+
b1010000001111000110011011111001 `+
b1010000001111000110011011111001 ",
b10001010001101000110011011111001 B,
b10001010001101000110011011111001 b,
#4
b10010110001100000101000000111100 "
b111010000000000000000000000000000000000000000000000000000000000000000000000000000000000000000000000000000000000000000000000000000000000000000000000000000000000000000011110000111100001111000011110000000000000000000000000000000000000000000000000000000000000000000000000000000000000000000000000000000000000000000000000000000000000000000000000000000000000000000010001101010001100100101101100110110001010000001111001011011001101100010100000011110001101001110011010101000000111100100101100011001001011110011001000111000001101111100011111110011001010000001111000110100111001111010100000011110010010110001100000101000000111100 B
b10010110001100000101000000111100 x'
b1101001110011110101000000111100 :(
b1101001110011110101000000111100 Z(
b10001111111001100101000000111100 z(
b10001111111001100101000000111100 <)
b1011110011001000111000001101111 \)
b1011110011001000111000001101111 |)
b1010000001111001001011000110010 >*
b1010000001111001001011000110010 ^*
b1010000001111000110100111001101 ~*
b1010000001111000110100111001101 @+
b1010000001111001011011001101100 `+
b1010000001111001011011001101100 ",
b11010100011001001011011001101100 B,
b11010100011001001011011001101100 b,
#5
b10010110001100010101000000111100 "
b111011000000000000000000000000000000000000000000000000000000000000000000000000000000000000000000000000000000000000000000000000000000000000000000000000000000000000000011110000111100001111000011110000000000000000000000000000000000000000000000000000000000000000000000000000000000000000000000000000000000000000000000000000000000000000000000000000000000000000000010000000001011111110011111111011001001010000001111000111111110110010010100000011110001101001110011000101000000111100100101100011001100011000111000011011110011000101110110001011010101010000001111000110100111001110010100000011110010010110001100010101000000111100 B
b10010110001100010101000000111100 x'
b1101001110011100101000000111100 :(
b1101001110011100101000000111100 Z(
b11011000101101010101000000111100 z(
b11011000101101010101000000111100 <)
b11000111000011011110011000101 \)
b11000111000011011110011000101 |)
b1010000001111001001011000110011 >*
b1010000001111001001011000110011 ^*
b1010000001111000110100111001100 ~*
b1010000001111000110100111001100 @+
b1010000001111000111111110110010 `+
b1010000001111000111111110110010 ",
b10111111100111111110110010 B,
b10111111100111111110110010 b,
#6
b10010110001100100101000000111100 "
b101011000000000000000000000000000000000000000000000000000000000000000000000000000000000000000000000000000000000000000000000000000000000000000000000000000000000000000011110000111100001111000011110000000000000000000000000000000000000000000000000000000000000000000000000000000000000000000000000000000000000000000000000000000000000000000000000000000000000000000010000100110001110101101010101111111001010000001111001010101011111110010100000011110001101001110010110101000000111100100101100011010000100111100010000100110011100010100101000101011101010000001111000110100111001101010100000011110010010110001100100101000000111100 B
b10010110001100100101000000111100 x'
b1101001110011010101000000111100 :(
b1101001110011010101000000111100 Z(
b10010100010101110101000000111100 z(
b10010100010101110101000000111100 <)
b100111100010000100110011100010 \)
b100111100010000100110011100010 |)
b1010000001111001001011000110100 >*
b1010000001111001001011000110100 ^*
b1010000001111000110100111001011 ~*
b1010000001111000110100111001011 @+
b1010000001111001010101011111110 `+
b1010000001111001010101011111110 ",
b1001100011101011010101011111110 B,
b1001100011101011010101011111110 b,
#7
b10010110001100110101000000111100 "
b101011000000000000000000000000000000000000000000000000000000000000000000000000000000000000000000000000000000000000000000000000000000000000000000000000000000000000000011110000111100001111000011110000000000000000000000000000000000000000000000000000000000000000000000000000000000000000000000000000000000000000000000000000000000000000000000000000000000000000000010001000111010111010101010100101101101010000001111001010101001011011010100000011110001101001110010100101000000111100100101100011010101010101110100010011100110100101101100011110100101010000001111000110100111001100010100000011110010010110001100110101000000111100 B
b10010110001100110101000000111100 x'
b1101001110011000101000000111100 :(
b1101001110011000101000000111100 Z(
b10110001111010010101000000111100 z(
b10110001111010010101000000111100 <)
b1010101110100010011100110100101 \)
b1010101110100010011100110100101 |)
b1010000001111001001011000110101 >*
b1010000001111001001011000110101 ^*
b1010000001111000110100111001010 ~*
b1010000001111000110100111001010 @+
b1010000001111001010101001011011 `+
b1010000001111001010101001011011 ",
b10001110101110101010101001011011 B,
b10001110101110101010101001011011 b,
#8
b10010110001101000101000000111100 "
b101010000000000000000000000000000000000000000000000000000000000000000000000000000000000000000000000000000000000000000000000000000000000000000000000000000000000000000011110000111100001111000011110000000000000000000000000000000000000000000000000000000000000000000000000000000000000000000000000000000000000000000000000000000000000000000000000000000000000000000010001111110110101111000101011101110001010000001111000001010111011100010100000011110001101001110010010101000000111100100101100011011000111101111100010010000101101101111100000101010001010000001111000110100111001011010100000011110010010110001101000101000000111100 B
b10010110001101000101000000111100 x'
b1101001110010110101000000111100 :(
b1101001110010110101000000111100 Z(
b11110000010101000101000000111100 z(
b11110000010101000101000000111100 <)
b111101111100010010000101101101 \)
b111101111100010010000101101101 |)
b1010000001111001001011000110110 >*
b1010000001111001001011000110110 ^*
b1010000001111000110100111001001 ~*
b1010000001111000110100111001001 @+
b1010000001111000001010111011100 `+
b1010000001111000001010111011100 ",
b11111101101011110001010111011100 B,
b11111101101011110001010111011100 b,
#9
b10010110001101010101000000111100 "
b111010000000000000000000000000000000000000000000000000000000000000000000000000000000000000000000000000000000000000000000000000000000000000000000000000000000000000000011110000111100001111000011110000000000000000000000000000000000000000000000000000000000000000000000000000000000000000000000000000000000000000000000000000000000000000000000000000000000000000000010001000010010111111001000110110010101010000001111000010001101100101010100000011110001101001110010000101000000111100100101100011011110001110110011001010001001000001010100110110000001010000001111000110100111001010010100000011110010010110001101010101000000111100 B
b10010110001101010101000000111100 x'
b1101001110010100101000000111100 :(
b1101001110010100101000000111100 Z(
b1010011011000000101000000111100 z(
b1010011011000000101000000111100 <)
b10001110110011001010001001000001 \)
b10001110110011001010001001000001 |)
b1010000001111001001011000110111 >*
b1010000001111001001011000110111 ^*
b1010000001111000110100111001000 ~*
b1010000001111000110100111001000 @+
b1010000001111000010001101100101 `+
b1010000001111000010001101100101 ",
b10000100101111110010001101100101 B,
b10000100101111110010001101100101 b,
#10
b10010110001101100101000000111100 "
b111011000000000000000000000000000000000000000000000000000000000000000000000000000000000000000000000000000000000000000000000000000000000000000000000000000000000000000011110000111100001111000011110000000000000000000000000000000000000000000000000000000000000000000000000000000000000000000000000000000000000000000000000000000000000000000000000000000000000000000010001000001110111000010010110000010101010000001111000100101100000101010100000011110001101001110001110101000000111100100101100011100011001011101000111011000011001111011111000110110101010000001111000110100111001001010100000011110010010110001101100101000000111100 B
b10010110001101100101000000111100 x'
b1101001110010010101000000111100 :(
b1101001110010010101000000111100 Z(
b1111100011011010101000000111100 z(
b1111100011011010101000000111100 <)
b11001011101000111011000011001111 \)
b11001011101000111011000011001111 |)
b1010000001111001001011000111000 >*
b1010000001111001001011000111000 ^*
b1010000001111000110100111000111 ~*
b1010000001111000110100111000111 @+
b1010000001111000100101100000101 `+
b1010000001111000100101100000101 ",
b10000011101110000100101100000101 B,
b10000011101110000100101100000101 b,
#11
b10010110001101110101000000111100 "
b101011000000000000000000000000000000000000000000000000000000000000000000000000000000000000000000000000000000000000000000000000000000000000000000000000000000000000000011110000111100001111000011110000000000000000000000000000000000000000000000000000000000000000000000000000000000000000000000000000000000000000000000000000000000000000000000000000000000000000000010001100101000001000011000101100111101010000001111000110001011001111010100000011110001101001110001100101000000111100100101100011100110010111011101001101100001011000101001000011010101010000001111000110100111001000010100000011110010010110001101110101000000111100 B
b10010110001101110101000000111100 x'
b1101001110010000101000000111100 :(
b1101001110010000101000000111100 Z(
b10100100001101010101000000111100 z(
b10100100001101010101000000111100 <)
b10010111011101001101100001011000 \)
b10010111011101001101100001011000 |)
b1010000001111001001011000111001 >*
b1010000001111001001011000111001 ^*
b1010000001111000110100111000110 ~*
b1010000001111000110100111000110 @+
b1010000001111000110001011001111 `+
b1010000001111000110001011001111 ",
b11001010000010000110001011001111 B,
b11001010000010000110001011001111 b,
#12
b10010110001110000101000000111100 "
b101011000000000000000000000000000000000000000000000000000000000000000000000000000000000000000000000000000000000000000000000000000000000000000000000000000000000000000011110000111100001111000011110000000000000000000000000000000000000000000000000000000000000000000000000000000000000000000000000000000000000000000000000000000000000000000000000000000000000000000010001111000100111011110000111101100001010000001111001100001111011000010100000011110001101001110001010101000000111100100101100011101010000001100011001010011111101001110100110011000101010000001111000110100111000111010100000011110010010110001110000101000000111100 B
b10010110001110000101000000111100 x'
b1101001110001110101000000111100 :(
b1101001110001110101000000111100 Z(
b11010011001100010101000000111100 z(
b11010011001100010101000000111100 <)
b10000001100011001010011111101001 \)
b10000001100011001010011111101001 |)
b1010000001111001001011000111010 >*
b1010000001111001001011000111010 ^*
b1010000001111000110100111000101 ~*
b1010000001111000110100111000101 @+
b1010000001111001100001111011000 `+
b1010000001111001100001111011000 ",
b11110001001110111100001111011000 B,
b11110001001110111100001111011000 b,
#13
b10010110001110010101000000111100 "
b101010000000000000000000000000000000000000000000000000000000000000000000000000000000000000000000000000000000000000000000000000000000000000000000000000000000000000000011110000111100001111000011110000000000000000000000000000000000000000000000000000000000000000000000000000000000000000000000000000000000000000000000000000000000000000000000000000000000000000000010001100011000011100110011101011010101010000001111001100111010110101010100000011110001101001110001000101000000111100100101100011101110110010110010001001010011000010000110000110010101010000001111000110100111000110010100000011110010010110001110010101000000111100 B
b10010110001110010101000000111100 x'
b1101001110001100101000000111100 :(
b1101001110001100101000000111100 Z(
b11000011001010101000000111100 z(
b11000011001010101000000111100 <)
b10110010110010001001010011000010 \)
b10110010110010001001010011000010 |)
b1010000001111001001011000111011 >*
b1010000001111001001011000111011 ^*
b1010000001111000110100111000100 ~*
b1010000001111000110100111000100 @+
b1010000001111001100111010110101 `+
b1010000001111001100111010110101 ",
b11000110000111001100111010110101 B,
b11000110000111001100111010110101 b,
#14
b10010110001110100101000000111100 "
b111010000000000000000000000000000000000000000000000000000000000000000000000000000000000000000000000000000000000000000000000000000000000000000000000000000000000000000011110000111100001111000011110000000000000000000000000000000000000000000000000000000000000000000000000000000000000000000000000000000000000000000000000000000000000000000000000000000000000000000010000010101000110001011010001001011001010000001111000110100010010110010100000011110001101001110000110101000000111100100101100011110010010100110101100000010011010000110011000100010001010000001111000110100111000101010100000011110010010110001110100101000000111100 B
b10010110001110100101000000111100 x'
b1101001110001010101000000111100 :(
b1101001110001010101000000111100 Z(
b11001100010001000101000000111100 z(
b11001100010001000101000000111100 <)
b10010100110101100000010011010000 \)
b10010100110101100000010011010000 |)
b1010000001111001001011000111100 >*
b1010000001111001001011000111100 ^*
b1010000001111000110100111000011 ~*
b1010000001111000110100111000011 @+
b1010000001111000110100010010110 `+
b1010000001111000110100010010110 ",
b101010001100010110100010010110 B,
b101010001100010110100010010110 b,
#15
b10010110001110110101000000111100 "
b111011000000000000000000000000000000000000000000000000000000000000000000000000000000000000000000000000000000000000000000000000000000000000000000000000000000000000000011110000111100001111000011110000000000000000000000000000000000000000000000000000000000000000000000000000000000000000000000000000000000000000000000000000000000000000000000000000000000000000000010000110100001111101000110101111001001010000001111000001101011110010010100000011110001101001110000100101000000111100100101100011110110100011111011011101000010101111000001101010101101010000001111000110100111000100010100000011110010010110001110110101000000111100 B
b10010110001110110101000000111100 x'
b1101001110001000101000000111100 :(
b1101001110001000101000000111100 Z(
b110101010110101000000111100 z(
b110101010110101000000111100 <)
b10100011111011011101000010101111 \)
b10100011111011011101000010101111 |)
b1010000001111001001011000111101 >*
b1010000001111001001011000111101 ^*
b1010000001111000110100111000010 ~*
b1010000001111000110100111000010 @+
b1010000001111000001101011110010 `+
b1010000001111000001101011110010 ",
b1101000011111010001101011110010 B,
b1101000011111010001101011110010 b,
#16
b10010110001111000101000000111100 "
b101011000000000000000000000000000000000000000000000000000000000000000000000000000000000000000000000000000000000000000000000000000000000000000000000000000000000000000011110000111100001111000011110000000000000000000000000000000000000000000000000000000000000000000000000000000000000000000000000000000000000000000000000000000000000000000000000000000000000000000010000000010000011110111110011111011001010000001111001111100111110110010100000011110001101001110000010101000000111100100101100011111010000000011111100001101100101111000111011000010001010000001111000110100111000011010100000011110010010110001111000101000000111100 B
b10010110001111000101000000111100 x'
b1101001110000110101000000111100 :(
b1101001110000110101000000111100 Z(
b11101100001000101000000111100 z(
b11101100001000101000000111100 <)
b10000000011111100001101100101111 \)
b10000000011111100001101100101111 |)
b1010000001111001001011000111110 >*
b1010000001111001001011000111110 ^*
b1010000001111000110100111000001 ~*
b1010000001111000110100111000001 @+
b1010000001111001111100111110110 `+
b1010000001111001111100111110110 ",
b100000111101111100111110110 B,
b100000111101111100111110110 b,
#17
b10010110001111010101000000111100 "
b101011000000000000000000000000000000000000000000000000000000000000000000000000000000000000000000000000000000000000000000000000000000000000000000000000000000000000000011110000111100001111000011110000000000000000000000000000000000000000000000000000000000000000000000000000000000000000000000000000000000000000000000000000000000000000000000000000000000000000000010000000100110001111111111101110101001010000001111001111111011101010010100000011110001101001110000000101000000111100100101100011111100100011111110000000111011101000011100001111001101010000001111000110100111000010010100000011110010010110001111010101000000111100 B
b10010110001111010101000000111100 x'
b1101001110000100101000000111100 :(
b1101001110000100101000000111100 Z(
b1110000111100110101000000111100 z(
b1110000111100110101000000111100 <)
b100011111110000000111011101000 \)
b100011111110000000111011101000 |)
b1010000001111001001011000111111 >*
b1010000001111001001011000111111 ^*
b1010000001111000110100111000000 ~*
b1010000001111000110100111000000 @+
b1010000001111001111111011101010 `+
b1010000001111001111111011101010 ",
b1001100011111111111011101010 B,
b1001100011111111111011101010 b,
#18
b10010110001111100101000000111100 "
b101010000000000000000000000000000000000000000000000000000000000000000000000000000000000000000000000000000000000000000000000000000000000000000000000000000000000000000011110000111100001111000011110000000000000000000000000000000000000000000000000000000000000000000000000000000000000000000000000000000000000000000000000000000000000000000000000000000000000000000010001010011000100111101110110011101101010000001111001011101100111011010100000011110001101001101111110101000000111100100101100100000000100101001110100010111010111000110101101011011001010000001111000110100111000001010100000011110010010110001111100101000000111100 B
b10010110001111100101000000111100 x'
b1101001110000010101000000111100 :(
b1101001110000010101000000111100 Z(
b11010110101101100101000000111100 z(
b11010110101101100101000000111100 <)
b100101001110100010111010111000 \)
b100101001110100010111010111000 |)
b1010000001111001001011001000000 >*
b1010000001111001001011001000000 ^*
b1010000001111000110100110111111 ~*
b1010000001111000110100110111111 @+
b1010000001111001011101100111011 `+
b1010000001111001011101100111011 ",
b10100110001001111011101100111011 B,
b10100110001001111011101100111011 b,
#19
b10010110001111110101000000111100 "
b111010000000000000000000000000000000000000000000000000000000000000000000000000000000000000000000000000000000000000000000000000000000000000000000000000000000000000000011110000111100001111000011110000000000000000000000000000000000000000000000000000000000000000000000000000000000000000000000000000000000000000000000000000000000000000000000000000000000000000000010000110011000001010100110110011111001010000001111001001101100111110010100000011110001101001101111100101000000111100100101100100000110010011001100000101111101100110011001010100100001010000001111000110100111000000010100000011110010010110001111110101000000111100 B
b10010110001111110101000000111100 x'
b1101001110000000101000000111100 :(
b1101001110000000101000000111100 Z(
b1100101010010000101000000111100 z(
b1100101010010000101000000111100 <)
b10010011001100000101111101100110 \)
b10010011001100000101111101100110 |)
b1010000001111001001011001000001 >*
b1010000001111001001011001000001 ^*
b1010000001111000110100110111110 ~*
b1010000001111000110100110111110 @+
b1010000001111001001101100111110 `+
b1010000001111001001101100111110 ",
b1100110000010101001101100111110 B,
b1100110000010101001101100111110 b,
#20
b10010110010000000101000000111100 "
b111011000000000000000000000000000000000000000000000000000000000000000000000000000000000000000000000000000000000000000000000000000000000000000000000000000000000000000011110000111100001111000011110000000000000000000000000000000000000000000000000000000000000000000000000000000000000000000000000000000000000000000000000000000000000000000000000000000000000000000010001001101011111100001100011110011001010000001111000011000111100110010100000011110001101001101111010101000000111100100101100100001000010110110100111010110111011001100111011000011001010000001111000110100110111111010100000011110010010110010000000101000000111100 B
b10010110010000000101000000111100 x'
b1101001101111110101000000111100 :(
b1101001101111110101000000111100 Z(
b10011101100001100101000000111100 z(
b10011101100001100101000000111100 <)
b10110110100111010110111011001 \)
b10110110100111010110111011001 |)
b1010000001111001001011001000010 >*
b1010000001111001001011001000010 ^*
b1010000001111000110100110111101 ~*
b1010000001111000110100110111101 @+
b1010000001111000011000111100110 `+
b1010000001111000011000111100110 ",
b10011010111111000011000111100110 B,
b10011010111111000011000111100110 b,
#21
b10010110010000010101000000111100 "
b101011000000000000000000000000000000000000000000000000000000000000000000000000000000000000000000000000000000000000000000000000000000000000000000000000000000000000000011110000111100001111000011110000000000000000000000000000000000000000000000000000000000000000000000000000000000000000000000000000000000000000000000000000000000000000000000000000000000000000000010001101110011101101001100100011101001010000001111000011001000111010010100000011110001101001101111000101000000111100100101100100001110010111000111110101011001001110110010111100100001010000001111000110100110111110010100000011110010010110010000010101000000111100 B
b10010110010000010101000000111100 x'
b1101001101111100101000000111100 :(
b1101001101111100101000000111100 Z(
b11001011110010000101000000111100 z(
b11001011110010000101000000111100 <)
b10010111000111110101011001001110 \)
b10010111000111110101011001001110 |)
b1010000001111001001011001000011 >*
b1010000001111001001011001000011 ^*
b1010000001111000110100110111100 ~*
b1010000001111000110100110111100 @+
b1010000001111000011001000111010 `+
b1010000001111000011001000111010 ",
b11011100111011010011001000111010 B,
b11011100111011010011001000111010 b,
#22
b10010110010000100101000000111100 "
b101011000000000000000000000000000000000000000000000000000000000000000000000000000000000000000000000000000000000000000000000000000000000000000000000000000000000000000011110000111100001111000011110000000000000000000000000000000000000000000000000000000000000000000000000000000000000000000000000000000000000000000000000000000000000000000000000000000000000000000010000111100010100111110111110111101101010000001111001101111101111011010100000011110001101001101110110101000000111100100101100100010000100101100001000101001011011110010011011000100001010000001111000110100110111101010100000011110010010110010000100101000000111100 B
b10010110010000100101000000111100 x'
b1101001101111010101000000111100 :(
b1101001101111010101000000111100 Z(
b1001101100010000101000000111100 z(
b1001101100010000101000000111100 <)
b100101100001000101001011011110 \)
b100101100001000101001011011110 |)
b1010000001111001001011001000100 >*
b1010000001111001001011001000100 ^*
b1010000001111000110100110111011 ~*
b1010000001111000110100110111011 @+
b1010000001111001101111101111011 `+
b1010000001111001101111101111011 ",
b1111000101001111101111101111011 B,
b1111000101001111101111101111011 b,
#23
b10010110010000110101000000111100 "
b101010000000000000000000000000000000000000000000000000000000000000000000000000000000000000000000000000000000000000000000000000000000000000000000000000000000000000000011110000111100001111000011110000000000000000000000000000000000000000000000000000000000000000000000000000000000000000000000000000000000000000000000000000000000000000000000000000000000000000000010000110101000001100011110001010010001010000001111000111100010100100010100000011110001101001101110100101000000111100100101100100010101100010110011001101000011111100010101001010111001010000001111000110100110111100010100000011110010010110010000110101000000111100 B
b10010110010000110101000000111100 x'
b1101001101111000101000000111100 :(
b1101001101111000101000000111100 Z(
b1010100101011100101000000111100 z(
b1010100101011100101000000111100 <)
b1100010110011001101000011111100 \)
b1100010110011001101000011111100 |)
b1010000001111001001011001000101 >*
b1010000001111001001011001000101 ^*
b1010000001111000110100110111010 ~*
b1010000001111000110100110111010 @+
b1010000001111000111100010100100 `+
b1010000001111000111100010100100 ",
b1101010000011000111100010100100 B,
b1101010000011000111100010100100 b,
#24
b10010110010001000101000000111100 "
b111010000000000000000000000000000000000000000000000000000000000000000000000000000000000000000000000000000000000000000000000000000000000000000000000000000000000000000011110000111100001111000011110000000000000000000000000000000000000000000000000000000000000000000000000000000000000000000000000000000000000000000000000000000000000000000000000000000000000000000010001110000010100001010110110111100101010000001111000101101101111001010100000011110001101001101110010101000000111100100101100100011010000000011001000100000001010101100011001000010101010000001111000110100110111011010100000011110010010110010001000101000000111100 B
b10010110010001000101000000111100 x'
b1101001101110110101000000111100 :(
b1101001101110110101000000111100 Z(
b10001100100001010101000000111100 z(
b10001100100001010101000000111100 <)
b10000000011001000100000001010101 \)
b10000000011001000100000001010101 |)
b1010000001111001001011001000110 >*
b1010000001111001001011001000110 ^*
b1010000001111000110100110111001 ~*
b1010000001111000110100110111001 @+
b1010000001111000101101101111001 `+
b1010000001111000101101101111001 ",
b11100000101000010101101101111001 B,
b11100000101000010101101101111001 b,
#25
b10010110010001010101000000111100 "
b111011000000000000000000000000000000000000000000000000000000000000000000000000000000000000000000000000000000000000000000000000000000000000000000000000000000000000000011110000111100001111000011110000000000000000000000000000000000000000000000000000000000000000000000000000000000000000000000000000000000000000000000000000000000000000000000000000000000000000000010001110111011010000000000010100110101010000001111000000000101001101010100000011110001101001101110000101000000111100100101100100011100000110111000111001101011011000111111101001100001010000001111000110100110111010010100000011110010010110010001010101000000111100 B
b10010110010001010101000000111100 x'
b1101001101110100101000000111100 :(
b1101001101110100101000000111100 Z(
b11111110100110000101000000111100 z(
b11111110100110000101000000111100 <)
b110111000111001101011011000 \)
b110111000111001101011011000 |)
b1010000001111001001011001000111 >*
b1010000001111001001011001000111 ^*
b1010000001111000110100110111000 ~*
b1010000001111000110100110111000 @+
b1010000001111000000000101001101 `+
b1010000001111000000000101001101 ",
b11101110110100000000000101001101 B,
b11101110110100000000000101001101 b,
#26
b10010110010001100101000000111100 "
b101011000000000000000000000000000000000000000000000000000000000000000000000000000000000000000000000000000000000000000000000000000000000000000000000000000000000000000011110000111100001111000011110000000000000000000000000000000000000000000000000000000000000000000000000000000000000000000000000000000000000000000000000000000000000000000000000000000000000000000010001001111111110000010001001101001001010000001111000100010011010010010100000011110001101001101101110101000000111100100101100100100001101100011111001100101110110100001101010010110001010000001111000110100110111001010100000011110010010110010001100101000000111100 B
b10010110010001100101000000111100 x'
b1101001101110010101000000111100 :(
b1101001101110010101000000111100 Z(
b110101001011000101000000111100 z(
b110101001011000101000000111100 <)
b1101100011111001100101110110100 \)
b1101100011111001100101110110100 |)
b1010000001111001001011001001000 >*
b1010000001111001001011001001000 ^*
b1010000001111000110100110110111 ~*
b1010000001111000110100110110111 @+
b1010000001111000100010011010010 `+
b1010000001111000100010011010010 ",
b10011111111100000100010011010010 B,
b10011111111100000100010011010010 b,
#27
b10010110010001110101000000111100 "
b101011000000000000000000000000000000000000000000000000000000000000000000000000000000000000000000000000000000000000000000000000000000000000000000000000000000000000000011110000111100001111000011110000000000000000000000000000000000000000000000000000000000000000000000000000000000000000000000000000000000000000000000000000000000000000000000000000000000000000000010001010010010011111001111011110000101010000001111000011110111100001010100000011110001101001101101100101000000111100100101100100100101001101001001000111001100011100000011111101011101010000001111000110100110111000010100000011110010010110010001110101000000111100 B
b10010110010001110101000000111100 x'
b1101001101110000101000000111100 :(
b1101001101110000101000000111100 Z(
b1111110101110101000000111100 z(
b1111110101110101000000111100 <)
b1001101001001000111001100011100 \)
b1001101001001000111001100011100 |)
b1010000001111001001011001001001 >*
b1010000001111001001011001001001 ^*
b1010000001111000110100110110110 ~*
b1010000001111000110100110110110 @+
b1010000001111000011110111100001 `+
b1010000001111000011110111100001 ",
b10100100100111110011110111100001 B,
b10100100100111110011110111100001 b,
#28
b10010110010010000101000000111100 "
b101010000000000000000000000000000000000000000000000000000000000000000000000000000000000000000000000000000000000000000000000000000000000000000000000000000000000000000011110000111100001111000011110000000000000000000000000000000000000000000000000000000000000000000000000000000000000000000000000000000000000000000000000000000000000000000000000000000000000000000010001011001111111100101011001010111001010000001111001010110010101110010100000011110001101001101101010101000000111100100101100100101001010111100110111010100110111011100011011100100001010000001111000110100110110111010100000011110010010110010010000101000000111100 B
b10010110010010000101000000111100 x'
b1101001101101110101000000111100 :(
b1101001101101110101000000111100 Z(
b10001101110010000101000000111100 z(
b10001101110010000101000000111100 <)
b1010111100110111010100110111011 \)
b1010111100110111010100110111011 |)
b1010000001111001001011001001010 >*
b1010000001111001001011001001010 ^*
b1010000001111000110100110110101 ~*
b1010000001111000110100110110101 @+
b1010000001111001010110010101110 `+
b1010000001111001010110010101110 ",
b10110011111111001010110010101110 B,
b10110011111111001010110010101110 b,
#29
b10010110010010010101000000111100 "
b111010000000000000000000000000000000000000000000000000000000000000000000000000000000000000000000000000000000000000000000000000000000000000000000000000000000000000000011110000111100001111000011110000000000000000000000000000000000000000000000000000000000000000000000000000000000000000000000000000000000000000000000000000000000000000000000000000000000000000000010000010100001100101011000000110101001010000001111000110000001101010010100000011110001101001101101000101000000111100100101100100101110010011010001010100010101110100110111101101110101010000001111000110100110110110010100000011110010010110010010010101000000111100 B
b10010110010010010101000000111100 x'
b1101001101101100101000000111100 :(
b1101001101101100101000000111100 Z(
b11011110110111010101000000111100 z(
b11011110110111010101000000111100 <)
b10010011010001010100010101110100 \)
b10010011010001010100010101110100 |)
b1010000001111001001011001001011 >*
b1010000001111001001011001001011 ^*
b1010000001111000110100110110100 ~*
b1010000001111000110100110110100 @+
b1010000001111000110000001101010 `+
b1010000001111000110000001101010 ",
b101000011001010110000001101010 B,
b101000011001010110000001101010 b,
