OpticalTests/.Xil/Vivado-56075-higgs.physics.ucsb.edu/hw_ila_data_1/zip_work/waveform.vcd
$date
        2021-Dec-17 15:48:17
$end
$version
        Vivado v2019.2 (64-bit)
$end
$timescale
        1ps
$end
$scope module dut $end
$var reg 970 " ila_data [969:0] $end
$var reg 32 @+ receiver_0 [31:0] $end
$var reg 32 `+ receiver_1 [31:0] $end
$var reg 32 ", receiver_2 [31:0] $end
$var reg 32 B, receiver_3 [31:0] $end
$var reg 32 b, transmitter_0 [31:0] $end
$var reg 32 $- transmitter_1 [31:0] $end
$var reg 32 D- transmitter_2 [31:0] $end
$var reg 32 d- transmitter_3 [31:0] $end
$var reg 4 &. prbs_match_int [3:0] $end
$var reg 1 *. hb0_gtwiz_userclk_rx_usrclk2_int $end
$var reg 1 +. hb0_gtwiz_userclk_rx_active_int $end
$var reg 1 ,. hb_gtwiz_reset_all_int $end
$var reg 1 -. hb0_gtwiz_reset_rx_done_int $end
$var reg 1 .. hb0_gtwiz_userclk_tx_usrclk2_int $end
$var reg 1 /. hb0_gtwiz_userclk_tx_active_int $end
$var reg 1 0. gtwiz_userclk_tx_reset_int $end
$var reg 1 1. gtwiz_userclk_tx_usrclk_int $end
$var reg 1 2. gtwiz_userclk_tx_usrclk2_int $end
$var reg 1 3. gtwiz_userclk_tx_active_int $end
$var reg 1 4. gtwiz_userclk_rx_reset_int $end
$var reg 1 5. gtwiz_userclk_rx_usrclk_int $end
$var reg 1 6. gtwiz_userclk_rx_usrclk2_int $end
$var reg 1 7. gtwiz_userclk_rx_active_int $end
$var reg 36 8. drpaddr_int [35:0] $end
$var reg 4 \. drpclk_int [3:0] $end
$var reg 4 `. drpdi_int [3:0] $end
$var reg 4 d. drpen_int [3:0] $end
$var reg 4 h. drpwe_int [3:0] $end
$var reg 4 l. eyescanreset_int [3:0] $end
$var reg 4 p. rx8b10ben_int [3:0] $end
$var reg 4 t. rxcommadeten_int [3:0] $end
$var reg 4 x. rxlpmen_int [3:0] $end
$var reg 4 |. rxmcommaalignen_int [3:0] $end
$var reg 4 "/ rxpcommaalignen_int [3:0] $end
$var reg 12 &/ rxrate_int [11:0] $end
$var reg 4 2/ tx8b10ben_int [3:0] $end
$var reg 16 6/ txdiffctrl_int [15:0] $end
$var reg 20 F/ txpostcursor_int [19:0] $end
$var reg 20 Z/ txprecursor_int [19:0] $end
$var reg 64 n/ drpdo_int [63:0] $end
$var reg 4 P0 drprdy_int [3:0] $end
$var reg 4 T0 gtpowergood_int [3:0] $end
$var reg 4 X0 rxbyteisaligned_int [3:0] $end
$var reg 4 \0 rxbyterealign_int [3:0] $end
$var reg 4 `0 rxcommadet_int [3:0] $end
$var reg 4 d0 rxpmaresetdone_int [3:0] $end
$var reg 4 h0 txpmaresetdone_int [3:0] $end
$var reg 16 l0 ch0_rxctrl0_int [15:0] $end
$var reg 16 |0 ch1_rxctrl0_int [15:0] $end
$var reg 16 .1 ch2_rxctrl0_int [15:0] $end
$var reg 16 >1 ch3_rxctrl0_int [15:0] $end
$var reg 16 N1 ch0_rxctrl1_int [15:0] $end
$var reg 16 ^1 ch1_rxctrl1_int [15:0] $end
$var reg 16 n1 ch2_rxctrl1_int [15:0] $end
$var reg 16 ~1 ch3_rxctrl1_int [15:0] $end
$var reg 8 02 ch0_rxctrl2_int [7:0] $end
$var reg 8 82 ch1_rxctrl2_int [7:0] $end
$var reg 8 @2 ch2_rxctrl2_int [7:0] $end
$var reg 8 H2 ch3_rxctrl2_int [7:0] $end
$var reg 8 P2 ch0_rxctrl3_int [7:0] $end
$var reg 8 X2 ch1_rxctrl3_int [7:0] $end
$var reg 8 `2 ch2_rxctrl3_int [7:0] $end
$var reg 8 h2 ch3_rxctrl3_int [7:0] $end
$var reg 16 p2 ch0_txctrl0_int [15:0] $end
$var reg 16 "3 ch1_txctrl0_int [15:0] $end
$var reg 16 23 ch2_txctrl0_int [15:0] $end
$var reg 16 B3 ch3_txctrl0_int [15:0] $end
$var reg 16 R3 ch0_txctrl1_int [15:0] $end
$var reg 16 b3 ch1_txctrl1_int [15:0] $end
$var reg 16 r3 ch2_txctrl1_int [15:0] $end
$var reg 16 $4 ch3_txctrl1_int [15:0] $end
$var reg 8 44 ch0_txctrl2_int [7:0] $end
$var reg 8 <4 ch1_txctrl2_int [7:0] $end
$var reg 8 D4 ch2_txctrl2_int [7:0] $end
$var reg 8 L4 ch3_txctrl2_int [7:0] $end
$var reg 40 T4 hb0_rxdata_nml_ctr [39:0] $end
$var reg 16 |4 ch0_rxdata_err_ctr [15:0] $end
$var reg 16 .5 ch1_rxdata_err_ctr [15:0] $end
$var reg 16 >5 ch2_rxdata_err_ctr [15:0] $end
$var reg 16 N5 ch3_rxdata_err_ctr [15:0] $end
$var reg 1 ^5 _TRIGGER $end
$var reg 1 _5 _WINDOW $end
$var reg 1 `5 _GAP $end
$upscope $end
$enddefinitions $end
#0
$dumpvars
b111001010111000010110101001011110000001000101001010000001100110000101010101100111100101110010101001110000000000000000000000000000000000000000000000000000000000000000000000000000000000000000000000000000000000000000000000000000000000000000000000000000000000000000001111000011110000111100001111000000000000000000000000000000000000000000000000000000000000000000000000000000000000000000000000000100000000000000000000000000000000000000000000000000000000000000001111111100000000111111110000000000000000000000000000000000000000000000000000000000000000000000000000000000000000000000000000000000001100110011001100111100000000000011111111111111111111000000000000000000000000010110000010110000010110000010111010110010101111101011110110101101100100100011100010111101101011011001001000111000101111011010110110010010001110001011110110101101100100100011100000101111100101011100110100010011000010111110010101110011010001000001011111001010111001101000100101001100010100100010101000000010 "
b1001100010100100010101000000010 @+
b10111110010101110011010001001 `+
b1011111001010111001101000100 ",
b101111100101011100110100010011 B,
b10111101101011011001001000111000 b,
b10111101101011011001001000111000 $-
b10111101101011011001001000111000 D-
b10111101101011011001001000111000 d-
b1110 &.
1*.
1+.
0,.
1-.
0..
1/.
00.
01.
12.
13.
04.
15.
06.
17.
b1011000001011000001011000001011 8.
b0 \.
b0 `.
b0 d.
b0 h.
b0 l.
b1111 p.
b1111 t.
b1111 x.
b1111 |.
b1111 "/
b0 &/
b1111 2/
b1100110011001100 6/
b0 F/
b0 Z/
b0 n/
b0 P0
b1111 T0
b1111 X0
b0 \0
b0 `0
b1111 d0
b1111 h0
b0 l0
b0 |0
b0 .1
b0 >1
b1 N1
b0 ^1
b0 n1
b0 ~1
b0 02
b0 82
b0 @2
b0 H2
b11110000 P2
b11110000 X2
b11110000 `2
b11110000 h2
b0 p2
b0 "3
b0 23
b0 B3
b0 R3
b0 b3
b0 r3
b0 $4
b0 44
b0 <4
b0 D4
b0 L4
b1010101011001111001011100101010011100 T4
b1010000001100110 |4
b1000000100010100 .5
b101101010010111 >5
b111001010111000 N5
0^5
1_5
0`5
$end
#1
b111001010111000010110101001011110000001000101001010000001100111000101010101100111100101110010101001110100000000000000000000000000000000000000000000000000000000000000000000000000000000000000000000000000000000000000000000000000000000000000000000000000000000000000001111000011110000111100001111000000000000000000000000000000000000000000000000000000000000000000000000000000000000000000000000000100000000000000000000000000000000000000000000000000000000000000001111111100000000111111110000000000000000000000000000000000000000000000000000000000000000000000000000000000000000000000000000000000001100110011001100111100000000000011111111111111111111000000000000000000000000010110000010110000010110000010111010110010101111101010101001100111011101001011000110101010011001110111010010110001101010100110011101110100101100011010101001100111011101001011000111011110110101101100100100011100001101111011010110110010010001110110111101101011011001001000111000111101000000011101111111101101 "
b111101000000011101111111101101 @+
b1101111011010110110010010001110 `+
b110111101101011011001001000111 ",
b11011110110101101100100100011100 B,
b10101010011001110111010010110001 b,
b10101010011001110111010010110001 $-
b10101010011001110111010010110001 D-
b10101010011001110111010010110001 d-
b1010101011001111001011100101010011101 T4
b1010000001100111 |4
#2
b111001010111000010110101001011110000001000101001010000001101000000101010101100111100101110010101001111000000000000000000000000000000000000000000000000000000000000000000000000000000000000000000000000000000000000000000000000000000000000000000000000000000000000000001111000011110000111100001111110000000000000000000000000000000000000000000000000000000000000000000000000000000000000000000000101000000000000000000000000000000000000000000000000000000000000010101111111100000000111111110000000000000000000000000000000000000000000000000000000000000000000000000000000000000000000000000000000000001100110011001100111100000000000011111111111111111111000000000000000011110000010110000010110000010110000010111010110010101111101100010100001100000100000011111111000101000011000001000000111111110001010000110000010000001111111100010100001100000100000011111111010101001100111011101001011000111101010100110011101110100101101110101010011001110111010010110001101101001101011001110001100110 "
b1101101001101011001110001100110 @+
b11101010100110011101110100101100 `+
b11110101010011001110111010010110 ",
b11010101001100111011101001011000 B,
b11000101000011000001000000111111 b,
b11000101000011000001000000111111 $-
b11000101000011000001000000111111 D-
b11000101000011000001000000111111 d-
b1111 \.
b1010 l0
b1010 N1
b11111100 P2
b1010101011001111001011100101010011110 T4
b1010000001101000 |4
#3
b111001010111000010110101001011110000001000101001010000001101001000101010101100111100101110010101001111100000000000000000000000000000000000000000000000000000000000000000000000000000000000000000000000000000000000000000000000000000000000000000000000000000000000000001111000011110000111100001111111100000000000000000000000000000000000000000000000000000000000000000000000000000000000000000000001100000000000000000000000000000000000000000000000000000000000001111111111100000000111111110000000000000000000000000000000000000000000000000000000000000000000000000000000000000000000000000000000000001100110011001100111100000000000011111111111111111111000000000000000011110000010110000010110000010110000010111010110010101111100010111110010101110011010001001100101111100101011100110100010011001011111001010111001101000100110010111110010101110011010001001111100010100001100000100000011111011110001010000110000010000001111111000101000011000001000000111100110001110000101100101001000001 "
b110001110000101100101001000001 @+
b11110001010000110000010000001111 `+
b1111000101000011000001000000111 ",
b11100010100001100000100000011111 B,
b101111100101011100110100010011 b,
b101111100101011100110100010011 $-
b101111100101011100110100010011 D-
b101111100101011100110100010011 d-
b111 l0
b11 N1
b11111111 P2
b1010101011001111001011100101010011111 T4
b1010000001101001 |4
#4
b111001010111000010110101001011110000001000101001010000001101010000101010101100111100101110010101010000000000000000000000000000000000000000000000000000000000000000000000000000000000000000000000000000000000000000000000000000000000000000000000000000000000000000000001111000011110000111100001111110000000000000000000000000000000000000000000000000000000000000000000000000000000000000000000000101000000000000000000000000000000000000000000000000000000000000000001111111100000000111111110000000000000000000000000000000000000000000000000000000000000000000000000000000000000000000000000000000000001100110011001100111100000000000011111111111111111111000000000000000011110000010110000010110000010110000010111010110010101111101101111011010110110010010001110011011110110101101100100100011100110111101101011011001001000111001101111011010110110010010001110000010111110010101110011010001001100001011111001010111001101000100000101111100101011100110100010011110101100011001000111001111000 "
b11110101100011001000111001111000 @+
b1011111001010111001101000100 `+
b10000101111100101011100110100010 ",
b10111110010101110011010001001 B,
b11011110110101101100100100011100 b,
b11011110110101101100100100011100 $-
b11011110110101101100100100011100 D-
b11011110110101101100100100011100 d-
b0 l0
b1010 N1
b11111100 P2
b1010101011001111001011100101010100000 T4
b1010000001101010 |4
#5
b111001010111000010110101001011110000001000101001010000001101011000101010101100111100101110010101010000100000000000000000000000000000000000000000000000000000000000000000000000000000000000000000000000000000000000000000000000000000000000000000000000000000000000000001111000011110000111100001111000000000000000000000000000000000000000000000000000000000000000000000000000000000000000000000000000000000000000000000000000000000000000000000000000000000000000000001111111100000000111111110000000000000000000000000000000000000000000000000000000000000000000000000000000000000000000000000000000000001100110011001100111100000000000011111111111111111111000000000000000011110000010110000010110000010110000010111010110010101111101101010100110011101110100101100011010101001100111011101001011000110101010011001110111010010110001101010100110011101110100101100001101111011010110110010010001110000110111101101011011001001000110011011110110101101100100100011111110001010000110000010000000000 "
b11110001010000110000010000000000 @+
b110111101101011011001001000111 `+
b11011110110101101100100100011 ",
b1101111011010110110010010001110 B,
b11010101001100111011101001011000 b,
b11010101001100111011101001011000 $-
b11010101001100111011101001011000 D-
b11010101001100111011101001011000 d-
b0 N1
b11110000 P2
b1010101011001111001011100101010100001 T4
b1010000001101011 |4
#6
b111001010111000010110101001011110000001000101001010000001101100000101010101100111100101110010101010001000000000000000000000000000000000000000000000000000000000000000000000000000000000000000000000000000000000000000000000000000000000000000000000000000000000000000001111000011110000111100001111000000000000000000000000000000000000000000000000000000000000000000000000000000000000000000000000011000000000000000000000000000000000000000000000000000000000000000001111111100000000111111110000000000000000000000000000000000000000000000000000000000000000000000000000000000000000000000000000000000001100110011001100111100000000000011111111111111111111000000000000000000000000010110000010110000010110000010111010110010101111101110001010000110000010000001111111100010100001100000100000011111111000101000011000001000000111111110001010000110000010000001111111101010100110011101110100101100111110101010011001110111010010111111010101001100111011101001011001010111111010111110100010110111 "
b1010111111010111110100010110111 @+
b11110101010011001110111010010110 `+
b11111010101001100111011101001011 ",
b11101010100110011101110100101100 B,
b11100010100001100000100000011111 b,
b11100010100001100000100000011111 $-
b11100010100001100000100000011111 D-
b11100010100001100000100000011111 d-
b0 \.
b110 N1
b1010101011001111001011100101010100010 T4
b1010000001101100 |4
#7
b111001010111000010110101001011110000001000101001010000001101101000101010101100111100101110010101010001100000000000000000000000000000000000000000000000000000000000000000000000000000000000000000000000000000000000000000000000000000000000000000000000000000000000000001111000011110000111100001111000000000000000000000000000000000000000000000000000000000000000000000000000000000000000000000000000000000000000000000000000000000000000000000000000000000000000000001111111100000000111111110000000000000000000000000000000000000000000000000000000000000000000000000000000000000000000000000000000000001100110011001100111100000000000011111111111111111111000000000000000000000000010110000010110000010110000010111010110010101111100001011111001010111001101000100100010111110010101110011010001001000101111100101011100110100010010001011111001010111001101000100111110001010000110000010000001111001111000101000011000001000000110111100010100001100000100000011111011110101101011111111110011110 "
b11011110101101011111111110011110 @+
b1111000101000011000001000000111 `+
b111100010100001100000100000011 ",
b11110001010000110000010000001111 B,
b10111110010101110011010001001 b,
b10111110010101110011010001001 $-
b10111110010101110011010001001 D-
b10111110010101110011010001001 d-
b0 N1
b1010101011001111001011100101010100011 T4
b1010000001101101 |4
#8
b111001010111000010110101001011110000001000101001010000001101110000101010101100111100101110010101010010000000000000000000000000000000000000000000000000000000000000000000000000000000000000000000000000000000000000000000000000000000000000000000000000000000000000000001111000011110000111100001111010000000000000000000000000000000000000000000000000000000000000000000000000000000000000000000000000000000000000000000000000000000000000000000000000000000000000001001111111100000000111111110000000000000000000000000000000000000000000000000000000000000000000000000000000000000000000000000000000000001100110011001100111100000000000011111111111111111111000000000000000000000000010110000010110000010110000010111010110010101111100110111101101011011001001000111001101111011010110110010010001110011011110110101101100100100011100110111101101011011001001000111000001011111001010111001101000100110000101111100101011100110100011000010111110010101110011010001001000010011000000011111101010010 "
b1000010011000000011111101010010 @+
b10000101111100101011100110100010 `+
b11000010111110010101110011010001 ",
b1011111001010111001101000100 B,
b1101111011010110110010010001110 b,
b1101111011010110110010010001110 $-
b1101111011010110110010010001110 D-
b1101111011010110110010010001110 d-
b100 l0
b11110100 P2
b1010101011001111001011100101010100100 T4
b1010000001101110 |4
#9
b111001010111000010110101001011110000001000101001010000001101111000101010101100111100101110010101010010100000000000000000000000000000000000000000000000000000000000000000000000000000000000000000000000000000000000000000000000000000000000000000000000000000000000000001111000011110000111100001111000100000000000000000000000000000000000000000000000000000000000000000000000000000000000000000000000100000000000000000000000000000000000000000000000000000000000000011111111100000000111111110000000000000000000000000000000000000000000000000000000000000000000000000000000000000000000000000000000000001100110011001100111100000000000011111111111111111111000000000000000000000000010110000010110000010110000010111010110010101111101110101010011001110111010010110011101010100110011101110100101100111010101001100111011101001011001110101010011001110111010010110000110111101101011011001001000111100011011110110101101100100100010001101111011010110110010010001101101111100110111000001010000111 "
b1101111100110111000001010000111 @+
b11011110110101101100100100011 `+
b10001101111011010110110010010001 ",
b110111101101011011001001000111 B,
b11101010100110011101110100101100 b,
b11101010100110011101110100101100 $-
b11101010100110011101110100101100 D-
b11101010100110011101110100101100 d-
b1 l0
b1 N1
b11110001 P2
b1010101011001111001011100101010100101 T4
b1010000001101111 |4
#10
b111001010111000010110101001011110000001000101001010000001110000000101010101100111100101110010101010011000000000000000000000000000000000000000000000000000000000000000000000000000000000000000000000000000000000000000000000000000000000000000000000000000000000000000001111000011110000111100001111000000000000000000000000000000000000000000000000000000000000000000000000000000000000000000000000101000000000000000000000000000000000000000000000000000000000000000001111111100000000111111110000000000000000000000000000000000000000000000000000000000000000000000000000000000000000000000000000000000001100110011001100111100000000000011111111111111111111000000000000000011110000010110000010110000010110000010111010110010101111101111000101000011000001000000111111110001010000110000010000001111111100010100001100000100000011111111000101000011000001000000111111110101010011001110111010010110111111010101001100111011101001011111101010100110011101110100101100010001001111110110010011001000 "
b10001001111110110010011001000 @+
b11111010101001100111011101001011 `+
b11111101010100110011101110100101 ",
b11110101010011001110111010010110 B,
b11110001010000110000010000001111 b,
b11110001010000110000010000001111 $-
b11110001010000110000010000001111 D-
b11110001010000110000010000001111 d-
b1111 \.
b0 l0
b1010 N1
b11110000 P2
b1010101011001111001011100101010100110 T4
b1010000001110000 |4
#11
b111001010111000010110101001011110000001000101001010000001110001000101010101100111100101110010101010011100000000000000000000000000000000000000000000000000000000000000000000000000000000000000000000000000000000000000000000000000000000000000000000000000000000000000001111000011110000111100001111000100000000000000000000000000000000000000000000000000000000000000000000000000000000000000000000100000000000000000000000000000000000000000000000000000000000000000001111111100000000111111110000000000000000000000000000000000000000000000000000000000000000000000000000000000000000000000000000000000001100110011001100111100000000000011111111111111111111000000000000000011110000010110000010110000010110000010111010110010101111100000101111100101011100110100010000001011111001010111001101000100000010111110010101110011010001000000101111100101011100110100010001111000101000011000001000000111100111100010100001100000100000010011110001010000110000010000001110011001010110010010011011101111 "
b10011001010110010010011011101111 @+
b111100010100001100000100000011 `+
b10011110001010000110000010000001 ",
b1111000101000011000001000000111 B,
b1011111001010111001101000100 b,
b1011111001010111001101000100 $-
b1011111001010111001101000100 D-
b1011111001010111001101000100 d-
b1000 N1
b11110001 P2
b1010101011001111001011100101010100111 T4
b1010000001110001 |4
#12
b111001010111000010110101001011110000001000101001010000001110010000101010101100111100101110010101010100000000000000000000000000000000000000000000000000000000000000000000000000000000000000000000000000000000000000000000000000000000000000000000000000000000000000000001111000011110000111100001111001100000000000000000000000000000000000000000000000000000000000000000000000000000000000000000000000000000000000000000000000000000000000000000000000000000000000000011111111100000000111111110000000000000000000000000000000000000000000000000000000000000000000000000000000000000000000000000000000000001100110011001100111100000000000011111111111111111111000000000000000011110000010110000010110000010110000010111010110010101111100011011110110101101100100100011100110111101101011011001001000111001101111011010110110010010001110011011110110101101100100100011110000101111100101011100110100010111000010111110010101110011010001100001011111001010111001101000110001100011111010101000111101110 "
b10001100011111010101000111101110 @+
b11000010111110010101110011010001 `+
b11100001011111001010111001101000 ",
b10000101111100101011100110100010 B,
b110111101101011011001001000111 b,
b110111101101011011001001000111 $-
b110111101101011011001001000111 D-
b110111101101011011001001000111 d-
b1 l0
b0 N1
b11110011 P2
b1010101011001111001011100101010101000 T4
b1010000001110010 |4
#13
b111001010111000010110101001011110000001000101001010000001110011000101010101100111100101110010101010100100000000000000000000000000000000000000000000000000000000000000000000000000000000000000000000000000000000000000000000000000000000000000000000000000000000000000001111000011110000111100001111101100000000000000000000000000000000000000000000000000000000000000000000000000000000000000000000001100000000000000000000000000000000000000000000000000000000000000011111111100000000111111110000000000000000000000000000000000000000000000000000000000000000000000000000000000000000000000000000000000001100110011001100111100000000000011111111111111111111000000000000000011110000010110000010110000010110000010111010110010101111101111010101001100111011101001011011110101010011001110111010010110111101010100110011101110100101101111010101001100111011101001011000011011110110101101100100100011110001101111011010110110010010001000110111101101011011001001000110100010101001000010100001110011 "
b10100010101001000010100001110011 @+
b10001101111011010110110010010001 `+
b11000110111101101011011001001000 ",
b11011110110101101100100100011 B,
b11110101010011001110111010010110 b,
b11110101010011001110111010010110 $-
b11110101010011001110111010010110 D-
b11110101010011001110111010010110 d-
b11 N1
b11111011 P2
b1010101011001111001011100101010101001 T4
b1010000001110011 |4
#14
b111001010111000010110101001011110000001000101001010000001110100000101010101100111100101110010101010101000000000000000000000000000000000000000000000000000000000000000000000000000000000000000000000000000000000000000000000000000000000000000000000000000000000000000001111000011110000111100001111000100000000000000000000000000000000000000000000000000000000000000000000000000000000000000000000100100000000000000000000000000000000000000000000000000000000000000011111111100000000111111110000000000000000000000000000000000000000000000000000000000000000000000000000000000000000000000000000000000001100110011001100111100000000000011111111111111111111000000000000000000000000010110000010110000010110000010111010110010101111100111100010100001100000100000011101111000101000011000001000000111011110001010000110000010000001110111100010100001100000100000011111111010101001100111011101001011111111101010100110011101110100101111110101010011001110111010010101101100000011100110100000101111 "
b1101100000011100110100000101111 @+
b11111101010100110011101110100101 `+
b11111110101010011001110111010010 ",
b11111010101001100111011101001011 B,
b1111000101000011000001000000111 b,
b1111000101000011000001000000111 $-
b1111000101000011000001000000111 D-
b1111000101000011000001000000111 d-
b0 \.
b1001 N1
b11110001 P2
b1010101011001111001011100101010101010 T4
b1010000001110100 |4
#15
b111001010111000010110101001011110000001000101001010000001110101000101010101100111100101110010101010101100000000000000000000000000000000000000000000000000000000000000000000000000000000000000000000000000000000000000000000000000000000000000000000000000000000000000001111000011110000111100001111000000000000000000000000000000000000000000000000000000000000000000000000000000000000000000000000000100000000000000000000000000000000000000000000000000000000000000001111111100000000111111110000000000000000000000000000000000000000000000000000000000000000000000000000000000000000000000000000000000001100110011001100111100000000000011111111111111111111000000000000000000000000010110000010110000010110000010111010110010101111101000010111110010101110011010001010000101111100101011100110100010100001011111001010111001101000101000010111110010101110011010001000111100010100001100000100000011010011110001010000110000010000001001111000101000011000001000000111101101011011001001000111000001 "
b11101101011011001001000111000001 @+
b10011110001010000110000010000001 `+
b1001111000101000011000001000000 ",
b111100010100001100000100000011 B,
b10000101111100101011100110100010 b,
b10000101111100101011100110100010 $-
b10000101111100101011100110100010 D-
b10000101111100101011100110100010 d-
b0 l0
b1 N1
b11110000 P2
b1010101011001111001011100101010101011 T4
b1010000001110101 |4
#16
b111001010111000010110101001011110000001000101001010000001110110000101010101100111100101110010101010110000000000000000000000000000000000000000000000000000000000000000000000000000000000000000000000000000000000000000000000000000000000000000000000000000000000000000001111000011110000111100001111010000000000000000000000000000000000000000000000000000000000000000000000000000000000000000000000000000000000000000000000000000000000000000000000000000000000000000001111111100000000111111110000000000000000000000000000000000000000000000000000000000000000000000000000000000000000000000000000000000001100110011001100111100000000000011111111111111111111000000000000000000000000010110000010110000010110000010111010110010101111100001101111011010110110010010001100011011110110101101100100100011000110111101101011011001001000110001101111011010110110010010001111000010111110010101110011010001011100001011111001010111001101001110000101111100101011100110100010001000110010001000101111011001 "
b10001000110010001000101111011001 @+
b11100001011111001010111001101000 `+
b1110000101111100101011100110100 ",
b11000010111110010101110011010001 B,
b11011110110101101100100100011 b,
b11011110110101101100100100011 $-
b11011110110101101100100100011 D-
b11011110110101101100100100011 d-
b0 N1
b11110100 P2
b1010101011001111001011100101010101100 T4
b1010000001110110 |4
#17
b111001010111000010110101001011110000001000101001010000001110111000101010101100111100101110010101010110100000000000000000000000000000000000000000000000000000000000000000000000000000000000000000000000000000000000000000000000000000000000000000000000000000000000000001111000011110000111100001111000100000000000000000000000000000000000000000000000000000000000000000000000000000000000000000000000000000000000000000000000000000000000000000000000000000000000000001111111100000000111111110000000000000000000000000000000000000000000000000000000000000000000000000000000000000000000000000000000000001100110011001100111100000000000011111111111111111111000000000000000000000000010110000010110000010110000010111010110010101111101111101010100110011101110100101111111010101001100111011101001011111110101010011001110111010010111111101010100110011101110100101110001101111011010110110010010001011000110111101101011011001001001100011011110110101101100100100010100011011001010000111101110111 "
b10100011011001010000111101110111 @+
b11000110111101101011011001001000 `+
b1100011011110110101101100100100 ",
b10001101111011010110110010010001 B,
b11111010101001100111011101001011 b,
b11111010101001100111011101001011 $-
b11111010101001100111011101001011 D-
b11111010101001100111011101001011 d-
b11110001 P2
b1010101011001111001011100101010101101 T4
b1010000001110111 |4
#18
b111001010111000010110101001011110000001000101001010000001111000000101010101100111100101110010101010111000000000000000000000000000000000000000000000000000000000000000000000000000000000000000000000000000000000000000000000000000000000000000000000000000000000000000001111000011110000111100001111000100000000000000000000000000000000000000000000000000000000000000000000000000000000000000000000000000000000000000000000000000000000000000000000000000000000000000001111111100000000111111110000000000000000000000000000000000000000000000000000000000000000000000000000000000000000000000000000000000001100110011001100111100000000000011111111111111111111000000000000000011110000010110000010110000010110000010111010110010101111100011110001010000110000010000001100111100010100001100000100000011001111000101000011000001000000110011110001010000110000010000001111111101010100110011101110100101011111110101010011001110111010011111111010101001100111011101001001111101001100001000111111110110 "
b1111101001100001000111111110110 @+
b11111110101010011001110111010010 `+
b1111111010101001100111011101001 ",
b11111101010100110011101110100101 B,
b111100010100001100000100000011 b,
b111100010100001100000100000011 $-
b111100010100001100000100000011 D-
b111100010100001100000100000011 d-
b1111 \.
b1010101011001111001011100101010101110 T4
b1010000001111000 |4
#19
b111001010111000010110101001011110000001000101001010000001111001000101010101100111100101110010101010111100000000000000000000000000000000000000000000000000000000000000000000000000000000000000000000000000000000000000000000000000000000000000000000000000000000000000001111000011110000111100001111000000000000000000000000000000000000000000000000000000000000000000000000000000000000000000000000000000000000000000000000000000000000000000000000000000000000000000001111111100000000111111110000000000000000000000000000000000000000000000000000000000000000000000000000000000000000000000000000000000001100110011001100111100000000000011111111111111111111000000000000000011110000010110000010110000010110000010111010110010101111101100001011111001010111001101000111000010111110010101110011010001110000101111100101011100110100011100001011111001010111001101000110011110001010000110000010000001001001111000101000011000001000000100111100010100001100000100000010100101101010101100011110011110 "
b10100101101010101100011110011110 @+
b1001111000101000011000001000000 `+
b100111100010100001100000100000 ",
b10011110001010000110000010000001 B,
b11000010111110010101110011010001 b,
b11000010111110010101110011010001 $-
b11000010111110010101110011010001 D-
b11000010111110010101110011010001 d-
b11110000 P2
b1010101011001111001011100101010101111 T4
b1010000001111001 |4
#20
b111001010111000010110101001011110000001000101001010000001111010000101010101100111100101110010101011000000000000000000000000000000000000000000000000000000000000000000000000000000000000000000000000000000000000000000000000000000000000000000000000000000000000000000001111000011110000111100001111100100000000000000000000000000000000000000000000000000000000000000000000000000000000000000000000010000000000000000000000000000000000000000000000000000000000000010001111111100000000111111110000000000000000000000000000000000000000000000000000000000000000000000000000000000000000000000000000000000001100110011001100111100000000000011111111111111111111000000000000000011110000010110000010110000010110000010111010110010101111101000110111101101011011001001000110001101111011010110110010010001100011011110110101101100100100011000110111101101011011001001000111100001011111001010111001101000001110000101111100101011100110100111000010111110010101110011010000110111111011010010110111001111 "
b110111111011010010110111001111 @+
b1110000101111100101011100110100 `+
b111000010111110010101110011010 ",
b11100001011111001010111001101000 B,
b10001101111011010110110010010001 b,
b10001101111011010110110010010001 $-
b10001101111011010110110010010001 D-
b10001101111011010110110010010001 d-
b1000 l0
b100 N1
b11111001 P2
b1010101011001111001011100101010110000 T4
b1010000001111010 |4
#21
b111001010111000010110101001011110000001000101001010000001111011000101010101100111100101110010101011000100000000000000000000000000000000000000000000000000000000000000000000000000000000000000000000000000000000000000000000000000000000000000000000000000000000000000001111000011110000111100001111000000000000000000000000000000000000000000000000000000000000000000000000000000000000000000000000000000000000000000000000000000000000000000000000000000000000000000011111111100000000111111110000000000000000000000000000000000000000000000000000000000000000000000000000000000000000000000000000000000001100110011001100111100000000000011111111111111111111000000000000000000000000010110000010110000010110000010111010110010101111101111110101010011001110111010010111111101010100110011101110100101111111010101001100111011101001011111110101010011001110111010010111000110111101101011011001001000101100011011110110101101100100100110001101111011010110110010010010001000110101111101111011110111 "
b10001000110101111101111011110111 @+
b1100011011110110101101100100100 `+
b10110001101111011010110110010010 ",
b11000110111101101011011001001000 B,
b11111101010100110011101110100101 b,
b11111101010100110011101110100101 $-
b11111101010100110011101110100101 D-
b11111101010100110011101110100101 d-
b0 \.
b1 l0
b0 N1
b11110000 P2
b1010101011001111001011100101010110001 T4
b1010000001111011 |4
#22
b111001010111000010110101001011110000001000101001010000001111100000101010101100111100101110010101011001000000000000000000000000000000000000000000000000000000000000000000000000000000000000000000000000000000000000000000000000000000000000000000000000000000000000000001111000011110000111100001111000000000000000000000000000000000000000000000000000000000000000000000000000000000000000000000000000000000000000000000000000000000000000000000000000000000000000000001111111100000000111111110000000000000000000000000000000000000000000000000000000000000000000000000000000000000000000000000000000000001100110011001100111100000000000011111111111111111111000000000000000000000000010110000010110000010110000010111010110010101111101001111000101000011000001000000110011110001010000110000010000001100111100010100001100000100000011001111000101000011000001000000111111110101010011001110111010010001111111010101001100111011101000111111101010100110011101110100100010101111011100011011110010111 "
b10101111011100011011110010111 @+
b1111111010101001100111011101001 `+
b111111101010100110011101110100 ",
b11111110101010011001110111010010 B,
b10011110001010000110000010000001 b,
b10011110001010000110000010000001 $-
b10011110001010000110000010000001 D-
b10011110001010000110000010000001 d-
b0 l0
b1010101011001111001011100101010110010 T4
b1010000001111100 |4
#23
b111001010111000010110101001011110000001000101001010000001111101000101010101100111100101110010101011001100000000000000000000000000000000000000000000000000000000000000000000000000000000000000000000000000000000000000000000000000000000000000000000000000000000000000001111000011110000111100001111100000000000000000000000000000000000000000000000000000000000000000000000000000000000000000000000100100000000000000000000000000000000000000000000000000000000000010001111111100000000111111110000000000000000000000000000000000000000000000000000000000000000000000000000000000000000000000000000000000001100110011001100111100000000000011111111111111111111000000000000000000000000010110000010110000010110000010111010110010101111101110000101111100101011100110100011100001011111001010111001101000111000010111110010101110011010001110000101111100101011100110100001001111000101000011000001000000000100111100010100001100000100000010011110001010000110000010000010101001000110100111001010110111 "
b10101001000110100111001010110111 @+
b100111100010100001100000100000 `+
b10011110001010000110000010000 ",
b1001111000101000011000001000000 B,
b11100001011111001010111001101000 b,
b11100001011111001010111001101000 $-
b11100001011111001010111001101000 D-
b11100001011111001010111001101000 d-
b1000 l0
b1001 N1
b11111000 P2
b1010101011001111001011100101010110011 T4
b1010000001111101 |4
