OpticalTests/.Xil/Vivado-37792-higgs.physics.ucsb.edu/hw_ila_data_1/zip_work/waveform.vcd
$date
        2021-Nov-26 14:32:57
$end
$version
        Vivado v2019.2 (64-bit)
$end
$timescale
        1ps
$end
$scope module dut $end
$var reg 32 " receiver_0 [31:0] $end
$var reg 618 B ila_data [617:0] $end
$var reg 32 x' receiver_1 [31:0] $end
$var reg 32 :( receiver_2 [31:0] $end
$var reg 32 Z( receiver_3 [31:0] $end
$var reg 32 z( transmitter_0 [31:0] $end
$var reg 32 <) transmitter_1 [31:0] $end
$var reg 32 \) transmitter_2 [31:0] $end
$var reg 32 |) transmitter_3 [31:0] $end
$var reg 4 >* prbs_match_int [3:0] $end
$var reg 16 B* ch0_rxctrl0_int [15:0] $end
$var reg 16 R* ch1_rxctrl0_int [15:0] $end
$var reg 16 b* ch2_rxctrl0_int [15:0] $end
$var reg 16 r* ch3_rxctrl0_int [15:0] $end
$var reg 16 $+ ch0_rxctrl1_int [15:0] $end
$var reg 16 4+ ch1_rxctrl1_int [15:0] $end
$var reg 16 D+ ch2_rxctrl1_int [15:0] $end
$var reg 16 T+ ch3_rxctrl1_int [15:0] $end
$var reg 8 d+ ch0_rxctrl2_int [7:0] $end
$var reg 8 l+ ch1_rxctrl2_int [7:0] $end
$var reg 8 t+ ch2_rxctrl2_int [7:0] $end
$var reg 8 |+ ch3_rxctrl2_int [7:0] $end
$var reg 8 &, ch0_rxctrl3_int [7:0] $end
$var reg 8 ., ch1_rxctrl3_int [7:0] $end
$var reg 8 6, ch2_rxctrl3_int [7:0] $end
$var reg 8 >, ch3_rxctrl3_int [7:0] $end
$var reg 16 F, ch0_txctrl0_int [15:0] $end
$var reg 16 V, ch1_txctrl0_int [15:0] $end
$var reg 16 f, ch2_txctrl0_int [15:0] $end
$var reg 16 v, ch3_txctrl0_int [15:0] $end
$var reg 16 (- ch0_txctrl1_int [15:0] $end
$var reg 16 8- ch1_txctrl1_int [15:0] $end
$var reg 16 H- ch2_txctrl1_int [15:0] $end
$var reg 16 X- ch3_txctrl1_int [15:0] $end
$var reg 8 h- ch0_txctrl2_int [7:0] $end
$var reg 8 p- ch1_txctrl2_int [7:0] $end
$var reg 8 x- ch2_txctrl2_int [7:0] $end
$var reg 8 ". ch3_txctrl2_int [7:0] $end
$var reg 1 *. hb0_gtwiz_userclk_rx_usrclk2_int $end
$var reg 1 +. hb0_gtwiz_userclk_rx_active_int $end
$var reg 1 ,. hb_gtwiz_reset_all_int $end
$var reg 1 -. hb0_gtwiz_reset_rx_done_int $end
$var reg 1 .. hb0_gtwiz_userclk_tx_usrclk2_int $end
$var reg 1 /. hb0_gtwiz_userclk_tx_active_int $end
$var reg 1 0. _TRIGGER $end
$var reg 1 1. _WINDOW $end
$var reg 1 2. _GAP $end
$upscope $end
$enddefinitions $end
#0
$dumpvars
b10111101000011010101000000111100 "
b101010000000000000000000000000000000000000000000000000000000000000000000000000000000000000000000000000000000000000000000000000000000000000000000000000000000000000000011110000111100001111000011110000000000000000000000000000000000000000000000000000000000000000000000000000000000000000000000000000000000000000000000000000000000000000000000000000000000000000000000001000010111011111010100000011110001111010001000000101000000111100010000101110111101010000001111001011110100010000010100000011110010000101111001010101000000111100011110100001101001010000001111000100001011110010010100000011110010111101000011010101000000111100 B
b1000010111100100101000000111100 x'
b1111010000110100101000000111100 :(
b10000101111001010101000000111100 Z(
b10111101000100000101000000111100 z(
b1000010111011110101000000111100 <)
b1111010001000000101000000111100 \)
b10000101110111110101000000111100 |)
b0 >*
b0 B*
b0 R*
b0 b*
b0 r*
b0 $+
b0 4+
b0 D+
b0 T+
b0 d+
b0 l+
b0 t+
b0 |+
b11110000 &,
b11110000 .,
b11110000 6,
b11110000 >,
b0 F,
b0 V,
b0 f,
b0 v,
b0 (-
b0 8-
b0 H-
b0 X-
b0 h-
b0 p-
b0 x-
b0 ".
0*.
1+.
0,.
1-.
0..
1/.
00.
11.
02.
$end
#1
b10111101000011100101000000111100 "
b101010000000000000000000000000000000000000000000000000000000000000000000000000000000000000000000000000000000000000000000000000000000000000000000000000000000000000000011110000111100001111000011110000000000000000000000000000000000000000000000000000000000000000000000000000000000000000000000000000000000000000000000000000000000000000000000000000000000000000000000001000010111011101010100000011110001111010001000100101000000111100010000101110111001010000001111001011110100010001010100000011110010000101111000110101000000111100011110100001110001010000001111000100001011110001010100000011110010111101000011100101000000111100 B
b1000010111100010101000000111100 x'
b1111010000111000101000000111100 :(
b10000101111000110101000000111100 Z(
b10111101000100010101000000111100 z(
b1000010111011100101000000111100 <)
b1111010001000100101000000111100 \)
b10000101110111010101000000111100 |)
#2
b10111101000011110101000000111100 "
b111011000000000000000000000000000000000000000000000000000000000000000000000000000000000000000000000000000000000000000000000000000000000000000000000000000000000000000011110000111100001111000011110000000000000000000000000000000000000000000000000000000000000000000000000000000000000000000000000000000000000000000000000000000000000000000000000000000000000000000000001000010111011011010100000011110001111010001001000101000000111100010000101110110101010000001111001011110100010010010100000011110010000101111000010101000000111100011110100001111001010000001111000100001011110000010100000011110010111101000011110101000000111100 B
b1000010111100000101000000111100 x'
b1111010000111100101000000111100 :(
b10000101111000010101000000111100 Z(
b10111101000100100101000000111100 z(
b1000010111011010101000000111100 <)
b1111010001001000101000000111100 \)
b10000101110110110101000000111100 |)
1*.
1..
#3
b10111101000100000101000000111100 "
b111011000000000000000000000000000000000000000000000000000000000000000000000000000000000000000000000000000000000000000000000000000000000000000000000000000000000000000011110000111100001111000011110000000000000000000000000000000000000000000000000000000000000000000000000000000000000000000000000000000000000000000000000000000000000000000000000000000000000000000000001000010111011001010100000011110001111010001001100101000000111100010000101110110001010000001111001011110100010011010100000011110010000101110111110101000000111100011110100010000001010000001111000100001011101111010100000011110010111101000100000101000000111100 B
b1000010111011110101000000111100 x'
b1111010001000000101000000111100 :(
b10000101110111110101000000111100 Z(
b10111101000100110101000000111100 z(
b1000010111011000101000000111100 <)
b1111010001001100101000000111100 \)
b10000101110110010101000000111100 |)
#4
b10111101000100010101000000111100 "
b111010000000000000000000000000000000000000000000000000000000000000000000000000000000000000000000000000000000000000000000000000000000000000000000000000000000000000000011110000111100001111000011110000000000000000000000000000000000000000000000000000000000000000000000000000000000000000000000000000000000000000000000000000000000000000000000000000000000000000000000001000010111010111010100000011110001111010001010000101000000111100010000101110101101010000001111001011110100010100010100000011110010000101110111010101000000111100011110100010001001010000001111000100001011101110010100000011110010111101000100010101000000111100 B
b1000010111011100101000000111100 x'
b1111010001000100101000000111100 :(
b10000101110111010101000000111100 Z(
b10111101000101000101000000111100 z(
b1000010111010110101000000111100 <)
b1111010001010000101000000111100 \)
b10000101110101110101000000111100 |)
0*.
#5
b10111101000100100101000000111100 "
b101010000000000000000000000000000000000000000000000000000000000000000000000000000000000000000000000000000000000000000000000000000000000000000000000000000000000000000011110000111100001111000011110000000000000000000000000000000000000000000000000000000000000000000000000000000000000000000000000000000000000000000000000000000000000000000000000000000000000000000000001000010111010101010100000011110001111010001010100101000000111100010000101110101001010000001111001011110100010101010100000011110010000101110110110101000000111100011110100010010001010000001111000100001011101101010100000011110010111101000100100101000000111100 B
b1000010111011010101000000111100 x'
b1111010001001000101000000111100 :(
b10000101110110110101000000111100 Z(
b10111101000101010101000000111100 z(
b1000010111010100101000000111100 <)
b1111010001010100101000000111100 \)
b10000101110101010101000000111100 |)
0..
#6
b10111101000100110101000000111100 "
b101010000000000000000000000000000000000000000000000000000000000000000000000000000000000000000000000000000000000000000000000000000000000000000000000000000000000000000011110000111100001111000011110000000000000000000000000000000000000000000000000000000000000000000000000000000000000000000000000000000000000000000000000000000000000000000000000000000000000000000000001000010111010011010100000011110001111010001011000101000000111100010000101110100101010000001111001011110100010110010100000011110010000101110110010101000000111100011110100010011001010000001111000100001011101100010100000011110010111101000100110101000000111100 B
b1000010111011000101000000111100 x'
b1111010001001100101000000111100 :(
b10000101110110010101000000111100 Z(
b10111101000101100101000000111100 z(
b1000010111010010101000000111100 <)
b1111010001011000101000000111100 \)
b10000101110100110101000000111100 |)
#7
b10111101000101000101000000111100 "
b111011000000000000000000000000000000000000000000000000000000000000000000000000000000000000000000000000000000000000000000000000000000000000000000000000000000000000000011110000111100001111000011110000000000000000000000000000000000000000000000000000000000000000000000000000000000000000000000000000000000000000000000000000000000000000000000000000000000000000000000001000010111010001010100000011110001111010001011100101000000111100010000101110100001010000001111001011110100010111010100000011110010000101110101110101000000111100011110100010100001010000001111000100001011101011010100000011110010111101000101000101000000111100 B
b1000010111010110101000000111100 x'
b1111010001010000101000000111100 :(
b10000101110101110101000000111100 Z(
b10111101000101110101000000111100 z(
b1000010111010000101000000111100 <)
b1111010001011100101000000111100 \)
b10000101110100010101000000111100 |)
1*.
1..
#8
b10111101000101010101000000111100 "
b111011000000000000000000000000000000000000000000000000000000000000000000000000000000000000000000000000000000000000000000000000000000000000000000000000000000000000000011110000111100001111000011110000000000000000000000000000000000000000000000000000000000000000000000000000000000000000000000000000000000000000000000000000000000000000000000000000000000000000000000001000010111001111010100000011110001111010001100000101000000111100010000101110011101010000001111001011110100011000010100000011110010000101110101010101000000111100011110100010101001010000001111000100001011101010010100000011110010111101000101010101000000111100 B
b1000010111010100101000000111100 x'
b1111010001010100101000000111100 :(
b10000101110101010101000000111100 Z(
b10111101000110000101000000111100 z(
b1000010111001110101000000111100 <)
b1111010001100000101000000111100 \)
b10000101110011110101000000111100 |)
#9
b10111101000101100101000000111100 "
b111010000000000000000000000000000000000000000000000000000000000000000000000000000000000000000000000000000000000000000000000000000000000000000000000000000000000000000011110000111100001111000011110000000000000000000000000000000000000000000000000000000000000000000000000000000000000000000000000000000000000000000000000000000000000000000000000000000000000000000000001000010111001101010100000011110001111010001100100101000000111100010000101110011001010000001111001011110100011001010100000011110010000101110100110101000000111100011110100010110001010000001111000100001011101001010100000011110010111101000101100101000000111100 B
b1000010111010010101000000111100 x'
b1111010001011000101000000111100 :(
b10000101110100110101000000111100 Z(
b10111101000110010101000000111100 z(
b1000010111001100101000000111100 <)
b1111010001100100101000000111100 \)
b10000101110011010101000000111100 |)
0*.
#10
b10111101000101110101000000111100 "
b101010000000000000000000000000000000000000000000000000000000000000000000000000000000000000000000000000000000000000000000000000000000000000000000000000000000000000000011110000111100001111000011110000000000000000000000000000000000000000000000000000000000000000000000000000000000000000000000000000000000000000000000000000000000000000000000000000000000000000000000001000010111001011010100000011110001111010001101000101000000111100010000101110010101010000001111001011110100011010010100000011110010000101110100010101000000111100011110100010111001010000001111000100001011101000010100000011110010111101000101110101000000111100 B
b1000010111010000101000000111100 x'
b1111010001011100101000000111100 :(
b10000101110100010101000000111100 Z(
b10111101000110100101000000111100 z(
b1000010111001010101000000111100 <)
b1111010001101000101000000111100 \)
b10000101110010110101000000111100 |)
0..
#11
b10111101000110000101000000111100 "
b101010000000000000000000000000000000000000000000000000000000000000000000000000000000000000000000000000000000000000000000000000000000000000000000000000000000000000000011110000111100001111000011110000000000000000000000000000000000000000000000000000000000000000000000000000000000000000000000000000000000000000000000000000000000000000000000000000000000000000000000001000010111001001010100000011110001111010001101100101000000111100010000101110010001010000001111001011110100011011010100000011110010000101110011110101000000111100011110100011000001010000001111000100001011100111010100000011110010111101000110000101000000111100 B
b1000010111001110101000000111100 x'
b1111010001100000101000000111100 :(
b10000101110011110101000000111100 Z(
b10111101000110110101000000111100 z(
b1000010111001000101000000111100 <)
b1111010001101100101000000111100 \)
b10000101110010010101000000111100 |)
#12
b10111101000110010101000000111100 "
b111011000000000000000000000000000000000000000000000000000000000000000000000000000000000000000000000000000000000000000000000000000000000000000000000000000000000000000011110000111100001111000011110000000000000000000000000000000000000000000000000000000000000000000000000000000000000000000000000000000000000000000000000000000000000000000000000000000000000000000000001000010111000111010100000011110001111010001110000101000000111100010000101110001101010000001111001011110100011100010100000011110010000101110011010101000000111100011110100011001001010000001111000100001011100110010100000011110010111101000110010101000000111100 B
b1000010111001100101000000111100 x'
b1111010001100100101000000111100 :(
b10000101110011010101000000111100 Z(
b10111101000111000101000000111100 z(
b1000010111000110101000000111100 <)
b1111010001110000101000000111100 \)
b10000101110001110101000000111100 |)
1*.
1..
#13
b10111101000110100101000000111100 "
b111011000000000000000000000000000000000000000000000000000000000000000000000000000000000000000000000000000000000000000000000000000000000000000000000000000000000000000011110000111100001111000011110000000000000000000000000000000000000000000000000000000000000000000000000000000000000000000000000000000000000000000000000000000000000000000000000000000000000000000000001000010111000101010100000011110001111010001110100101000000111100010000101110001001010000001111001011110100011101010100000011110010000101110010110101000000111100011110100011010001010000001111000100001011100101010100000011110010111101000110100101000000111100 B
b1000010111001010101000000111100 x'
b1111010001101000101000000111100 :(
b10000101110010110101000000111100 Z(
b10111101000111010101000000111100 z(
b1000010111000100101000000111100 <)
b1111010001110100101000000111100 \)
b10000101110001010101000000111100 |)
#14
b10111101000110110101000000111100 "
b111010000000000000000000000000000000000000000000000000000000000000000000000000000000000000000000000000000000000000000000000000000000000000000000000000000000000000000011110000111100001111000011110000000000000000000000000000000000000000000000000000000000000000000000000000000000000000000000000000000000000000000000000000000000000000000000000000000000000000000000001000010111000011010100000011110001111010001111000101000000111100010000101110000101010000001111001011110100011110010100000011110010000101110010010101000000111100011110100011011001010000001111000100001011100100010100000011110010111101000110110101000000111100 B
b1000010111001000101000000111100 x'
b1111010001101100101000000111100 :(
b10000101110010010101000000111100 Z(
b10111101000111100101000000111100 z(
b1000010111000010101000000111100 <)
b1111010001111000101000000111100 \)
b10000101110000110101000000111100 |)
0*.
#15
b10111101000111000101000000111100 "
b101010000000000000000000000000000000000000000000000000000000000000000000000000000000000000000000000000000000000000000000000000000000000000000000000000000000000000000011110000111100001111000011110000000000000000000000000000000000000000000000000000000000000000000000000000000000000000000000000000000000000000000000000000000000000000000000000000000000000000000000001000010111000001010100000011110001111010001111100101000000111100010000101110000001010000001111001011110100011111010100000011110010000101110001110101000000111100011110100011100001010000001111000100001011100011010100000011110010111101000111000101000000111100 B
b1000010111000110101000000111100 x'
b1111010001110000101000000111100 :(
b10000101110001110101000000111100 Z(
b10111101000111110101000000111100 z(
b1000010111000000101000000111100 <)
b1111010001111100101000000111100 \)
b10000101110000010101000000111100 |)
0..
#16
b10111101000111010101000000111100 "
b101010000000000000000000000000000000000000000000000000000000000000000000000000000000000000000000000000000000000000000000000000000000000000000000000000000000000000000011110000111100001111000011110000000000000000000000000000000000000000000000000000000000000000000000000000000000000000000000000000000000000000000000000000000000000000000000000000000000000000000000001000010110111111010100000011110001111010010000000101000000111100010000101101111101010000001111001011110100100000010100000011110010000101110001010101000000111100011110100011101001010000001111000100001011100010010100000011110010111101000111010101000000111100 B
b1000010111000100101000000111100 x'
b1111010001110100101000000111100 :(
b10000101110001010101000000111100 Z(
b10111101001000000101000000111100 z(
b1000010110111110101000000111100 <)
b1111010010000000101000000111100 \)
b10000101101111110101000000111100 |)
#17
b10111101000111100101000000111100 "
b111011000000000000000000000000000000000000000000000000000000000000000000000000000000000000000000000000000000000000000000000000000000000000000000000000000000000000000011110000111100001111000011110000000000000000000000000000000000000000000000000000000000000000000000000000000000000000000000000000000000000000000000000000000000000000000000000000000000000000000000001000010110111101010100000011110001111010010000100101000000111100010000101101111001010000001111001011110100100001010100000011110010000101110000110101000000111100011110100011110001010000001111000100001011100001010100000011110010111101000111100101000000111100 B
b1000010111000010101000000111100 x'
b1111010001111000101000000111100 :(
b10000101110000110101000000111100 Z(
b10111101001000010101000000111100 z(
b1000010110111100101000000111100 <)
b1111010010000100101000000111100 \)
b10000101101111010101000000111100 |)
1*.
1..
#18
b10111101000111110101000000111100 "
b111011000000000000000000000000000000000000000000000000000000000000000000000000000000000000000000000000000000000000000000000000000000000000000000000000000000000000000011110000111100001111000011110000000000000000000000000000000000000000000000000000000000000000000000000000000000000000000000000000000000000000000000000000000000000000000000000000000000000000000000001000010110111011010100000011110001111010010001000101000000111100010000101101110101010000001111001011110100100010010100000011110010000101110000010101000000111100011110100011111001010000001111000100001011100000010100000011110010111101000111110101000000111100 B
b1000010111000000101000000111100 x'
b1111010001111100101000000111100 :(
b10000101110000010101000000111100 Z(
b10111101001000100101000000111100 z(
b1000010110111010101000000111100 <)
b1111010010001000101000000111100 \)
b10000101101110110101000000111100 |)
#19
b10111101001000000101000000111100 "
b111010000000000000000000000000000000000000000000000000000000000000000000000000000000000000000000000000000000000000000000000000000000000000000000000000000000000000000011110000111100001111000011110000000000000000000000000000000000000000000000000000000000000000000000000000000000000000000000000000000000000000000000000000000000000000000000000000000000000000000000001000010110111001010100000011110001111010010001100101000000111100010000101101110001010000001111001011110100100011010100000011110010000101101111110101000000111100011110100100000001010000001111000100001011011111010100000011110010111101001000000101000000111100 B
b1000010110111110101000000111100 x'
b1111010010000000101000000111100 :(
b10000101101111110101000000111100 Z(
b10111101001000110101000000111100 z(
b1000010110111000101000000111100 <)
b1111010010001100101000000111100 \)
b10000101101110010101000000111100 |)
0*.
#20
b10111101001000010101000000111100 "
b101010000000000000000000000000000000000000000000000000000000000000000000000000000000000000000000000000000000000000000000000000000000000000000000000000000000000000000011110000111100001111000011110000000000000000000000000000000000000000000000000000000000000000000000000000000000000000000000000000000000000000000000000000000000000000000000000000000000000000000000001000010110110111010100000011110001111010010010000101000000111100010000101101101101010000001111001011110100100100010100000011110010000101101111010101000000111100011110100100001001010000001111000100001011011110010100000011110010111101001000010101000000111100 B
b1000010110111100101000000111100 x'
b1111010010000100101000000111100 :(
b10000101101111010101000000111100 Z(
b10111101001001000101000000111100 z(
b1000010110110110101000000111100 <)
b1111010010010000101000000111100 \)
b10000101101101110101000000111100 |)
0..
#21
b10111101001000100101000000111100 "
b101010000000000000000000000000000000000000000000000000000000000000000000000000000000000000000000000000000000000000000000000000000000000000000000000000000000000000000011110000111100001111000011110000000000000000000000000000000000000000000000000000000000000000000000000000000000000000000000000000000000000000000000000000000000000000000000000000000000000000000000001000010110110101010100000011110001111010010010100101000000111100010000101101101001010000001111001011110100100101010100000011110010000101101110110101000000111100011110100100010001010000001111000100001011011101010100000011110010111101001000100101000000111100 B
b1000010110111010101000000111100 x'
b1111010010001000101000000111100 :(
b10000101101110110101000000111100 Z(
b10111101001001010101000000111100 z(
b1000010110110100101000000111100 <)
b1111010010010100101000000111100 \)
b10000101101101010101000000111100 |)
#22
b10111101001000110101000000111100 "
b111011000000000000000000000000000000000000000000000000000000000000000000000000000000000000000000000000000000000000000000000000000000000000000000000000000000000000000011110000111100001111000011110000000000000000000000000000000000000000000000000000000000000000000000000000000000000000000000000000000000000000000000000000000000000000000000000000000000000000000000001000010110110011010100000011110001111010010011000101000000111100010000101101100101010000001111001011110100100110010100000011110010000101101110010101000000111100011110100100011001010000001111000100001011011100010100000011110010111101001000110101000000111100 B
b1000010110111000101000000111100 x'
b1111010010001100101000000111100 :(
b10000101101110010101000000111100 Z(
b10111101001001100101000000111100 z(
b1000010110110010101000000111100 <)
b1111010010011000101000000111100 \)
b10000101101100110101000000111100 |)
1*.
1..
#23
b10111101001001000101000000111100 "
b111011000000000000000000000000000000000000000000000000000000000000000000000000000000000000000000000000000000000000000000000000000000000000000000000000000000000000000011110000111100001111000011110000000000000000000000000000000000000000000000000000000000000000000000000000000000000000000000000000000000000000000000000000000000000000000000000000000000000000000000001000010110110001010100000011110001111010010011100101000000111100010000101101100001010000001111001011110100100111010100000011110010000101101101110101000000111100011110100100100001010000001111000100001011011011010100000011110010111101001001000101000000111100 B
b1000010110110110101000000111100 x'
b1111010010010000101000000111100 :(
b10000101101101110101000000111100 Z(
b10111101001001110101000000111100 z(
b1000010110110000101000000111100 <)
b1111010010011100101000000111100 \)
b10000101101100010101000000111100 |)
#24
b10111101001001010101000000111100 "
b111010000000000000000000000000000000000000000000000000000000000000000000000000000000000000000000000000000000000000000000000000000000000000000000000000000000000000000011110000111100001111000011110000000000000000000000000000000000000000000000000000000000000000000000000000000000000000000000000000000000000000000000000000000000000000000000000000000000000000000000001000010110101111010100000011110001111010010100000101000000111100010000101101011101010000001111001011110100101000010100000011110010000101101101010101000000111100011110100100101001010000001111000100001011011010010100000011110010111101001001010101000000111100 B
b1000010110110100101000000111100 x'
b1111010010010100101000000111100 :(
b10000101101101010101000000111100 Z(
b10111101001010000101000000111100 z(
b1000010110101110101000000111100 <)
b1111010010100000101000000111100 \)
b10000101101011110101000000111100 |)
0*.
#25
b10111101001001100101000000111100 "
b101010000000000000000000000000000000000000000000000000000000000000000000000000000000000000000000000000000000000000000000000000000000000000000000000000000000000000000011110000111100001111000011110000000000000000000000000000000000000000000000000000000000000000000000000000000000000000000000000000000000000000000000000000000000000000000000000000000000000000000000001000010110101101010100000011110001111010010100100101000000111100010000101101011001010000001111001011110100101001010100000011110010000101101100110101000000111100011110100100110001010000001111000100001011011001010100000011110010111101001001100101000000111100 B
b1000010110110010101000000111100 x'
b1111010010011000101000000111100 :(
b10000101101100110101000000111100 Z(
b10111101001010010101000000111100 z(
b1000010110101100101000000111100 <)
b1111010010100100101000000111100 \)
b10000101101011010101000000111100 |)
0..
#26
b10111101001001110101000000111100 "
b101010000000000000000000000000000000000000000000000000000000000000000000000000000000000000000000000000000000000000000000000000000000000000000000000000000000000000000011110000111100001111000011110000000000000000000000000000000000000000000000000000000000000000000000000000000000000000000000000000000000000000000000000000000000000000000000000000000000000000000000001000010110101011010100000011110001111010010101000101000000111100010000101101010101010000001111001011110100101010010100000011110010000101101100010101000000111100011110100100111001010000001111000100001011011000010100000011110010111101001001110101000000111100 B
b1000010110110000101000000111100 x'
b1111010010011100101000000111100 :(
b10000101101100010101000000111100 Z(
b10111101001010100101000000111100 z(
b1000010110101010101000000111100 <)
b1111010010101000101000000111100 \)
b10000101101010110101000000111100 |)
#27
b10111101001010000101000000111100 "
b111011000000000000000000000000000000000000000000000000000000000000000000000000000000000000000000000000000000000000000000000000000000000000000000000000000000000000000011110000111100001111000011110000000000000000000000000000000000000000000000000000000000000000000000000000000000000000000000000000000000000000000000000000000000000000000000000000000000000000000000001000010110101001010100000011110001111010010101100101000000111100010000101101010001010000001111001011110100101011010100000011110010000101101011110101000000111100011110100101000001010000001111000100001011010111010100000011110010111101001010000101000000111100 B
b1000010110101110101000000111100 x'
b1111010010100000101000000111100 :(
b10000101101011110101000000111100 Z(
b10111101001010110101000000111100 z(
b1000010110101000101000000111100 <)
b1111010010101100101000000111100 \)
b10000101101010010101000000111100 |)
1*.
1..
#28
b10111101001010010101000000111100 "
b111011000000000000000000000000000000000000000000000000000000000000000000000000000000000000000000000000000000000000000000000000000000000000000000000000000000000000000011110000111100001111000011110000000000000000000000000000000000000000000000000000000000000000000000000000000000000000000000000000000000000000000000000000000000000000000000000000000000000000000000001000010110100111010100000011110001111010010110000101000000111100010000101101001101010000001111001011110100101100010100000011110010000101101011010101000000111100011110100101001001010000001111000100001011010110010100000011110010111101001010010101000000111100 B
b1000010110101100101000000111100 x'
b1111010010100100101000000111100 :(
b10000101101011010101000000111100 Z(
b10111101001011000101000000111100 z(
b1000010110100110101000000111100 <)
b1111010010110000101000000111100 \)
b10000101101001110101000000111100 |)
#29
b10111101001010100101000000111100 "
b111010000000000000000000000000000000000000000000000000000000000000000000000000000000000000000000000000000000000000000000000000000000000000000000000000000000000000000011110000111100001111000011110000000000000000000000000000000000000000000000000000000000000000000000000000000000000000000000000000000000000000000000000000000000000000000000000000000000000000000000001000010110100101010100000011110001111010010110100101000000111100010000101101001001010000001111001011110100101101010100000011110010000101101010110101000000111100011110100101010001010000001111000100001011010101010100000011110010111101001010100101000000111100 B
b1000010110101010101000000111100 x'
b1111010010101000101000000111100 :(
b10000101101010110101000000111100 Z(
b10111101001011010101000000111100 z(
b1000010110100100101000000111100 <)
b1111010010110100101000000111100 \)
b10000101101001010101000000111100 |)
0*.
#30
b10111101001010110101000000111100 "
b101010000000000000000000000000000000000000000000000000000000000000000000000000000000000000000000000000000000000000000000000000000000000000000000000000000000000000000011110000111100001111000011110000000000000000000000000000000000000000000000000000000000000000000000000000000000000000000000000000000000000000000000000000000000000000000000000000000000000000000000001000010110100011010100000011110001111010010111000101000000111100010000101101000101010000001111001011110100101110010100000011110010000101101010010101000000111100011110100101011001010000001111000100001011010100010100000011110010111101001010110101000000111100 B
b1000010110101000101000000111100 x'
b1111010010101100101000000111100 :(
b10000101101010010101000000111100 Z(
b10111101001011100101000000111100 z(
b1000010110100010101000000111100 <)
b1111010010111000101000000111100 \)
b10000101101000110101000000111100 |)
0..
#31
b10111101001011000101000000111100 "
b101010000000000000000000000000000000000000000000000000000000000000000000000000000000000000000000000000000000000000000000000000000000000000000000000000000000000000000011110000111100001111000011110000000000000000000000000000000000000000000000000000000000000000000000000000000000000000000000000000000000000000000000000000000000000000000000000000000000000000000000001000010110100001010100000011110001111010010111100101000000111100010000101101000001010000001111001011110100101111010100000011110010000101101001110101000000111100011110100101100001010000001111000100001011010011010100000011110010111101001011000101000000111100 B
b1000010110100110101000000111100 x'
b1111010010110000101000000111100 :(
b10000101101001110101000000111100 Z(
b10111101001011110101000000111100 z(
b1000010110100000101000000111100 <)
b1111010010111100101000000111100 \)
b10000101101000010101000000111100 |)
#32
b10111101001011010101000000111100 "
b111011000000000000000000000000000000000000000000000000000000000000000000000000000000000000000000000000000000000000000000000000000000000000000000000000000000000000000011110000111100001111000011110000000000000000000000000000000000000000000000000000000000000000000000000000000000000000000000000000000000000000000000000000000000000000000000000000000000000000000000001000010110011111010100000011110001111010011000000101000000111100010000101100111101010000001111001011110100110000010100000011110010000101101001010101000000111100011110100101101001010000001111000100001011010010010100000011110010111101001011010101000000111100 B
b1000010110100100101000000111100 x'
b1111010010110100101000000111100 :(
b10000101101001010101000000111100 Z(
b10111101001100000101000000111100 z(
b1000010110011110101000000111100 <)
b1111010011000000101000000111100 \)
b10000101100111110101000000111100 |)
1*.
1..
#33
b10111101001011100101000000111100 "
b111011000000000000000000000000000000000000000000000000000000000000000000000000000000000000000000000000000000000000000000000000000000000000000000000000000000000000000011110000111100001111000011110000000000000000000000000000000000000000000000000000000000000000000000000000000000000000000000000000000000000000000000000000000000000000000000000000000000000000000000001000010110011101010100000011110001111010011000100101000000111100010000101100111001010000001111001011110100110001010100000011110010000101101000110101000000111100011110100101110001010000001111000100001011010001010100000011110010111101001011100101000000111100 B
b1000010110100010101000000111100 x'
b1111010010111000101000000111100 :(
b10000101101000110101000000111100 Z(
b10111101001100010101000000111100 z(
b1000010110011100101000000111100 <)
b1111010011000100101000000111100 \)
b10000101100111010101000000111100 |)
#34
b10111101001011110101000000111100 "
b111010000000000000000000000000000000000000000000000000000000000000000000000000000000000000000000000000000000000000000000000000000000000000000000000000000000000000000011110000111100001111000011110000000000000000000000000000000000000000000000000000000000000000000000000000000000000000000000000000000000000000000000000000000000000000000000000000000000000000000000001000010110011011010100000011110001111010011001000101000000111100010000101100110101010000001111001011110100110010010100000011110010000101101000010101000000111100011110100101111001010000001111000100001011010000010100000011110010111101001011110101000000111100 B
b1000010110100000101000000111100 x'
b1111010010111100101000000111100 :(
b10000101101000010101000000111100 Z(
b10111101001100100101000000111100 z(
b1000010110011010101000000111100 <)
b1111010011001000101000000111100 \)
b10000101100110110101000000111100 |)
0*.
#35
b10111101001100000101000000111100 "
b101010000000000000000000000000000000000000000000000000000000000000000000000000000000000000000000000000000000000000000000000000000000000000000000000000000000000000000011110000111100001111000011110000000000000000000000000000000000000000000000000000000000000000000000000000000000000000000000000000000000000000000000000000000000000000000000000000000000000000000000001000010110011001010100000011110001111010011001100101000000111100010000101100110001010000001111001011110100110011010100000011110010000101100111110101000000111100011110100110000001010000001111000100001011001111010100000011110010111101001100000101000000111100 B
b1000010110011110101000000111100 x'
b1111010011000000101000000111100 :(
b10000101100111110101000000111100 Z(
b10111101001100110101000000111100 z(
b1000010110011000101000000111100 <)
b1111010011001100101000000111100 \)
b10000101100110010101000000111100 |)
0..
#36
b10111101001100010101000000111100 "
b101010000000000000000000000000000000000000000000000000000000000000000000000000000000000000000000000000000000000000000000000000000000000000000000000000000000000000000011110000111100001111000011110000000000000000000000000000000000000000000000000000000000000000000000000000000000000000000000000000000000000000000000000000000000000000000000000000000000000000000000001000010110010111010100000011110001111010011010000101000000111100010000101100101101010000001111001011110100110100010100000011110010000101100111010101000000111100011110100110001001010000001111000100001011001110010100000011110010111101001100010101000000111100 B
b1000010110011100101000000111100 x'
b1111010011000100101000000111100 :(
b10000101100111010101000000111100 Z(
b10111101001101000101000000111100 z(
b1000010110010110101000000111100 <)
b1111010011010000101000000111100 \)
b10000101100101110101000000111100 |)
#37
b10111101001100100101000000111100 "
b111011000000000000000000000000000000000000000000000000000000000000000000000000000000000000000000000000000000000000000000000000000000000000000000000000000000000000000011110000111100001111000011110000000000000000000000000000000000000000000000000000000000000000000000000000000000000000000000000000000000000000000000000000000000000000000000000000000000000000000000001000010110010101010100000011110001111010011010100101000000111100010000101100101001010000001111001011110100110101010100000011110010000101100110110101000000111100011110100110010001010000001111000100001011001101010100000011110010111101001100100101000000111100 B
b1000010110011010101000000111100 x'
b1111010011001000101000000111100 :(
b10000101100110110101000000111100 Z(
b10111101001101010101000000111100 z(
b1000010110010100101000000111100 <)
b1111010011010100101000000111100 \)
b10000101100101010101000000111100 |)
1*.
1..
