OpticalTests/.Xil/Vivado-28630-higgs.physics.ucsb.edu/hw_ila_data_1/zip_work/waveform.vcd
$date
        2021-Dec-04 00:12:07
$end
$version
        Vivado v2019.2 (64-bit)
$end
$timescale
        1ps
$end
$scope module dut $end
$var reg 866 " ila_data [865:0] $end
$var reg 32 6* receiver_0 [31:0] $end
$var reg 32 V* receiver_1 [31:0] $end
$var reg 32 v* receiver_2 [31:0] $end
$var reg 32 8+ receiver_3 [31:0] $end
$var reg 32 X+ transmitter_0 [31:0] $end
$var reg 32 x+ transmitter_1 [31:0] $end
$var reg 32 :, transmitter_2 [31:0] $end
$var reg 32 Z, transmitter_3 [31:0] $end
$var reg 4 z, prbs_match_int [3:0] $end
$var reg 1 ~, hb0_gtwiz_userclk_rx_usrclk2_int $end
$var reg 1 !- hb0_gtwiz_userclk_rx_active_int $end
$var reg 1 "- hb_gtwiz_reset_all_int $end
$var reg 1 #- hb0_gtwiz_reset_rx_done_int $end
$var reg 1 $- hb0_gtwiz_userclk_tx_usrclk2_int $end
$var reg 1 %- hb0_gtwiz_userclk_tx_active_int $end
$var reg 1 &- gtwiz_userclk_tx_reset_int $end
$var reg 1 '- gtwiz_userclk_tx_usrclk_int $end
$var reg 1 (- gtwiz_userclk_tx_usrclk2_int $end
$var reg 1 )- gtwiz_userclk_tx_active_int $end
$var reg 1 *- gtwiz_userclk_rx_reset_int $end
$var reg 1 +- gtwiz_userclk_rx_usrclk_int $end
$var reg 1 ,- gtwiz_userclk_rx_usrclk2_int $end
$var reg 1 -- gtwiz_userclk_rx_active_int $end
$var reg 36 .- drpaddr_int [35:0] $end
$var reg 4 R- drpclk_int [3:0] $end
$var reg 4 V- drpdi_int [3:0] $end
$var reg 4 Z- drpen_int [3:0] $end
$var reg 4 ^- drpwe_int [3:0] $end
$var reg 4 b- eyescanreset_int [3:0] $end
$var reg 4 f- rx8b10ben_int [3:0] $end
$var reg 4 j- rxcommadeten_int [3:0] $end
$var reg 4 n- rxlpmen_int [3:0] $end
$var reg 4 r- rxmcommaalignen_int [3:0] $end
$var reg 4 v- rxpcommaalignen_int [3:0] $end
$var reg 12 z- rxrate_int [11:0] $end
$var reg 4 (. tx8b10ben_int [3:0] $end
$var reg 16 ,. txdiffctrl_int [15:0] $end
$var reg 20 <. txpostcursor_int [19:0] $end
$var reg 20 P. txprecursor_int [19:0] $end
$var reg 64 d. drpdo_int [63:0] $end
$var reg 4 F/ drprdy_int [3:0] $end
$var reg 4 J/ gtpowergood_int [3:0] $end
$var reg 4 N/ rxbyteisaligned_int [3:0] $end
$var reg 4 R/ rxbyterealign_int [3:0] $end
$var reg 4 V/ rxcommadet_int [3:0] $end
$var reg 4 Z/ rxpmaresetdone_int [3:0] $end
$var reg 4 ^/ txpmaresetdone_int [3:0] $end
$var reg 16 b/ ch0_rxctrl0_int [15:0] $end
$var reg 16 r/ ch1_rxctrl0_int [15:0] $end
$var reg 16 $0 ch2_rxctrl0_int [15:0] $end
$var reg 16 40 ch3_rxctrl0_int [15:0] $end
$var reg 16 D0 ch0_rxctrl1_int [15:0] $end
$var reg 16 T0 ch1_rxctrl1_int [15:0] $end
$var reg 16 d0 ch2_rxctrl1_int [15:0] $end
$var reg 16 t0 ch3_rxctrl1_int [15:0] $end
$var reg 8 &1 ch0_rxctrl2_int [7:0] $end
$var reg 8 .1 ch1_rxctrl2_int [7:0] $end
$var reg 8 61 ch2_rxctrl2_int [7:0] $end
$var reg 8 >1 ch3_rxctrl2_int [7:0] $end
$var reg 8 F1 ch0_rxctrl3_int [7:0] $end
$var reg 8 N1 ch1_rxctrl3_int [7:0] $end
$var reg 8 V1 ch2_rxctrl3_int [7:0] $end
$var reg 8 ^1 ch3_rxctrl3_int [7:0] $end
$var reg 16 f1 ch0_txctrl0_int [15:0] $end
$var reg 16 v1 ch1_txctrl0_int [15:0] $end
$var reg 16 (2 ch2_txctrl0_int [15:0] $end
$var reg 16 82 ch3_txctrl0_int [15:0] $end
$var reg 16 H2 ch0_txctrl1_int [15:0] $end
$var reg 16 X2 ch1_txctrl1_int [15:0] $end
$var reg 16 h2 ch2_txctrl1_int [15:0] $end
$var reg 16 x2 ch3_txctrl1_int [15:0] $end
$var reg 8 *3 ch0_txctrl2_int [7:0] $end
$var reg 8 23 ch1_txctrl2_int [7:0] $end
$var reg 8 :3 ch2_txctrl2_int [7:0] $end
$var reg 8 B3 ch3_txctrl2_int [7:0] $end
$var reg 1 J3 _TRIGGER $end
$var reg 1 K3 _WINDOW $end
$var reg 1 L3 _GAP $end
$upscope $end
$enddefinitions $end
#0
$dumpvars
b1111000011110000111100001111000000000000000000000000000000000000000000000000000000000000000000000000000000000000000000000000000000000000000000000000000000000000000000000000000000000000000000001111111100000000111111110000000000000000000000000000000000000000000000000000000000000000000000000000000000000000000000000000000000001100110011001100111100000000000011111111111111111111000000000000000011100000010110000010110000000000000010111110110010101100000010000001111111010100000011110000100000011111110101000000111100001000000111111101010000001111000010000001111111010100000011110000100110101100001100001111011100001001101011000011000011110111000010011010110000110000111101110000011011101100001100001100100101 "
b11011101100001100001100100101 6*
b100110101100001100001111011100 V*
b100110101100001100001111011100 v*
b100110101100001100001111011100 8+
b100000011111110101000000111100 X+
b100000011111110101000000111100 x+
b100000011111110101000000111100 :,
b100000011111110101000000111100 Z,
b0 z,
1~,
1!-
0"-
1#-
0$-
1%-
0&-
0'-
1(-
1)-
0*-
1+-
1,-
1--
b1011000001011000000000000001011 .-
b1110 R-
b0 V-
b0 Z-
b0 ^-
b0 b-
b1111 f-
b1111 j-
b1111 n-
b1111 r-
b1111 v-
b0 z-
b1111 (.
b1100110011001100 ,.
b0 <.
b0 P.
b0 d.
b0 F/
b1111 J/
b1111 N/
b0 R/
b0 V/
b1111 Z/
b1111 ^/
b0 b/
b0 r/
b0 $0
b0 40
b0 D0
b0 T0
b0 d0
b0 t0
b0 &1
b0 .1
b0 61
b0 >1
b11110000 F1
b11110000 N1
b11110000 V1
b11110000 ^1
b0 f1
b0 v1
b0 (2
b0 82
b0 H2
b0 X2
b0 h2
b0 x2
b0 *3
b0 23
b0 :3
b0 B3
0J3
1K3
0L3
$end
#1
b1111000011110000111100001111000000000000000000000000000000000000000000000000000000000000000000000000000000000000000000000000000000000000000000000000000000000000000000000000000000000000000000001111111100000000111111110000000000000000000000000000000000000000000000000000000000000000000000000000000000000000000000000000000000001100110011001100111100000000000011111111111111111111000000000000000011100000010110000010110000000000000010111010111011101100000001000000111111010100000011110000010000001111110101000000111100000100000011111101010000001111000001000000111111010100000011110001110011101100001100001110001110011100111011000011000011100011100111001110110000110000111000111010010010101100001100001111110010 "
b10010010101100001100001111110010 6*
b1110011101100001100001110001110 V*
b1110011101100001100001110001110 v*
b1110011101100001100001110001110 8+
b10000001111110101000000111100 X+
b10000001111110101000000111100 x+
b10000001111110101000000111100 :,
b10000001111110101000000111100 Z,
1$-
1'-
0,-
#2
b1111000011110000111100001111000000000000000000000000000000000000000000000000000000000000000000000000000000000000000000000000000000000000000000000000000000000000000000000000000000000000000000001111111100000000111111110000000000000000000000000000000000000000000000000000000000000000000000000000000000000000000000000000000000001100110011001100111100000000000011111111111111111111000000000000000011100000010110000010110000000000000010111000111011101000000000100000010111010100000011110000001000000101110101000000111100000011000011101101010000001111000000100100011111010100000011110001001001101100001100001110101000010010011011000011000011101010000100100110110000110000111010100000111001101100001100001111101001 "
b111001101100001100001111101001 6*
b1001001101100001100001110101000 V*
b1001001101100001100001110101000 v*
b1001001101100001100001110101000 8+
b1001000111110101000000111100 X+
b1100001110110101000000111100 x+
b1000000101110101000000111100 :,
b1000000101110101000000111100 Z,
0~,
0+-
#3
b1111000011110000111100001111000000000000000000000000000000000000000000000000000000000000000000000000000000000000000000000000000000000000000000000000000000000000000000000000000000000000000000001111111100000000111111110000000000000000000000000000000000000000000000000000000000000000000000000000000000000000000000000000000000001100110011001100111100000000000011111111111111111111000000000000000011100000010110000010110000000000000010111000100010101000001110101010011001010100000011110011101010100110010101000000111100111010101001100101010000001111001110101010011001010100000011110010111011101100001100001111000100101110111011000011000011110001001011101110110000110000111100010001111100101100001100001101111011 "
b1111100101100001100001101111011 6*
b10111011101100001100001111000100 V*
b10111011101100001100001111000100 v*
b10111011101100001100001111000100 8+
b11101010100110010101000000111100 X+
b11101010100110010101000000111100 x+
b11101010100110010101000000111100 :,
b11101010100110010101000000111100 Z,
0$-
0'-
0(-
#4
b1111000011110000111100001111000000000000000000000000000000000000000000000000000000000000000000000000000000000000000000000000000000000000000000000000000000000000000000000000000000000000000000001111111100000000111111110000000000000000000000000000000000000000000000000000000000000000000000000000000000000000000000000000000000001100110011001100111100000000000011111111111111111111000000000000000011100000010110000010110000000000000010111110100010101100001111010101001100010100000011110011110101010011000101000000111100111101010100110001010000001111001111010101001100010100000011110001010010101100001100001110001101010100101011000011000011100011010101001010110000110000111000110101001110101100001100001101011101 "
b1001110101100001100001101011101 6*
b1010010101100001100001110001101 V*
b1010010101100001100001110001101 v*
b1010010101100001100001110001101 8+
b11110101010011000101000000111100 X+
b11110101010011000101000000111100 x+
b11110101010011000101000000111100 :,
b11110101010011000101000000111100 Z,
1~,
1+-
1,-
#5
b1111000011110000111100001111000000000000000000000000000000000000000000000000000000000000000000000000000000000000000000000000000000000000000000000000000000000000000000000000000000000000000000001111111100000000111111110000000000000000000000000000000000000000000000000000000000000000000000000000000000000000000000000000000000001100110011001100111100000000000011111111111111111111000000000000000011100000010110000010110000000000000010111110110010101100001111101010100110010100000011110011111010101001100101000000111100111110101010011001010000001111001111101010100110010100000011110000000011101100001100001111001111000000111011000011000011110011110000001110110000110000111100111100101001101100001100001100110110 "
b101001101100001100001100110110 6*
b11101100001100001111001111 V*
b11101100001100001111001111 v*
b11101100001100001111001111 8+
b11111010101001100101000000111100 X+
b11111010101001100101000000111100 x+
b11111010101001100101000000111100 :,
b11111010101001100101000000111100 Z,
1(-
#6
b1111000011110000111100001111000000000000000000000000000000000000000000000000000000000000000000000000000000000000000000000000000000000000000000000000000000000000000000000000000000000000000000001111111100000000111111110000000000000000000000000000000000000000000000000000000000000000000000000000000000000000000000000000000000001100110011001100111100000000000011111111111111111111000000000000000011100000010110000010110000000000000010111010111011101100001111110101010011010100000011110011111101010100110101000000111100111111010101001101010000001111001111110101010011010100000011110010010001101100001100001100010111100100011011000011000011000101111001000110110000110000110001011101110100101100001100001101100100 "
b1110100101100001100001101100100 6*
b10010001101100001100001100010111 V*
b10010001101100001100001100010111 v*
b10010001101100001100001100010111 8+
b11111101010100110101000000111100 X+
b11111101010100110101000000111100 x+
b11111101010100110101000000111100 :,
b11111101010100110101000000111100 Z,
1$-
1'-
0,-
#7
b1111000011110000111100001111000000000000000000000000000000000000000000000000000000000000000000000000000000000000000000000000000000000000000000000000000000000000000000000000000000000000000000001111111100000000111111110000000000000000000000000000000000000000000000000000000000000000000000000000000000000000000000000000000000001100110011001100111100000000000011111111111111111111000000000000000011100000010110000010110000000000000010111000111011101000001111111010101000010100000011110011011110111010100101000000111100110111101001101001010000001111001111111110111001010100000011110010100111101100001100001100010100101001111011000011000011000101001010011110110000110000110001010001001010101100001100001101001101 "
b1001010101100001100001101001101 6*
b10100111101100001100001100010100 V*
b10100111101100001100001100010100 v*
b10100111101100001100001100010100 8+
b11111111101110010101000000111100 X+
b11011110100110100101000000111100 x+
b11011110111010100101000000111100 :,
b11111110101010000101000000111100 Z,
0~,
0+-
#8
b1111000011110000111100001111000000000000000000000000000000000000000000000000000000000000000000000000000000000000000000000000000000000000000000000000000000000000000000000000000000000000000000001111111100000000111111110000000000000000000000000000000000000000000000000000000000000000000000000000000000000000000000000000000000001100110011001100111100000000000011111111111111111111000000000000000011100000010110000010110000000000000010111000100010101000001100111011101001010100000011110011001110111010010101000000111100110011101110100101010000001111001100111011101001010100000011110011011100101100001100001110011010110111001011000011000011100110101101110010110000110000111001101000100101101100001100001100100110 "
b100101101100001100001100100110 6*
b11011100101100001100001110011010 V*
b11011100101100001100001110011010 v*
b11011100101100001100001110011010 8+
b11001110111010010101000000111100 X+
b11001110111010010101000000111100 x+
b11001110111010010101000000111100 :,
b11001110111010010101000000111100 Z,
0$-
0'-
0(-
#9
b1111000011110000111100001111000000000000000000000000000000000000000000000000000000000000000000000000000000000000000000000000000000000000000000000000000000000000000000000000000000000000000000001111111100000000111111110000000000000000000000000000000000000000000000000000000000000000000000000000000000000000000000000000000000001100110011001100111100000000000011111111111111111111000000000000000011100000010110000010110000000000000010111110100010101100000110011101110100010100000011110001100111011101000101000000111100011001110111010001010000001111000110011101110100010100000011110010001110101100001100001100100010100011101011000011000011001000101000111010110000110000110010001011110010101100001100001101110011 "
b11110010101100001100001101110011 6*
b10001110101100001100001100100010 V*
b10001110101100001100001100100010 v*
b10001110101100001100001100100010 8+
b1100111011101000101000000111100 X+
b1100111011101000101000000111100 x+
b1100111011101000101000000111100 :,
b1100111011101000101000000111100 Z,
1~,
1+-
1,-
#10
b1111000011110000111100001111000000000000000000000000000000000000000000000000000000000000000000000000000000000000000000000000000000000000000000000000000000000000000000000000000000000000000000001111111100000000111111110000000000000000000000000000000000000000000000000000000000000000000000000000000000000000000000000000000000001100110011001100111100000000000011111111111111111111000000000000000011100000010110000010110000000000000010111110110010101100000011001110111010010100000011110000110011101110100101000000111100001100111011101001010000001111000011001110111010010100000011110001100011101100001100001101010001011000111011000011000011010100010110001110110000110000110101000110101000101100001100001111100001 "
b10101000101100001100001111100001 6*
b1100011101100001100001101010001 V*
b1100011101100001100001101010001 v*
b1100011101100001100001101010001 8+
b110011101110100101000000111100 X+
b110011101110100101000000111100 x+
b110011101110100101000000111100 :,
b110011101110100101000000111100 Z,
1(-
#11
b1111000011110000111100001111000000000000000000000000000000000000000000000000000000000000000000000000000000000000000000000000000000000000000000000000000000000000000000000000000000000000000000001111111100000000111111110000000000000000000000000000000000000000000000000000000000000000000000000000000000000000000000000000000000001100110011001100111100000000000011111111111111111111000000000000000011100000010110000010110000000000000010111010111011101100001001100111011101010100000011110010011001110111010101000000111100100110011101110101010000001111001001100111011101010100000011110001011110101100001100001110110111010111101011000011000011101101110101111010110000110000111011011111000100101100001100001101110000 "
b11000100101100001100001101110000 6*
b1011110101100001100001110110111 V*
b1011110101100001100001110110111 v*
b1011110101100001100001110110111 8+
b10011001110111010101000000111100 X+
b10011001110111010101000000111100 x+
b10011001110111010101000000111100 :,
b10011001110111010101000000111100 Z,
1$-
1'-
0,-
#12
b1111000011110000111100001111000000000000000000000000000000000000000000000000000000000000000000000000000000000000000000000000000000000000000000000000000000000000000000000000000000000000000000001111111100000000111111110000000000000000000000000000000000000000000000000000000000000000000000000000000000000000000000000000000000001100110011001100111100000000000011111111111111111111000000000000000011100000010110000010110000000000000010111000111011101000000100110011101111010100000011110001001100111011110101000000111100010011001110111001010000001111000100110011111110010100000011110010111111101100001100001111010100101111111011000011000011110101001011111110110000110000111101010010001101101100001100001111011000 "
b10001101101100001100001111011000 6*
b10111111101100001100001111010100 V*
b10111111101100001100001111010100 v*
b10111111101100001100001111010100 8+
b1001100111111100101000000111100 X+
b1001100111011100101000000111100 x+
b1001100111011110101000000111100 :,
b1001100111011110101000000111100 Z,
0~,
0+-
#13
b1111000011110000111100001111000000000000000000000000000000000000000000000000000000000000000000000000000000000000000000000000000000000000000000000000000000000000000000000000000000000000000000001111111100000000111111110000000000000000000000000000000000000000000000000000000000000000000000000000000000000000000000000000000000001100110011001100111100000000000011111111111111111111000000000000000011100000010110000010110000000000000010111000100010101000000100101100011011010100000011110001001011000110110101000000111100010010110001101101010000001111000100101100011011010100000011110011001111101100001100001110001010110011111011000011000011100010101100111110110000110000111000101000110110101100001100001100000011 "
b110110101100001100001100000011 6*
b11001111101100001100001110001010 V*
b11001111101100001100001110001010 v*
b11001111101100001100001110001010 8+
b1001011000110110101000000111100 X+
b1001011000110110101000000111100 x+
b1001011000110110101000000111100 :,
b1001011000110110101000000111100 Z,
0$-
0'-
0(-
#14
b1111000011110000111100001111000000000000000000000000000000000000000000000000000000000000000000000000000000000000000000000000000000000000000000000000000000000000000000000000000000000000000000001111111100000000111111110000000000000000000000000000000000000000000000000000000000000000000000000000000000000000000000000000000000001100110011001100111100000000000011111111111111111111000000000000000011100000010110000010110000000000000010111110100010101100001010010110001101010100000011110010100101100011010101000000111100101001011000110101010000001111001010010110001101010100000011110000010111101100001100001100110101000101111011000011000011001101010001011110110000110000110011010101100100101100001100001110010001 "
b1100100101100001100001110010001 6*
b10111101100001100001100110101 V*
b10111101100001100001100110101 v*
b10111101100001100001100110101 8+
b10100101100011010101000000111100 X+
b10100101100011010101000000111100 x+
b10100101100011010101000000111100 :,
b10100101100011010101000000111100 Z,
1~,
1+-
1,-
#15
b1111000011110000111100001111000000000000000000000000000000000000000000000000000000000000000000000000000000000000000000000000000000000000000000000000000000000000000000000000000000000000000000001111111100000000111111110000000000000000000000000000000000000000000000000000000000000000000000000000000000000000000000000000000000001100110011001100111100000000000011111111111111111111000000000000000011100000010110000010110000000000000010111110110010101100001101001011000110010100000011110011010010110001100101000000111100110100101100011001010000001111001101001011000110010100000011110001101100101100001100001110100100011011001011000011000011101001000110110010110000110000111010010000010100101100001100001111111010 "
b10100101100001100001111111010 6*
b1101100101100001100001110100100 V*
b1101100101100001100001110100100 v*
b1101100101100001100001110100100 8+
b11010010110001100101000000111100 X+
b11010010110001100101000000111100 x+
b11010010110001100101000000111100 :,
b11010010110001100101000000111100 Z,
1(-
#16
b1111000011110000111100001111000000000000000000000000000000000000000000000000000000000000000000000000000000000000000000000000000000000000000000000000000000000000000000000000000000000000000000001111111100000000111111110000000000000000000000000000000000000000000000000000000000000000000000000000000000000000000000000000000000001100110011001100111100000000000011111111111111111111000000000000000011100000010110000010110000000000000010111010111011101100001110100101100011010100000011110011101001011000110101000000111100111010010110001101010000001111001110100101100011010100000011110001000110101100001100001101000010010001101011000011000011010000100100011010110000110000110100001010011010101100001100001111101101 "
b10011010101100001100001111101101 6*
b1000110101100001100001101000010 V*
b1000110101100001100001101000010 v*
b1000110101100001100001101000010 8+
b11101001011000110101000000111100 X+
b11101001011000110101000000111100 x+
b11101001011000110101000000111100 :,
b11101001011000110101000000111100 Z,
1$-
1'-
0,-
#17
b1111000011110000111100001111000000000000000000000000000000000000000000000000000000000000000000000000000000000000000000000000000000000000000000000000000000000000000000000000000000000000000000001111111100000000111111110000000000000000000000000000000000000000000000000000000000000000000000000000000000000000000000000000000000001100110011001100111100000000000011111111111111111111000000000000000011100000010110000010110000000000000010111000111011101000000111010010110001010100000011110001110100101100010101000000111100011101001010010101010000001111000111010110100001010100000011110010100011101100001100001100101110101000111011000011000011001011101010001110110000110000110010111000100010101100001100001111100110 "
b100010101100001100001111100110 6*
b10100011101100001100001100101110 V*
b10100011101100001100001100101110 v*
b10100011101100001100001100101110 8+
b1110101101000010101000000111100 X+
b1110100101001010101000000111100 x+
b1110100101100010101000000111100 :,
b1110100101100010101000000111100 Z,
0~,
0+-
#18
b1111000011110000111100001111000000000000000000000000000000000000000000000000000000000000000000000000000000000000000000000000000000000000000000000000000000000000000000000000000000000000000000001111111100000000111111110000000000000000000000000000000000000000000000000000000000000000000000000000000000000000000000000000000000001100110011001100111100000000000011111111111111111111000000000000000011100000010110000010110000000000000010111000100010101000001101111011010110010100000011110011011110110101100101000000111100110111101101011001010000001111001101111011010110010100000011110001010001101100001100001101101000010100011011000011000011011010000101000110110000110000110110100011100001101100001100001101100011 "
b11100001101100001100001101100011 6*
b1010001101100001100001101101000 V*
b1010001101100001100001101101000 v*
b1010001101100001100001101101000 8+
b11011110110101100101000000111100 X+
b11011110110101100101000000111100 x+
b11011110110101100101000000111100 :,
b11011110110101100101000000111100 Z,
0$-
0'-
0(-
#19
b1111000011110000111100001111000000000000000000000000000000000000000000000000000000000000000000000000000000000000000000000000000000000000000000000000000000000000000000000000000000000000000000001111111100000000111111110000000000000000000000000000000000000000000000000000000000000000000000000000000000000000000000000000000000001100110011001100111100000000000011111111111111111111000000000000000011100000010110000010110000000000000010111110100010101100000110111101101011010100000011110001101111011010110101000000111100011011110110101101010000001111000110111101101011010100000011110010110111101100001100001111001011101101111011000011000011110010111011011110110000110000111100101101110000101100001100001101011110 "
b1110000101100001100001101011110 6*
b10110111101100001100001111001011 V*
b10110111101100001100001111001011 v*
b10110111101100001100001111001011 8+
b1101111011010110101000000111100 X+
b1101111011010110101000000111100 x+
b1101111011010110101000000111100 :,
b1101111011010110101000000111100 Z,
1~,
1+-
1,-
#20
b1111000011110000111100001111000000000000000000000000000000000000000000000000000000000000000000000000000000000000000000000000000000000000000000000000000000000000000000000000000000000000000000001111111100000000111111110000000000000000000000000000000000000000000000000000000000000000000000000000000000000000000000000000000000001100110011001100111100000000000011111111111111111111000000000000000011100000010110000010110000000000000010111110110010101100000011011110110101010100000011110000110111101101010101000000111100001101111011010101010000001111000011011110110101010100000011110011000111101100001100001110010101110001111011000011000011100101011100011110110000110000111001010111010100101100001100001110000101 "
b11010100101100001100001110000101 6*
b11000111101100001100001110010101 V*
b11000111101100001100001110010101 v*
b11000111101100001100001110010101 8+
b110111101101010101000000111100 X+
b110111101101010101000000111100 x+
b110111101101010101000000111100 :,
b110111101101010101000000111100 Z,
1(-
#21
b1111000011110000111100001111000000000000000000000000000000000000000000000000000000000000000000000000000000000000000000000000000000000000000000000000000000000000000000000000000000000000000000001111111100000000111111110000000000000000000000000000000000000000000000000000000000000000000000000000000000000000000000000000000000001100110011001100111100000000000011111111111111111111000000000000000011100000010110000010110000000000000010111010111011101100000001101111011010010100000011110000011011110110100101000000111100000110111101101001010000001111000001101111011010010100000011110000001100101100001100001100111010000011001011000011000011001110100000110010110000110000110011101010001010101100001100001100110010 "
b10001010101100001100001100110010 6*
b1100101100001100001100111010 V*
b1100101100001100001100111010 v*
b1100101100001100001100111010 8+
b11011110110100101000000111100 X+
b11011110110100101000000111100 x+
b11011110110100101000000111100 :,
b11011110110100101000000111100 Z,
1$-
1'-
0,-
#22
b1111000011110000111100001111000000000000000000000000000000000000000000000000000000000000000000000000000000000000000000000000000000000000000000000000000000000000000000000000000000000000000000001111111100000000111111110000000000000000000000000000000000000000000000000000000000000000000000000000000000000000000000000000000000001100110011001100111100000000000011111111111111111111000000000000000011100000010110000010110000000000000010111000111011101000001000110111101101010100000011110010101101101001010101000000111100101011011101100101010000001111001000110011111101010100000011110010010110101100001100001111100010100101101011000011000011111000101001011010110000110000111110001000110101101100001100001111111001 "
b110101101100001100001111111001 6*
b10010110101100001100001111100010 V*
b10010110101100001100001111100010 v*
b10010110101100001100001111100010 8+
b10001100111111010101000000111100 X+
b10101101110110010101000000111100 x+
b10101101101001010101000000111100 :,
b10001101111011010101000000111100 Z,
0~,
0+-
#23
b1111000011110000111100001111000000000000000000000000000000000000000000000000000000000000000000000000000000000000000000000000000000000000000000000000000000000000000000000000000000000000000000001111111100000000111111110000000000000000000000000000000000000000000000000000000000000000000000000000000000000000000000000000000000001100110011001100111100000000000011111111111111111111000000000000000011100000010110000010110000000000000010111000100010101000001011011001001000010100000011110010110110010010000101000000111100101101100100100001010000001111001011011001001000010100000011110010100100101100001100001111101110101001001011000011000011111011101010010010110000110000111110111011111010101100001100001101101100 "
b11111010101100001100001101101100 6*
b10100100101100001100001111101110 V*
b10100100101100001100001111101110 v*
b10100100101100001100001111101110 8+
b10110110010010000101000000111100 X+
b10110110010010000101000000111100 x+
b10110110010010000101000000111100 :,
b10110110010010000101000000111100 Z,
0$-
0'-
0(-
#24
b1111000011110000111100001111000000000000000000000000000000000000000000000000000000000000000000000000000000000000000000000000000000000000000000000000000000000000000000000000000000000000000000001111111100000000111111110000000000000000000000000000000000000000000000000000000000000000000000000000000000000000000000000000000000001100110011001100111100000000000011111111111111111111000000000000000011100000010110000010110000000000000010111110100010101100000101101100100100010100000011110001011011001001000101000000111100010110110010010001010000001111000101101100100100010100000011110001000010101100001100001101111000010000101011000011000011011110000100001010110000110000110111100011101101101100001100001101000110 "
b11101101101100001100001101000110 6*
b1000010101100001100001101111000 V*
b1000010101100001100001101111000 v*
b1000010101100001100001101111000 8+
b1011011001001000101000000111100 X+
b1011011001001000101000000111100 x+
b1011011001001000101000000111100 :,
b1011011001001000101000000111100 Z,
1~,
1+-
1,-
#25
b1111000011110000111100001111000000000000000000000000000000000000000000000000000000000000000000000000000000000000000000000000000000000000000000000000000000000000000000000000000000000000000000001111111100000000111111110000000000000000000000000000000000000000000000000000000000000000000000000000000000000000000000000000000000001100110011001100111100000000000011111111111111111111000000000000000011100000010110000010110000000000000010111110110010101100001010110110010010010100000011110010101101100100100101000000111100101011011001001001010000001111001010110110010010010100000011110010110000101100001100001100100001101100001011000011000011001000011011000010110000110000110010000100101110101100001100001111000011 "
b101110101100001100001111000011 6*
b10110000101100001100001100100001 V*
b10110000101100001100001100100001 v*
b10110000101100001100001100100001 8+
b10101101100100100101000000111100 X+
b10101101100100100101000000111100 x+
b10101101100100100101000000111100 :,
b10101101100100100101000000111100 Z,
1(-
#26
b1111000011110000111100001111000000000000000000000000000000000000000000000000000000000000000000000000000000000000000000000000000000000000000000000000000000000000000000000000000000000000000000001111111100000000111111110000000000000000000000000000000000000000000000000000000000000000000000000000000000000000000000000000000000001100110011001100111100000000000011111111111111111111000000000000000011100000010110000010110000000000000010111010111011101100001101011011001001010100000011110011010110110010010101000000111100110101101100100101010000001111001101011011001001010100000011110011001000101100001100001101100000110010001011000011000011011000001100100010110000110000110110000001101000101100001100001110011110 "
b1101000101100001100001110011110 6*
b11001000101100001100001101100000 V*
b11001000101100001100001101100000 v*
b11001000101100001100001101100000 8+
b11010110110010010101000000111100 X+
b11010110110010010101000000111100 x+
b11010110110010010101000000111100 :,
b11010110110010010101000000111100 Z,
1$-
1'-
0,-
#27
b1111000011110000111100001111000000000000000000000000000000000000000000000000000000000000000000000000000000000000000000000000000000000000000000000000000000000000000000000000000000000000000000001111111100000000111111110000000000000000000000000000000000000000000000000000000000000000000000000000000000000000000000000000000000001100110011001100111100000000000011111111111111111111000000000000000011100000010110000010110000000000000010111000111011101000000110101101100101010100000011110001001011001001110101000000111100010010110101011101010000001111000110101001110100010100000011110000001011101100001100001111010000000010111011000011000011110100000000101110110000110000111101000011001011101100001100001110101111 "
b11001011101100001100001110101111 6*
b1011101100001100001111010000 V*
b1011101100001100001111010000 v*
b1011101100001100001111010000 8+
b1101010011101000101000000111100 X+
b1001011010101110101000000111100 x+
b1001011001001110101000000111100 :,
b1101011011001010101000000111100 Z,
0~,
0+-
#28
b1111000011110000111100001111000000000000000000000000000000000000000000000000000000000000000000000000000000000000000000000000000000000000000000000000000000000000000000000000000000000000000000001111111100000000111111110000000000000000000000000000000000000000000000000000000000000000000000000000000000000000000000000000000000001100110011001100111100000000000011111111111111111111000000000000000011100000010110000010110000000000000010111000100010101000000100011100001011010100000011110001000111000010110101000000111100010001110000101101010000001111000100011100001011010100000011110010010101101100001100001100011000100101011011000011000011000110001001010110110000110000110001100010000101101100001100001111000111 "
b10000101101100001100001111000111 6*
b10010101101100001100001100011000 V*
b10010101101100001100001100011000 v*
b10010101101100001100001100011000 8+
b1000111000010110101000000111100 X+
b1000111000010110101000000111100 x+
b1000111000010110101000000111100 :,
b1000111000010110101000000111100 Z,
0$-
0'-
0(-
#29
b1111000011110000111100001111000000000000000000000000000000000000000000000000000000000000000000000000000000000000000000000000000000000000000000000000000000000000000000000000000000000000000000001111111100000000111111110000000000000000000000000000000000000000000000000000000000000000000000000000000000000000000000000000000000001100110011001100111100000000000011111111111111111111000000000000000011100000010110000010110000000000000010111110100010101100000010001110000101010100000011110000100011100001010101000000111100001000111000010101010000001111000010001110000101010100000011110000111010101100001100001100010011001110101011000011000011000100110011101010110000110000110001001100110010101100001100001100001100 "
b110010101100001100001100001100 6*
b111010101100001100001100010011 V*
b111010101100001100001100010011 v*
b111010101100001100001100010011 8+
b100011100001010101000000111100 X+
b100011100001010101000000111100 x+
b100011100001010101000000111100 :,
b100011100001010101000000111100 Z,
1~,
1+-
1,-
#30
b1111000011110000111100001111000000000000000000000000000000000000000000000000000000000000000000000000000000000000000000000000000000000000000000000000000000000000000000000000000000000000000000001111111100000000111111110000000000000000000000000000000000000000000000000000000000000000000000000000000000000000000000000000000000001100110011001100111100000000000011111111111111111111000000000000000011100000010110000010110000000000000010111110110010101100001001000111000010010100000011110010010001110000100101000000111100100100011100001001010000001111001001000111000010010100000011110000001000101100001100001100011111000010001011000011000011000111110000100010110000110000110001111111100010101100001100001110011001 "
b11100010101100001100001110011001 6*
b1000101100001100001100011111 V*
b1000101100001100001100011111 v*
b1000101100001100001100011111 8+
b10010001110000100101000000111100 X+
b10010001110000100101000000111100 x+
b10010001110000100101000000111100 :,
b10010001110000100101000000111100 Z,
1(-
#31
b1111000011110000111100001111000000000000000000000000000000000000000000000000000000000000000000000000000000000000000000000000000000000000000000000000000000000000000000000000000000000000000000001111111100000000111111110000000000000000000000000000000000000000000000000000000000000000000000000000000000000000000000000000000000001100110011001100111100000000000011111111111111111111000000000000000011100000010110000010110000000000000010111010111011101100000100100011100001010100000011110001001000111000010101000000111100010010001110000101010000001111000100100011100001010100000011110000000100101100001100001100001111000001001011000011000011000011110000010010110000110000110000111111101110101100001100001110111100 "
b11101110101100001100001110111100 6*
b100101100001100001100001111 V*
b100101100001100001100001111 v*
b100101100001100001100001111 8+
b1001000111000010101000000111100 X+
b1001000111000010101000000111100 x+
b1001000111000010101000000111100 :,
b1001000111000010101000000111100 Z,
1$-
1'-
0,-
