OpticalTests/.Xil/Vivado-45913-higgs.physics.ucsb.edu/hw_ila_data_1/zip_work/waveform.vcd
$date
        2021-Nov-29 18:05:44
$end
$version
        Vivado v2019.2 (64-bit)
$end
$timescale
        1ps
$end
$scope module dut $end
$var reg 266 " ila_data [265:0] $end
$var reg 32 p# receiver_0 [31:0] $end
$var reg 32 2$ receiver_1 [31:0] $end
$var reg 32 R$ receiver_2 [31:0] $end
$var reg 32 r$ receiver_3 [31:0] $end
$var reg 32 4% transmitter_0 [31:0] $end
$var reg 32 T% transmitter_1 [31:0] $end
$var reg 32 t% transmitter_2 [31:0] $end
$var reg 32 6& transmitter_3 [31:0] $end
$var reg 4 V& prbs_match_int [3:0] $end
$var reg 1 Z& hb0_gtwiz_userclk_rx_usrclk2_int $end
$var reg 1 [& hb0_gtwiz_userclk_rx_active_int $end
$var reg 1 \& hb_gtwiz_reset_all_int $end
$var reg 1 ]& hb0_gtwiz_reset_rx_done_int $end
$var reg 1 ^& hb0_gtwiz_userclk_tx_usrclk2_int $end
$var reg 1 _& hb0_gtwiz_userclk_tx_active_int $end
$var reg 1 `& _TRIGGER $end
$var reg 1 a& _WINDOW $end
$var reg 1 b& _GAP $end
$upscope $end
$enddefinitions $end
#0
$dumpvars
b10101000001011110111001001111101001001000010111101110010011111010010010000101111011100100111110100100100001011110111001001111101001001000010111101110010011111010010001101101111011100100111110100100011011011110111001001111101001000110110111101110010011111010010001101 "
b10111101110010011111010010001101 p#
b10111101110010011111010010001101 2$
b10111101110010011111010010001101 R$
b10111101110010011111010010001101 r$
b10111101110010011111010010010000 4%
b10111101110010011111010010010000 T%
b10111101110010011111010010010000 t%
b10111101110010011111010010010000 6&
b0 V&
0Z&
1[&
0\&
1]&
0^&
1_&
0`&
1a&
0b&
$end
#1
b10101000001011110111001001111101001001000110111101110010011111010010010001101111011100100111110100100100011011110111001001111101001001000110111101110010011111010010001110101111011100100111110100100011101011110111001001111101001000111010111101110010011111010010001110 "
b10111101110010011111010010001110 p#
b10111101110010011111010010001110 2$
b10111101110010011111010010001110 R$
b10111101110010011111010010001110 r$
b10111101110010011111010010010001 4%
b10111101110010011111010010010001 T%
b10111101110010011111010010010001 t%
b10111101110010011111010010010001 6&
#2
b11101000001011110111001001111101001001001010111101110010011111010010010010101111011100100111110100100100101011110111001001111101001001001010111101110010011111010010001111101111011100100111110100100011111011110111001001111101001000111110111101110010011111010010001111 "
b10111101110010011111010010001111 p#
b10111101110010011111010010001111 2$
b10111101110010011111010010001111 R$
b10111101110010011111010010001111 r$
b10111101110010011111010010010010 4%
b10111101110010011111010010010010 T%
b10111101110010011111010010010010 t%
b10111101110010011111010010010010 6&
1^&
#3
b11101100001011110111001001111101001001001110111101110010011111010010010011101111011100100111110100100100111011110111001001111101001001001110111101110010011111010010010000101111011100100111110100100100001011110111001001111101001001000010111101110010011111010010010000 "
b10111101110010011111010010010000 p#
b10111101110010011111010010010000 2$
b10111101110010011111010010010000 R$
b10111101110010011111010010010000 r$
b10111101110010011111010010010011 4%
b10111101110010011111010010010011 T%
b10111101110010011111010010010011 t%
b10111101110010011111010010010011 6&
1Z&
#4
b11101100001011110111001001111101001001010010111101110010011111010010010100101111011100100111110100100101001011110111001001111101001001010010111101110010011111010010010001101111011100100111110100100100011011110111001001111101001001000110111101110010011111010010010001 "
b10111101110010011111010010010001 p#
b10111101110010011111010010010001 2$
b10111101110010011111010010010001 R$
b10111101110010011111010010010001 r$
b10111101110010011111010010010100 4%
b10111101110010011111010010010100 T%
b10111101110010011111010010010100 t%
b10111101110010011111010010010100 6&
#5
b10101000001011110111001001111101001001010110111101110010011111010010010101101111011100100111110100100101011011110111001001111101001001010110111101110010011111010010010010101111011100100111110100100100101011110111001001111101001001001010111101110010011111010010010010 "
b10111101110010011111010010010010 p#
b10111101110010011111010010010010 2$
b10111101110010011111010010010010 R$
b10111101110010011111010010010010 r$
b10111101110010011111010010010101 4%
b10111101110010011111010010010101 T%
b10111101110010011111010010010101 t%
b10111101110010011111010010010101 6&
0Z&
0^&
#6
b10101000001011110111001001111101001001011010111101110010011111010010010110101111011100100111110100100101101011110111001001111101001001011010111101110010011111010010010011101111011100100111110100100100111011110111001001111101001001001110111101110010011111010010010011 "
b10111101110010011111010010010011 p#
b10111101110010011111010010010011 2$
b10111101110010011111010010010011 R$
b10111101110010011111010010010011 r$
b10111101110010011111010010010110 4%
b10111101110010011111010010010110 T%
b10111101110010011111010010010110 t%
b10111101110010011111010010010110 6&
#7
b11101000001011110111001001111101001001011110111101110010011111010010010111101111011100100111110100100101111011110111001001111101001001011110111101110010011111010010010100101111011100100111110100100101001011110111001001111101001001010010111101110010011111010010010100 "
b10111101110010011111010010010100 p#
b10111101110010011111010010010100 2$
b10111101110010011111010010010100 R$
b10111101110010011111010010010100 r$
b10111101110010011111010010010111 4%
b10111101110010011111010010010111 T%
b10111101110010011111010010010111 t%
b10111101110010011111010010010111 6&
1^&
#8
b11101100001011110111001001111101001001100010111101110010011111010010011000101111011100100111110100100110001011110111001001111101001001100010111101110010011111010010010101101111011100100111110100100101011011110111001001111101001001010110111101110010011111010010010101 "
b10111101110010011111010010010101 p#
b10111101110010011111010010010101 2$
b10111101110010011111010010010101 R$
b10111101110010011111010010010101 r$
b10111101110010011111010010011000 4%
b10111101110010011111010010011000 T%
b10111101110010011111010010011000 t%
b10111101110010011111010010011000 6&
1Z&
#9
b11101100001011110111001001111101001001100110111101110010011111010010011001101111011100100111110100100110011011110111001001111101001001100110111101110010011111010010010110101111011100100111110100100101101011110111001001111101001001011010111101110010011111010010010110 "
b10111101110010011111010010010110 p#
b10111101110010011111010010010110 2$
b10111101110010011111010010010110 R$
b10111101110010011111010010010110 r$
b10111101110010011111010010011001 4%
b10111101110010011111010010011001 T%
b10111101110010011111010010011001 t%
b10111101110010011111010010011001 6&
#10
b10101000001011110111001001111101001001101010111101110010011111010010011010101111011100100111110100100110101011110111001001111101001001101010111101110010011111010010010111101111011100100111110100100101111011110111001001111101001001011110111101110010011111010010010111 "
b10111101110010011111010010010111 p#
b10111101110010011111010010010111 2$
b10111101110010011111010010010111 R$
b10111101110010011111010010010111 r$
b10111101110010011111010010011010 4%
b10111101110010011111010010011010 T%
b10111101110010011111010010011010 t%
b10111101110010011111010010011010 6&
0Z&
0^&
#11
b10101000001011110111001001111101001001101110111101110010011111010010011011101111011100100111110100100110111011110111001001111101001001101110111101110010011111010010011000101111011100100111110100100110001011110111001001111101001001100010111101110010011111010010011000 "
b10111101110010011111010010011000 p#
b10111101110010011111010010011000 2$
b10111101110010011111010010011000 R$
b10111101110010011111010010011000 r$
b10111101110010011111010010011011 4%
b10111101110010011111010010011011 T%
b10111101110010011111010010011011 t%
b10111101110010011111010010011011 6&
#12
b11101100001011110111001001111101001001110010111101110010011111010010011100101111011100100111110100100111001011110111001001111101001001110010111101110010011111010010011001101111011100100111110100100110011011110111001001111101001001100110111101110010011111010010011001 "
b10111101110010011111010010011001 p#
b10111101110010011111010010011001 2$
b10111101110010011111010010011001 R$
b10111101110010011111010010011001 r$
b10111101110010011111010010011100 4%
b10111101110010011111010010011100 T%
b10111101110010011111010010011100 t%
b10111101110010011111010010011100 6&
1Z&
1^&
#13
b11101100001011110111001001111101001001110110111101110010011111010010011101101111011100100111110100100111011011110111001001111101001001110110111101110010011111010010011010101111011100100111110100100110101011110111001001111101001001101010111101110010011111010010011010 "
b10111101110010011111010010011010 p#
b10111101110010011111010010011010 2$
b10111101110010011111010010011010 R$
b10111101110010011111010010011010 r$
b10111101110010011111010010011101 4%
b10111101110010011111010010011101 T%
b10111101110010011111010010011101 t%
b10111101110010011111010010011101 6&
#14
b11101100001011110111001001111101001001111010111101110010011111010010011110101111011100100111110100100111101011110111001001111101001001111010111101110010011111010010011011101111011100100111110100100110111011110111001001111101001001101110111101110010011111010010011011 "
b10111101110010011111010010011011 p#
b10111101110010011111010010011011 2$
b10111101110010011111010010011011 R$
b10111101110010011111010010011011 r$
b10111101110010011111010010011110 4%
b10111101110010011111010010011110 T%
b10111101110010011111010010011110 t%
b10111101110010011111010010011110 6&
#15
b10101000001011110111001001111101001001111110111101110010011111010010011111101111011100100111110100100111111011110111001001111101001001111110111101110010011111010010011100101111011100100111110100100111001011110111001001111101001001110010111101110010011111010010011100 "
b10111101110010011111010010011100 p#
b10111101110010011111010010011100 2$
b10111101110010011111010010011100 R$
b10111101110010011111010010011100 r$
b10111101110010011111010010011111 4%
b10111101110010011111010010011111 T%
b10111101110010011111010010011111 t%
b10111101110010011111010010011111 6&
0Z&
0^&
#16
b10101000001011110111001001111101001010000010111101110010011111010010100000101111011100100111110100101000001011110111001001111101001010000010111101110010011111010010011101101111011100100111110100100111011011110111001001111101001001110110111101110010011111010010011101 "
b10111101110010011111010010011101 p#
b10111101110010011111010010011101 2$
b10111101110010011111010010011101 R$
b10111101110010011111010010011101 r$
b10111101110010011111010010100000 4%
b10111101110010011111010010100000 T%
b10111101110010011111010010100000 t%
b10111101110010011111010010100000 6&
#17
b11101000001011110111001001111101001010000110111101110010011111010010100001101111011100100111110100101000011011110111001001111101001010000110111101110010011111010010011110101111011100100111110100100111101011110111001001111101001001111010111101110010011111010010011110 "
b10111101110010011111010010011110 p#
b10111101110010011111010010011110 2$
b10111101110010011111010010011110 R$
b10111101110010011111010010011110 r$
b10111101110010011111010010100001 4%
b10111101110010011111010010100001 T%
b10111101110010011111010010100001 t%
b10111101110010011111010010100001 6&
1^&
#18
b11101100001011110111001001111101001010001010111101110010011111010010100010101111011100100111110100101000101011110111001001111101001010001010111101110010011111010010011111101111011100100111110100100111111011110111001001111101001001111110111101110010011111010010011111 "
b10111101110010011111010010011111 p#
b10111101110010011111010010011111 2$
b10111101110010011111010010011111 R$
b10111101110010011111010010011111 r$
b10111101110010011111010010100010 4%
b10111101110010011111010010100010 T%
b10111101110010011111010010100010 t%
b10111101110010011111010010100010 6&
1Z&
#19
b11101100001011110111001001111101001010001110111101110010011111010010100011101111011100100111110100101000111011110111001001111101001010001110111101110010011111010010100000101111011100100111110100101000001011110111001001111101001010000010111101110010011111010010100000 "
b10111101110010011111010010100000 p#
b10111101110010011111010010100000 2$
b10111101110010011111010010100000 R$
b10111101110010011111010010100000 r$
b10111101110010011111010010100011 4%
b10111101110010011111010010100011 T%
b10111101110010011111010010100011 t%
b10111101110010011111010010100011 6&
#20
b10101000001011110111001001111101001010010010111101110010011111010010100100101111011100100111110100101001001011110111001001111101001010010010111101110010011111010010100001101111011100100111110100101000011011110111001001111101001010000110111101110010011111010010100001 "
b10111101110010011111010010100001 p#
b10111101110010011111010010100001 2$
b10111101110010011111010010100001 R$
b10111101110010011111010010100001 r$
b10111101110010011111010010100100 4%
b10111101110010011111010010100100 T%
b10111101110010011111010010100100 t%
b10111101110010011111010010100100 6&
0Z&
0^&
#21
b10101000001011110111001001111101001010010110111101110010011111010010100101101111011100100111110100101001011011110111001001111101001010010110111101110010011111010010100010101111011100100111110100101000101011110111001001111101001010001010111101110010011111010010100010 "
b10111101110010011111010010100010 p#
b10111101110010011111010010100010 2$
b10111101110010011111010010100010 R$
b10111101110010011111010010100010 r$
b10111101110010011111010010100101 4%
b10111101110010011111010010100101 T%
b10111101110010011111010010100101 t%
b10111101110010011111010010100101 6&
#22
b11101100001011110111001001111101001010011010111101110010011111010010100110101111011100100111110100101001101011110111001001111101001010011010111101110010011111010010100011101111011100100111110100101000111011110111001001111101001010001110111101110010011111010010100011 "
b10111101110010011111010010100011 p#
b10111101110010011111010010100011 2$
b10111101110010011111010010100011 R$
b10111101110010011111010010100011 r$
b10111101110010011111010010100110 4%
b10111101110010011111010010100110 T%
b10111101110010011111010010100110 t%
b10111101110010011111010010100110 6&
1Z&
1^&
#23
b11101100001011110111001001111101001010011110111101110010011111010010100111101111011100100111110100101001111011110111001001111101001010011110111101110010011111010010100100101111011100100111110100101001001011110111001001111101001010010010111101110010011111010010100100 "
b10111101110010011111010010100100 p#
b10111101110010011111010010100100 2$
b10111101110010011111010010100100 R$
b10111101110010011111010010100100 r$
b10111101110010011111010010100111 4%
b10111101110010011111010010100111 T%
b10111101110010011111010010100111 t%
b10111101110010011111010010100111 6&
#24
b11101100001011110111001001111101001010100010111101110010011111010010101000101111011100100111110100101010001011110111001001111101001010100010111101110010011111010010100101101111011100100111110100101001011011110111001001111101001010010110111101110010011111010010100101 "
b10111101110010011111010010100101 p#
b10111101110010011111010010100101 2$
b10111101110010011111010010100101 R$
b10111101110010011111010010100101 r$
b10111101110010011111010010101000 4%
b10111101110010011111010010101000 T%
b10111101110010011111010010101000 t%
b10111101110010011111010010101000 6&
#25
b10101000001011110111001001111101001010100110111101110010011111010010101001101111011100100111110100101010011011110111001001111101001010100110111101110010011111010010100110101111011100100111110100101001101011110111001001111101001010011010111101110010011111010010100110 "
b10111101110010011111010010100110 p#
b10111101110010011111010010100110 2$
b10111101110010011111010010100110 R$
b10111101110010011111010010100110 r$
b10111101110010011111010010101001 4%
b10111101110010011111010010101001 T%
b10111101110010011111010010101001 t%
b10111101110010011111010010101001 6&
0Z&
0^&
#26
b10101000001011110111001001111101001010101010111101110010011111010010101010101111011100100111110100101010101011110111001001111101001010101010111101110010011111010010100111101111011100100111110100101001111011110111001001111101001010011110111101110010011111010010100111 "
b10111101110010011111010010100111 p#
b10111101110010011111010010100111 2$
b10111101110010011111010010100111 R$
b10111101110010011111010010100111 r$
b10111101110010011111010010101010 4%
b10111101110010011111010010101010 T%
b10111101110010011111010010101010 t%
b10111101110010011111010010101010 6&
#27
b11101000001011110111001001111101001010101110111101110010011111010010101011101111011100100111110100101010111011110111001001111101001010101110111101110010011111010010101000101111011100100111110100101010001011110111001001111101001010100010111101110010011111010010101000 "
b10111101110010011111010010101000 p#
b10111101110010011111010010101000 2$
b10111101110010011111010010101000 R$
b10111101110010011111010010101000 r$
b10111101110010011111010010101011 4%
b10111101110010011111010010101011 T%
b10111101110010011111010010101011 t%
b10111101110010011111010010101011 6&
1^&
#28
b11101100001011110111001001111101001010110010111101110010011111010010101100101111011100100111110100101011001011110111001001111101001010110010111101110010011111010010101001101111011100100111110100101010011011110111001001111101001010100110111101110010011111010010101001 "
b10111101110010011111010010101001 p#
b10111101110010011111010010101001 2$
b10111101110010011111010010101001 R$
b10111101110010011111010010101001 r$
b10111101110010011111010010101100 4%
b10111101110010011111010010101100 T%
b10111101110010011111010010101100 t%
b10111101110010011111010010101100 6&
1Z&
#29
b11101100001011110111001001111101001010110110111101110010011111010010101101101111011100100111110100101011011011110111001001111101001010110110111101110010011111010010101010101111011100100111110100101010101011110111001001111101001010101010111101110010011111010010101010 "
b10111101110010011111010010101010 p#
b10111101110010011111010010101010 2$
b10111101110010011111010010101010 R$
b10111101110010011111010010101010 r$
b10111101110010011111010010101101 4%
b10111101110010011111010010101101 T%
b10111101110010011111010010101101 t%
b10111101110010011111010010101101 6&
#30
b10101000001011110111001001111101001010111010111101110010011111010010101110101111011100100111110100101011101011110111001001111101001010111010111101110010011111010010101011101111011100100111110100101010111011110111001001111101001010101110111101110010011111010010101011 "
b10111101110010011111010010101011 p#
b10111101110010011111010010101011 2$
b10111101110010011111010010101011 R$
b10111101110010011111010010101011 r$
b10111101110010011111010010101110 4%
b10111101110010011111010010101110 T%
b10111101110010011111010010101110 t%
b10111101110010011111010010101110 6&
0Z&
0^&
#31
b10101000001011110111001001111101001010111110111101110010011111010010101111101111011100100111110100101011111011110111001001111101001010111110111101110010011111010010101100101111011100100111110100101011001011110111001001111101001010110010111101110010011111010010101100 "
b10111101110010011111010010101100 p#
b10111101110010011111010010101100 2$
b10111101110010011111010010101100 R$
b10111101110010011111010010101100 r$
b10111101110010011111010010101111 4%
b10111101110010011111010010101111 T%
b10111101110010011111010010101111 t%
b10111101110010011111010010101111 6&
#32
b10101000001011110111001001111101001011000010111101110010011111010010110000101111011100100111110100101100001011110111001001111101001011000010111101110010011111010010101101101111011100100111110100101011011011110111001001111101001010110110111101110010011111010010101101 "
b10111101110010011111010010101101 p#
b10111101110010011111010010101101 2$
b10111101110010011111010010101101 R$
b10111101110010011111010010101101 r$
b10111101110010011111010010110000 4%
b10111101110010011111010010110000 T%
b10111101110010011111010010110000 t%
b10111101110010011111010010110000 6&
#33
b11101100001011110111001001111101001011000110111101110010011111010010110001101111011100100111110100101100011011110111001001111101001011000110111101110010011111010010101110101111011100100111110100101011101011110111001001111101001010111010111101110010011111010010101110 "
b10111101110010011111010010101110 p#
b10111101110010011111010010101110 2$
b10111101110010011111010010101110 R$
b10111101110010011111010010101110 r$
b10111101110010011111010010110001 4%
b10111101110010011111010010110001 T%
b10111101110010011111010010110001 t%
b10111101110010011111010010110001 6&
1Z&
1^&
#34
b11101100001011110111001001111101001011001010111101110010011111010010110010101111011100100111110100101100101011110111001001111101001011001010111101110010011111010010101111101111011100100111110100101011111011110111001001111101001010111110111101110010011111010010101111 "
b10111101110010011111010010101111 p#
b10111101110010011111010010101111 2$
b10111101110010011111010010101111 R$
b10111101110010011111010010101111 r$
b10111101110010011111010010110010 4%
b10111101110010011111010010110010 T%
b10111101110010011111010010110010 t%
b10111101110010011111010010110010 6&
#35
b10101000001011110111001001111101001011001110111101110010011111010010110011101111011100100111110100101100111011110111001001111101001011001110111101110010011111010010110000101111011100100111110100101100001011110111001001111101001011000010111101110010011111010010110000 "
b10111101110010011111010010110000 p#
b10111101110010011111010010110000 2$
b10111101110010011111010010110000 R$
b10111101110010011111010010110000 r$
b10111101110010011111010010110011 4%
b10111101110010011111010010110011 T%
b10111101110010011111010010110011 t%
b10111101110010011111010010110011 6&
0Z&
0^&
#36
b10101000001011110111001001111101001011010010111101110010011111010010110100101111011100100111110100101101001011110111001001111101001011010010111101110010011111010010110001101111011100100111110100101100011011110111001001111101001011000110111101110010011111010010110001 "
b10111101110010011111010010110001 p#
b10111101110010011111010010110001 2$
b10111101110010011111010010110001 R$
b10111101110010011111010010110001 r$
b10111101110010011111010010110100 4%
b10111101110010011111010010110100 T%
b10111101110010011111010010110100 t%
b10111101110010011111010010110100 6&
#37
b10101000001011110111001001111101001011010110111101110010011111010010110101101111011100100111110100101101011011110111001001111101001011010110111101110010011111010010110010101111011100100111110100101100101011110111001001111101001011001010111101110010011111010010110010 "
b10111101110010011111010010110010 p#
b10111101110010011111010010110010 2$
b10111101110010011111010010110010 R$
b10111101110010011111010010110010 r$
b10111101110010011111010010110101 4%
b10111101110010011111010010110101 T%
b10111101110010011111010010110101 t%
b10111101110010011111010010110101 6&
#38
b11101100001011110111001001111101001011011010111101110010011111010010110110101111011100100111110100101101101011110111001001111101001011011010111101110010011111010010110011101111011100100111110100101100111011110111001001111101001011001110111101110010011111010010110011 "
b10111101110010011111010010110011 p#
b10111101110010011111010010110011 2$
b10111101110010011111010010110011 R$
b10111101110010011111010010110011 r$
b10111101110010011111010010110110 4%
b10111101110010011111010010110110 T%
b10111101110010011111010010110110 t%
b10111101110010011111010010110110 6&
1Z&
1^&
#39
b11101100001011110111001001111101001011011110111101110010011111010010110111101111011100100111110100101101111011110111001001111101001011011110111101110010011111010010110100101111011100100111110100101101001011110111001001111101001011010010111101110010011111010010110100 "
b10111101110010011111010010110100 p#
b10111101110010011111010010110100 2$
b10111101110010011111010010110100 R$
b10111101110010011111010010110100 r$
b10111101110010011111010010110111 4%
b10111101110010011111010010110111 T%
b10111101110010011111010010110111 t%
b10111101110010011111010010110111 6&
#40
b10101000001011110111001001111101001011100010111101110010011111010010111000101111011100100111110100101110001011110111001001111101001011100010111101110010011111010010110101101111011100100111110100101101011011110111001001111101001011010110111101110010011111010010110101 "
b10111101110010011111010010110101 p#
b10111101110010011111010010110101 2$
b10111101110010011111010010110101 R$
b10111101110010011111010010110101 r$
b10111101110010011111010010111000 4%
b10111101110010011111010010111000 T%
b10111101110010011111010010111000 t%
b10111101110010011111010010111000 6&
0Z&
0^&
#41
b10101000001011110111001001111101001011100110111101110010011111010010111001101111011100100111110100101110011011110111001001111101001011100110111101110010011111010010110110101111011100100111110100101101101011110111001001111101001011011010111101110010011111010010110110 "
b10111101110010011111010010110110 p#
b10111101110010011111010010110110 2$
b10111101110010011111010010110110 R$
b10111101110010011111010010110110 r$
b10111101110010011111010010111001 4%
b10111101110010011111010010111001 T%
b10111101110010011111010010111001 t%
b10111101110010011111010010111001 6&
#42
b11101100001011110111001001111101001011101010111101110010011111010010111010101111011100100111110100101110101011110111001001111101001011101010111101110010011111010010110111101111011100100111110100101101111011110111001001111101001011011110111101110010011111010010110111 "
b10111101110010011111010010110111 p#
b10111101110010011111010010110111 2$
b10111101110010011111010010110111 R$
b10111101110010011111010010110111 r$
b10111101110010011111010010111010 4%
b10111101110010011111010010111010 T%
b10111101110010011111010010111010 t%
b10111101110010011111010010111010 6&
1Z&
1^&
#43
b11101100001011110111001001111101001011101110111101110010011111010010111011101111011100100111110100101110111011110111001001111101001011101110111101110010011111010010111000101111011100100111110100101110001011110111001001111101001011100010111101110010011111010010111000 "
b10111101110010011111010010111000 p#
b10111101110010011111010010111000 2$
b10111101110010011111010010111000 R$
b10111101110010011111010010111000 r$
b10111101110010011111010010111011 4%
b10111101110010011111010010111011 T%
b10111101110010011111010010111011 t%
b10111101110010011111010010111011 6&
#44
b11101100001011110111001001111101001011110010111101110010011111010010111100101111011100100111110100101111001011110111001001111101001011110010111101110010011111010010111001101111011100100111110100101110011011110111001001111101001011100110111101110010011111010010111001 "
b10111101110010011111010010111001 p#
b10111101110010011111010010111001 2$
b10111101110010011111010010111001 R$
b10111101110010011111010010111001 r$
b10111101110010011111010010111100 4%
b10111101110010011111010010111100 T%
b10111101110010011111010010111100 t%
b10111101110010011111010010111100 6&
#45
b10101000001011110111001001111101001011110110111101110010011111010010111101101111011100100111110100101111011011110111001001111101001011110110111101110010011111010010111010101111011100100111110100101110101011110111001001111101001011101010111101110010011111010010111010 "
b10111101110010011111010010111010 p#
b10111101110010011111010010111010 2$
b10111101110010011111010010111010 R$
b10111101110010011111010010111010 r$
b10111101110010011111010010111101 4%
b10111101110010011111010010111101 T%
b10111101110010011111010010111101 t%
b10111101110010011111010010111101 6&
0Z&
0^&
#46
b10101000001011110111001001111101001011111010111101110010011111010010111110101111011100100111110100101111101011110111001001111101001011111010111101110010011111010010111011101111011100100111110100101110111011110111001001111101001011101110111101110010011111010010111011 "
b10111101110010011111010010111011 p#
b10111101110010011111010010111011 2$
b10111101110010011111010010111011 R$
b10111101110010011111010010111011 r$
b10111101110010011111010010111110 4%
b10111101110010011111010010111110 T%
b10111101110010011111010010111110 t%
b10111101110010011111010010111110 6&
#47
b11101100001011110111001001111101001011111110111101110010011111010010111111101111011100100111110100101111111011110111001001111101001011111110111101110010011111010010111100101111011100100111110100101111001011110111001001111101001011110010111101110010011111010010111100 "
b10111101110010011111010010111100 p#
b10111101110010011111010010111100 2$
b10111101110010011111010010111100 R$
b10111101110010011111010010111100 r$
b10111101110010011111010010111111 4%
b10111101110010011111010010111111 T%
b10111101110010011111010010111111 t%
b10111101110010011111010010111111 6&
1Z&
1^&
#48
b11101100001011110111001001111101001100000010111101110010011111010011000000101111011100100111110100110000001011110111001001111101001100000010111101110010011111010010111101101111011100100111110100101111011011110111001001111101001011110110111101110010011111010010111101 "
b10111101110010011111010010111101 p#
b10111101110010011111010010111101 2$
b10111101110010011111010010111101 R$
b10111101110010011111010010111101 r$
b10111101110010011111010011000000 4%
b10111101110010011111010011000000 T%
b10111101110010011111010011000000 t%
b10111101110010011111010011000000 6&
#49
b11101100001011110111001001111101001100000110111101110010011111010011000001101111011100100111110100110000011011110111001001111101001100000110111101110010011111010010111110101111011100100111110100101111101011110111001001111101001011111010111101110010011111010010111110 "
b10111101110010011111010010111110 p#
b10111101110010011111010010111110 2$
b10111101110010011111010010111110 R$
b10111101110010011111010010111110 r$
b10111101110010011111010011000001 4%
b10111101110010011111010011000001 T%
b10111101110010011111010011000001 t%
b10111101110010011111010011000001 6&
#50
b10101000001011110111001001111101001100001010111101110010011111010011000010101111011100100111110100110000101011110111001001111101001100001010111101110010011111010010111111101111011100100111110100101111111011110111001001111101001011111110111101110010011111010010111111 "
b10111101110010011111010010111111 p#
b10111101110010011111010010111111 2$
b10111101110010011111010010111111 R$
b10111101110010011111010010111111 r$
b10111101110010011111010011000010 4%
b10111101110010011111010011000010 T%
b10111101110010011111010011000010 t%
b10111101110010011111010011000010 6&
0Z&
0^&
#51
b10101000001011110111001001111101001100001110111101110010011111010011000011101111011100100111110100110000111011110111001001111101001100001110111101110010011111010011000000101111011100100111110100110000001011110111001001111101001100000010111101110010011111010011000000 "
b10111101110010011111010011000000 p#
b10111101110010011111010011000000 2$
b10111101110010011111010011000000 R$
b10111101110010011111010011000000 r$
b10111101110010011111010011000011 4%
b10111101110010011111010011000011 T%
b10111101110010011111010011000011 t%
b10111101110010011111010011000011 6&
#52
b11101100001011110111001001111101001100010010111101110010011111010011000100101111011100100111110100110001001011110111001001111101001100010010111101110010011111010011000001101111011100100111110100110000011011110111001001111101001100000110111101110010011111010011000001 "
b10111101110010011111010011000001 p#
b10111101110010011111010011000001 2$
b10111101110010011111010011000001 R$
b10111101110010011111010011000001 r$
b10111101110010011111010011000100 4%
b10111101110010011111010011000100 T%
b10111101110010011111010011000100 t%
b10111101110010011111010011000100 6&
1Z&
1^&
#53
b11101100001011110111001001111101001100010110111101110010011111010011000101101111011100100111110100110001011011110111001001111101001100010110111101110010011111010011000010101111011100100111110100110000101011110111001001111101001100001010111101110010011111010011000010 "
b10111101110010011111010011000010 p#
b10111101110010011111010011000010 2$
b10111101110010011111010011000010 R$
b10111101110010011111010011000010 r$
b10111101110010011111010011000101 4%
b10111101110010011111010011000101 T%
b10111101110010011111010011000101 t%
b10111101110010011111010011000101 6&
#54
b11101100001011110111001001111101001100011010111101110010011111010011000110101111011100100111110100110001101011110111001001111101001100011010111101110010011111010011000011101111011100100111110100110000111011110111001001111101001100001110111101110010011111010011000011 "
b10111101110010011111010011000011 p#
b10111101110010011111010011000011 2$
b10111101110010011111010011000011 R$
b10111101110010011111010011000011 r$
b10111101110010011111010011000110 4%
b10111101110010011111010011000110 T%
b10111101110010011111010011000110 t%
b10111101110010011111010011000110 6&
#55
b10101000001011110111001001111101001100011110111101110010011111010011000111101111011100100111110100110001111011110111001001111101001100011110111101110010011111010011000100101111011100100111110100110001001011110111001001111101001100010010111101110010011111010011000100 "
b10111101110010011111010011000100 p#
b10111101110010011111010011000100 2$
b10111101110010011111010011000100 R$
b10111101110010011111010011000100 r$
b10111101110010011111010011000111 4%
b10111101110010011111010011000111 T%
b10111101110010011111010011000111 t%
b10111101110010011111010011000111 6&
0Z&
0^&
#56
b10101000001011110111001001111101001100100010111101110010011111010011001000101111011100100111110100110010001011110111001001111101001100100010111101110010011111010011000101101111011100100111110100110001011011110111001001111101001100010110111101110010011111010011000101 "
b10111101110010011111010011000101 p#
b10111101110010011111010011000101 2$
b10111101110010011111010011000101 R$
b10111101110010011111010011000101 r$
b10111101110010011111010011001000 4%
b10111101110010011111010011001000 T%
b10111101110010011111010011001000 t%
b10111101110010011111010011001000 6&
#57
b11101100001011110111001001111101001100100110111101110010011111010011001001101111011100100111110100110010011011110111001001111101001100100110111101110010011111010011000110101111011100100111110100110001101011110111001001111101001100011010111101110010011111010011000110 "
b10111101110010011111010011000110 p#
b10111101110010011111010011000110 2$
b10111101110010011111010011000110 R$
b10111101110010011111010011000110 r$
b10111101110010011111010011001001 4%
b10111101110010011111010011001001 T%
b10111101110010011111010011001001 t%
b10111101110010011111010011001001 6&
1Z&
1^&
#58
b11101100001011110111001001111101001100101010111101110010011111010011001010101111011100100111110100110010101011110111001001111101001100101010111101110010011111010011000111101111011100100111110100110001111011110111001001111101001100011110111101110010011111010011000111 "
b10111101110010011111010011000111 p#
b10111101110010011111010011000111 2$
b10111101110010011111010011000111 R$
b10111101110010011111010011000111 r$
b10111101110010011111010011001010 4%
b10111101110010011111010011001010 T%
b10111101110010011111010011001010 t%
b10111101110010011111010011001010 6&
#59
b11101100001011110111001001111101001100101110111101110010011111010011001011101111011100100111110100110010111011110111001001111101001100101110111101110010011111010011001000101111011100100111110100110010001011110111001001111101001100100010111101110010011111010011001000 "
b10111101110010011111010011001000 p#
b10111101110010011111010011001000 2$
b10111101110010011111010011001000 R$
b10111101110010011111010011001000 r$
b10111101110010011111010011001011 4%
b10111101110010011111010011001011 T%
b10111101110010011111010011001011 t%
b10111101110010011111010011001011 6&
#60
b10101000001011110111001001111101001100110010111101110010011111010011001100101111011100100111110100110011001011110111001001111101001100110010111101110010011111010011001001101111011100100111110100110010011011110111001001111101001100100110111101110010011111010011001001 "
b10111101110010011111010011001001 p#
b10111101110010011111010011001001 2$
b10111101110010011111010011001001 R$
b10111101110010011111010011001001 r$
b10111101110010011111010011001100 4%
b10111101110010011111010011001100 T%
b10111101110010011111010011001100 t%
b10111101110010011111010011001100 6&
0Z&
0^&
#61
b10101000001011110111001001111101001100110110111101110010011111010011001101101111011100100111110100110011011011110111001001111101001100110110111101110010011111010011001010101111011100100111110100110010101011110111001001111101001100101010111101110010011111010011001010 "
b10111101110010011111010011001010 p#
b10111101110010011111010011001010 2$
b10111101110010011111010011001010 R$
b10111101110010011111010011001010 r$
b10111101110010011111010011001101 4%
b10111101110010011111010011001101 T%
b10111101110010011111010011001101 t%
b10111101110010011111010011001101 6&
