OpticalTests/kcu_gtwiz_quad227/4channels_prbs7_16bit_CB/.Xil/Vivado-56004-higgs.physics.ucsb.edu/hw_ila_data_1/zip_work/waveform.vcd
$date
        2021-Dec-04 17:36:20
$end
$version
        Vivado v2019.2 (64-bit)
$end
$timescale
        1ps
$end
$scope module dut $end
$var reg 970 " ila_data [969:0] $end
$var reg 32 @+ receiver_0 [31:0] $end
$var reg 32 `+ receiver_1 [31:0] $end
$var reg 32 ", receiver_2 [31:0] $end
$var reg 32 B, receiver_3 [31:0] $end
$var reg 32 b, transmitter_0 [31:0] $end
$var reg 32 $- transmitter_1 [31:0] $end
$var reg 32 D- transmitter_2 [31:0] $end
$var reg 32 d- transmitter_3 [31:0] $end
$var reg 4 &. prbs_match_int [3:0] $end
$var reg 1 *. hb0_gtwiz_userclk_rx_usrclk2_int $end
$var reg 1 +. hb0_gtwiz_userclk_rx_active_int $end
$var reg 1 ,. hb_gtwiz_reset_all_int $end
$var reg 1 -. hb0_gtwiz_reset_rx_done_int $end
$var reg 1 .. hb0_gtwiz_userclk_tx_usrclk2_int $end
$var reg 1 /. hb0_gtwiz_userclk_tx_active_int $end
$var reg 1 0. gtwiz_userclk_tx_reset_int $end
$var reg 1 1. gtwiz_userclk_tx_usrclk_int $end
$var reg 1 2. gtwiz_userclk_tx_usrclk2_int $end
$var reg 1 3. gtwiz_userclk_tx_active_int $end
$var reg 1 4. gtwiz_userclk_rx_reset_int $end
$var reg 1 5. gtwiz_userclk_rx_usrclk_int $end
$var reg 1 6. gtwiz_userclk_rx_usrclk2_int $end
$var reg 1 7. gtwiz_userclk_rx_active_int $end
$var reg 36 8. drpaddr_int [35:0] $end
$var reg 4 \. drpclk_int [3:0] $end
$var reg 4 `. drpdi_int [3:0] $end
$var reg 4 d. drpen_int [3:0] $end
$var reg 4 h. drpwe_int [3:0] $end
$var reg 4 l. eyescanreset_int [3:0] $end
$var reg 4 p. rx8b10ben_int [3:0] $end
$var reg 4 t. rxcommadeten_int [3:0] $end
$var reg 4 x. rxlpmen_int [3:0] $end
$var reg 4 |. rxmcommaalignen_int [3:0] $end
$var reg 4 "/ rxpcommaalignen_int [3:0] $end
$var reg 12 &/ rxrate_int [11:0] $end
$var reg 4 2/ tx8b10ben_int [3:0] $end
$var reg 16 6/ txdiffctrl_int [15:0] $end
$var reg 20 F/ txpostcursor_int [19:0] $end
$var reg 20 Z/ txprecursor_int [19:0] $end
$var reg 64 n/ drpdo_int [63:0] $end
$var reg 4 P0 drprdy_int [3:0] $end
$var reg 4 T0 gtpowergood_int [3:0] $end
$var reg 4 X0 rxbyteisaligned_int [3:0] $end
$var reg 4 \0 rxbyterealign_int [3:0] $end
$var reg 4 `0 rxcommadet_int [3:0] $end
$var reg 4 d0 rxpmaresetdone_int [3:0] $end
$var reg 4 h0 txpmaresetdone_int [3:0] $end
$var reg 16 l0 ch0_rxctrl0_int [15:0] $end
$var reg 16 |0 ch1_rxctrl0_int [15:0] $end
$var reg 16 .1 ch2_rxctrl0_int [15:0] $end
$var reg 16 >1 ch3_rxctrl0_int [15:0] $end
$var reg 16 N1 ch0_rxctrl1_int [15:0] $end
$var reg 16 ^1 ch1_rxctrl1_int [15:0] $end
$var reg 16 n1 ch2_rxctrl1_int [15:0] $end
$var reg 16 ~1 ch3_rxctrl1_int [15:0] $end
$var reg 8 02 ch0_rxctrl2_int [7:0] $end
$var reg 8 82 ch1_rxctrl2_int [7:0] $end
$var reg 8 @2 ch2_rxctrl2_int [7:0] $end
$var reg 8 H2 ch3_rxctrl2_int [7:0] $end
$var reg 8 P2 ch0_rxctrl3_int [7:0] $end
$var reg 8 X2 ch1_rxctrl3_int [7:0] $end
$var reg 8 `2 ch2_rxctrl3_int [7:0] $end
$var reg 8 h2 ch3_rxctrl3_int [7:0] $end
$var reg 16 p2 ch0_txctrl0_int [15:0] $end
$var reg 16 "3 ch1_txctrl0_int [15:0] $end
$var reg 16 23 ch2_txctrl0_int [15:0] $end
$var reg 16 B3 ch3_txctrl0_int [15:0] $end
$var reg 16 R3 ch0_txctrl1_int [15:0] $end
$var reg 16 b3 ch1_txctrl1_int [15:0] $end
$var reg 16 r3 ch2_txctrl1_int [15:0] $end
$var reg 16 $4 ch3_txctrl1_int [15:0] $end
$var reg 8 44 ch0_txctrl2_int [7:0] $end
$var reg 8 <4 ch1_txctrl2_int [7:0] $end
$var reg 8 D4 ch2_txctrl2_int [7:0] $end
$var reg 8 L4 ch3_txctrl2_int [7:0] $end
$var reg 40 T4 hb0_rxdata_nml_ctr [39:0] $end
$var reg 16 |4 ch0_rxdata_err_ctr [15:0] $end
$var reg 16 .5 ch1_rxdata_err_ctr [15:0] $end
$var reg 16 >5 ch2_rxdata_err_ctr [15:0] $end
$var reg 16 N5 ch3_rxdata_err_ctr [15:0] $end
$var reg 1 ^5 _TRIGGER $end
$var reg 1 _5 _WINDOW $end
$var reg 1 `5 _GAP $end
$upscope $end
$enddefinitions $end
#0
$dumpvars
b1000101101101000100010101010100010001001110000001000100011110011010010101010100010111110100101100011100000000000000000000000000000000000000000000000000000000000000000000000000000000000000000000000000000000000000000000000000000000000000000000000000000000000000001111000011110000111100001111000000000000000000000000000000000000000000000000000000000000000000000000000000000000000000000000000000000000000000000000000000000000000000000000000000000000000000001111111100000000111111110000000000000000000000000000000000000000000000000000000000000000000000000000000000000000000000000000000000001100110011001100111100000000000011111111111111111111000000000000000010000000010110000010110000010110000010111010100010101100001111010101001100010100000011110011110101010011000101000000111100111101010100110001010000001111001111010101001100010100000011110010101101010100000011110010010010101011010101000000111100100100101010110101010000001111001001001010101101010100000011110010010010 "
b10101101010100000011110010010010 @+
b10101101010100000011110010010010 `+
b10101101010100000011110010010010 ",
b10101101010100000011110010010010 B,
b11110101010011000101000000111100 b,
b11110101010011000101000000111100 $-
b11110101010011000101000000111100 D-
b11110101010011000101000000111100 d-
b0 &.
1*.
1+.
0,.
1-.
0..
1/.
00.
01.
02.
13.
04.
15.
06.
17.
b1011000001011000001011000001011 8.
b1000 \.
b0 `.
b0 d.
b0 h.
b0 l.
b1111 p.
b1111 t.
b1111 x.
b1111 |.
b1111 "/
b0 &/
b1111 2/
b1100110011001100 6/
b0 F/
b0 Z/
b0 n/
b0 P0
b1111 T0
b1111 X0
b0 \0
b0 `0
b1111 d0
b1111 h0
b0 l0
b0 |0
b0 .1
b0 >1
b0 N1
b0 ^1
b0 n1
b0 ~1
b0 02
b0 82
b0 @2
b0 H2
b11110000 P2
b11110000 X2
b11110000 `2
b11110000 h2
b0 p2
b0 "3
b0 23
b0 B3
b0 R3
b0 b3
b0 r3
b0 $4
b0 44
b0 <4
b0 D4
b0 L4
b110100101010101000101111101001011000111 T4
b1000100011110 |4
b1000100111000 .5
b1000101010101 >5
b1000101101101 N5
0^5
1_5
0`5
$end
#1
b1000101110101000100010101110100010001010000000001000100100110011010010101010100010111110100101100111100000000000000000000000000000000000000000000000000000000000000000000000000000000000000000000000000000000000000000000000000000000000000000000000000000000000000001111000011110000111100001111000000000000000000000000000000000000000000000000000000000000000000000000000000000000000000000000000000000000000000000000000000000000000000000000000000000000000000001111111100000000111111110000000000000000000000000000000000000000000000000000000000000000000000000000000000000000000000000000000000001100110011001100111100000000000011111111111111111111000000000000000011000000010110000010110000010110000010111000100010101000001111101010100110010100000011110011111010101001100101000000111100111110101010011001010000001111001111101010100110010100000011110011010110010100000011110011001001110101100101000000111100110010011101011001010000001111001100100111010110010100000011110011001001 "
b11010110010100000011110011001001 @+
b11010110010100000011110011001001 `+
b11010110010100000011110011001001 ",
b11010110010100000011110011001001 B,
b11111010101001100101000000111100 b,
b11111010101001100101000000111100 $-
b11111010101001100101000000111100 D-
b11111010101001100101000000111100 d-
0*.
05.
b1100 \.
b110100101010101000101111101001011001111 T4
b1000100100110 |4
b1000101000000 .5
b1000101011101 >5
b1000101110101 N5
#2
b1000101111101000100010110010100010001010010000001000100101110011010010101010100010111110100101101011100000000000000000000000000000000000000000000000000000000000000000000000000000000000000000000000000000000000000000000000000000000000000000000000000000000000000001111000011110000111100001111000000000000000000000000000000000000000000000000000000000000000000000000000000000000000000000000000000000000000000000000000000000000000000000000000000000000000000001111111100000000111111110000000000000000000000000000000000000000000000000000000000000000000000000000000000000000000000000000000000001100110011001100111100000000000011111111111111111111000000000000000010000000010110000010110000010110000010111000111011101000001111110101010011010100000011110011111101010100110101000000111100111111010101001101010000001111001111110101010011010100000011110001101011010100000011110001100100011010110101000000111100011001000110101101010000001111000110010001101011010100000011110001100100 "
b1101011010100000011110001100100 @+
b1101011010100000011110001100100 `+
b1101011010100000011110001100100 ",
b1101011010100000011110001100100 B,
b11111101010100110101000000111100 b,
b11111101010100110101000000111100 $-
b11111101010100110101000000111100 D-
b11111101010100110101000000111100 d-
1..
11.
12.
b1000 \.
b110100101010101000101111101001011010111 T4
b1000100101110 |4
b1000101001000 .5
b1000101100101 >5
b1000101111101 N5
#3
b1000110000101000100010110110100010001010100000001000100110110011010010101010100010111110100101101111100000000000000000000000000000000000000000000000000000000000000000000000000000000000000000000000000000000000000000000000000000000000000000000000000000000000000001111000011110000111100001111000000000000000000000000000000000000000000000000000000000000000000000000000000000000000000000000000000000000000000000000000000000000000000000000000000000000000000001111111100000000111111110000000000000000000000000000000000000000000000000000000000000000000000000000000000000000000000000000000000001100110011001100111100000000000011111111111111111111000000000000000010000000010110000010110000010110000010111110111011101100001111111010101001010100000011110011111110101010010101000000111100111111101010100101010000001111001111111010101001010100000011110010110101010100000011110010110010101101010101000000111100101100101011010101010000001111001011001010110101010100000011110010110010 "
b10110101010100000011110010110010 @+
b10110101010100000011110010110010 `+
b10110101010100000011110010110010 ",
b10110101010100000011110010110010 B,
b11111110101010010101000000111100 b,
b11111110101010010101000000111100 $-
b11111110101010010101000000111100 D-
b11111110101010010101000000111100 d-
1*.
15.
16.
b110100101010101000101111101001011011111 T4
b1000100110110 |4
b1000101010000 .5
b1000101101101 >5
b1000110000101 N5
#4
b1000110001101000100010111010100010001010110000001000100111110011010010101010100010111110100101110011100000000000000000000000000000000000000000000000000000000000000000000000000000000000000000000000000000000000000000000000000000000000000000000000000000000000000001111000011110000111100001111000000000000000000000000000000000000000000000000000000000000000000000000000000000000000000000000000000000000000000000000000000000000000000000000000000000000000000001111111100000000111111110000000000000000000000000000000000000000000000000000000000000000000000000000000000000000000000000000000000001100110011001100111100000000000011111111111111111111000000000000000010000000010110000010110000010110000010111110101011101100001100111011101001010100000011110011001110111010010101000000111100110011101110100101010000001111000111111011101001010100000011110000100011010100000011110010000101001000110101000000111100100001010010001101010000001111001000010100100011010100000011110010000101 "
b100011010100000011110010000101 @+
b100011010100000011110010000101 `+
b100011010100000011110010000101 ",
b100011010100000011110010000101 B,
b1111110111010010101000000111100 b,
b11001110111010010101000000111100 $-
b11001110111010010101000000111100 D-
b11001110111010010101000000111100 d-
02.
b110100101010101000101111101001011100111 T4
b1000100111110 |4
b1000101011000 .5
b1000101110101 >5
b1000110001101 N5
#5
b1000110010100000100010111110000010001010111110001000101000101011010010101010100010111110100101110111000000000000000000000000000000000000000000000000000000000000000000000000000000000000000000000000000000000000000000000000000000000000000000000000000000000000000001111000011110000111100001111000000000000000000000000000000000000000000000000000000000000000000000000000000000000000000000000000000000000000000000000000000000000000000000000000000000000000000001111111100000000111111110000000000000000000000000000000000000000000000000000000000000000000000000000000000000000000000000000000000001100110011001100111100000000000011111111111111111111000000000000000010000000010110000010110000010110000010111010100010101100000110011101110100010100000011110001100111011101000101000000111100011001110111010001010000001111000110011101110100010100000011110010010001010100000011110011000010100100010101000000111100110000101001000101010000001111001100001010010001010100000011110011000010 "
b10010001010100000011110011000010 @+
b10010001010100000011110011000010 `+
b10010001010100000011110011000010 ",
b10010001010100000011110011000010 B,
b1100111011101000101000000111100 b,
b1100111011101000101000000111100 $-
b1100111011101000101000000111100 D-
b1100111011101000101000000111100 d-
0..
01.
06.
b110100101010101000101111101001011101110 T4
b1000101000101 |4
b1000101011111 .5
b1000101111100 >5
b1000110010100 N5
#6
b1000110011100000100011000010000010001011001110001000101001101011010010101010100010111110100101111011000000000000000000000000000000000000000000000000000000000000000000000000000000000000000000000000000000000000000000000000000000000000000000000000000000000000000001111000011110000111100001111000000000000000000000000000000000000000000000000000000000000000000000000000000000000000000000000000000000000000000000000000000000000000000000000000000000000000000001111111100000000111111110000000000000000000000000000000000000000000000000000000000000000000000000000000000000000000000000000000000001100110011001100111100000000000011111111111111111111000000000000000010000000010110000010110000010110000010111000100010101000000011001110111010010100000011110000110011101110100101000000111100001100111011101001010000001111000011001110111010010100000011110001001000010100000011110011100001010010000101000000111100111000010100100001010000001111001110000101001000010100000011110011100001 "
b1001000010100000011110011100001 @+
b1001000010100000011110011100001 `+
b1001000010100000011110011100001 ",
b1001000010100000011110011100001 B,
b110011101110100101000000111100 b,
b110011101110100101000000111100 $-
b110011101110100101000000111100 D-
b110011101110100101000000111100 d-
0*.
05.
b110100101010101000101111101001011110110 T4
b1000101001101 |4
b1000101100111 .5
b1000110000100 >5
b1000110011100 N5
#7
b1000110100100000100011000110000010001011011110001000101010101011010010101010100010111110100101111111000000000000000000000000000000000000000000000000000000000000000000000000000000000000000000000000000000000000000000000000000000000000000000000000000000000000000001111000011110000111100001111000000000000000000000000000000000000000000000000000000000000000000000000000000000000000000000000000000000000000000000000000000000000000000000000000000000000000000001111111100000000111111110000000000000000000000000000000000000000000000000000000000000000000000000000000000000000000000000000000000001100110011001100111100000000000011111111111111111111000000000000000010000000010110000010110000010110000010111000111011101000001001100111011101010100000011110010011001110111010101000000111100100110011101110101010000001111001001100111011101010100000011110000100100010100000011110001110000001001000101000000111100011100000010010001010000001111000111000000100100010100000011110001110000 "
b100100010100000011110001110000 @+
b100100010100000011110001110000 `+
b100100010100000011110001110000 ",
b100100010100000011110001110000 B,
b10011001110111010101000000111100 b,
b10011001110111010101000000111100 $-
b10011001110111010101000000111100 D-
b10011001110111010101000000111100 d-
1..
11.
12.
b110100101010101000101111101001011111110 T4
b1000101010101 |4
b1000101101111 .5
b1000110001100 >5
b1000110100100 N5
#8
b1000110101100000100011001010000010001011101110001000101011101011010010101010100010111110100110000011000000000000000000000000000000000000000000000000000000000000000000000000000000000000000000000000000000000000000000000000000000000000000000000000000000000000000001111000011110000111100001111000000000000000000000000000000000000000000000000000000000000000000000000000000000000000000000000000000000000000000000000000000000000000000000000000000000000000000001111111100000000111111110000000000000000000000000000000000000000000000000000000000000000000000000000000000000000000000000000000000001100110011001100111100000000000011111111111111111111000000000000000010000000010110000010110000010110000010111110111011101100000100110011101110010100000011110001001100111011100101000000111100010011001110111001010000001111000100110011101110010100000011110010010010010100000011110000111000100100100101000000111100001110001001001001010000001111000011100010010010010100000011110000111000 "
b10010010010100000011110000111000 @+
b10010010010100000011110000111000 `+
b10010010010100000011110000111000 ",
b10010010010100000011110000111000 B,
b1001100111011100101000000111100 b,
b1001100111011100101000000111100 $-
b1001100111011100101000000111100 D-
b1001100111011100101000000111100 d-
1*.
15.
16.
b110100101010101000101111101001100000110 T4
b1000101011101 |4
b1000101110111 .5
b1000110010100 >5
b1000110101100 N5
#9
b1000110110100000100011001110000010001011111110001000101100101011010010101010100010111110100110000111000000000000000000000000000000000000000000000000000000000000000000000000000000000000000000000000000000000000000000000000000000000000000000000000000000000000000001111000011110000111100001111000000000000000000000000000000000000000000000000000000000000000000000000000000000000000000000000000000000000000000000000000000000000000000000000000000000000000000001111111100000000111111110000000000000000000000000000000000000000000000000000000000000000000000000000000000000000000000000000000000001100110011001100111100000000000011111111111111111111000000000000000010000000010110000010110000010110000010111110101011101100000100111100011011010100000011110001001011000110110101000000111100011010110001101101010000001111001110011101011011010100000011110000101111010100000011110010010101001011110101000000111100100101010010111101010000001111001001010100101111010100000011110010010101 "
b101111010100000011110010010101 @+
b101111010100000011110010010101 `+
b101111010100000011110010010101 ",
b101111010100000011110010010101 B,
b11100111010110110101000000111100 b,
b1101011000110110101000000111100 $-
b1001011000110110101000000111100 D-
b1001111000110110101000000111100 d-
02.
b110100101010101000101111101001100001110 T4
b1000101100101 |4
b1000101111111 .5
b1000110011100 >5
b1000110110100 N5
#10
b1000110111011000100011010001100010001100001100001000101101100011010010101010100010111110100110001010100000000000000000000000000000000000000000000000000000000000000000000000000000000000000000000000000000000000000000000000000000000000000000000000000000000000000001111000011110000111100001111000000000000000000000000000000000000000000000000000000000000000000000000000000000000000000000000000000000000000000000000000000000000000000000000000000000000000000001111111100000000111111110000000000000000000000000000000000000000000000000000000000000000000000000000000000000000000000000000000000001100110011001100111100000000000011111111111111111111000000000000000010000000010110000010110000010110000010111010100010101100001010010110001101010100000011110010100101100011010101000000111100101001011000110101010000001111001010010110001101010100000011110000010111010100000011110011001010000101110101000000111100110010100001011101010000001111001100101000010111010100000011110011001010 "
b10111010100000011110011001010 @+
b10111010100000011110011001010 `+
b10111010100000011110011001010 ",
b10111010100000011110011001010 B,
b10100101100011010101000000111100 b,
b10100101100011010101000000111100 $-
b10100101100011010101000000111100 D-
b10100101100011010101000000111100 d-
0..
01.
06.
b110100101010101000101111101001100010101 T4
b1000101101100 |4
b1000110000110 .5
b1000110100011 >5
b1000110111011 N5
#11
b1000111000011000100011010101100010001100011100001000101110100011010010101010100010111110100110001110100000000000000000000000000000000000000000000000000000000000000000000000000000000000000000000000000000000000000000000000000000000000000000000000000000000000000001111000011110000111100001111000000000000000000000000000000000000000000000000000000000000000000000000000000000000000000000000000000000000000000000000000000000000000000000000000000000000000000001111111100000000111111110000000000000000000000000000000000000000000000000000000000000000000000000000000000000000000000000000000000001100110011001100111100000000000011111111111111111111000000000000000010000000010110000010110000010110000010111000100010101000001101001011000110010100000011110011010010110001100101000000111100110100101100011001010000001111001101001011000110010100000011110000001011010100000011110011100101000010110101000000111100111001010000101101010000001111001110010100001011010100000011110011100101 "
b1011010100000011110011100101 @+
b1011010100000011110011100101 `+
b1011010100000011110011100101 ",
b1011010100000011110011100101 B,
b11010010110001100101000000111100 b,
b11010010110001100101000000111100 $-
b11010010110001100101000000111100 D-
b11010010110001100101000000111100 d-
0*.
05.
b110100101010101000101111101001100011101 T4
b1000101110100 |4
b1000110001110 .5
b1000110101011 >5
b1000111000011 N5
#12
b1000111001011000100011011001100010001100101100001000101111100011010010101010100010111110100110010010100000000000000000000000000000000000000000000000000000000000000000000000000000000000000000000000000000000000000000000000000000000000000000000000000000000000000001111000011110000111100001111000000000000000000000000000000000000000000000000000000000000000000000000000000000000000000000000000000000000000000000000000000000000000000000000000000000000000000001111111100000000111111110000000000000000000000000000000000000000000000000000000000000000000000000000000000000000000000000000000000001100110011001100111100000000000011111111111111111111000000000000000010000000010110000010110000010110000010111000111011101000001110100101100011010100000011110011101001011000110101000000111100111010010110001101010000001111001110100101100011010100000011110010000101010100000011110011110010100001010101000000111100111100101000010101010000001111001111001010000101010100000011110011110010 "
b10000101010100000011110011110010 @+
b10000101010100000011110011110010 `+
b10000101010100000011110011110010 ",
b10000101010100000011110011110010 B,
b11101001011000110101000000111100 b,
b11101001011000110101000000111100 $-
b11101001011000110101000000111100 D-
b11101001011000110101000000111100 d-
1..
11.
12.
b110100101010101000101111101001100100101 T4
b1000101111100 |4
b1000110010110 .5
b1000110110011 >5
b1000111001011 N5
#13
b1000111010011000100011011101100010001100111100001000110000100011010010101010100010111110100110010110100000000000000000000000000000000000000000000000000000000000000000000000000000000000000000000000000000000000000000000000000000000000000000000000000000000000000001111000011110000111100001111000000000000000000000000000000000000000000000000000000000000000000000000000000000000000000000000000000000000000000000000000000000000000000000000000000000000000000001111111100000000111111110000000000000000000000000000000000000000000000000000000000000000000000000000000000000000000000000000000000001100110011001100111100000000000011111111111111111111000000000000000010000000010110000010110000010110000010111110111011101111110111010010110001010100000011110001110100101100010101000000111100011101001011000101010000001111000111010010110001010100000011110011000010010100000011110011111001110000100101000000111100111110011100001001010000001111001111100111000010010100000011110011111001 "
b11000010010100000011110011111001 @+
b11000010010100000011110011111001 `+
b11000010010100000011110011111001 ",
b11000010010100000011110011111001 B,
b1110100101100010101000000111100 b,
b1110100101100010101000000111100 $-
b1110100101100010101000000111100 D-
b1110100101100010101000000111100 d-
b1111 &.
1*.
15.
16.
b110100101010101000101111101001100101101 T4
b1000110000100 |4
b1000110011110 .5
b1000110111011 >5
b1000111010011 N5
#14
b1000111011010000100011100001000010001101001010001000110001011011010010101010100010111110100110011010100000000000000000000000000000000000000000000000000000000000000000000000000000000000000000000000000000000000000000000000000000000000000000000000000000000000000001111000011110000111100001111000000000000000000000000000000000000000000000000000000000000000000000000000000000000000000000000000000000000000000000000000000000000000000000000000000000000000000001111111100000000111111110000000000000000000000000000000000000000000000000000000000000000000000000000000000000000000000000000000000001100110011001100111100000000000011111111111111111111000000000000000010000000010110000010110000010110000010111110101011101100001101111011010110010100000011110011011110110101100101000000111100110111101101011001010000001111001111111011010110010100000011110010101110010100000011110001101000101011100101000000111100011010001010111001010000001111000110100010101110010100000011110001101000 "
b10101110010100000011110001101000 @+
b10101110010100000011110001101000 `+
b10101110010100000011110001101000 ",
b10101110010100000011110001101000 B,
b11111110110101100101000000111100 b,
b11011110110101100101000000111100 $-
b11011110110101100101000000111100 D-
b11011110110101100101000000111100 d-
b0 &.
02.
b110100101010101000101111101001100110101 T4
b1000110001011 |4
b1000110100101 .5
b1000111000010 >5
b1000111011010 N5
#15
b1000111100001000100011100100100010001101011000001000110010010011010010101010100010111110100110011110000000000000000000000000000000000000000000000000000000000000000000000000000000000000000000000000000000000000000000000000000000000000000000000000000000000000000001111000011110000111100001111000000000000000000000000000000000000000000000000000000000000000000000000000000000000000000000000000000000000000000000000000000000000000000000000000000000000000000001111111100000000111111110000000000000000000000000000000000000000000000000000000000000000000000000000000000000000000000000000000000001100110011001100111100000000000011111111111111111111000000000000000010000000010110000010110000000000000010111010100010101100000110111101101011010100000011110001101111011010110101000000111100011011110110101101010000001111000110111101101011010100000011110001010111010100000011110000110100010101110101000000111100001101000101011101010000001111000011010001010111010100000011110000110100 "
b1010111010100000011110000110100 @+
b1010111010100000011110000110100 `+
b1010111010100000011110000110100 ",
b1010111010100000011110000110100 B,
b1101111011010110101000000111100 b,
b1101111011010110101000000111100 $-
b1101111011010110101000000111100 D-
b1101111011010110101000000111100 d-
0..
01.
06.
b1011000001011000000000000001011 8.
b110100101010101000101111101001100111100 T4
b1000110010010 |4
b1000110101100 .5
b1000111001001 >5
b1000111100001 N5
#16
b1000111101001000100011101000100010001101101000001000110011010011010010101010100010111110100110100010000000000000000000000000000000000000000000000000000000000000000000000000000000000000000000000000000000000000000000000000000000000000000000000000000000000000000001111000011110000111100001111000000000000000000000000000000000000000000000000000000000000000000000000000000000000000000000000000000000000000000000000000000000000000000000000000000000000000000001111111100000000111111110000000000000000000000000000000000000000000000000000000000000000000000000000000000000000000000000000000000001100110011001100111100000000000011111111111111111111000000000000000010000000010110000010110000000000000010111000100010101000000011011110110101010100000011110000110111101101010101000000111100001101111011010101010000001111000011011110110101010100000011110000101011010100000011110010011010001010110101000000111100100110100010101101010000001111001001101000101011010100000011110010011010 "
b101011010100000011110010011010 @+
b101011010100000011110010011010 `+
b101011010100000011110010011010 ",
b101011010100000011110010011010 B,
b110111101101010101000000111100 b,
b110111101101010101000000111100 $-
b110111101101010101000000111100 D-
b110111101101010101000000111100 d-
0*.
05.
b110100101010101000101111101001101000100 T4
b1000110011010 |4
b1000110110100 .5
b1000111010001 >5
b1000111101001 N5
#17
b1000111110001000100011101100100010001101111000001000110100010011010010101010100010111110100110100110000000000000000000000000000000000000000000000000000000000000000000000000000000000000000000000000000000000000000000000000000000000000000000000000000000000000000001111000011110000111100001111000000000000000000000000000000000000000000000000000000000000000000000000000000000000000000000000000000000000000000000000000000000000000000000000000000000000000000001111111100000000111111110000000000000000000000000000000000000000000000000000000000000000000000000000000000000000000000000000000000001100110011001100111100000000000011111111111111111111000000000000000010000000010110000010110000000000000010111000111011101000000001101111011010010100000011110000011011110110100101000000111100000110111101101001010000001111000001101111011010010100000011110010010101010100000011110011001101100101010101000000111100110011011001010101010000001111001100110110010101010100000011110011001101 "
b10010101010100000011110011001101 @+
b10010101010100000011110011001101 `+
b10010101010100000011110011001101 ",
b10010101010100000011110011001101 B,
b11011110110100101000000111100 b,
b11011110110100101000000111100 $-
b11011110110100101000000111100 D-
b11011110110100101000000111100 d-
1..
11.
12.
b110100101010101000101111101001101001100 T4
b1000110100010 |4
b1000110111100 .5
b1000111011001 >5
b1000111110001 N5
#18
b1000111111001000100011110000100010001110001000001000110101010011010010101010100010111110100110101010000000000000000000000000000000000000000000000000000000000000000000000000000000000000000000000000000000000000000000000000000000000000000000000000000000000000000001111000011110000111100001111000000000000000000000000000000000000000000000000000000000000000000000000000000000000000000000000000000000000000000000000000000000000000000000000000000000000000000001111111100000000111111110000000000000000000000000000000000000000000000000000000000000000000000000000000000000000000000000000000000001100110011001100111100000000000011111111111111111111000000000000000011000000010110000010110000000000000010111110111011101100001000110111101101010100000011110010001101111011010101000000111100100011011110110101010000001111001000110111101101010100000011110011001010010100000011110011100110110010100101000000111100111001101100101001010000001111001110011011001010010100000011110011100110 "
b11001010010100000011110011100110 @+
b11001010010100000011110011100110 `+
b11001010010100000011110011100110 ",
b11001010010100000011110011100110 B,
b10001101111011010101000000111100 b,
b10001101111011010101000000111100 $-
b10001101111011010101000000111100 D-
b10001101111011010101000000111100 d-
1*.
15.
16.
b1100 \.
b110100101010101000101111101001101010100 T4
b1000110101010 |4
b1000111000100 .5
b1000111100001 >5
b1000111111001 N5
#19
b1001000000001000100011110100100010001110011000001000110110010011010010101010100010111110100110101110000000000000000000000000000000000000000000000000000000000000000000000000000000000000000000000000000000000000000000000000000000000000000000000000000000000000000001111000011110000111100001111000000000000000000000000000000000000000000000000000000000000000000000000000000000000000000000000000000000000000000000000000000000000000000000000000000000000000000001111111100000000111111110000000000000000000000000000000000000000000000000000000000000000000000000000000000000000000000000000000000001100110011001100111100000000000011111111111111111111000000000000000011000000010110000010110000000000000010111110101011101100001111011001001000010100000011110010110110010010000101000000111100101101100100100001010000001111001000011001001000010100000011110001000100010100000011110011110001010001000101000000111100111100010100010001010000001111001111000101000100010100000011110011110001 "
b1000100010100000011110011110001 @+
b1000100010100000011110011110001 `+
b1000100010100000011110011110001 ",
b1000100010100000011110011110001 B,
b10000110010010000101000000111100 b,
b10110110010010000101000000111100 $-
b10110110010010000101000000111100 D-
b11110110010010000101000000111100 d-
02.
b110100101010101000101111101001101011100 T4
b1000110110010 |4
b1000111001100 .5
b1000111101001 >5
b1001000000001 N5
#20
b1001000001000000100011111000000010001110100110001000110111001011010010101010100010111110100110110001100000000000000000000000000000000000000000000000000000000000000000000000000000000000000000000000000000000000000000000000000000000000000000000000000000000000000001111000011110000111100001111000000000000000000000000000000000000000000000000000000000000000000000000000000000000000000000000000000000000000000000000000000000000000000000000000000000000000000001111111100000000111111110000000000000000000000000000000000000000000000000000000000000000000000000000000000000000000000000000000000001100110011001100111100000000000011111111111111111111000000000000000010000000010110000010110000000000000010111010100010101100000101101100100100010100000011110001011011001001000101000000111100010110110010010001010000001111000101101100100100010100000011110010100010010100000011110001111000101000100101000000111100011110001010001001010000001111000111100010100010010100000011110001111000 "
b10100010010100000011110001111000 @+
b10100010010100000011110001111000 `+
b10100010010100000011110001111000 ",
b10100010010100000011110001111000 B,
b1011011001001000101000000111100 b,
b1011011001001000101000000111100 $-
b1011011001001000101000000111100 D-
b1011011001001000101000000111100 d-
0..
01.
06.
b1000 \.
b110100101010101000101111101001101100011 T4
b1000110111001 |4
b1000111010011 .5
b1000111110000 >5
b1001000001000 N5
#21
b1001000010000000100011111100000010001110110110001000111000001011010010101010100010111110100110110101100000000000000000000000000000000000000000000000000000000000000000000000000000000000000000000000000000000000000000000000000000000000000000000000000000000000000001111000011110000111100001111000000000000000000000000000000000000000000000000000000000000000000000000000000000000000000000000000000000000000000000000000000000000000000000000000000000000000000001111111100000000111111110000000000000000000000000000000000000000000000000000000000000000000000000000000000000000000000000000000000001100110011001100111100000000000011111111111111111111000000000000000010000000010110000010110000000000000010111000100010101000001010110110010010010100000011110010101101100100100101000000111100101011011001001001010000001111001010110110010010010100000011110011010001010100000011110000111100110100010101000000111100001111001101000101010000001111000011110011010001010100000011110000111100 "
b11010001010100000011110000111100 @+
b11010001010100000011110000111100 `+
b11010001010100000011110000111100 ",
b11010001010100000011110000111100 B,
b10101101100100100101000000111100 b,
b10101101100100100101000000111100 $-
b10101101100100100101000000111100 D-
b10101101100100100101000000111100 d-
0*.
05.
b110100101010101000101111101001101101011 T4
b1000111000001 |4
b1000111011011 .5
b1000111111000 >5
b1001000010000 N5
#22
b1001000011000000100100000000000010001111000110001000111001001011010010101010100010111110100110111001100000000000000000000000000000000000000000000000000000000000000000000000000000000000000000000000000000000000000000000000000000000000000000000000000000000000000001111000011110000111100001111000000000000000000000000000000000000000000000000000000000000000000000000000000000000000000000000000000000000000000000000000000000000000000000000000000000000000000001111111100000000111111110000000000000000000000000000000000000000000000000000000000000000000000000000000000000000000000000000000000001100110011001100111100000000000011111111111111111111000000000000000010000000010110000010110000000000000010111000111011101000001101011011001001010100000011110011010110110010010101000000111100110101101100100101010000001111001101011011001001010100000011110001101000010100000011110010011110011010000101000000111100100111100110100001010000001111001001111001101000010100000011110010011110 "
b1101000010100000011110010011110 @+
b1101000010100000011110010011110 `+
b1101000010100000011110010011110 ",
b1101000010100000011110010011110 B,
b11010110110010010101000000111100 b,
b11010110110010010101000000111100 $-
b11010110110010010101000000111100 D-
b11010110110010010101000000111100 d-
1..
11.
12.
b110100101010101000101111101001101110011 T4
b1000111001001 |4
b1000111100011 .5
b1001000000000 >5
b1001000011000 N5
