OpticalTests/kcu_gtwiz_quad227/4channels_prbs7_noCB/.Xil/Vivado-55516-higgs.physics.ucsb.edu/hw_ila_data_1/zip_work/waveform.vcd
$date
        2021-Nov-07 18:34:31
$end
$version
        Vivado v2019.2 (64-bit)
$end
$timescale
        1ps
$end
$scope module dut $end
$var reg 618 " ila_data [617:0] $end
$var reg 32 X' receiver_0 [31:0] $end
$var reg 32 x' userdata_rx_0 [31:0] $end
$var reg 32 :( receiver_1 [31:0] $end
$var reg 32 Z( userdata_rx_1 [31:0] $end
$var reg 32 z( userdata_rx_2 [31:0] $end
$var reg 32 <) receiver_2 [31:0] $end
$var reg 32 \) userdata_rx_3 [31:0] $end
$var reg 32 |) receiver_3 [31:0] $end
$var reg 32 >* userdata_tx_0 [31:0] $end
$var reg 32 ^* transmitter_0 [31:0] $end
$var reg 32 ~* userdata_tx_1 [31:0] $end
$var reg 32 @+ transmitter_1 [31:0] $end
$var reg 32 `+ userdata_tx_2 [31:0] $end
$var reg 32 ", transmitter_2 [31:0] $end
$var reg 32 B, transmitter_3 [31:0] $end
$var reg 32 b, userdata_tx_3 [31:0] $end
$var reg 4 $- prbs_match_int [3:0] $end
$var reg 16 (- ch0_rxctrl0_int [15:0] $end
$var reg 16 8- ch1_rxctrl0_int [15:0] $end
$var reg 16 H- ch2_rxctrl0_int [15:0] $end
$var reg 16 X- ch3_rxctrl0_int [15:0] $end
$var reg 16 h- ch0_rxctrl1_int [15:0] $end
$var reg 16 x- ch1_rxctrl1_int [15:0] $end
$var reg 16 *. ch2_rxctrl1_int [15:0] $end
$var reg 16 :. ch3_rxctrl1_int [15:0] $end
$var reg 8 J. ch0_rxctrl2_int [7:0] $end
$var reg 8 R. ch1_rxctrl2_int [7:0] $end
$var reg 8 Z. ch2_rxctrl2_int [7:0] $end
$var reg 8 b. ch3_rxctrl2_int [7:0] $end
$var reg 8 j. ch0_rxctrl3_int [7:0] $end
$var reg 8 r. ch1_rxctrl3_int [7:0] $end
$var reg 8 z. ch2_rxctrl3_int [7:0] $end
$var reg 8 $/ ch3_rxctrl3_int [7:0] $end
$var reg 16 ,/ ch0_txctrl0_int [15:0] $end
$var reg 16 </ ch1_txctrl0_int [15:0] $end
$var reg 16 L/ ch2_txctrl0_int [15:0] $end
$var reg 16 \/ ch3_txctrl0_int [15:0] $end
$var reg 16 l/ ch0_txctrl1_int [15:0] $end
$var reg 16 |/ ch2_txctrl1_int [15:0] $end
$var reg 16 .0 ch3_txctrl1_int [15:0] $end
$var reg 8 >0 ch0_txctrl2_int [7:0] $end
$var reg 8 F0 ch1_txctrl2_int [7:0] $end
$var reg 8 N0 ch2_txctrl2_int [7:0] $end
$var reg 8 V0 ch3_txctrl2_int [7:0] $end
$var reg 1 ^0 hb0_gtwiz_userclk_rx_usrclk2_int $end
$var reg 1 _0 hb0_gtwiz_userclk_rx_active_int $end
$var reg 1 `0 hb_gtwiz_reset_all_int $end
$var reg 1 a0 hb0_gtwiz_reset_rx_done_int $end
$var reg 1 b0 hb0_gtwiz_userclk_tx_usrclk2_int $end
$var reg 1 c0 hb0_gtwiz_userclk_tx_active_int $end
$var reg 1 d0 _TRIGGER $end
$var reg 1 e0 _WINDOW $end
$var reg 1 f0 _GAP $end
$upscope $end
$enddefinitions $end
#0
$dumpvars
b101010000000000000000000000000000000000000000000000000000000000000000000000000000000000000000000000000000000000000000000000000000000000000000000000000000000000000000011110000111100001111000011110000000000000000000000000000000000000000000000000000000000000000000000000000000000000000000000000000000000000000000000000000000000000000000000000000000000000000000010000011111000111010100111101011011101010000001111001001111010110111010100000011110010000000100101010101000000111100011111110110101001000010110111100000011010011110110101110000000001010000001111001000000010010111010100000011110001111111011010000101000000111100 "
b1111111011010000101000000111100 X'
b1111111011010000101000000111100 x'
b10000000100101110101000000111100 :(
b10000000100101110101000000111100 Z(
b11010111000000000101000000111100 z(
b11010111000000000101000000111100 <)
b1000010110111100000011010011110 \)
b1000010110111100000011010011110 |)
b1010000001111000111111101101010 >*
b1010000001111000111111101101010 ^*
b1010000001111001000000010010101 ~*
b1010000001111001000000010010101 @+
b1010000001111001001111010110111 `+
b1010000001111001001111010110111 ",
b111110001110101001111010110111 B,
b111110001110101001111010110111 b,
b1000 $-
b0 (-
b0 8-
b0 H-
b0 X-
b0 h-
b0 x-
b0 *.
b0 :.
b0 J.
b0 R.
b0 Z.
b0 b.
b11110000 j.
b11110000 r.
b11110000 z.
b11110000 $/
b0 ,/
b0 </
b0 L/
b0 \/
b0 l/
b0 |/
b0 .0
b0 >0
b0 F0
b0 N0
b0 V0
0^0
1_0
0`0
1a0
0b0
1c0
0d0
1e0
0f0
$end
#1
b111010000000000000000000000000000000000000000000000000000000000000000000000000000000000000000000000000000000000000000000000000000000000000000000000000000000000000000011110000111100001111000011110000000000000000000000000000000000000000000000000000000000000000000000000000000000000000000000000000000000000000000000000000000000000000000000000000000000000000000010000010100011100001111001110010001001010000001111001110011100100010010100000011110010000000100101000101000000111100011111110110101101010000111011011101100000110101000011110011101001010000001111001000000010010110010100000011110001111111011010010101000000111100 "
b1111111011010010101000000111100 X'
b1111111011010010101000000111100 x'
b10000000100101100101000000111100 :(
b10000000100101100101000000111100 Z(
b1111001110100101000000111100 z(
b1111001110100101000000111100 <)
b1010000111011011101100000110101 \)
b1010000111011011101100000110101 |)
b1010000001111000111111101101011 >*
b1010000001111000111111101101011 ^*
b1010000001111001000000010010100 ~*
b1010000001111001000000010010100 @+
b1010000001111001110011100100010 `+
b1010000001111001110011100100010 ",
b101000111000011110011100100010 B,
b101000111000011110011100100010 b,
1b0
#2
b111010000000000000000000000000000000000000000000000000000000000000000000000000000000000000000000000000000000000000000000000000000000000000000000000000000000000000000011110000111100001111000011110000000000000000000000000000000000000000000000000000000000000000000000000000000000000000000000000000000000000000000000000000000000000000000000000000000000000000000010001101000010000001111111011100000001010000001111001111110111000000010100000011110010000000100100110101000000111100011111110110110010100101010011101001100101111101110011010100000101010000001111001000000010010101010100000011110001111111011010100101000000111100 "
b1111111011010100101000000111100 X'
b1111111011010100101000000111100 x'
b10000000100101010101000000111100 :(
b10000000100101010101000000111100 Z(
b11001101010000010101000000111100 z(
b11001101010000010101000000111100 <)
b10100101010011101001100101111101 \)
b10100101010011101001100101111101 |)
b1010000001111000111111101101100 >*
b1010000001111000111111101101100 ^*
b1010000001111001000000010010011 ~*
b1010000001111001000000010010011 @+
b1010000001111001111110111000000 `+
b1010000001111001111110111000000 ",
b11010000100000011111110111000000 B,
b11010000100000011111110111000000 b,
#3
b101011000000000000000000000000000000000000000000000000000000000000000000000000000000000000000000000000000000000000000000000000000000000000000000000000000000000000000011110000111100001111000011110000000000000000000000000000000000000000000000000000000000000000000000000000000000000000000000000000000000000000000000000000000000000000000000000000000000000000000010001100011101010010100100000000011101010000001111001001000000000111010100000011110010000000100100100101000000111100011111110110110100111100100011011110000001000001101110011110001101010000001111001000000010010100010100000011110001111111011010110101000000111100 "
b1111111011010110101000000111100 X'
b1111111011010110101000000111100 x'
b10000000100101000101000000111100 :(
b10000000100101000101000000111100 Z(
b10111001111000110101000000111100 z(
b10111001111000110101000000111100 <)
b111100100011011110000001000001 \)
b111100100011011110000001000001 |)
b1010000001111000111111101101101 >*
b1010000001111000111111101101101 ^*
b1010000001111001000000010010010 ~*
b1010000001111001000000010010010 @+
b1010000001111001001000000000111 `+
b1010000001111001001000000000111 ",
b11000111010100101001000000000111 B,
b11000111010100101001000000000111 b,
1^0
0b0
#4
b101011000000000000000000000000000000000000000000000000000000000000000000000000000000000000000000000000000000000000000000000000000000000000000000000000000000000000000011110000111100001111000011110000000000000000000000000000000000000000000000000000000000000000000000000000000000000000000000000000000000000000000000000000000000000000000000000000000000000000000010001000110000011110100001111110000101010000001111001000011111100001010100000011110010000000100100010101000000111100011111110110111011011111011101010001011010110110000101011110110001010000001111001000000010010011010100000011110001111111011011000101000000111100 "
b1111111011011000101000000111100 X'
b1111111011011000101000000111100 x'
b10000000100100110101000000111100 :(
b10000000100100110101000000111100 Z(
b10101111011000101000000111100 z(
b10101111011000101000000111100 <)
b11011111011101010001011010110110 \)
b11011111011101010001011010110110 |)
b1010000001111000111111101101110 >*
b1010000001111000111111101101110 ^*
b1010000001111001000000010010001 ~*
b1010000001111001000000010010001 @+
b1010000001111001000011111100001 `+
b1010000001111001000011111100001 ",
b10001100000111101000011111100001 B,
b10001100000111101000011111100001 b,
#5
b101010000000000000000000000000000000000000000000000000000000000000000000000000000000000000000000000000000000000000000000000000000000000000000000000000000000000000000011110000111100001111000011110000000000000000000000000000000000000000000000000000000000000000000000000000000000000000000000000000000000000000000000000000000000000000000000000000000000000000000010001100101110100001010010001001111101010000001111000100100010011111010100000011110010000000100100000101000000111100011111110110111100010000111100011000111011100101010001111110010001010000001111001000000010010010010100000011110001111111011011010101000000111100 "
b1111111011011010101000000111100 X'
b1111111011011010101000000111100 x'
b10000000100100100101000000111100 :(
b10000000100100100101000000111100 Z(
b1000111111001000101000000111100 z(
b1000111111001000101000000111100 <)
b10000111100011000111011100101 \)
b10000111100011000111011100101 |)
b1010000001111000111111101101111 >*
b1010000001111000111111101101111 ^*
b1010000001111001000000010010000 ~*
b1010000001111001000000010010000 @+
b1010000001111000100100010011111 `+
b1010000001111000100100010011111 ",
b11001011101000010100100010011111 B,
b11001011101000010100100010011111 b,
0^0
#6
b111010000000000000000000000000000000000000000000000000000000000000000000000000000000000000000000000000000000000000000000000000000000000000000000000000000000000000000011110000111100001111000011110000000000000000000000000000000000000000000000000000000000000000000000000000000000000000000000000000000000000000000000000000000000000000000000000000000000000000000010000100110110001000001100100000110001010000001111000011001000001100010100000011110010000000100011110101000000111100011111110111000000100100000110010101011001000110111111100101111001010000001111001000000010010001010100000011110001111111011011100101000000111100 "
b1111111011011100101000000111100 X'
b1111111011011100101000000111100 x'
b10000000100100010101000000111100 :(
b10000000100100010101000000111100 Z(
b11111110010111100101000000111100 z(
b11111110010111100101000000111100 <)
b100100000110010101011001000110 \)
b100100000110010101011001000110 |)
b1010000001111000111111101110000 >*
b1010000001111000111111101110000 ^*
b1010000001111001000000010001111 ~*
b1010000001111001000000010001111 @+
b1010000001111000011001000001100 `+
b1010000001111000011001000001100 ",
b1001101100010000011001000001100 B,
b1001101100010000011001000001100 b,
1b0
#7
b111010000000000000000000000000000000000000000000000000000000000000000000000000000000000000000000000000000000000000000000000000000000000000000000000000000000000000000011110000111100001111000011110000000000000000000000000000000000000000000000000000000000000000000000000000000000000000000000000000000000000000000000000000000000000000000000000000000000000000000010001010111111101100100110001000101101010000001111001001100010001011010100000011110010000000100011100101000000111100011111110111000101000000101011111011110111110010101111010101000101010000001111001000000010010000010100000011110001111111011011110101000000111100 "
b1111111011011110101000000111100 X'
b1111111011011110101000000111100 x'
b10000000100100000101000000111100 :(
b10000000100100000101000000111100 Z(
b10111101010100010101000000111100 z(
b10111101010100010101000000111100 <)
b1000000101011111011110111110010 \)
b1000000101011111011110111110010 |)
b1010000001111000111111101110001 >*
b1010000001111000111111101110001 ^*
b1010000001111001000000010001110 ~*
b1010000001111001000000010001110 @+
b1010000001111001001100010001011 `+
b1010000001111001001100010001011 ",
b10101111111011001001100010001011 B,
b10101111111011001001100010001011 b,
#8
b101011000000000000000000000000000000000000000000000000000000000000000000000000000000000000000000000000000000000000000000000000000000000000000000000000000000000000000011110000111100001111000011110000000000000000000000000000000000000000000000000000000000000000000000000000000000000000000000000000000000000000000000000000000000000000000000000000000000000000000010000111110010010001001000001111011101010000001111000010000011110111010100000011110010000000100011010101000000111100011111110111001010001111010000110100011101111101110011111100110001010000001111001000000010001111010100000011110001111111011100000101000000111100 "
b1111111011100000101000000111100 X'
b1111111011100000101000000111100 x'
b10000000100011110101000000111100 :(
b10000000100011110101000000111100 Z(
b11001111110011000101000000111100 z(
b11001111110011000101000000111100 <)
b10001111010000110100011101111101 \)
b10001111010000110100011101111101 |)
b1010000001111000111111101110010 >*
b1010000001111000111111101110010 ^*
b1010000001111001000000010001101 ~*
b1010000001111001000000010001101 @+
b1010000001111000010000011110111 `+
b1010000001111000010000011110111 ",
b1111100100100010010000011110111 B,
b1111100100100010010000011110111 b,
1^0
0b0
#9
b101011000000000000000000000000000000000000000000000000000000000000000000000000000000000000000000000000000000000000000000000000000000000000000000000000000000000000000011110000111100001111000011110000000000000000000000000000000000000000000000000000000000000000000000000000000000000000000000000000000000000000000000000000000000000000000000000000000000000000000010000101100101011011100111111110000101010000001111001001111111100001010100000011110010000000100011000101000000111100011111110111001101000010001010011010101010101000010010111110011001010000001111001000000010001110010100000011110001111111011100010101000000111100 "
b1111111011100010101000000111100 X'
b1111111011100010101000000111100 x'
b10000000100011100101000000111100 :(
b10000000100011100101000000111100 Z(
b1001011111001100101000000111100 z(
b1001011111001100101000000111100 <)
b1000010001010011010101010101000 \)
b1000010001010011010101010101000 |)
b1010000001111000111111101110011 >*
b1010000001111000111111101110011 ^*
b1010000001111001000000010001100 ~*
b1010000001111001000000010001100 @+
b1010000001111001001111111100001 `+
b1010000001111001001111111100001 ",
b1011001010110111001111111100001 B,
b1011001010110111001111111100001 b,
#10
b101010000000000000000000000000000000000000000000000000000000000000000000000000000000000000000000000000000000000000000000000000000000000000000000000000000000000000000011110000111100001111000011110000000000000000000000000000000000000000000000000000000000000000000000000000000000000000000000000000000000000000000000000000000000000000000000000000000000000000000010001101001011010001111001100011000001010000001111001110011000110000010100000011110010000000100010110101000000111100011111110111010010001111101001110001011011101001011101001110110001010000001111001000000010001101010100000011110001111111011100100101000000111100 "
b1111111011100100101000000111100 X'
b1111111011100100101000000111100 x'
b10000000100011010101000000111100 :(
b10000000100011010101000000111100 Z(
b1110100111011000101000000111100 z(
b1110100111011000101000000111100 <)
b10001111101001110001011011101001 \)
b10001111101001110001011011101001 |)
b1010000001111000111111101110100 >*
b1010000001111000111111101110100 ^*
b1010000001111001000000010001011 ~*
b1010000001111001000000010001011 @+
b1010000001111001110011000110000 `+
b1010000001111001110011000110000 ",
b11010010110100011110011000110000 B,
b11010010110100011110011000110000 b,
0^0
#11
b111010000000000000000000000000000000000000000000000000000000000000000000000000000000000000000000000000000000000000000000000000000000000000000000000000000000000000000011110000111100001111000011110000000000000000000000000000000000000000000000000000000000000000000000000000000000000000000000000000000000000000000000000000000000000000000000000000000000000000000010000110100010001011011100000000011001010000001111000111000000000110010100000011110010000000100010100101000000111100011111110111010111111010110101110111111000001010100111101010001101010000001111001000000010001100010100000011110001111111011100110101000000111100 "
b1111111011100110101000000111100 X'
b1111111011100110101000000111100 x'
b10000000100011000101000000111100 :(
b10000000100011000101000000111100 Z(
b10011110101000110101000000111100 z(
b10011110101000110101000000111100 <)
b11111010110101110111111000001010 \)
b11111010110101110111111000001010 |)
b1010000001111000111111101110101 >*
b1010000001111000111111101110101 ^*
b1010000001111001000000010001010 ~*
b1010000001111001000000010001010 @+
b1010000001111000111000000000110 `+
b1010000001111000111000000000110 ",
b1101000100010110111000000000110 B,
b1101000100010110111000000000110 b,
1b0
#12
b111010000000000000000000000000000000000000000000000000000000000000000000000000000000000000000000000000000000000000000000000000000000000000000000000000000000000000000011110000111100001111000011110000000000000000000000000000000000000000000000000000000000000000000000000000000000000000000000000000000000000000000000000000000000000000000000000000000000000000000010001000111110001111011000111000111101010000001111000110001110001111010100000011110010000000100010010101000000111100011111110111011001011001110101000011110011001011101010000100101001010000001111001000000010001011010100000011110001111111011101000101000000111100 "
b1111111011101000101000000111100 X'
b1111111011101000101000000111100 x'
b10000000100010110101000000111100 :(
b10000000100010110101000000111100 Z(
b10101000010010100101000000111100 z(
b10101000010010100101000000111100 <)
b1011001110101000011110011001011 \)
b1011001110101000011110011001011 |)
b1010000001111000111111101110110 >*
b1010000001111000111111101110110 ^*
b1010000001111001000000010001001 ~*
b1010000001111001000000010001001 @+
b1010000001111000110001110001111 `+
b1010000001111000110001110001111 ",
b10001111100011110110001110001111 B,
b10001111100011110110001110001111 b,
#13
b101011000000000000000000000000000000000000000000000000000000000000000000000000000000000000000000000000000000000000000000000000000000000000000000000000000000000000000011110000111100001111000011110000000000000000000000000000000000000000000000000000000000000000000000000000000000000000000000000000000000000000000000000000000000000000000000000000000000000000000010000000101101000101001100011000010001010000001111000011000110000100010100000011110010000000100010000101000000111100011111110111011110110001010110011100010001111010110010001000110101010000001111001000000010001010010100000011110001111111011101010101000000111100 "
b1111111011101010101000000111100 X'
b1111111011101010101000000111100 x'
b10000000100010100101000000111100 :(
b10000000100010100101000000111100 Z(
b11001000100011010101000000111100 z(
b11001000100011010101000000111100 <)
b10110001010110011100010001111010 \)
b10110001010110011100010001111010 |)
b1010000001111000111111101110111 >*
b1010000001111000111111101110111 ^*
b1010000001111001000000010001000 ~*
b1010000001111001000000010001000 @+
b1010000001111000011000110000100 `+
b1010000001111000011000110000100 ",
b1011010001010011000110000100 B,
b1011010001010011000110000100 b,
1^0
0b0
#14
b101011000000000000000000000000000000000000000000000000000000000000000000000000000000000000000000000000000000000000000000000000000000000000000000000000000000000000000011110000111100001111000011110000000000000000000000000000000000000000000000000000000000000000000000000000000000000000000000000000000000000000000000000000000000000000000000000000000000000000000010001110110100000001010100101011111101010000001111000101001010111111010100000011110010000000100001110101000000111100011111110111100001111001110111110001011010000001000111100011011101010000001111001000000010001001010100000011110001111111011101100101000000111100 "
b1111111011101100101000000111100 X'
b1111111011101100101000000111100 x'
b10000000100010010101000000111100 :(
b10000000100010010101000000111100 Z(
b11110001101110101000000111100 z(
b11110001101110101000000111100 <)
b1111001110111110001011010000001 \)
b1111001110111110001011010000001 |)
b1010000001111000111111101111000 >*
b1010000001111000111111101111000 ^*
b1010000001111001000000010000111 ~*
b1010000001111001000000010000111 @+
b1010000001111000101001010111111 `+
b1010000001111000101001010111111 ",
b11101101000000010101001010111111 B,
b11101101000000010101001010111111 b,
#15
b101010000000000000000000000000000000000000000000000000000000000000000000000000000000000000000000000000000000000000000000000000000000000000000000000000000000000000000011110000111100001111000011110000000000000000000000000000000000000000000000000000000000000000000000000000000000000000000000000000000000000000000000000000000000000000000000000000000000000000000010001111011001100111101101010110111001010000001111001011010101101110010100000011110010000000100001100101000000111100011111110111100100011110101011100110010110000101010000101011000001010000001111001000000010001000010100000011110001111111011101110101000000111100 "
b1111111011101110101000000111100 X'
b1111111011101110101000000111100 x'
b10000000100010000101000000111100 :(
b10000000100010000101000000111100 Z(
b1000010101100000101000000111100 z(
b1000010101100000101000000111100 <)
b11110101011100110010110000101 \)
b11110101011100110010110000101 |)
b1010000001111000111111101111001 >*
b1010000001111000111111101111001 ^*
b1010000001111001000000010000110 ~*
b1010000001111001000000010000110 @+
b1010000001111001011010101101110 `+
b1010000001111001011010101101110 ",
b11110110011001111011010101101110 B,
b11110110011001111011010101101110 b,
0^0
#16
b111010000000000000000000000000000000000000000000000000000000000000000000000000000000000000000000000000000000000000000000000000000000000000000000000000000000000000000011110000111100001111000011110000000000000000000000000000000000000000000000000000000000000000000000000000000000000000000000000000000000000000000000000000000000000000000000000000000000000000000010000110011001011111001010110101011001010000001111000010101101010110010100000011110010000000100001010101000000111100011111110111101011010000101101001000111110000010111101011111011001010000001111001000000010000111010100000011110001111111011110000101000000111100 "
b1111111011110000101000000111100 X'
b1111111011110000101000000111100 x'
b10000000100001110101000000111100 :(
b10000000100001110101000000111100 Z(
b11110101111101100101000000111100 z(
b11110101111101100101000000111100 <)
b11010000101101001000111110000010 \)
b11010000101101001000111110000010 |)
b1010000001111000111111101111010 >*
b1010000001111000111111101111010 ^*
b1010000001111001000000010000101 ~*
b1010000001111001000000010000101 @+
b1010000001111000010101101010110 `+
b1010000001111000010101101010110 ",
b1100110010111110010101101010110 B,
b1100110010111110010101101010110 b,
1b0
#17
b111010000000000000000000000000000000000000000000000000000000000000000000000000000000000000000000000000000000000000000000000000000000000000000000000000000000000000000011110000111100001111000011110000000000000000000000000000000000000000000000000000000000000000000000000000000000000000000000000000000000000000000000000000000000000000000000000000000000000000000010001101111000111001101101110011011001010000001111001011011100110110010100000011110010000000100001000101000000111100011111110111101111101100110001010110100011010011101110110011000001010000001111001000000010000110010100000011110001111111011110010101000000111100 "
b1111111011110010101000000111100 X'
b1111111011110010101000000111100 x'
b10000000100001100101000000111100 :(
b10000000100001100101000000111100 Z(
b10111011001100000101000000111100 z(
b10111011001100000101000000111100 <)
b11101100110001010110100011010011 \)
b11101100110001010110100011010011 |)
b1010000001111000111111101111011 >*
b1010000001111000111111101111011 ^*
b1010000001111001000000010000100 ~*
b1010000001111001000000010000100 @+
b1010000001111001011011100110110 `+
b1010000001111001011011100110110 ",
b11011110001110011011011100110110 B,
b11011110001110011011011100110110 b,
#18
b101011000000000000000000000000000000000000000000000000000000000000000000000000000000000000000000000000000000000000000000000000000000000000000000000000000000000000000011110000111100001111000011110000000000000000000000000000000000000000000000000000000000000000000000000000000000000000000000000000000000000000000000000000000000000000000000000000000000000000000010000011001100001001011011000000010101010000001111000110110000000101010100000011110010000000100000110101000000111100011111110111110010100100000111000010011001110111011010001101100101010000001111001000000010000101010100000011110001111111011110100101000000111100 "
b1111111011110100101000000111100 X'
b1111111011110100101000000111100 x'
b10000000100001010101000000111100 :(
b10000000100001010101000000111100 Z(
b1101000110110010101000000111100 z(
b1101000110110010101000000111100 <)
b10100100000111000010011001110111 \)
b10100100000111000010011001110111 |)
b1010000001111000111111101111100 >*
b1010000001111000111111101111100 ^*
b1010000001111001000000010000011 ~*
b1010000001111001000000010000011 @+
b1010000001111000110110000000101 `+
b1010000001111000110110000000101 ",
b110011000010010110110000000101 B,
b110011000010010110110000000101 b,
1^0
0b0
#19
b101011000000000000000000000000000000000000000000000000000000000000000000000000000000000000000000000000000000000000000000000000000000000000000000000000000000000000000011110000111100001111000011110000000000000000000000000000000000000000000000000000000000000000000000000000000000000000000000000000000000000000000000000000000000000000000000000000000000000000000010000110011110000100010001011011110001010000001111000100010110111100010100000011110010000000100000100101000000111100011111110111110110101101001011001000110111100011011111010110010001010000001111001000000010000100010100000011110001111111011110110101000000111100 "
b1111111011110110101000000111100 X'
b1111111011110110101000000111100 x'
b10000000100001000101000000111100 :(
b10000000100001000101000000111100 Z(
b1111101011001000101000000111100 z(
b1111101011001000101000000111100 <)
b10101101001011001000110111100011 \)
b10101101001011001000110111100011 |)
b1010000001111000111111101111101 >*
b1010000001111000111111101111101 ^*
b1010000001111001000000010000010 ~*
b1010000001111001000000010000010 @+
b1010000001111000100010110111100 `+
b1010000001111000100010110111100 ",
b1100111100001000100010110111100 B,
b1100111100001000100010110111100 b,
#20
b101010000000000000000000000000000000000000000000000000000000000000000000000000000000000000000000000000000000000000000000000000000000000000000000000000000000000000000011110000111100001111000011110000000000000000000000000000000000000000000000000000000000000000000000000000000000000000000000000000000000000000000000000000000000000000000000000000000000000000000010001010011001001111111001011101001101010000001111001110010111010011010100000011110010000000100000010101000000111100011111110111111000001000001111101011101001011100101101010100001101010000001111001000000010000011010100000011110001111111011111000101000000111100 "
b1111111011111000101000000111100 X'
b1111111011111000101000000111100 x'
b10000000100000110101000000111100 :(
b10000000100000110101000000111100 Z(
b10110101010000110101000000111100 z(
b10110101010000110101000000111100 <)
b1000001111101011101001011100 \)
b1000001111101011101001011100 |)
b1010000001111000111111101111110 >*
b1010000001111000111111101111110 ^*
b1010000001111001000000010000001 ~*
b1010000001111001000000010000001 @+
b1010000001111001110010111010011 `+
b1010000001111001110010111010011 ",
b10100110010011111110010111010011 B,
b10100110010011111110010111010011 b,
0^0
#21
b111010000000000000000000000000000000000000000000000000000000000000000000000000000000000000000000000000000000000000000000000000000000000000000000000000000000000000000011110000111100001111000011110000000000000000000000000000000000000000000000000000000000000000000000000000000000000000000000000000000000000000000000000000000000000000000000000000000000000000000010001001111001111101011000110001001001010000001111000110001100010010010100000011110010000000100000000101000000111100011111110111111111100011111100001101001000111101101010100100010101010000001111001000000010000010010100000011110001111111011111010101000000111100 "
b1111111011111010101000000111100 X'
b1111111011111010101000000111100 x'
b10000000100000100101000000111100 :(
b10000000100000100101000000111100 Z(
b10101010010001010101000000111100 z(
b10101010010001010101000000111100 <)
b11100011111100001101001000111101 \)
b11100011111100001101001000111101 |)
b1010000001111000111111101111111 >*
b1010000001111000111111101111111 ^*
b1010000001111001000000010000000 ~*
b1010000001111001000000010000000 @+
b1010000001111000110001100010010 `+
b1010000001111000110001100010010 ",
b10011110011111010110001100010010 B,
b10011110011111010110001100010010 b,
1b0
#22
b111010000000000000000000000000000000000000000000000000000000000000000000000000000000000000000000000000000000000000000000000000000000000000000000000000000000000000000011110000111100001111000011110000000000000000000000000000000000000000000000000000000000000000000000000000000000000000000000000000000000000000000000000000000000000000000000000000000000000000000010001000000010010110001100100010010101010000001111000011001000100101010100000011110010000000011111110101000000111100011111111000000000010000110011101000010110000001010001000110010001010000001111001000000010000001010100000011110001111111011111100101000000111100 "
b1111111011111100101000000111100 X'
b1111111011111100101000000111100 x'
b10000000100000010101000000111100 :(
b10000000100000010101000000111100 Z(
b1000100011001000101000000111100 z(
b1000100011001000101000000111100 <)
b10000110011101000010110000001 \)
b10000110011101000010110000001 |)
b1010000001111000111111110000000 >*
b1010000001111000111111110000000 ^*
b1010000001111001000000001111111 ~*
b1010000001111001000000001111111 @+
b1010000001111000011001000100101 `+
b1010000001111000011001000100101 ",
b10000000100101100011001000100101 B,
b10000000100101100011001000100101 b,
#23
b101011000000000000000000000000000000000000000000000000000000000000000000000000000000000000000000000000000000000000000000000000000000000000000000000000000000000000000011110000111100001111000011110000000000000000000000000000000000000000000000000000000000000000000000000000000000000000000000000000000000000000000000000000000000000000000000000000000000000000000010000110110100000010011011010100100001010000001111000110110101001000010100000011110010000000011111100101000000111100011111111000000111000100110010100000000101000101110101000010010001010000001111001000000010000000010100000011110001111111011111110101000000111100 "
b1111111011111110101000000111100 X'
b1111111011111110101000000111100 x'
b10000000100000000101000000111100 :(
b10000000100000000101000000111100 Z(
b11010100001001000101000000111100 z(
b11010100001001000101000000111100 <)
b11000100110010100000000101000101 \)
b11000100110010100000000101000101 |)
b1010000001111000111111110000001 >*
b1010000001111000111111110000001 ^*
b1010000001111001000000001111110 ~*
b1010000001111001000000001111110 @+
b1010000001111000110110101001000 `+
b1010000001111000110110101001000 ",
b1101101000000100110110101001000 B,
b1101101000000100110110101001000 b,
1^0
0b0
#24
b101011000000000000000000000000000000000000000000000000000000000000000000000000000000000000000000000000000000000000000000000000000000000000000000000000000000000000000011110000111100001111000011110000000000000000000000000000000000000000000000000000000000000000000000000000000000000000000000000000000000000000000000000000000000000000000000000000000000000000000010000100010110111101101000110001101001010000001111001010001100011010010100000011110010000000011111010101000000111100011111111000001001000110001010100001111111000010000000101111111001010000001111001000000001111111010100000011110001111111100000000101000000111100 "
b1111111100000000101000000111100 X'
b1111111100000000101000000111100 x'
b10000000011111110101000000111100 :(
b10000000011111110101000000111100 Z(
b10111111100101000000111100 z(
b10111111100101000000111100 <)
b1000110001010100001111111000010 \)
b1000110001010100001111111000010 |)
b1010000001111000111111110000010 >*
b1010000001111000111111110000010 ^*
b1010000001111001000000001111101 ~*
b1010000001111001000000001111101 @+
b1010000001111001010001100011010 `+
b1010000001111001010001100011010 ",
b1000101101111011010001100011010 B,
b1000101101111011010001100011010 b,
#25
b101010000000000000000000000000000000000000000000000000000000000000000000000000000000000000000000000000000000000000000000000000000000000000000000000000000000000000000011110000111100001111000011110000000000000000000000000000000000000000000000000000000000000000000000000000000000000000000000000000000000000000000000000000000000000000000000000000000000000000000010001101100101100001011010011110111001010000001111000110100111101110010100000011110010000000011111000101000000111100011111111000001110000110001010001111010010111101111111010010101001010000001111001000000001111110010100000011110001111111100000010101000000111100 "
b1111111100000010101000000111100 X'
b1111111100000010101000000111100 x'
b10000000011111100101000000111100 :(
b10000000011111100101000000111100 Z(
b11111101001010100101000000111100 z(
b11111101001010100101000000111100 <)
b10000110001010001111010010111101 \)
b10000110001010001111010010111101 |)
b1010000001111000111111110000011 >*
b1010000001111000111111110000011 ^*
b1010000001111001000000001111100 ~*
b1010000001111001000000001111100 @+
b1010000001111000110100111101110 `+
b1010000001111000110100111101110 ",
b11011001011000010110100111101110 B,
b11011001011000010110100111101110 b,
0^0
#26
b111010000000000000000000000000000000000000000000000000000000000000000000000000000000000000000000000000000000000000000000000000000000000000000000000000000000000000000011110000111100001111000011110000000000000000000000000000000000000000000000000000000000000000000000000000000000000000000000000000000000000000000000000000000000000000000000000000000000000000000010000110000100001011110010100101100001010000001111001100101001011000010100000011110010000000011110110101000000111100011111111000010011110010010001101100100111111000100101101011101101010000001111001000000001111101010100000011110001111111100000100101000000111100 "
b1111111100000100101000000111100 X'
b1111111100000100101000000111100 x'
b10000000011111010101000000111100 :(
b10000000011111010101000000111100 Z(
b10010110101110110101000000111100 z(
b10010110101110110101000000111100 <)
b11110010010001101100100111111000 \)
b11110010010001101100100111111000 |)
b1010000001111000111111110000100 >*
b1010000001111000111111110000100 ^*
b1010000001111001000000001111011 ~*
b1010000001111001000000001111011 @+
b1010000001111001100101001011000 `+
b1010000001111001100101001011000 ",
b1100001000010111100101001011000 B,
b1100001000010111100101001011000 b,
1b0
