OpticalTests/.Xil/Vivado-16923-higgs.physics.ucsb.edu/hw_ila_data_1/zip_work/waveform.vcd
$date
        2021-Dec-11 13:49:23
$end
$version
        Vivado v2019.2 (64-bit)
$end
$timescale
        1ps
$end
$scope module dut $end
$var reg 970 " ila_data [969:0] $end
$var reg 32 @+ receiver_0 [31:0] $end
$var reg 32 `+ receiver_1 [31:0] $end
$var reg 32 ", receiver_2 [31:0] $end
$var reg 32 B, receiver_3 [31:0] $end
$var reg 32 b, transmitter_0 [31:0] $end
$var reg 32 $- transmitter_1 [31:0] $end
$var reg 32 D- transmitter_2 [31:0] $end
$var reg 32 d- transmitter_3 [31:0] $end
$var reg 4 &. prbs_match_int [3:0] $end
$var reg 1 *. hb0_gtwiz_userclk_rx_usrclk2_int $end
$var reg 1 +. hb0_gtwiz_userclk_rx_active_int $end
$var reg 1 ,. hb_gtwiz_reset_all_int $end
$var reg 1 -. hb0_gtwiz_reset_rx_done_int $end
$var reg 1 .. hb0_gtwiz_userclk_tx_usrclk2_int $end
$var reg 1 /. hb0_gtwiz_userclk_tx_active_int $end
$var reg 1 0. gtwiz_userclk_tx_reset_int $end
$var reg 1 1. gtwiz_userclk_tx_usrclk_int $end
$var reg 1 2. gtwiz_userclk_tx_usrclk2_int $end
$var reg 1 3. gtwiz_userclk_tx_active_int $end
$var reg 1 4. gtwiz_userclk_rx_reset_int $end
$var reg 1 5. gtwiz_userclk_rx_usrclk_int $end
$var reg 1 6. gtwiz_userclk_rx_usrclk2_int $end
$var reg 1 7. gtwiz_userclk_rx_active_int $end
$var reg 36 8. drpaddr_int [35:0] $end
$var reg 4 \. drpclk_int [3:0] $end
$var reg 4 `. drpdi_int [3:0] $end
$var reg 4 d. drpen_int [3:0] $end
$var reg 4 h. drpwe_int [3:0] $end
$var reg 4 l. eyescanreset_int [3:0] $end
$var reg 4 p. rx8b10ben_int [3:0] $end
$var reg 4 t. rxcommadeten_int [3:0] $end
$var reg 4 x. rxlpmen_int [3:0] $end
$var reg 4 |. rxmcommaalignen_int [3:0] $end
$var reg 4 "/ rxpcommaalignen_int [3:0] $end
$var reg 12 &/ rxrate_int [11:0] $end
$var reg 4 2/ tx8b10ben_int [3:0] $end
$var reg 16 6/ txdiffctrl_int [15:0] $end
$var reg 20 F/ txpostcursor_int [19:0] $end
$var reg 20 Z/ txprecursor_int [19:0] $end
$var reg 64 n/ drpdo_int [63:0] $end
$var reg 4 P0 drprdy_int [3:0] $end
$var reg 4 T0 gtpowergood_int [3:0] $end
$var reg 4 X0 rxbyteisaligned_int [3:0] $end
$var reg 4 \0 rxbyterealign_int [3:0] $end
$var reg 4 `0 rxcommadet_int [3:0] $end
$var reg 4 d0 rxpmaresetdone_int [3:0] $end
$var reg 4 h0 txpmaresetdone_int [3:0] $end
$var reg 16 l0 ch0_rxctrl0_int [15:0] $end
$var reg 16 |0 ch1_rxctrl0_int [15:0] $end
$var reg 16 .1 ch2_rxctrl0_int [15:0] $end
$var reg 16 >1 ch3_rxctrl0_int [15:0] $end
$var reg 16 N1 ch0_rxctrl1_int [15:0] $end
$var reg 16 ^1 ch1_rxctrl1_int [15:0] $end
$var reg 16 n1 ch2_rxctrl1_int [15:0] $end
$var reg 16 ~1 ch3_rxctrl1_int [15:0] $end
$var reg 8 02 ch0_rxctrl2_int [7:0] $end
$var reg 8 82 ch1_rxctrl2_int [7:0] $end
$var reg 8 @2 ch2_rxctrl2_int [7:0] $end
$var reg 8 H2 ch3_rxctrl2_int [7:0] $end
$var reg 8 P2 ch0_rxctrl3_int [7:0] $end
$var reg 8 X2 ch1_rxctrl3_int [7:0] $end
$var reg 8 `2 ch2_rxctrl3_int [7:0] $end
$var reg 8 h2 ch3_rxctrl3_int [7:0] $end
$var reg 16 p2 ch0_txctrl0_int [15:0] $end
$var reg 16 "3 ch1_txctrl0_int [15:0] $end
$var reg 16 23 ch2_txctrl0_int [15:0] $end
$var reg 16 B3 ch3_txctrl0_int [15:0] $end
$var reg 16 R3 ch0_txctrl1_int [15:0] $end
$var reg 16 b3 ch1_txctrl1_int [15:0] $end
$var reg 16 r3 ch2_txctrl1_int [15:0] $end
$var reg 16 $4 ch3_txctrl1_int [15:0] $end
$var reg 8 44 ch0_txctrl2_int [7:0] $end
$var reg 8 <4 ch1_txctrl2_int [7:0] $end
$var reg 8 D4 ch2_txctrl2_int [7:0] $end
$var reg 8 L4 ch3_txctrl2_int [7:0] $end
$var reg 40 T4 hb0_rxdata_nml_ctr [39:0] $end
$var reg 16 |4 ch0_rxdata_err_ctr [15:0] $end
$var reg 16 .5 ch1_rxdata_err_ctr [15:0] $end
$var reg 16 >5 ch2_rxdata_err_ctr [15:0] $end
$var reg 16 N5 ch3_rxdata_err_ctr [15:0] $end
$var reg 1 ^5 _TRIGGER $end
$var reg 1 _5 _WINDOW $end
$var reg 1 `5 _GAP $end
$upscope $end
$enddefinitions $end
#0
$dumpvars
b111101100011101111001100011001001011100000000000000000000000000000000000000000000000000000000000000000000000000000000000000000000000000000000000000000000000000000000000000000000000000000000000000001111000011110000111100001111000000000000000000000000000000000000000000000000000000000000000000000000000000000000000000000000000000000000000000000000000000000000000000000000000000000000000000001111111100000000111111110000000000000000000000000000000000000000000000000000000000000000000000000000000000000000000000000000000000001100110011001100111100000000000011111111111111111111000000000000000000000000010110000010110000010110000010111010110010101111110111110010101110011010001001111001111100101011100110100010011110011111001010111001101000100111100111110010101110011010001001111011101001011000110111101101011011111010010110001101111011010110111110100101100011011110110101101111101001011000110111101101011011 "
b11101001011000110111101101011011 @+
b11101001011000110111101101011011 `+
b11101001011000110111101101011011 ",
b11101001011000110111101101011011 B,
b1111100101011100110100010011110 b,
b1111100101011100110100010011110 $-
b1111100101011100110100010011110 D-
b1111100101011100110100010011110 d-
b1111 &.
1*.
1+.
0,.
1-.
0..
1/.
00.
01.
12.
13.
04.
15.
06.
17.
b1011000001011000001011000001011 8.
b0 \.
b0 `.
b0 d.
b0 h.
b0 l.
b1111 p.
b1111 t.
b1111 x.
b1111 |.
b1111 "/
b0 &/
b1111 2/
b1100110011001100 6/
b0 F/
b0 Z/
b0 n/
b0 P0
b1111 T0
b1111 X0
b0 \0
b0 `0
b1111 d0
b1111 h0
b0 l0
b0 |0
b0 .1
b0 >1
b0 N1
b0 ^1
b0 n1
b0 ~1
b0 02
b0 82
b0 @2
b0 H2
b11110000 P2
b11110000 X2
b11110000 `2
b11110000 h2
b0 p2
b0 "3
b0 23
b0 B3
b0 R3
b0 b3
b0 r3
b0 $4
b0 44
b0 <4
b0 D4
b0 L4
b1111011000111011110011000110010010111 T4
b0 |4
b0 .5
b0 >5
b0 N5
0^5
1_5
0`5
$end
#1
b111101100011101111001100011001001100000000000000000000000000000000000000000000000000000000000000000000000000000000000000000000000000000000000000000000000000000000000000000000000000000000000000000001111000011110000111100001111000000000000000000000000000000000000000000000000000000000000000000000000000000000000000000000000000000000000000000000000000000000000000000000000000000000000000000001111111100000000111111110000000000000000000000000000000000000000000000000000000000000000000000000000000000000000000000000000000000001100110011001100111100000000000011111111111111111111000000000000000011110000010110000010110000010110000010111010110010101111111111011010110110010010001110000111110110101101100100100011100001111101101011011001001000111000011111011010110110010010001110000100100000011111110101010011001110001000000111111101010100110011100010000001111111010101001100111000100000011111110101010011001110 "
b100000011111110101010011001110 @+
b100000011111110101010011001110 `+
b100000011111110101010011001110 ",
b100000011111110101010011001110 B,
b11110110101101100100100011100001 b,
b11110110101101100100100011100001 $-
b11110110101101100100100011100001 D-
b11110110101101100100100011100001 d-
b1111 \.
b1111011000111011110011000110010011000 T4
#2
b111101100011101111001100011001001100100000000000000000000000000000000000000000000000000000000000000000000000000000000000000000000000000000000000000000000000000000000000000000000000000000000000000001111000011110000111100001111000000000000000000000000000000000000000000000000000000000000000000000000000000000000000000000000000000000000000000000000000000000000000000000000000000000000000000001111111100000000111111110000000000000000000000000000000000000000000000000000000000000000000000000000000000000000000000000000000000001100110011001100111100000000000011111111111111111111000000000000000011110000010110000010110000010110000010111010110010101111111010100110011101110100101100011010101001100111011101001011000110101010011001110111010010110001101010100110011101110100101100011010011010001001111000101000011000100110100010011110001010000110001001101000100111100010100001100010011010001001111000101000011000 "
b10011010001001111000101000011000 @+
b10011010001001111000101000011000 `+
b10011010001001111000101000011000 ",
b10011010001001111000101000011000 B,
b10101001100111011101001011000110 b,
b10101001100111011101001011000110 $-
b10101001100111011101001011000110 D-
b10101001100111011101001011000110 d-
b1111011000111011110011000110010011001 T4
#3
b111101100011101111001100011001001101000000000000000000000000000000000000000000000000000000000000000000000000000000000000000000000000000000000000000000000000000000000000000000000000000000000000000001111000011110000111100001111000000000000000000000000000000000000000000000000000000000000000000000000000000000000000000000000000000000000000000000000000000000000000000000000000000000000000000001111111100000000111111110000000000000000000000000000000000000000000000000000000000000000000000000000000000000000000000000000000000001100110011001100111100000000000011111111111111111111000000000000000011110000010110000010110000010110000010111010110010101111110001010000110000010000001111111000010100001100000100000011111110000101000011000001000000111111100001010000110000010000001111111010010010001110000101111100101011100100100011100001011111001010111001001000111000010111110010101110010010001110000101111100101011 "
b10010010001110000101111100101011 @+
b10010010001110000101111100101011 `+
b10010010001110000101111100101011 ",
b10010010001110000101111100101011 B,
b10100001100000100000011111110 b,
b10100001100000100000011111110 $-
b10100001100000100000011111110 D-
b10100001100000100000011111110 d-
b1111011000111011110011000110010011010 T4
#4
b111101100011101111001100011001001101100000000000000000000000000000000000000000000000000000000000000000000000000000000000000000000000000000000000000000000000000000000000000000000000000000000000000001111000011110000111100001111000000000000000000000000000000000000000000000000000000000000000000000000000000000000000000000000000000000000000000000000000000000000000000000000000000000000000000001111111100000000111111110000000000000000000000000000000000000000000000000000000000000000000000000000000000000000000000000000000000001100110011001100111100000000000011111111111111111111000000000000000011110000010110000010110000010110000010111010110010101111111011111001010111001101000100111110111110010101110011010001001111101111100101011100110100010011111011111001010111001101000100111101110100101100011011110110101101011101001011000110111101101011010111010010110001101111011010110101110100101100011011110110101101 "
b1110100101100011011110110101101 @+
b1110100101100011011110110101101 `+
b1110100101100011011110110101101 ",
b1110100101100011011110110101101 B,
b10111110010101110011010001001111 b,
b10111110010101110011010001001111 $-
b10111110010101110011010001001111 D-
b10111110010101110011010001001111 d-
b1111011000111011110011000110010011011 T4
#5
b111101100011101111001100011001001110000000000000000000000000000000000000000000000000000000000000000000000000000000000000000000000000000000000000000000000000000000000000000000000000000000000000000001111000011110000111100001111000000000000000000000000000000000000000000000000000000000000000000000000000000000000000000000000000000000000000000000000000000000000000000000000000000000000000000001111111100000000111111110000000000000000000000000000000000000000000000000000000000000000000000000000000000000000000000000000000000001100110011001100111100000000000011111111111111111111000000000000000000000000010110000010110000010110000010111010110010101111110111101101011011001001000111000001111011010110110010010001110000011110110101101100100100011100000111101101011011001001000111000000010000001111111010101001100111000100000011111110101010011001110001000000111111101010100110011100010000001111111010101001100111 "
b10000001111111010101001100111 @+
b10000001111111010101001100111 `+
b10000001111111010101001100111 ",
b10000001111111010101001100111 B,
b1111011010110110010010001110000 b,
b1111011010110110010010001110000 $-
b1111011010110110010010001110000 D-
b1111011010110110010010001110000 d-
b0 \.
b1111011000111011110011000110010011100 T4
#6
b111101100011101111001100011001001110100000000000000000000000000000000000000000000000000000000000000000000000000000000000000000000000000000000000000000000000000000000000000000000000000000000000000001111000011110000111100001111000000000000000000000000000000000000000000000000000000000000000000000000000000000000000000000000000000000000000000000000000000000000000000000000000000000000000000001111111100000000111111110000000000000000000000000000000000000000000000000000000000000000000000000000000000000000000000000000000000001100110011001100111100000000000011111111111111111111000000000000000000000000010110000010110000010110000010111010110010101111110101010011001110111010010110001101010100110011101110100101100011010101001100111011101001011000110101010011001110111010010110001111001101000100111100010100001100110011010001001111000101000011001100110100010011110001010000110011001101000100111100010100001100 "
b11001101000100111100010100001100 @+
b11001101000100111100010100001100 `+
b11001101000100111100010100001100 ",
b11001101000100111100010100001100 B,
b1010100110011101110100101100011 b,
b1010100110011101110100101100011 $-
b1010100110011101110100101100011 D-
b1010100110011101110100101100011 d-
b1111011000111011110011000110010011101 T4
#7
b111101100011101111001100011001001111000000000000000000000000000000000000000000000000000000000000000000000000000000000000000000000000000000000000000000000000000000000000000000000000000000000000000001111000011110000111100001111000000000000000000000000000000000000000000000000000000000000000000000000000000000000000000000000000000000000000000000000000000000000000000000000000000000000000000001111111100000000111111110000000000000000000000000000000000000000000000000000000000000000000000000000000000000000000000000000000000001100110011001100111100000000000011111111111111111111000000000000000000000000010110000010110000010110000010111010110010101111111000101000011000001000000111111110001010000110000010000001111111100010100001100000100000011111111000101000011000001000000111111111001001000111000010111110010101110010010001110000101111100101011100100100011100001011111001010111001001000111000010111110010101 "
b11001001000111000010111110010101 @+
b11001001000111000010111110010101 `+
b11001001000111000010111110010101 ",
b11001001000111000010111110010101 B,
b10001010000110000010000001111111 b,
b10001010000110000010000001111111 $-
b10001010000110000010000001111111 D-
b10001010000110000010000001111111 d-
b1111011000111011110011000110010011110 T4
#8
b111101100011101111001100011001001111100000000000000000000000000000000000000000000000000000000000000000000000000000000000000000000000000000000000000000000000000000000000000000000000000000000000000001111000011110000111100001111000000000000000000000000000000000000000000000000000000000000000000000000000000000000000000000000000000000000000000000000000000000000000000000000000000000000000000001111111100000000111111110000000000000000000000000000000000000000000000000000000000000000000000000000000000000000000000000000000000001100110011001100111100000000000011111111111111111111000000000000000000000000010110000010110000010110000010111010110010101111110101111100101011100110100010011101011111001010111001101000100111010111110010101110011010001001110101111100101011100110100010011110111010010110001101111011010110101110100101100011011110110101101011101001011000110111101101011010111010010110001101111011010110 "
b10111010010110001101111011010110 @+
b10111010010110001101111011010110 `+
b10111010010110001101111011010110 ",
b10111010010110001101111011010110 B,
b1011111001010111001101000100111 b,
b1011111001010111001101000100111 $-
b1011111001010111001101000100111 D-
b1011111001010111001101000100111 d-
b1111011000111011110011000110010011111 T4
#9
b111101100011101111001100011001010000000000000000000000000000000000000000000000000000000000000000000000000000000000000000000000000000000000000000000000000000000000000000000000000000000000000000000001111000011110000111100001111000000000000000000000000000000000000000000000000000000000000000000000000000000000000000000000000000000000000000000000000000000000000000000000000000000000000000000001111111100000000111111110000000000000000000000000000000000000000000000000000000000000000000000000000000000000000000000000000000000001100110011001100111100000000000011111111111111111111000000000000000011110000010110000010110000010110000010111010110010101111111011110110101101100100100011100010111101101011011001001000111000101111011010110110010010001110001011110110101101100100100011100000001000000111111101010100110011000010000001111111010101001100110000100000011111110101010011001100001000000111111101010100110011 "
b1000000111111101010100110011 @+
b1000000111111101010100110011 `+
b1000000111111101010100110011 ",
b1000000111111101010100110011 B,
b10111101101011011001001000111000 b,
b10111101101011011001001000111000 $-
b10111101101011011001001000111000 D-
b10111101101011011001001000111000 d-
b1111 \.
b1111011000111011110011000110010100000 T4
#10
b111101100011101111001100011001010000100000000000000000000000000000000000000000000000000000000000000000000000000000000000000000000000000000000000000000000000000000000000000000000000000000000000000001111000011110000111100001111000000000000000000000000000000000000000000000000000000000000000000000000000000000000000000000000000000000000000000000000000000000000000000000000000000000000000000001111111100000000111111110000000000000000000000000000000000000000000000000000000000000000000000000000000000000000000000000000000000001100110011001100111100000000000011111111111111111111000000000000000011110000010110000010110000010110000010111010110010101111111010101001100111011101001011000110101010011001110111010010110001101010100110011101110100101100011010101001100111011101001011000111100110100010011110001010000110111001101000100111100010100001101110011010001001111000101000011011100110100010011110001010000110 "
b11100110100010011110001010000110 @+
b11100110100010011110001010000110 `+
b11100110100010011110001010000110 ",
b11100110100010011110001010000110 B,
b10101010011001110111010010110001 b,
b10101010011001110111010010110001 $-
b10101010011001110111010010110001 D-
b10101010011001110111010010110001 d-
b1111011000111011110011000110010100001 T4
#11
b111101100011101111001100011001010001000000000000000000000000000000000000000000000000000000000000000000000000000000000000000000000000000000000000000000000000000000000000000000000000000000000000000001111000011110000111100001111000000000000000000000000000000000000000000000000000000000000000000000000000000000000000000000000000000000000000000000000000000000000000000000000000000000000000000001111111100000000111111110000000000000000000000000000000000000000000000000000000000000000000000000000000000000000000000000000000000001100110011001100111100000000000011111111111111111111000000000000000011110000010110000010110000010110000010111010110010101111111100010100001100000100000011111111000101000011000001000000111111110001010000110000010000001111111100010100001100000100000011111101100100100011100001011111001010011001001000111000010111110010100110010010001110000101111100101001100100100011100001011111001010 "
b1100100100011100001011111001010 @+
b1100100100011100001011111001010 `+
b1100100100011100001011111001010 ",
b1100100100011100001011111001010 B,
b11000101000011000001000000111111 b,
b11000101000011000001000000111111 $-
b11000101000011000001000000111111 D-
b11000101000011000001000000111111 d-
b1111011000111011110011000110010100010 T4
#12
b111101100011101111001100011001010001100000000000000000000000000000000000000000000000000000000000000000000000000000000000000000000000000000000000000000000000000000000000000000000000000000000000000001111000011110000111100001111000000000000000000000000000000000000000000000000000000000000000000000000000000000000000000000000000000000000000000000000000000000000000000000000000000000000000000001111111100000000111111110000000000000000000000000000000000000000000000000000000000000000000000000000000000000000000000000000000000001100110011001100111100000000000011111111111111111111000000000000000011110000010110000010110000010110000010111010110010101111110010111110010101110011010001001100101111100101011100110100010011001011111001010111001101000100110010111110010101110011010001001111011101001011000110111101101011110111010010110001101111011010111101110100101100011011110110101111011101001011000110111101101011 "
b11011101001011000110111101101011 @+
b11011101001011000110111101101011 `+
b11011101001011000110111101101011 ",
b11011101001011000110111101101011 B,
b101111100101011100110100010011 b,
b101111100101011100110100010011 $-
b101111100101011100110100010011 D-
b101111100101011100110100010011 d-
b1111011000111011110011000110010100011 T4
#13
b111101100011101111001100011001010010000000000000000000000000000000000000000000000000000000000000000000000000000000000000000000000000000000000000000000000000000000000000000000000000000000000000000001111000011110000111100001111000000000000000000000000000000000000000000000000000000000000000000000000000000000000000000000000000000000000000000000000000000000000000000000000000000000000000000001111111100000000111111110000000000000000000000000000000000000000000000000000000000000000000000000000000000000000000000000000000000001100110011001100111100000000000011111111111111111111000000000000000000000000010110000010110000010110000010111010110010101111111101111011010110110010010001110011011110110101101100100100011100110111101101011011001001000111001101111011010110110010010001110000000100000011111110101010011001000001000000111111101010100110010000010000001111111010101001100100000100000011111110101010011001 "
b100000011111110101010011001 @+
b100000011111110101010011001 `+
b100000011111110101010011001 ",
b100000011111110101010011001 B,
b11011110110101101100100100011100 b,
b11011110110101101100100100011100 $-
b11011110110101101100100100011100 D-
b11011110110101101100100100011100 d-
b0 \.
b1111011000111011110011000110010100100 T4
#14
b111101100011101111001100011001010010100000000000000000000000000000000000000000000000000000000000000000000000000000000000000000000000000000000000000000000000000000000000000000000000000000000000000001111000011110000111100001111000000000000000000000000000000000000000000000000000000000000000000000000000000000000000000000000000000000000000000000000000000000000000000000000000000000000000000001111111100000000111111110000000000000000000000000000000000000000000000000000000000000000000000000000000000000000000000000000000000001100110011001100111100000000000011111111111111111111000000000000000000000000010110000010110000010110000010111010110010101111111101010100110011101110100101100011010101001100111011101001011000110101010011001110111010010110001101010100110011101110100101100001110011010001001111000101000011011100110100010011110001010000110111001101000100111100010100001101110011010001001111000101000011 "
b1110011010001001111000101000011 @+
b1110011010001001111000101000011 `+
b1110011010001001111000101000011 ",
b1110011010001001111000101000011 B,
b11010101001100111011101001011000 b,
b11010101001100111011101001011000 $-
b11010101001100111011101001011000 D-
b11010101001100111011101001011000 d-
b1111011000111011110011000110010100101 T4
#15
b111101100011101111001100011001010011000000000000000000000000000000000000000000000000000000000000000000000000000000000000000000000000000000000000000000000000000000000000000000000000000000000000000001111000011110000111100001111000000000000000000000000000000000000000000000000000000000000000000000000000000000000000000000000000000000000000000000000000000000000000000000000000000000000000000001111111100000000111111110000000000000000000000000000000000000000000000000000000000000000000000000000000000000000000000000000000000001100110011001100111100000000000011111111111111111111000000000000000000000000010110000010110000010110000010111010110010101111111110001010000110000010000001111111100010100001100000100000011111111000101000011000001000000111111110001010000110000010000001111110110010010001110000101111100101101100100100011100001011111001011011001001000111000010111110010110110010010001110000101111100101 "
b10110010010001110000101111100101 @+
b10110010010001110000101111100101 `+
b10110010010001110000101111100101 ",
b10110010010001110000101111100101 B,
b11100010100001100000100000011111 b,
b11100010100001100000100000011111 $-
b11100010100001100000100000011111 D-
b11100010100001100000100000011111 d-
b1111011000111011110011000110010100110 T4
#16
b111101100011101111001100011001010011100000000000000000000000000000000000000000000000000000000000000000000000000000000000000000000000000000000000000000000000000000000000000000000000000000000000000001111000011110000111100001111000000000000000000000000000000000000000000000000000000000000000000000000000000000000000000000000000000000000000000000000000000000000000000000000000000000000000000001111111100000000111111110000000000000000000000000000000000000000000000000000000000000000000000000000000000000000000000000000000000001100110011001100111100000000000011111111111111111111000000000000000000000000010110000010110000010110000010111010110010101111110001011111001010111001101000100100010111110010101110011010001001000101111100101011100110100010010001011111001010111001101000100111101110100101100011011110110101111011101001011000110111101101011110111010010110001101111011010111101110100101100011011110110101 "
b11101110100101100011011110110101 @+
b11101110100101100011011110110101 `+
b11101110100101100011011110110101 ",
b11101110100101100011011110110101 B,
b10111110010101110011010001001 b,
b10111110010101110011010001001 $-
b10111110010101110011010001001 D-
b10111110010101110011010001001 d-
b1111011000111011110011000110010100111 T4
#17
b111101100011101111001100011001010100000000000000000000000000000000000000000000000000000000000000000000000000000000000000000000000000000000000000000000000000000000000000000000000000000000000000000001111000011110000111100001111000000000000000000000000000000000000000000000000000000000000000000000000000000000000000000000000000000000000000000000000000000000000000000000000000000000000000000001111111100000000111111110000000000000000000000000000000000000000000000000000000000000000000000000000000000000000000000000000000000001100110011001100111100000000000011111111111111111111000000000000000011110000010110000010110000010110000010111010110010101111110110111101101011011001001000111001101111011010110110010010001110011011110110101101100100100011100110111101101011011001001000111010000010000001111111010101001100100000100000011111110101010011001000001000000111111101010100110010000010000001111111010101001100 "
b10000010000001111111010101001100 @+
b10000010000001111111010101001100 `+
b10000010000001111111010101001100 ",
b10000010000001111111010101001100 B,
b1101111011010110110010010001110 b,
b1101111011010110110010010001110 $-
b1101111011010110110010010001110 D-
b1101111011010110110010010001110 d-
b1111 \.
b1111011000111011110011000110010101000 T4
#18
b111101100011101111001100011001010100100000000000000000000000000000000000000000000000000000000000000000000000000000000000000000000000000000000000000000000000000000000000000000000000000000000000000001111000011110000111100001111000000000000000000000000000000000000000000000000000000000000000000000000000000000000000000000000000000000000000000000000000000000000000000000000000000000000000000001111111100000000111111110000000000000000000000000000000000000000000000000000000000000000000000000000000000000000000000000000000000001100110011001100111100000000000011111111111111111111000000000000000011110000010110000010110000010110000010111010110010101111111110101010011001110111010010110011101010100110011101110100101100111010101001100111011101001011001110101010011001110111010010110010111001101000100111100010100001101110011010001001111000101000011011100110100010011110001010000110111001101000100111100010100001 "
b10111001101000100111100010100001 @+
b10111001101000100111100010100001 `+
b10111001101000100111100010100001 ",
b10111001101000100111100010100001 B,
b11101010100110011101110100101100 b,
b11101010100110011101110100101100 $-
b11101010100110011101110100101100 D-
b11101010100110011101110100101100 d-
b1111011000111011110011000110010101001 T4
#19
b111101100011101111001100011001010101000000000000000000000000000000000000000000000000000000000000000000000000000000000000000000000000000000000000000000000000000000000000000000000000000000000000000001111000011110000111100001111000000000000000000000000000000000000000000000000000000000000000000000000000000000000000000000000000000000000000000000000000000000000000000000000000000000000000000001111111100000000111111110000000000000000000000000000000000000000000000000000000000000000000000000000000000000000000000000000000000001100110011001100111100000000000011111111111111111111000000000000000011110000010110000010110000010110000010111010110010101111111111000101000011000001000000111111110001010000110000010000001111111100010100001100000100000011111111000101000011000001000000111111011001001000111000010111110010110110010010001110000101111100101101100100100011100001011111001011011001001000111000010111110010 "
b11011001001000111000010111110010 @+
b11011001001000111000010111110010 `+
b11011001001000111000010111110010 ",
b11011001001000111000010111110010 B,
b11110001010000110000010000001111 b,
b11110001010000110000010000001111 $-
b11110001010000110000010000001111 D-
b11110001010000110000010000001111 d-
b1111011000111011110011000110010101010 T4
#20
b111101100011101111001100011001010101100000000000000000000000000000000000000000000000000000000000000000000000000000000000000000000000000000000000000000000000000000000000000000000000000000000000000001111000011110000111100001111000000000000000000000000000000000000000000000000000000000000000000000000000000000000000000000000000000000000000000000000000000000000000000000000000000000000000000001111111100000000111111110000000000000000000000000000000000000000000000000000000000000000000000000000000000000000000000000000000000001100110011001100111100000000000011111111111111111111000000000000000011110000010110000010110000010110000010111010110010101111110000101111100101011100110100010000001011111001010111001101000100000010111110010101110011010001000000101111100101011100110100010001110111010010110001101111011010011101110100101100011011110110100111011101001011000110111101101001110111010010110001101111011010 "
b1110111010010110001101111011010 @+
b1110111010010110001101111011010 `+
b1110111010010110001101111011010 ",
b1110111010010110001101111011010 B,
b1011111001010111001101000100 b,
b1011111001010111001101000100 $-
b1011111001010111001101000100 D-
b1011111001010111001101000100 d-
b1111011000111011110011000110010101011 T4
#21
b111101100011101111001100011001010110000000000000000000000000000000000000000000000000000000000000000000000000000000000000000000000000000000000000000000000000000000000000000000000000000000000000000001111000011110000111100001111000000000000000000000000000000000000000000000000000000000000000000000000000000000000000000000000000000000000000000000000000000000000000000000000000000000000000000001111111100000000111111110000000000000000000000000000000000000000000000000000000000000000000000000000000000000000000000000000000000001100110011001100111100000000000011111111111111111111000000000000000000000000010110000010110000010110000010111010110010101111110011011110110101101100100100011100110111101101011011001001000111001101111011010110110010010001110011011110110101101100100100011111000001000000111111101010100110110000010000001111111010101001101100000100000011111110101010011011000001000000111111101010100110 "
b11000001000000111111101010100110 @+
b11000001000000111111101010100110 `+
b11000001000000111111101010100110 ",
b11000001000000111111101010100110 B,
b110111101101011011001001000111 b,
b110111101101011011001001000111 $-
b110111101101011011001001000111 D-
b110111101101011011001001000111 d-
b0 \.
b1111011000111011110011000110010101100 T4
#22
b111101100011101111001100011001010110100000000000000000000000000000000000000000000000000000000000000000000000000000000000000000000000000000000000000000000000000000000000000000000000000000000000000001111000011110000111100001111000000000000000000000000000000000000000000000000000000000000000000000000000000000000000000000000000000000000000000000000000000000000000000000000000000000000000000001111111100000000111111110000000000000000000000000000000000000000000000000000000000000000000000000000000000000000000000000000000000001100110011001100111100000000000011111111111111111111000000000000000000000000010110000010110000010110000010111010110010101111111111010101001100111011101001011011110101010011001110111010010110111101010100110011101110100101101111010101001100111011101001011001011100110100010011110001010000010111001101000100111100010100000101110011010001001111000101000001011100110100010011110001010000 "
b1011100110100010011110001010000 @+
b1011100110100010011110001010000 `+
b1011100110100010011110001010000 ",
b1011100110100010011110001010000 B,
b11110101010011001110111010010110 b,
b11110101010011001110111010010110 $-
b11110101010011001110111010010110 D-
b11110101010011001110111010010110 d-
b1111011000111011110011000110010101101 T4
#23
b111101100011101111001100011001010111000000000000000000000000000000000000000000000000000000000000000000000000000000000000000000000000000000000000000000000000000000000000000000000000000000000000000001111000011110000111100001111000000000000000000000000000000000000000000000000000000000000000000000000000000000000000000000000000000000000000000000000000000000000000000000000000000000000000000001111111100000000111111110000000000000000000000000000000000000000000000000000000000000000000000000000000000000000000000000000000000001100110011001100111100000000000011111111111111111111000000000000000000000000010110000010110000010110000010111010110010101111110111100010100001100000100000011101111000101000011000001000000111011110001010000110000010000001110111100010100001100000100000011101101100100100011100001011111001011011001001000111000010111110010110110010010001110000101111100101101100100100011100001011111001 "
b1101100100100011100001011111001 @+
b1101100100100011100001011111001 `+
b1101100100100011100001011111001 ",
b1101100100100011100001011111001 B,
b1111000101000011000001000000111 b,
b1111000101000011000001000000111 $-
b1111000101000011000001000000111 D-
b1111000101000011000001000000111 d-
b1111011000111011110011000110010101110 T4
#24
b111101100011101111001100011001010111100000000000000000000000000000000000000000000000000000000000000000000000000000000000000000000000000000000000000000000000000000000000000000000000000000000000000001111000011110000111100001111000000000000000000000000000000000000000000000000000000000000000000000000000000000000000000000000000000000000000000000000000000000000000000000000000000000000000000001111111100000000111111110000000000000000000000000000000000000000000000000000000000000000000000000000000000000000000000000000000000001100110011001100111100000000000011111111111111111111000000000000000000000000010110000010110000010110000010111010110010101111111000010111110010101110011010001010000101111100101011100110100010100001011111001010111001101000101000010111110010101110011010001000111011101001011000110111101101001110111010010110001101111011010011101110100101100011011110110100111011101001011000110111101101 "
b111011101001011000110111101101 @+
b111011101001011000110111101101 `+
b111011101001011000110111101101 ",
b111011101001011000110111101101 B,
b10000101111100101011100110100010 b,
b10000101111100101011100110100010 $-
b10000101111100101011100110100010 D-
b10000101111100101011100110100010 d-
b1111011000111011110011000110010101111 T4
#25
b111101100011101111001100011001011000000000000000000000000000000000000000000000000000000000000000000000000000000000000000000000000000000000000000000000000000000000000000000000000000000000000000000001111000011110000111100001111000000000000000000000000000000000000000000000000000000000000000000000000000000000000000000000000000000000000000000000000000000000000000000000000000000000000000000001111111100000000111111110000000000000000000000000000000000000000000000000000000000000000000000000000000000000000000000000000000000001100110011001100111100000000000011111111111111111111000000000000000011110000010110000010110000010110000010111010110010101111110001101111011010110110010010001100011011110110101101100100100011000110111101101011011001001000110001101111011010110110010010001101100000100000011111110101010011011000001000000111111101010100110110000010000001111111010101001101100000100000011111110101010011 "
b1100000100000011111110101010011 @+
b1100000100000011111110101010011 `+
b1100000100000011111110101010011 ",
b1100000100000011111110101010011 B,
b11011110110101101100100100011 b,
b11011110110101101100100100011 $-
b11011110110101101100100100011 D-
b11011110110101101100100100011 d-
b1111 \.
b1111011000111011110011000110010110000 T4
