OpticalTests/odmb7_gtwiz_quad227/4channels_prbs31_CB/.Xil/Vivado-53071-higgs.physics.ucsb.edu/hw_ila_data_1/zip_work/waveform.vcd
$date
        2021-Dec-05 16:28:18
$end
$version
        Vivado v2019.2 (64-bit)
$end
$timescale
        1ps
$end
$scope module dut $end
$var reg 970 " ila_data [969:0] $end
$var reg 32 @+ receiver_0 [31:0] $end
$var reg 32 `+ receiver_1 [31:0] $end
$var reg 32 ", receiver_2 [31:0] $end
$var reg 32 B, receiver_3 [31:0] $end
$var reg 32 b, transmitter_0 [31:0] $end
$var reg 32 $- transmitter_1 [31:0] $end
$var reg 32 D- transmitter_2 [31:0] $end
$var reg 32 d- transmitter_3 [31:0] $end
$var reg 4 &. prbs_match_int [3:0] $end
$var reg 1 *. hb0_gtwiz_userclk_rx_usrclk2_int $end
$var reg 1 +. hb0_gtwiz_userclk_rx_active_int $end
$var reg 1 ,. hb_gtwiz_reset_all_int $end
$var reg 1 -. hb0_gtwiz_reset_rx_done_int $end
$var reg 1 .. hb0_gtwiz_userclk_tx_usrclk2_int $end
$var reg 1 /. hb0_gtwiz_userclk_tx_active_int $end
$var reg 1 0. gtwiz_userclk_tx_reset_int $end
$var reg 1 1. gtwiz_userclk_tx_usrclk_int $end
$var reg 1 2. gtwiz_userclk_tx_usrclk2_int $end
$var reg 1 3. gtwiz_userclk_tx_active_int $end
$var reg 1 4. gtwiz_userclk_rx_reset_int $end
$var reg 1 5. gtwiz_userclk_rx_usrclk_int $end
$var reg 1 6. gtwiz_userclk_rx_usrclk2_int $end
$var reg 1 7. gtwiz_userclk_rx_active_int $end
$var reg 36 8. drpaddr_int [35:0] $end
$var reg 4 \. drpclk_int [3:0] $end
$var reg 4 `. drpdi_int [3:0] $end
$var reg 4 d. drpen_int [3:0] $end
$var reg 4 h. drpwe_int [3:0] $end
$var reg 4 l. eyescanreset_int [3:0] $end
$var reg 4 p. rx8b10ben_int [3:0] $end
$var reg 4 t. rxcommadeten_int [3:0] $end
$var reg 4 x. rxlpmen_int [3:0] $end
$var reg 4 |. rxmcommaalignen_int [3:0] $end
$var reg 4 "/ rxpcommaalignen_int [3:0] $end
$var reg 12 &/ rxrate_int [11:0] $end
$var reg 4 2/ tx8b10ben_int [3:0] $end
$var reg 16 6/ txdiffctrl_int [15:0] $end
$var reg 20 F/ txpostcursor_int [19:0] $end
$var reg 20 Z/ txprecursor_int [19:0] $end
$var reg 64 n/ drpdo_int [63:0] $end
$var reg 4 P0 drprdy_int [3:0] $end
$var reg 4 T0 gtpowergood_int [3:0] $end
$var reg 4 X0 rxbyteisaligned_int [3:0] $end
$var reg 4 \0 rxbyterealign_int [3:0] $end
$var reg 4 `0 rxcommadet_int [3:0] $end
$var reg 4 d0 rxpmaresetdone_int [3:0] $end
$var reg 4 h0 txpmaresetdone_int [3:0] $end
$var reg 16 l0 ch0_rxctrl0_int [15:0] $end
$var reg 16 |0 ch1_rxctrl0_int [15:0] $end
$var reg 16 .1 ch2_rxctrl0_int [15:0] $end
$var reg 16 >1 ch3_rxctrl0_int [15:0] $end
$var reg 16 N1 ch0_rxctrl1_int [15:0] $end
$var reg 16 ^1 ch1_rxctrl1_int [15:0] $end
$var reg 16 n1 ch2_rxctrl1_int [15:0] $end
$var reg 16 ~1 ch3_rxctrl1_int [15:0] $end
$var reg 8 02 ch0_rxctrl2_int [7:0] $end
$var reg 8 82 ch1_rxctrl2_int [7:0] $end
$var reg 8 @2 ch2_rxctrl2_int [7:0] $end
$var reg 8 H2 ch3_rxctrl2_int [7:0] $end
$var reg 8 P2 ch0_rxctrl3_int [7:0] $end
$var reg 8 X2 ch1_rxctrl3_int [7:0] $end
$var reg 8 `2 ch2_rxctrl3_int [7:0] $end
$var reg 8 h2 ch3_rxctrl3_int [7:0] $end
$var reg 16 p2 ch0_txctrl0_int [15:0] $end
$var reg 16 "3 ch1_txctrl0_int [15:0] $end
$var reg 16 23 ch2_txctrl0_int [15:0] $end
$var reg 16 B3 ch3_txctrl0_int [15:0] $end
$var reg 16 R3 ch0_txctrl1_int [15:0] $end
$var reg 16 b3 ch1_txctrl1_int [15:0] $end
$var reg 16 r3 ch2_txctrl1_int [15:0] $end
$var reg 16 $4 ch3_txctrl1_int [15:0] $end
$var reg 8 44 ch0_txctrl2_int [7:0] $end
$var reg 8 <4 ch1_txctrl2_int [7:0] $end
$var reg 8 D4 ch2_txctrl2_int [7:0] $end
$var reg 8 L4 ch3_txctrl2_int [7:0] $end
$var reg 40 T4 hb0_rxdata_nml_ctr [39:0] $end
$var reg 16 |4 ch0_rxdata_err_ctr [15:0] $end
$var reg 16 .5 ch1_rxdata_err_ctr [15:0] $end
$var reg 16 >5 ch2_rxdata_err_ctr [15:0] $end
$var reg 16 N5 ch3_rxdata_err_ctr [15:0] $end
$var reg 1 ^5 _TRIGGER $end
$var reg 1 _5 _WINDOW $end
$var reg 1 `5 _GAP $end
$upscope $end
$enddefinitions $end
#0
$dumpvars
b1100101100010000100110011001011000100011101101001010101110100101000101100011101100111011100010010100100100000000000000000000000000000000000000000000000000000000000000000000000000000000000000000000000000000000000000000000000000000000000000000000000000000000000000001111000011110000111100001111000000000000000000000000000000000000000000000000000000000000000000000000000000000000000000000000000000000000000000000000000000000000000000000000000000000000000000001111111100000000111111110000000000000000000000000000000000000000000000000000000000000000000000000000000000000000000000000000000000001100110011001100111100000000000011111111111111111111000000000000000010000000010110000010110000010110000010111000100010101011110001010110110101011000001001001100010101101101010110000010010011000101011011010101100000100100110001010110110101011000001001001111100110001110010001110101110100101000101000000011100000100100101010001010000000111000001001001011100110001110010001110101110100 "
b11100110001110010001110101110100 @+
b10100010100000001110000010010010 `+
b10100010100000001110000010010010 ",
b11100110001110010001110101110100 B,
b10101101101010110000010010011 b,
b10101101101010110000010010011 $-
b10101101101010110000010010011 D-
b10101101101010110000010010011 d-
b1111 &.
0*.
1+.
0,.
1-.
0..
1/.
00.
01.
02.
13.
04.
05.
06.
17.
b1011000001011000001011000001011 8.
b1000 \.
b0 `.
b0 d.
b0 h.
b0 l.
b1111 p.
b1111 t.
b1111 x.
b1111 |.
b1111 "/
b0 &/
b1111 2/
b1100110011001100 6/
b0 F/
b0 Z/
b0 n/
b0 P0
b1111 T0
b1111 X0
b0 \0
b0 `0
b1111 d0
b1111 h0
b0 l0
b0 |0
b0 .1
b0 >1
b0 N1
b0 ^1
b0 n1
b0 ~1
b0 02
b0 82
b0 @2
b0 H2
b11110000 P2
b11110000 X2
b11110000 `2
b11110000 h2
b0 p2
b0 "3
b0 23
b0 B3
b0 R3
b0 b3
b0 r3
b0 $4
b0 44
b0 <4
b0 D4
b0 L4
b1011000111011001110111000100101001001 T4
b1010101110100101 |4
b10001110110100 .5
b1001100110010110 >5
b1100101100010000 N5
0^5
1_5
0`5
$end
#1
b1100101100010000100110011001011000100011101101001010101110100101000101100011101100111011100010010101000100000000000000000000000000000000000000000000000000000000000000000000000000000000000000000000000000000000000000000000000000000000000000000000000000000000000000001111000011110000111100001111000000000000000000000000000000000000000000000000000000000000000000000000000000000000000000000000000000000000000000000000000000000000000000000000000000000000000000001111111100000000111111110000000000000000000000000000000000000000000000000000000000000000000000000000000000000000000000000000000000001100110011001100111100000000000011111111111111111111000000000000000010000000010110000010110000010110000010111100100010101011111100010010010100010100110010000011000100100101000101001100100000110001001001010001010011001000001100010010010100010100110010000011001111100110010010011001110000100101001100101011111110101000001001010011001010111111101010000011001111100110010010011001110000 "
b11001111100110010010011001110000 @+
b10010100110010101111111010100000 `+
b10010100110010101111111010100000 ",
b11001111100110010010011001110000 B,
b11000100100101000101001100100000 b,
b11000100100101000101001100100000 $-
b11000100100101000101001100100000 D-
b11000100100101000101001100100000 d-
16.
b1011000111011001110111000100101010001 T4
#2
b1100101100010000100110011001011000100011101101001010101110100101000101100011101100111011100010010101100100000000000000000000000000000000000000000000000000000000000000000000000000000000000000000000000000000000000000000000000000000000000000000000000000000000000000001111000011110000111100001111000000000000000000000000000000000000000000000000000000000000000000000000000000000000000000000000000000000000000000000000000000000000000000000000000000000000000000001111111100000000111111110000000000000000000000000000000000000000000000000000000000000000000000000000000000000000000000000000000000001100110011001100111100000000000011111111111111111111000000000000000011000000010110000010110000010110000010111110110010101111110110001111000111111110001111000101100011110001111111100011110001011000111100011111111000111100010110001111000111111110001111000101000000000010111011100000001100110010111111101010011000011110011100101111111010100110000111100101000000000010111011100000001100 "
b1000000000010111011100000001100 @+
b11001011111110101001100001111001 `+
b11001011111110101001100001111001 ",
b1000000000010111011100000001100 B,
b1100011110001111111100011110001 b,
b1100011110001111111100011110001 $-
b1100011110001111111100011110001 D-
b1100011110001111111100011110001 d-
1*.
12.
15.
b1100 \.
b1011000111011001110111000100101011001 T4
#3
b1100101100010000100110011001011000100011101101001010101110100101000101100011101100111011100010010110000100000000000000000000000000000000000000000000000000000000000000000000000000000000000000000000000000000000000000000000000000000000000000000000000000000000000000001111000011110000111100001111000000000000000000000000000000000000000000000000000000000000000000000000000000000000000000000000000000000000000000000000000000000000000000000000000000000000000000001111111100000000111111110000000000000000000000000000000000000000000000000000000000000000000000000000000000000000000000000000000000001100110011001100111100000000000011111111111111111111000000000000000011000000010110000010110000010110000010111010111011101111111011111110111100010001000000111110111111101111000100010000001111101111111011110001000100000011111011111110111100010001000000111101001101010001010110110000111110011011011000100100011111001000110110110110001001000111110010001101001101010001010110110000111110 "
b1001101010001010110110000111110 @+
b1101101100010010001111100100011 `+
b1101101100010010001111100100011 ",
b1001101010001010110110000111110 B,
b10111111101111000100010000001111 b,
b10111111101111000100010000001111 $-
b10111111101111000100010000001111 D-
b10111111101111000100010000001111 d-
1..
11.
06.
b1011000111011001110111000100101100001 T4
#4
b1100101100010000100110011001011000100011101101001010101110100101000101100011101100111011100010010110100000000000000000000000000000000000000000000000000000000000000000000000000000000000000000000000000000000000000000000000000000000000000000000000000000000000000000001111000011110000111100001111000000000000000000000000000000000000000000000000000000000000000000000000000000000000000000000000000000000000000000000000000000000000000000000000000000000000000000001111111100000000111111110000000000000000000000000000000000000000000000000000000000000000000000000000000000000000000000000000000000001100110011001100111100000000000011111111111111111111000000000000000011000000010110000010110000010110000010111000101011101011110100111100101110100110001110010101001111001011101001100011100101010011010010111010011000111001010100111100101110100110001110010110110001001110111010010110110000011011000111000110010111011111000110110001110001100101110111110010110001001110111010010110110000 "
b10110001001110111010010110110000 @+
b1101100011100011001011101111100 `+
b1101100011100011001011101111100 ",
b10110001001110111010010110110000 B,
b1001111001011101001100011100101 b,
b1001101001011101001100011100101 $-
b1001111001011101001100011100101 D-
b1001111001011101001100011100101 d-
0*.
02.
05.
b1011000111011001110111000100101101000 T4
#5
b1100101100010000100110011001011000100011101101001010101110100101000101100011101100111011100010010111000000000000000000000000000000000000000000000000000000000000000000000000000000000000000000000000000000000000000000000000000000000000000000000000000000000000000000001111000011110000111100001111000000000000000000000000000000000000000000000000000000000000000000000000000000000000000000000000000000000000000000000000000000000000000000000000000000000000000000001111111100000000111111110000000000000000000000000000000000000000000000000000000000000000000000000000000000000000000000000000000000001100110011001100111100000000000011111111111111111111000000000000000011000000010110000010110000010110000010111100100010101011111001000000101010100010110110010010010000001010101000101101100100100100000010101010001011011001001001000000101010100010110110010011101111001111110101001100100110011001101001001110100011010111100110011010010011101000110101111011101111001111110101001100100110 "
b11101111001111110101001100100110 @+
b1100110100100111010001101011110 `+
b1100110100100111010001101011110 ",
b11101111001111110101001100100110 B,
b10010000001010101000101101100100 b,
b10010000001010101000101101100100 $-
b10010000001010101000101101100100 D-
b10010000001010101000101101100100 d-
0..
01.
16.
b1011000111011001110111000100101110000 T4
#6
b1100101100010000100110011001011000100011101101001010101110100101000101100011101100111011100010010111100000000000000000000000000000000000000000000000000000000000000000000000000000000000000000000000000000000000000000000000000000000000000000000000000000000000000000001111000011110000111100001111000000000000000000000000000000000000000000000000000000000000000000000000000000000000000000000000000000000000000000000000000000000000000000000000000000000000000000001111111100000000111111110000000000000000000000000000000000000000000000000000000000000000000000000000000000000000000000000000000000001100110011001100111100000000000011111111111111111111000000000000000010000000010110000010110000010110000010111110100010101111111000101010000111110001111000111110001010100001111100011110001111100010101000011111000111100011111000101010000111110001111000111111100111000001111110001011001010100000001000011001111001001100011000000101000110011110000011000111000111100000110110001111110010 "
b11000111100000110110001111110010 @+
b10000001010001100111100000110001 `+
b10000000100001100111100100110001 ",
b11100111000001111110001011001010 B,
b10001010100001111100011110001111 b,
b10001010100001111100011110001111 $-
b10001010100001111100011110001111 D-
b10001010100001111100011110001111 d-
1*.
15.
b1000 \.
b1011000111011001110111000100101111000 T4
#7
b1100101100010000100110011001011000100011101101001010101110100101000101100011101100111011100010011000000000000000000000000000000000000000000000000000000000000000000000000000000000000000000000000000000000000000000000000000000000000000000000000000000000000000000000001111000011110000111100001111000000000000000000000000000000000000000000000000000000000000000000000000000000000000000000000000000000000000000000000000000000000000000000000000000000000000000000001111111100000000111111110000000000000000000000000000000000000000000000000000000000000000000000000000000000000000000000000000000000001100110011001100111100000000000011111111111111111111000000000000000010000000010110000010110000010110000010111110111011101111110000110101100001000110000111100000001101011000010001100001111000000011010110000100011000011110000000110101100001000110000111100011001010010010101010001011101001010001100111111000000100101001010100011001111110000001001010010111001010010010101010001011101001 "
b11001010010010101010001011101001 @+
b1000110011111100000010010100101 `+
b1000110011111100000010010100101 ",
b11001010010010101010001011101001 B,
b1101011000010001100001111000 b,
b1101011000010001100001111000 $-
b1101011000010001100001111000 D-
b1101011000010001100001111000 d-
1..
11.
12.
b1011000111011001110111000100110000000 T4
#8
b1100101100010000100110011001011000100011101101001010101110100101000101100011101100111011100010011000011100000000000000000000000000000000000000000000000000000000000000000000000000000000000000000000000000000000000000000000000000000000000000000000000000000000000000001111000011110000111100001111000000000000000000000000000000000000000000000000000000000000000000000000000000000000000000000000000000000000000000000000000000000000000000000000000000000000000000001111111100000000111111110000000000000000000000000000000000000000000000000000000000000000000000000000000000000000000000000000000000001100110011001100111100000000000011111111111111111111000000000000000011000000010110000010110000010110000010111010111011101111110000001001101111111101001010001100000010011010111111110010100011000000100110101111111100101000110000001001101011111111001010001100011100010010111011000111111000001100000001111010011100000111000011000000011110100111000001110000011100010010111011000111111000 "
b11100010010111011000111111000 @+
b110000000111101001110000011100 `+
b110000000111101001110000011100 ",
b11100010010111011000111111000 B,
b10011010111111110010100011 b,
b10011010111111110010100011 $-
b10011010111111110010100011 D-
b10011011111111010010100011 d-
06.
b1100 \.
b1011000111011001110111000100110000111 T4
#9
b1100101100010000100110011001011000100011101101001010101110100101000101100011101100111011100010011000111100000000000000000000000000000000000000000000000000000000000000000000000000000000000000000000000000000000000000000000000000000000000000000000000000000000000000001111000011110000111100001111000000000000000000000000000000000000000000000000000000000000000000000000000000000000000000000000000000000000000000000000000000000000000000000000000000000000000000001111111100000000111111110000000000000000000000000000000000000000000000000000000000000000000000000000000000000000000000000000000000001100110011001100111100000000000011111111111111111111000000000000000011000000010110000010110000010110000010111000101011101011110101111000011110011001111100100001011110000111100110011111001000010111100001111001100111110010000101111000011110011001111100100011010011111111010010100001010010001010110011111010111001010100110010101100111110101110010101001111010011111111010010100001010010 "
b11010011111111010010100001010010 @+
b101011001111101011100101010011 `+
b101011001111101011100101010011 ",
b11010011111111010010100001010010 B,
b1011110000111100110011111001000 b,
b1011110000111100110011111001000 $-
b1011110000111100110011111001000 D-
b1011110000111100110011111001000 d-
0*.
02.
05.
b1011000111011001110111000100110001111 T4
#10
b1100101100010000100110011001011000100011101101001010101110100101000101100011101100111011100010011001011100000000000000000000000000000000000000000000000000000000000000000000000000000000000000000000000000000000000000000000000000000000000000000000000000000000000000001111000011110000111100001111000000000000000000000000000000000000000000000000000000000000000000000000000000000000000000000000000000000000000000000000000000000000000000000000000000000000000000001111111100000000111111110000000000000000000000000000000000000000000000000000000000000000000000000000000000000000000000000000000000001100110011001100111100000000000011111111111111111111000000000000000010000000010110000010110000010110000010111100100010101011111011110110110000110010111111111110111101101100001100101111111111101111011011000011001011111111111011110110110000110010111111111110000111000100101011101110000100011001000000011110001001100001010110010000000111100010011000010110000111000100101011101110000100 "
b10000111000100101011101110000100 @+
b1100100000001111000100110000101 `+
b1100100000001111000100110000101 ",
b10000111000100101011101110000100 B,
b10111101101100001100101111111111 b,
b10111101101100001100101111111111 $-
b10111101101100001100101111111111 D-
b10111101101100001100101111111111 d-
0..
01.
16.
b1000 \.
b1011000111011001110111000100110010111 T4
#11
b1100101100010000100110011001011000100011101101001010101110100101000101100011101100111011100010011001111100000000000000000000000000000000000000000000000000000000000000000000000000000000000000000000000000000000000000000000000000000000000000000000000000000000000000001111000011110000111100001111000000000000000000000000000000000000000000000000000000000000000000000000000000000000000000000000000000000000000000000000000000000000000000000000000000000000000000001111111100000000111111110000000000000000000000000000000000000000000000000000000000000000000000000000000000000000000000000000000000001100110011001100111100000000000011111111111111111111000000000000000010000000010110000010110000010110000010111110110010101111111001101010111110110110011000101110011010101111101101100110001011100110101011111011011001100010111001101010111110110110011000101111111100100100110101110111000100000111100111111101110100110000110101111001101111011101001100000100011110011111110110010011000001 "
b11110011111110110010011000001 @+
b1011110011011110111010011000001 `+
b11110011111110111010011000011 ",
b11111100100100110101110111000100 B,
b10011010101111101101100110001011 b,
b10011010101111101101100110001011 $-
b10011010101111101101100110001011 D-
b10011010101111101101100110001011 d-
1*.
12.
15.
b1011000111011001110111000100110011111 T4
#12
b1100101100010000100110011001011000100011101101001010101110100101000101100011101100111011100010011010011100000000000000000000000000000000000000000000000000000000000000000000000000000000000000000000000000000000000000000000000000000000000000000000000000000000000000001111000011110000111100001111000000000000000000000000000000000000000000000000000000000000000000000000000000000000000000000000000000000000000000000000000000000000000000000000000000000000000000001111111100000000111111110000000000000000000000000000000000000000000000000000000000000000000000000000000000000000000000000000000000001100110011001100111100000000000011111111111111111111000000000000000011000000010110000010110000010110000010111010111011101111111100011001101110001111111000010011000110011011100011111110000100110001100110111000111111100001001100011001101110001111111000010000100000011111000000100001100011011011011100011000111011010010000110110111000110001110110100100000100000011111000000100001100011 "
b100000011111000000100001100011 @+
b1101101110001100011101101001000 `+
b1101101110001100011101101001000 ",
b100000011111000000100001100011 B,
b11000110011011100011111110000100 b,
b11000110011011100011111110000100 $-
b11000110011011100011111110000100 D-
b11000110011011100011111110000100 d-
1..
11.
06.
b1100 \.
b1011000111011001110111000100110100111 T4
#13
b1100101100010000100110011001011000100011101101001010101110100101000101100011101100111011100010011010111000000000000000000000000000000000000000000000000000000000000000000000000000000000000000000000000000000000000000000000000000000000000000000000000000000000000000001111000011110000111100001111000000000000000000000000000000000000000000000000000000000000000000000000000000000000000000000000000000000000000000000000000000000000000000000000000000000000000000001111111100000000111111110000000000000000000000000000000000000000000000000000000000000000000000000000000000000000000000000000000000001100110011001100111100000000000011111111111111111111000000000000000010000000010110000010110000010110000010111000111011101011110111111101110111001111000111111111111010000101111001111000110111011111101001011110011000010011010011101001010111100110100000010111011010000110011011100010111111101011110101001010111000001010111010111101010010101110000010101111011010000110011011100010111111 "
b11011010000110011011100010111111 @+
b10101111010100101011100000101011 `+
b10101111010100101011100000101011 ",
b11011010000110011011100010111111 B,
b111010010101111001101000000101 b,
b1111110100101111001100001001101 $-
b11111010000101111001111000110111 D-
b1111111011101110011110001111111 d-
0*.
05.
b1000 \.
b1011000111011001110111000100110101110 T4
#14
b1100101100010000100110011001011000100011101101001010101110100101000101100011101100111011100010011011011000000000000000000000000000000000000000000000000000000000000000000000000000000000000000000000000000000000000000000000000000000000000000000000000000000000000000001111000011110000111100001111000000000000000000000000000000000000000000000000000000000000000000000000000000000000000000000000000000000000000000000000000000000000000000000000000000000000000000001111111100000000111111110000000000000000000000000000000000000000000000000000000000000000000000000000000000000000000000000000000000001100110011001100111100000000000011111111111111111111000000000000000011000000010110000010110000010110000010111000100010101011111000000011010101000100101100011010000000110101010001001011000110100000001101010100010010110001101000000011010101000100101100011001111011011101110101111001101100101101011111001100100101001011111011010111110011001001010010111101111011011101110101111001101100 "
b1111011011101110101111001101100 @+
b10110101111100110010010100101111 `+
b10110101111100110010010100101111 ",
b1111011011101110101111001101100 B,
b10000000110101010001001011000110 b,
b10000000110101010001001011000110 $-
b10000000110101010001001011000110 D-
b10000000110101010001001011000110 d-
0..
01.
02.
b1100 \.
b1011000111011001110111000100110110110 T4
#15
b1100101100010000100110011001011000100011101101001010101110100101000101100011101100111011100010011011111000000000000000000000000000000000000000000000000000000000000000000000000000000000000000000000000000000000000000000000000000000000000000000000000000000000000000001111000011110000111100001111000000000000000000000000000000000000000000000000000000000000000000000000000000000000000000000000000000000000000000000000000000000000000000000000000000000000000000001111111100000000111111110000000000000000000000000000000000000000000000000000000000000000000000000000000000000000000000000000000000001100110011001100111100000000000011111111111111111111000000000000000010000000010110000010110000010110000010111100100010101011111111100011100111000011010101110111111000111001110000110101011101111110001110011100001101010111011111100011100111000011010101110101100101011101111010110110001110110010110001001101010011111000001100101100010011010100111110000001100101011101111010110110001110 "
b1100101011101111010110110001110 @+
b11001011000100110101001111100000 `+
b11001011000100110101001111100000 ",
b1100101011101111010110110001110 B,
b11111000111001110000110101011101 b,
b11111000111001110000110101011101 $-
b11111000111001110000110101011101 D-
b11111000111001110000110101011101 d-
16.
b1000 \.
b1011000111011001110111000100110111110 T4
#16
b1100101100010000100110011001011000100011101101001010101110100101000101100011101100111011100010011100011000000000000000000000000000000000000000000000000000000000000000000000000000000000000000000000000000000000000000000000000000000000000000000000000000000000000000001111000011110000111100001111000000000000000000000000000000000000000000000000000000000000000000000000000000000000000000000000000000000000000000000000000000000000000000000000000000000000000000001111111100000000111111110000000000000000000000000000000000000000000000000000000000000000000000000000000000000000000000000000000000001100110011001100111100000000000011111111111111111111000000000000000011000000010110000010110000010110000010111110110011101111111011011100000101000100010111011010110111000001010001000101110110101101110000010100010001011101101011011100000101000100010111011000010100011000000100000010001010110101001000100111011011101100101101010010001001110110111011001000010100011000000100000010001010 "
b10100011000000100000010001010 @+
b11010100100010011101101110110010 `+
b11010100100010011101101110110010 ",
b10100011000000100000010001010 B,
b10110111000001010001000101110110 b,
b10110111000001010001000101110110 $-
b10110111000001010001000101110110 D-
b10110111000001010001000101110110 d-
1*.
1..
12.
15.
b1100 \.
b1011000111011001110111000100111000110 T4
#17
b1100101100010000100110011001011000100011101101001010101110100101000101100011101100111011100010011100111000000000000000000000000000000000000000000000000000000000000000000000000000000000000000000000000000000000000000000000000000000000000000000000000000000000000000001111000011110000111100001111000000000000000000000000000000000000000000000000000000000000000000000000000000000000000000000000000000000000000000000000000000000000000000000000000000000000000000001111111100000000111111110000000000000000000000000000000000000000000000000000000000000000000000000000000000000000000000000000000000001100110011001100111100000000000011111111111111111111000000000000000011000000010110000010110000010110000010111010111011101111111011001101000101110111001011110110110011010001011101110010111101101100110100010111011100101111011011001101000101110111001011110110011001011000100100010000001101101010101101100011111001101110011010101011011000111110011011100110011001011000100100010000001101 "
b10011001011000100100010000001101 @+
b10101010110110001111100110111001 `+
b10101010110110001111100110111001 ",
b10011001011000100100010000001101 B,
b10110011010001011101110010111101 b,
b10110011010001011101110010111101 $-
b10110011010001011101110010111101 D-
b10110011010001011101110010111101 d-
11.
06.
b1011000111011001110111000100111001110 T4
#18
b1100101100010000100110011001011000100011101101001010101110100101000101100011101100111011100010011101010100000000000000000000000000000000000000000000000000000000000000000000000000000000000000000000000000000000000000000000000000000000000000000000000000000000000000001111000011110000111100001111000000000000000000000000000000000000000000000000000000000000000000000000000000000000000000000000000000000000000000000000000000000000000000000000000000000000000000001111111100000000111111110000000000000000000000000000000000000000000000000000000000000000000000000000000000000000000000000000000000001100110011001100111100000000000011111111111111111111000000000000000010000000010110000010110000010110000010111000101011101011111111000110000100100000110000110111110001100001001000001100001101111100011000010010000011000011011111000110000100100000110000110111101100101111100110010000000010011001110110101100101011101111100110011101101011001010111011111011101100101111100110010000000010 "
b11101100101111100110010000000010 @+
b1100111011010110010101110111110 `+
b1100111011010110010101110111110 ",
b11101100101111100110010000000010 B,
b11110001100001001000001100001101 b,
b11110001100001001000001100001101 $-
b11110001100001001000001100001101 D-
b11110001100001001000001100001101 d-
0*.
02.
05.
b1000 \.
b1011000111011001110111000100111010101 T4
#19
b1100101100010000100110011001011000100011101101001010101110100101000101100011101100111011100010011101110100000000000000000000000000000000000000000000000000000000000000000000000000000000000000000000000000000000000000000000000000000000000000000000000000000000000000001111000011110000111100001111000000000000000000000000000000000000000000000000000000000000000000000000000000000000000000000000000000000000000000000000000000000000000000000000000000000000000000001111111100000000111111110000000000000000000000000000000000000000000000000000000000000000000000000000000000000000000000000000000000001100110011001100111100000000000011111111111111111111000000000000000011000000010110000010110000010110000010111100100010101011110010111000101011100011010011010100101110001010111000110100110101001011100010101110001101001101010010111000101011100011010011010100100110011110000110101000100101100111101010010001001100010011111001111010100100010011000100111100100110011110000110101000100101 "
b100110011110000110101000100101 @+
b10011110101001000100110001001111 `+
b10011110101001000100110001001111 ",
b100110011110000110101000100101 B,
b101110001010111000110100110101 b,
b101110001010111000110100110101 $-
b101110001010111000110100110101 D-
b101110001010111000110100110101 d-
0..
01.
16.
b1100 \.
b1011000111011001110111000100111011101 T4
#20
b1100101100010000100110011001011000100011101101001010101110100101000101100011101100111011100010011110010100000000000000000000000000000000000000000000000000000000000000000000000000000000000000000000000000000000000000000000000000000000000000000000000000000000000000001111000011110000111100001111000000000000000000000000000000000000000000000000000000000000000000000000000000000000000000000000000000000000000000000000000000000000000000000000000000000000000000001111111100000000111111110000000000000000000000000000000000000000000000000000000000000000000000000000000000000000000000000000000000001100110011001100111100000000000011111111111111111111000000000000000011000000010110000010110000010110000010111110100010101111111100001111011001010101011100010011000011110110010101010111000100110000111101100101010101110001001100001111011001010101011100010011101110111101111111111110111101101110100110110011000111111011111001101000100110110001101110111100101110011111011100101111011010 "
b101110011111011100101111011010 @+
b10011010001001101100011011101111 `+
b10111010011011001100011111101111 ",
b11101110111101111111111110111101 B,
b11000011110110010101010111000100 b,
b11000011110110010101010111000100 $-
b11000011110110010101010111000100 D-
b11000011110110010101010111000100 d-
1*.
15.
b1011000111011001110111000100111100101 T4
#21
b1100101100010000100110011001011000100011101101001010101110100101000101100011101100111011100010011110110100000000000000000000000000000000000000000000000000000000000000000000000000000000000000000000000000000000000000000000000000000000000000000000000000000000000000001111000011110000111100001111000000000000000000000000000000000000000000000000000000000000000000000000000000000000000000000000000000000000000000000000000000000000000000000000000000000000000000001111111100000000111111110000000000000000000000000000000000000000000000000000000000000000000000000000000000000000000000000000000000001100110011001100111100000000000011111111111111111111000000000000000011000000010110000010110000010110000010111010111011101111111011110000010010111001101110101110111100000100101110011011101011101111000001001011100110111010111011110000010010111001101110101100001011011111101010001010011010110010101111011101000100100110111100101011110111010001001001101100001011011111101010001010011010 "
b1011011111101010001010011010 @+
b11001010111101110100010010011011 `+
b11001010111101110100010010011011 ",
b1011011111101010001010011010 B,
b10111100000100101110011011101011 b,
b10111100000100101110011011101011 $-
b10111100000100101110011011101011 D-
b10111100000100101110011011101011 d-
1..
11.
12.
06.
b1011000111011001110111000100111101101 T4
#22
b1100101100010000100110011001011000100011101101001010101110100101000101100011101100111011100010011111010000000000000000000000000000000000000000000000000000000000000000000000000000000000000000000000000000000000000000000000000000000000000000000000000000000000000000001111000011110000111100001111000000000000000000000000000000000000000000000000000000000000000000000000000000000000000000000000000000000000000000000000000000000000000000000000000000000000000000001111111100000000111111110000000000000000000000000000000000000000000000000000000000000000000000000000000000000000000000000000000000001100110011001100111100000000000011111111111111111111000000000000000010000000010110000010110000010110000010111010111011101111111111000101110100110011111111110111110001011101000100111111111101111100010111010001001111111111011111000101110100010011111111110110101110000000111100010111000110101000100001111000100001010000001010001000011110001000010100000010101110000000111100010111000110 "
b10101110000000111100010111000110 @+
b10100010000111100010000101000000 `+
b10100010000111100010000101000000 ",
b10101110000000111100010111000110 B,
b11110001011101000100111111111101 b,
b11110001011101000100111111111101 $-
b11110001011101000100111111111101 D-
b11110001011101001100111111111101 d-
b1000 \.
b1011000111011001110111000100111110100 T4
#23
b1100101100010000100110011001011000100011101101001010101110100101000101100011101100111011100010011111110000000000000000000000000000000000000000000000000000000000000000000000000000000000000000000000000000000000000000000000000000000000000000000000000000000000000000001111000011110000111100001111000000000000000000000000000000000000000000000000000000000000000000000000000000000000000000000000000000000000000000000000000000000000000000000000000000000000000000001111111100000000111111110000000000000000000000000000000000000000000000000000000000000000000000000000000000000000000000000000000000001100110011001100111100000000000011111111111111111111000000000000000010000000010110000010110000010110000010111000100010101011111111001100100011101001011101100111110011001000111010010111011001111100110010001110100101110110011111001100100011101001011101100100011101010011111101110101111010001000001000110011101100100101010010000010001100111011001001010100011101010011111101110101111010 "
b11101010011111101110101111010 @+
b100000100011001110110010010101 `+
b100000100011001110110010010101 ",
b11101010011111101110101111010 B,
b11110011001000111010010111011001 b,
b11110011001000111010010111011001 $-
b11110011001000111010010111011001 D-
b11110011001000111010010111011001 d-
0*.
0..
01.
02.
05.
b1011000111011001110111000100111111100 T4
